PC_CA-avg_3y,REER-pch_3y,X_GS_share_M-pch_5y,FSL-pch,GD-pc_gdp,HPI-pch,NIIP-pc_gdp,ULC-pch_3y,ACT-pch_3y,LTU-pch_3y,YUR-pch_3y,PSCF-pc_gdp,PSD-pc_gdp,UR-avg_3y,label
-7.82,-3.34,-12.42,-4.43,119.35,102.78,-109.25,-2.43,-0.2,2.91,14.96,-1.99,206.63,11.88,4
5.0,-1.0,21.39,0.4,22.3,109.59,51.8,4.0,-0.6,0.5,-7.2,27.4,322.9,6.2,1
-4.3,3.4,-2.78,0.6,43.5,99.71,-63.9,5.4,-0.1,2.6,14.4,2.9,69.5,13.3,1
-5.33,-4.16,-21.09,-9.14,148.63,101.68,-123.8,-7.74,-0.12,7.27,20.72,-4.18,178.84,17.3,4
-7.25,-0.39,-0.2,1.07,94.31,117.95,-76.59,6.8,1.23,2.62,10.71,-2.58,96.75,9.71,4
-2.4,2.5,3.2,8.9,49.4,117.31,-68.1,11.3,1.5,-3.6,-11.6,2.0,91.0,8.1,1
-0.6,-10.0,-6.24,5.2,42.2,96.29,-36.6,4.0,3.0,0.0,-2.2,1.7,71.5,6.7,1
2.4,4.2,22.94,4.5,74.7,109.84,-57.9,-2.1,-0.6,-6.8,-18.6,2.3,94.0,10.9,3
-5.9,-4.0,-17.3,-3.5,129.0,96.67,-119.3,-6.2,0.0,3.5,17.6,-4.3,210.6,13.2,4
7.9,-2.1,1.07,4.7,35.8,108.5,55.4,1.6,1.3,-0.5,-1.8,1.4,202.7,6.0,1
-1.01,-2.31,-14.77,1.01,96.31,105.89,-16.78,4.63,0.71,0.68,2.31,2.21,135.67,9.62,2
0.5,1.7,8.2,6.2,39.3,113.33,-56.2,15.2,2.4,-1.3,-2.6,2.4,76.9,9.4,1
-0.58,0.08,-20.31,-2.66,132.51,109.48,-23.23,2.89,1.4,2.88,12.01,-2.88,121.14,10.41,3
1.2,1.7,19.36,16.7,40.6,95.53,-46.8,8.7,2.3,-3.2,-13.3,0.2,54.2,12.0,1
0.8,0.1,-5.77,2.0,84.3,100.0,-78.4,-6.1,3.0,0.0,0.2,-1.6,111.9,16.9,3
-3.5,0.5,14.14,0.8,37.6,101.35,-63.2,-4.7,0.0,0.8,1.6,-1.4,66.8,7.0,4
-2.9,-7.6,12.18,8.6,67.8,95.49,19.6,8.7,4.5,0.9,-0.7,0.1,162.3,6.5,2
0.26,-0.36,-15.16,2.41,120.24,103.27,-18.98,3.27,1.54,2.35,9.01,1.01,127.36,11.23,3
-1.2,-1.6,7.31,8.6,52.0,107.04,-66.8,4.1,2.0,-4.2,-11.5,9.2,88.5,11.5,1
0.1,6.9,-1.46,-2.6,99.8,103.87,38.1,3.7,1.0,-1.5,-6.3,3.7,185.1,7.0,1
1.28,-1.45,-11.84,1.07,135.34,101.52,-19.92,2.22,0.98,2.07,8.11,-1.0,116.49,12.15,3
-4.5,-4.4,-26.64,-17.4,177.4,109.02,-130.4,-10.0,-0.3,12.8,25.3,-4.0,132.3,23.3,4
0.4,-3.6,6.93,10.9,9.8,76.91,-50.7,0.1,0.8,1.8,-6.5,7.6,117.2,13.0,1
-2.9,0.4,11.98,11.4,41.6,102.42,-67.1,16.0,1.8,-4.2,-11.4,-4.4,82.2,12.6,1
2.3,-7.2,-9.31,0.4,76.2,100.0,-67.9,1.0,4.9,-1.9,-10.9,-2.5,84.2,8.2,1
-2.8,-7.38,11.4,8.41,69.01,95.6,20.37,8.56,4.39,0.9,-0.54,0.04,162.3,6.55,2
1.1,0.9,1.08,1.4,101.7,102.86,56.8,0.9,0.3,-0.8,-3.9,0.4,185.4,7.8,1
-7.64,-3.4,-12.88,-4.34,120.26,102.2,-110.2,-2.79,-0.18,2.96,15.21,-2.2,207.01,12.0,4
8.3,-1.7,-2.87,5.2,37.2,105.09,52.6,1.3,0.9,-0.6,-2.6,3.1,209.0,6.4,1
1.39,-0.49,-13.16,-7.62,71.97,104.55,-45.34,-0.94,-0.47,0.83,2.23,-3.06,106.65,10.27,3
2.6,-2.6,9.87,3.2,98.6,109.18,-85.5,-0.5,-0.3,-5.2,-14.6,0.6,139.6,19.6,2
-2.4,0.5,-4.48,5.2,44.5,95.34,-45.9,3.8,1.5,1.0,2.9,2.9,70.7,7.0,1
5.0,-2.0,17.79,5.3,74.1,110.33,-24.2,3.7,3.3,-2.2,-9.0,0.9,76.3,7.9,1
1.1,0.1,-1.42,2.28,83.33,100.75,-76.48,-5.77,2.6,-0.82,-2.54,-1.14,109.8,16.39,3
0.39,-1.29,-13.74,1.08,106.59,99.41,44.05,4.41,0.81,0.63,3.27,1.11,167.57,8.11,2
-6.59,-2.42,2.99,0.74,69.43,104.96,-82.89,3.74,0.86,1.55,6.74,-0.16,127.62,8.76,4
-7.44,-3.47,-13.37,-4.25,121.23,101.59,-111.21,-3.17,-0.16,3.02,15.47,-2.44,207.41,12.14,4
6.1,-2.4,-5.55,15.1,22.0,88.54,58.4,5.9,0.7,0.4,1.6,25.9,303.7,4.8,1
0.7,-3.1,0.87,-1.4,131.2,100.0,-118.9,0.2,0.0,-0.5,-5.9,-1.4,179.3,14.4,3
-0.72,-2.41,-9.87,1.57,94.68,103.41,-16.6,3.81,0.8,0.36,0.63,3.33,139.47,9.83,2
-0.6,0.1,-20.41,-2.7,132.5,109.54,-23.3,2.9,1.4,2.9,12.1,-2.9,121.2,10.4,3
-1.28,0.37,4.94,2.55,16.24,99.64,-77.7,16.47,0.07,3.02,9.12,3.01,129.92,10.98,2
1.17,1.05,0.92,2.58,82.06,102.29,-73.63,-5.17,2.16,-1.58,-4.18,-0.69,107.73,15.5,3
8.3,-2.0,5.78,4.0,65.3,111.65,56.3,4.9,0.5,-0.6,-0.9,4.5,100.0,4.2,2
-0.2,-0.3,-10.28,-10.3,95.8,96.28,-92.8,-5.1,0.8,5.7,14.0,-10.0,178.2,24.1,2
-0.6,-4.35,-15.36,6.87,87.64,108.22,-8.06,5.43,0.4,0.98,3.64,6.31,134.83,9.15,2
6.6,0.1,-3.82,10.9,19.0,86.69,28.9,8.8,1.1,-0.2,-1.1,21.4,284.3,4.8,1
-4.14,-2.55,-19.06,6.0,116.54,98.42,-147.3,-6.39,0.5,5.14,15.08,-2.03,300.07,14.08,4
-2.1,-6.2,-25.74,7.2,126.5,118.47,-23.0,2.0,1.2,2.2,10.0,-0.9,124.2,9.2,2
3.2,1.2,-12.73,-0.1,80.3,98.6,-38.4,0.1,0.6,1.7,4.5,-4.7,97.9,9.6,2
-2.8,-7.8,-25.92,10.4,80.1,89.47,-11.6,5.8,-0.3,1.3,6.3,1.6,176.6,7.8,2
0.5,-0.6,-13.33,2.5,107.0,99.19,44.8,4.3,1.0,0.8,4.5,-2.0,162.2,8.2,2
-8.37,-2.9,-10.69,-3.65,114.01,105.42,-108.61,-0.95,-0.22,2.86,13.6,-0.79,215.8,11.46,4
-4.03,-2.46,-19.17,6.58,115.78,98.53,-149.01,-6.4,0.53,5.24,14.93,-1.9,305.53,14.13,4
-0.3,-3.6,-14.64,19.5,104.4,90.24,-164.7,-3.7,0.6,-2.2,-6.2,2.6,278.4,13.7,2
-2.0,-6.2,-4.75,9.8,107.5,100.0,-154.5,-10.8,0.4,3.2,5.1,4.4,347.8,15.7,3
4.9,3.3,8.69,-2.0,21.0,114.88,53.8,7.9,0.2,-0.5,-3.1,-0.5,306.5,5.8,1
0.9,-4.3,13.16,9.5,26.0,100.0,-61.8,14.5,2.2,-1.2,-6.5,-3.5,109.3,11.2,3
-6.31,-1.35,1.39,-2.22,78.3,103.77,-84.87,-2.47,-0.16,1.75,7.96,-1.08,139.83,9.23,4
-3.57,-1.81,-19.26,10.24,109.63,99.98,-158.89,-6.01,0.71,5.81,13.6,-0.71,340.61,14.32,4
2.21,0.1,14.71,3.34,79.71,103.53,-69.36,-4.55,1.09,-3.88,-12.72,0.59,102.02,14.5,3
0.61,-2.5,2.88,-0.94,131.34,102.81,-115.01,-0.12,0.32,-1.7,-7.85,-1.59,174.67,13.57,3
-4.3,10.1,-9.19,4.8,86.2,94.4,-22.8,4.0,1.2,-0.5,-4.3,6.0,163.6,7.2,2
-2.2,-3.54,-24.69,6.53,73.0,94.0,-4.54,4.72,0.09,1.04,5.05,3.88,166.05,8.23,2
-0.8,-2.2,-14.22,0.5,93.4,103.54,-16.6,4.6,0.9,0.6,1.6,2.1,137.4,9.8,2
-2.9,-3.2,-10.3,1.1,51.8,93.79,-60.6,-0.3,1.0,2.9,6.7,1.9,71.1,14.0,1
-2.05,-5.77,-10.88,5.43,97.32,103.34,-122.99,-8.01,0.78,4.88,9.95,-3.09,271.28,18.73,3
-1.9,-5.6,-19.39,-8.5,178.9,103.46,-131.9,-10.4,0.1,10.7,7.7,-3.0,130.8,26.2,4
5.7,-2.5,23.98,6.5,50.3,109.26,64.0,1.5,4.4,-0.9,-1.1,5.5,132.1,4.7,1
-1.02,-3.84,-8.04,0.24,105.14,106.59,-97.9,-3.12,0.99,2.62,4.66,-7.28,180.5,18.08,3
1.43,-2.42,-9.49,1.43,133.94,100.0,-19.08,2.01,0.51,1.27,4.84,-1.2,116.05,12.23,3
-6.38,-2.36,4.24,1.28,65.08,104.86,-80.84,4.15,0.97,1.45,6.08,-0.1,120.17,8.52,4
0.68,-3.06,0.63,-1.57,131.25,99.94,-119.05,0.11,-0.01,-0.42,-5.59,-1.56,179.62,14.43,3
-4.8,-11.4,15.13,4.8,54.5,108.27,-62.4,4.2,1.9,1.2,8.5,6.6,73.9,9.2,1
0.17,-2.8,-11.35,0.54,104.1,100.27,46.5,5.01,-0.21,0.06,-0.6,18.73,185.36,7.75,2
-0.06,-0.64,-14.97,3.37,112.59,102.82,-17.96,3.61,1.41,1.82,6.74,1.67,131.63,10.89,3
0.12,-1.8,-6.6,-6.91,132.82,98.36,-123.04,-2.76,-0.34,1.9,3.67,-6.51,188.91,15.24,3
1.8,0.0,9.47,3.5,80.8,102.02,-72.4,-5.6,1.9,-4.4,-18.7,-0.2,104.2,15.5,3
-4.08,-3.6,-24.7,-8.79,157.16,106.18,-140.31,-8.96,0.03,10.81,21.83,-3.02,197.74,20.72,4
-3.5,-2.5,-8.31,3.4,69.9,128.08,-93.8,-1.4,1.2,6.9,21.7,-4.2,198.2,19.7,2
0.6,4.9,8.63,-3.0,37.2,120.83,-49.1,15.1,2.0,-1.4,-4.1,-0.2,70.5,8.6,1
-1.1,-4.0,-9.78,-10.2,178.5,98.32,-137.6,-3.3,0.7,-1.5,-11.0,-2.1,125.1,25.0,4
-1.0,-5.1,17.73,9.1,54.3,102.29,-61.6,2.5,1.8,-2.2,-9.6,5.1,81.6,7.6,1
-8.8,1.51,-10.27,-2.94,142.47,128.76,-83.16,4.27,0.47,4.15,18.13,-5.38,116.23,11.99,4
-0.75,-3.22,-14.79,3.48,90.79,105.79,-12.92,4.97,0.67,0.79,2.58,4.1,136.42,9.52,2
0.3,-1.2,4.06,10.4,51.9,100.0,-63.9,2.7,1.5,-1.8,-7.5,5.1,80.6,13.0,1
-7.05,1.18,-2.2,-1.7,107.77,119.69,-76.56,1.3,0.31,3.04,12.66,-4.06,99.88,10.34,4
-8.8,-3.0,-9.92,-4.9,114.4,105.91,-104.1,-0.5,-0.3,2.6,13.6,-0.8,204.6,11.2,4
1.43,-2.26,11.46,4.49,21.73,105.77,-56.45,14.28,2.04,-0.8,-3.33,3.45,112.76,9.66,2
0.76,0.08,-15.45,0.92,132.09,103.97,-20.56,2.75,1.74,3.17,12.52,-0.01,120.75,11.75,3
0.03,-0.65,-17.19,-1.47,133.34,106.67,-22.1,2.63,1.13,2.42,9.97,-2.45,119.37,10.97,3
2.68,3.61,13.85,6.81,22.42,117.08,-37.06,18.11,2.2,-2.64,-8.98,3.91,95.16,6.36,2
-3.4,-2.28,-21.5,5.38,123.82,101.5,-156.64,-7.25,0.56,7.54,16.11,-1.41,305.52,16.47,4
-5.91,-4.0,-17.28,-3.5,128.96,96.7,-119.26,-6.18,-0.0,3.5,17.59,-4.29,210.58,13.19,4
-4.16,-3.75,-25.05,-10.37,160.86,106.7,-138.5,-9.15,-0.03,11.18,22.46,-3.2,185.76,21.19,4
-5.0,-2.0,12.3,4.8,37.0,104.27,-67.6,6.8,1.7,0.8,1.8,0.3,72.1,7.0,4
-1.9,-1.0,21.09,1.2,39.2,98.15,-57.1,6.7,1.6,-0.1,0.1,-2.3,62.1,6.9,2
7.6,-2.3,-2.96,6.7,61.9,104.44,61.4,-0.3,0.3,0.0,-2.4,3.9,259.3,6.8,2
1.76,-0.21,9.65,3.8,78.1,101.92,-71.88,-4.61,1.91,-4.24,-18.1,-0.36,104.45,15.29,3
-1.6,-5.6,38.33,8.2,35.1,108.6,-47.4,15.4,1.6,-0.8,-5.7,1.7,50.9,5.9,1
5.4,5.1,-17.19,9.7,40.4,82.36,-15.9,8.7,2.0,-0.2,-1.3,4.6,193.6,8.0,2
-3.2,1.9,11.12,4.3,15.2,102.38,-82.8,17.9,-1.9,3.4,12.3,3.5,129.1,9.5,2
2.34,0.05,16.94,3.72,79.17,103.64,-68.71,-4.68,1.03,-5.0,-18.37,0.72,100.78,14.42,3
2.3,-3.3,20.41,7.1,25.3,112.23,-43.3,13.5,2.3,-3.5,-10.9,4.1,99.0,7.7,2
-2.1,-5.34,-16.89,1.14,87.33,106.62,-92.09,-5.28,1.16,6.53,14.71,-10.44,196.24,21.69,3
0.67,-2.91,1.51,-1.25,131.24,100.89,-117.66,0.1,0.1,-0.88,-6.52,-1.46,177.83,14.14,3
2.0,-3.4,-4.02,3.3,134.8,100.19,-11.9,1.5,1.5,-0.2,-2.2,0.1,111.7,12.1,3
1.54,-5.59,22.58,12.48,84.75,97.16,-188.6,-14.27,0.88,-3.41,-9.32,-0.88,297.34,12.42,2
-4.99,-1.98,12.31,4.77,37.0,104.25,-67.57,6.73,1.69,0.8,1.8,0.29,72.07,7.0,4
8.4,-1.8,1.52,-0.1,56.9,110.77,59.4,-0.1,0.7,-1.0,-3.8,3.7,249.1,5.9,2
-7.21,-0.41,-0.01,1.12,93.46,117.74,-76.46,6.8,1.24,2.6,10.58,-2.54,96.38,9.67,4
-4.26,-0.76,13.21,2.82,37.3,102.83,-65.42,1.11,0.86,0.8,1.7,-0.54,69.48,7.0,4
-4.11,-0.52,13.39,2.43,37.36,102.54,-65.0,-0.01,0.69,0.8,1.68,-0.71,68.96,7.0,4
-3.83,-0.05,13.74,1.68,37.47,101.99,-64.17,-2.17,0.37,0.8,1.64,-1.03,67.97,7.0,4
0.6,-2.45,3.03,-0.9,131.35,103.02,-114.72,-0.15,0.35,-1.79,-7.99,-1.6,174.33,13.5,3
-1.4,-3.1,-9.77,11.4,44.9,94.54,-41.4,4.2,2.7,0.0,0.7,4.4,73.7,6.9,1
-4.58,-2.92,-18.62,3.62,119.67,97.98,-140.28,-6.34,0.38,4.73,15.71,-2.6,277.63,13.86,4
-0.75,-2.22,-10.44,-3.62,108.99,86.38,-115.02,-2.69,0.47,3.18,5.57,-5.29,227.07,19.07,2
1.17,-0.42,-15.07,-7.04,73.61,103.83,-49.18,-1.47,0.01,1.49,5.21,-3.17,108.39,11.07,3
-7.38,-2.63,-1.63,-1.28,85.54,105.3,-90.49,2.22,0.45,1.93,9.2,-0.39,155.19,9.63,4
-1.2,-3.8,-10.57,1.9,119.9,78.19,-133.4,-0.7,0.2,1.1,-1.4,-1.4,267.5,14.9,2
-0.12,-2.15,-8.34,-6.5,128.24,98.8,-120.31,-3.11,-0.24,2.65,5.57,-7.24,189.94,16.06,3
2.1,-6.8,-16.82,8.7,76.8,88.33,-80.4,6.2,4.6,-1.5,-5.6,-0.2,91.7,9.6,2
-1.5,-3.0,-0.36,-13.0,176.2,96.81,-140.7,-1.0,0.9,-3.9,-8.8,-1.0,118.0,23.3,4
9.5,0.7,-11.35,8.0,67.8,96.7,48.0,3.7,0.9,1.3,2.7,4.3,267.2,6.8,2
-0.92,-3.42,-12.05,-3.59,111.27,102.1,-107.6,-3.87,0.34,4.29,9.47,-8.84,189.36,18.46,3
-0.8,-1.2,-0.62,0.0,68.4,94.11,27.0,9.5,5.9,-0.6,-0.5,2.3,152.9,6.2,1
-6.49,-2.47,-14.05,1.79,112.29,103.29,-128.31,-2.93,0.15,4.02,13.6,-0.76,264.69,12.58,4
1.2,5.3,8.56,23.0,34.7,116.3,-25.0,5.9,2.4,-1.7,-8.0,4.2,67.3,4.0,1
2.7,3.9,13.57,6.8,22.3,117.28,-36.8,18.3,2.2,-2.6,-8.9,3.9,95.0,6.3,2
-1.84,-5.56,7.85,6.83,81.3,98.83,3.58,5.56,2.73,0.37,-1.32,3.07,154.77,8.01,2
-2.12,-5.51,-19.27,-8.22,176.1,103.08,-131.19,-10.16,0.09,10.3,8.25,-3.07,135.27,25.47,4
0.1,-4.2,-4.32,6.2,80.8,99.03,-104.2,3.8,1.2,1.6,6.5,-4.3,114.8,10.7,2
-0.71,-2.01,-9.73,4.1,95.21,100.99,-14.41,3.47,1.01,0.51,0.97,3.82,142.07,10.19,3
-0.3,4.8,20.52,13.0,10.6,93.21,-46.7,14.7,0.5,-3.8,-7.4,5.6,115.4,8.7,1
-1.4,2.1,-23.06,1.4,63.6,100.0,4.8,3.3,0.6,0.7,3.4,6.9,152.1,8.8,2
-0.6,4.8,10.22,4.7,40.9,107.36,-59.0,16.7,2.3,-1.7,-5.9,2.3,80.5,10.1,1
-1.0,-5.6,-13.98,6.3,175.9,100.0,-135.4,-9.7,0.3,3.7,-5.5,-3.0,128.0,26.3,4
-5.63,-3.78,-17.57,-2.06,127.12,96.93,-123.54,-6.23,0.08,3.75,17.22,-3.96,224.13,13.33,4
-5.24,-1.83,10.97,4.4,43.11,105.73,-68.56,6.8,1.65,0.99,2.75,-0.01,74.73,7.29,4
-0.81,-3.7,-6.21,0.08,121.94,98.8,-137.05,-6.31,-0.05,2.63,4.76,-1.97,258.16,15.53,3
1.07,-3.47,12.45,8.34,36.61,100.39,-63.85,10.61,2.14,-1.82,-8.86,-2.86,108.31,12.03,3
-6.08,-2.38,-14.78,2.98,111.92,102.82,-132.62,-3.37,0.23,4.27,13.6,-0.75,275.39,12.82,4
-5.04,-1.97,12.06,4.73,38.09,104.53,-67.77,6.8,1.69,0.83,1.97,0.25,72.57,7.05,4
1.05,-0.63,-13.53,0.22,87.35,101.26,-26.67,2.52,0.76,1.11,2.94,-1.04,119.16,9.71,2
1.7,0.7,-18.42,-3.2,81.3,95.34,1.3,6.4,1.1,0.1,0.2,1.0,127.1,5.0,1
-5.88,-4.01,-17.47,-3.75,129.86,96.89,-119.5,-6.27,-0.01,3.67,17.74,-4.29,209.21,13.38,4
-2.11,1.03,7.62,3.31,15.79,100.83,-79.91,17.09,-0.78,3.18,10.5,3.22,129.57,10.34,2
1.88,0.01,10.57,3.53,80.56,102.26,-71.86,-5.46,1.77,-4.49,-18.65,-0.06,103.7,15.34,3
-3.1,-1.7,-20.1,11.6,109.2,99.45,-163.8,-6.5,0.8,6.1,13.6,-0.7,352.8,14.6,4
9.9,3.2,1.68,-3.3,52.4,118.9,70.7,3.0,0.7,-1.6,-4.1,4.5,241.6,4.9,2
-4.13,9.52,-9.43,4.6,86.54,94.83,-22.51,4.03,1.19,-0.45,-4.02,5.82,162.36,7.32,2
0.9,4.2,6.46,7.3,42.6,100.0,-43.6,11.8,2.3,-2.7,-10.4,2.6,55.3,10.5,1
1.9,-0.8,24.41,-0.2,6.1,74.59,-54.0,-2.2,0.5,5.4,10.4,-0.8,118.9,14.2,1
0.8,-0.8,-23.17,-5.8,78.6,89.71,-92.2,7.7,2.5,0.8,1.8,-6.0,102.2,11.1,2
-5.6,-5.0,17.63,10.4,70.2,95.07,6.3,11.1,2.7,1.3,1.6,6.8,168.3,6.7,1
2.3,0.9,-2.83,-2.8,82.9,107.03,4.1,5.4,0.7,0.6,1.5,3.4,123.5,5.8,1
1.3,-1.0,-11.49,0.0,100.7,96.46,-95.9,-3.6,0.3,4.0,7.0,-6.6,168.1,25.1,2
1.43,-1.75,10.97,5.94,58.55,101.2,-68.1,2.56,2.02,-3.1,-13.75,-1.54,106.27,13.75,3
-0.7,2.1,-4.08,1.4,54.7,93.4,-62.2,2.6,1.2,0.8,0.1,5.0,75.2,13.9,1
3.35,-2.37,-9.21,0.91,80.42,95.61,-49.72,2.27,2.6,-0.32,-4.79,-3.19,89.02,9.6,2
5.6,10.3,-19.51,5.6,37.6,78.78,-15.5,4.1,1.4,0.4,-1.4,2.4,190.5,8.1,2
-1.4,0.4,-15.78,3.9,63.2,100.19,5.2,0.4,0.7,0.6,0.2,1.3,148.0,9.0,1
-4.8,-4.31,-24.61,-14.38,166.88,106.34,-127.99,-9.17,-0.23,10.78,23.63,-4.07,149.32,21.1,4
2.8,0.1,23.24,3.9,77.8,105.0,-65.6,-3.9,0.3,-5.5,-18.1,1.5,97.9,13.5,3
-0.6,-2.9,-3.68,2.2,95.6,100.0,-12.9,2.3,0.9,0.4,0.3,4.6,142.8,10.3,3
2.2,4.8,3.92,1.7,74.0,113.27,3.7,4.7,1.3,-0.3,-1.2,3.9,121.0,5.5,1
-4.9,0.2,1.09,11.7,86.8,105.5,0.3,3.7,0.9,-1.4,-7.7,8.8,166.4,5.4,1
0.9,5.8,7.29,8.6,10.0,100.0,-39.9,15.3,1.9,-3.1,-7.8,2.7,112.8,7.4,1
-3.57,0.45,13.81,0.72,38.65,101.41,-63.76,-4.64,-0.0,0.82,1.76,-1.39,68.69,7.06,4
-8.1,-3.24,-11.7,-4.56,117.92,103.68,-107.76,-1.87,-0.23,2.82,14.56,-1.64,206.05,11.68,4
-6.77,-2.54,-13.55,0.99,112.54,103.6,-125.4,-2.64,0.09,3.85,13.6,-0.76,257.48,12.41,4
-1.7,-4.67,-15.67,-0.75,94.73,105.32,-95.21,-4.62,0.91,5.89,13.27,-10.4,188.79,20.81,3
-3.39,-2.47,-8.38,3.32,70.58,127.38,-93.85,-1.45,1.18,6.84,21.37,-4.25,197.53,19.82,2
-0.87,-5.74,-30.07,-0.63,56.06,102.56,9.17,5.18,0.3,0.32,-1.05,7.05,148.78,8.2,2
-7.2,-3.55,-13.99,-4.13,122.46,100.81,-112.49,-3.65,-0.13,3.1,15.81,-2.73,207.91,12.3,4
1.0,-1.7,-13.57,2.7,105.2,100.0,45.2,0.5,0.7,1.0,2.3,12.1,176.1,8.5,1
-5.69,-0.95,4.19,-1.56,69.35,103.23,-80.11,-2.96,-0.12,1.54,6.56,-1.15,123.76,8.74,4
-7.3,-3.52,-13.74,-4.18,121.95,101.13,-111.97,-3.45,-0.14,3.07,15.67,-2.61,207.7,12.23,4
2.7,-5.2,-2.11,19.5,75.5,113.12,-59.6,5.4,5.4,-2.5,-13.7,-3.1,77.5,6.5,1
-0.5,-3.0,2.4,4.6,98.3,103.04,-16.6,1.6,0.5,-0.3,-2.1,6.8,145.3,9.9,2
-7.44,-3.47,-13.39,-4.24,121.26,101.57,-111.25,-3.18,-0.16,3.02,15.48,-2.45,207.42,12.14,4
-7.57,-3.43,-13.06,-4.3,120.62,101.98,-110.57,-2.93,-0.17,2.98,15.3,-2.29,207.15,12.05,4
1.63,0.02,6.89,3.25,81.39,101.68,-73.41,-5.68,2.09,-3.66,-15.51,-0.44,105.5,15.74,3
2.1,7.7,0.75,6.9,8.4,108.14,-27.7,14.3,2.4,-1.1,-1.3,3.7,101.5,6.0,1
-0.6,-0.51,-17.01,-1.7,125.0,107.6,-21.19,2.78,1.3,2.39,9.7,-1.38,125.59,10.38,3
7.7,-1.2,-15.87,7.3,44.3,93.85,43.3,2.3,-1.2,-0.1,-2.2,-0.3,214.0,7.4,1
1.33,1.46,3.72,2.83,81.13,103.25,-71.62,-4.78,1.81,-2.25,-6.01,-0.31,105.98,14.92,3
0.1,-1.8,-7.32,-7.3,132.9,97.89,-123.8,-2.9,-0.4,2.2,4.5,-6.8,190.1,15.4,3
2.0,-4.7,-21.72,0.4,81.9,92.57,-3.2,3.8,0.8,0.0,-1.3,1.2,128.2,4.8,1
-0.7,-8.3,-32.36,-1.3,53.6,103.4,10.6,5.8,0.2,0.2,-2.5,7.1,147.7,8.0,2
-1.7,-8.6,7.91,5.6,42.4,92.02,-67.5,-6.5,0.9,3.3,-4.8,-5.4,96.8,16.9,1
0.4,-1.5,-7.75,5.4,103.5,100.17,51.4,5.1,-0.4,0.2,0.7,22.2,180.5,7.8,2
8.2,-0.9,-6.74,4.0,64.6,100.0,48.9,-0.4,0.6,1.1,-0.4,0.0,262.8,7.2,2
-1.5,-4.5,-12.3,0.45,96.66,106.76,-93.85,-3.97,1.09,4.45,9.4,-9.05,184.1,19.85,3
1.3,-0.6,-18.21,-10.1,70.0,105.12,-39.3,0.1,-1.0,2.0,6.9,-3.7,107.2,9.1,3
-8.89,-2.72,-10.34,-4.85,117.77,107.7,-103.21,-0.07,-0.25,2.75,14.14,-1.13,200.25,11.33,4
-0.1,-4.3,-15.53,-5.1,104.8,100.38,40.8,4.9,0.0,-0.1,-2.1,14.7,191.0,7.7,2
-5.76,-4.06,-17.37,-3.68,130.76,96.91,-119.75,-6.35,0.0,3.75,17.25,-4.25,207.78,13.66,4
2.3,-6.4,37.84,9.6,76.7,100.0,-198.4,-18.6,1.0,-3.9,-10.6,-2.3,305.1,11.9,2
4.1,0.3,-4.61,-3.8,82.6,100.0,-31.2,-0.1,1.4,0.4,-4.3,-5.0,87.4,9.6,2
1.9,-3.2,-3.29,-2.0,99.3,100.0,-88.9,-1.1,0.0,0.4,-4.6,-2.5,155.8,24.2,2
1.9,-3.17,-3.23,-1.99,99.41,100.12,-88.99,-1.07,0.01,0.38,-4.64,-2.48,155.8,24.12,2
1.38,-1.38,-10.49,1.73,135.14,102.42,-17.01,2.12,1.67,1.82,6.62,-0.12,115.74,11.99,3
-6.91,-3.65,-14.73,-3.99,123.92,99.88,-114.01,-4.22,-0.1,3.19,16.21,-3.08,208.51,12.5,4
2.1,-2.4,26.53,-6.2,43.9,92.26,-74.7,-20.6,-1.4,6.9,17.4,-2.4,115.2,17.7,1
-0.55,-1.22,-14.98,3.7,91.89,102.18,-18.47,3.88,0.85,0.77,2.15,2.37,137.35,9.98,3
-10.3,1.8,-17.17,-4.0,172.1,136.51,-88.8,6.8,0.6,5.1,22.8,-6.5,130.2,13.4,4
1.5,-2.4,-9.7,1.4,135.3,100.0,-19.3,2.0,0.5,1.3,5.0,-1.4,115.1,12.3,3
0.7,-3.7,2.44,16.3,36.8,106.62,-26.9,2.7,2.1,-1.3,-8.5,4.3,68.7,5.1,1
0.85,0.03,-6.99,0.81,82.9,100.5,-74.56,-5.49,2.61,0.2,0.86,-1.81,111.44,16.13,3
1.12,-3.8,14.31,8.86,31.91,100.57,-62.23,12.4,1.98,-1.69,-7.82,-2.93,108.0,11.46,3
2.53,-3.65,-15.21,5.23,78.18,92.37,-63.86,3.8,3.02,-0.24,-1.62,-1.97,94.14,9.6,2
0.0,-8.2,-2.16,8.1,40.0,100.0,-32.9,0.1,2.4,-0.6,-6.9,0.3,68.1,6.1,1
5.7,2.0,19.55,4.1,70.4,118.37,-18.9,6.1,3.2,-2.5,-7.5,1.3,72.8,6.6,1
4.1,-2.9,22.52,3.9,55.5,104.82,35.4,-1.5,4.3,-1.1,-2.0,15.2,136.1,5.3,1
-3.85,0.27,12.57,0.43,42.61,101.65,-65.87,-4.43,-0.02,0.92,2.38,-1.36,75.79,7.27,4
2.4,-1.8,-12.5,1.5,82.4,88.31,-1.9,5.8,0.7,0.2,0.4,3.0,129.4,4.9,1
0.3,-0.9,-0.15,1.1,17.1,97.38,-73.5,15.3,1.7,2.7,6.5,2.6,130.6,12.2,2
-0.68,-4.24,-13.34,6.63,89.03,107.75,-9.63,4.95,0.41,0.85,3.02,6.45,136.47,9.28,2
1.52,-2.87,16.44,7.68,42.87,101.63,-63.04,8.51,1.58,-2.6,-10.28,-1.87,105.59,11.95,3
-0.68,-0.44,-18.13,0.52,117.92,106.53,-20.31,3.48,1.28,2.01,7.99,-0.53,129.07,10.28,3
-2.1,-5.3,-17.51,0.7,86.3,106.96,-88.9,-5.0,1.2,6.7,15.2,-11.2,188.5,22.0,3
3.1,0.0,10.82,-7.6,72.9,123.6,-55.1,9.1,4.2,-2.0,-9.7,0.7,70.8,5.4,1
2.0,1.3,-9.15,-0.1,84.9,100.0,2.2,6.4,0.4,0.5,1.2,2.1,124.0,5.6,1
-3.4,-4.3,-0.26,7.4,56.0,96.32,-68.9,3.1,1.7,1.4,3.6,3.3,75.4,10.0,1
-2.02,-6.06,-6.7,8.41,104.27,101.06,-144.49,-9.92,0.52,3.73,6.64,2.02,323.5,16.66,3
1.0,3.1,8.95,0.5,122.0,124.17,-106.1,5.1,1.7,-4.1,-11.7,1.0,155.4,9.1,2
0.57,-0.84,-16.93,-4.64,78.67,103.96,-31.05,1.6,-0.27,1.51,5.02,-1.3,119.14,9.45,3
6.9,-2.5,-17.81,1.8,44.0,90.99,37.2,1.5,-1.4,0.4,-0.8,-3.0,216.1,7.7,1
0.5,-1.8,5.22,-0.4,131.5,106.07,-110.5,-0.5,0.7,-3.1,-10.1,-1.8,169.3,12.6,3
-8.28,0.35,-5.94,-0.65,120.6,124.22,-80.72,6.8,1.02,3.46,14.79,-3.91,108.05,10.96,4
8.5,4.9,24.47,2.3,45.6,114.74,63.2,4.1,5.9,-0.9,-2.5,7.5,129.0,4.1,1
0.0,5.3,-1.35,15.8,39.7,104.41,-42.9,15.0,3.1,-2.1,-7.4,4.3,56.5,9.2,1
0.89,-2.55,-7.94,1.63,123.71,100.0,-17.43,2.09,0.62,1.04,3.63,0.35,123.19,11.72,3
-4.8,1.4,1.39,10.7,54.1,101.13,-65.3,5.3,1.8,1.6,5.9,4.8,73.4,9.8,1
7.0,-0.4,-9.51,4.6,75.7,96.0,40.8,7.4,0.4,-0.6,-0.8,-0.3,98.4,5.2,2
-0.1,6.4,3.49,8.2,33.8,114.86,-31.0,16.5,3.2,-1.9,-5.2,4.3,56.4,7.1,1
-8.53,-2.94,-10.41,-4.11,114.15,105.6,-106.96,-0.79,-0.25,2.77,13.6,-0.8,211.71,11.36,4
-1.86,-4.93,-16.42,-0.16,91.29,105.99,-92.64,-4.78,1.03,6.22,14.05,-10.73,188.67,21.29,3
1.17,-0.42,-15.05,-7.03,73.63,103.82,-49.23,-1.47,0.02,1.49,5.2,-3.17,108.39,11.08,3
-0.7,-4.4,-15.44,6.9,87.8,108.38,-8.7,5.4,0.4,1.0,3.7,6.4,135.3,9.2,2
1.98,-0.16,4.47,-2.03,67.26,99.35,-40.35,2.3,1.47,0.22,-2.74,-4.05,78.46,8.65,2
-3.87,-3.19,-23.7,-4.35,146.72,104.71,-145.43,-8.43,0.19,9.79,20.04,-2.52,231.5,19.39,4
-2.7,-3.2,-19.21,5.1,119.7,124.71,-18.2,4.9,-0.8,1.3,8.0,3.1,121.8,8.2,2
-2.05,-5.72,-11.49,4.99,96.3,103.68,-119.85,-7.74,0.82,5.05,10.44,-3.84,263.65,19.03,3
7.27,-0.74,-6.31,4.47,73.52,99.28,44.05,6.88,0.42,-0.6,-0.82,0.71,98.74,4.99,2
-2.3,-5.22,-23.6,6.51,124.27,120.52,-21.43,2.95,0.54,1.9,9.34,0.41,123.41,8.87,2
-2.8,6.0,-21.25,-3.6,83.2,88.06,-28.1,3.0,0.4,0.8,2.1,1.5,176.1,7.9,2
-8.82,-2.93,-10.02,-4.89,115.22,106.35,-103.88,-0.4,-0.29,2.64,13.73,-0.88,203.54,11.23,4
0.9,0.2,-15.53,0.5,135.4,104.16,-21.0,2.6,1.8,3.4,13.5,-0.3,118.9,11.9,3
2.3,-4.3,2.9,2.4,99.2,104.45,-85.5,-1.2,-0.1,-3.5,-11.1,-0.4,147.4,22.1,2
-9.41,-1.06,-12.85,-4.54,137.69,118.26,-97.92,2.45,0.06,3.61,17.31,-3.1,174.57,12.09,4
-0.8,-1.3,-14.53,5.6,94.9,101.78,-15.6,4.4,1.1,0.6,1.5,3.2,141.5,10.1,3
