PC_CA-avg_3y,REER-pch_3y,X_GS_share_M-pch_5y,FSL-pch,GD-pc_gdp,HPI-pch,NIIP-pc_gdp,ULC-pch_3y,ACT-pch_3y,LTU-pch_3y,YUR-pch_3y,PSCF-pc_gdp,PSD-pc_gdp,UR-avg_3y,label
0.37,-1.97,4.12,-0.35,129.3,106.11,-109.45,-0.72,0.72,-2.62,-8.87,-2.26,170.23,13.06,3
-3.9,1.26,12.99,-0.84,105.44,102.51,-121.67,-0.77,0.88,-3.16,-10.04,6.12,268.74,11.49,3
2.7,-5.2,-2.11,19.5,75.5,113.12,-59.6,5.4,5.4,-2.5,-13.7,-3.1,77.5,6.5,1
-4.8,-11.4,15.13,4.8,54.5,108.27,-62.4,4.2,1.9,1.2,8.5,6.6,73.9,9.2,1
1.8,0.0,9.47,3.5,80.8,102.02,-72.4,-5.6,1.9,-4.4,-18.7,-0.2,104.2,15.5,3
-2.2,3.6,6.85,-4.9,181.2,98.21,-143.6,1.4,0.4,-4.6,-9.9,-0.8,115.5,21.5,4
4.0,-9.2,-7.55,9.1,42.2,107.3,-1.9,3.1,1.0,-0.1,-4.6,8.4,192.5,7.5,2
2.2,4.8,3.92,1.7,74.0,113.27,3.7,4.7,1.3,-0.3,-1.2,3.9,121.0,5.5,1
0.54,-2.05,4.37,-0.6,131.44,104.88,-112.14,-0.36,0.56,-2.59,-9.28,-1.72,171.26,12.95,3
-1.7,-8.6,7.91,5.6,42.4,92.02,-67.5,-6.5,0.9,3.3,-4.8,-5.4,96.8,16.9,1
-2.25,-8.76,-16.44,-2.28,115.1,84.96,-145.25,-7.12,-1.33,5.43,11.13,-3.97,297.84,14.2,4
-0.87,-3.73,-12.08,8.42,114.16,82.65,-144.99,-1.81,0.35,-0.12,-3.18,0.08,271.54,14.46,2
7.84,-2.36,-9.06,3.68,60.44,97.52,46.2,-0.36,0.16,1.18,0.17,1.67,254.6,7.33,2
2.3,-4.3,2.9,2.4,99.2,104.45,-85.5,-1.2,-0.1,-3.5,-11.1,-0.4,147.4,22.1,2
0.5,1.7,8.2,6.2,39.3,113.33,-56.2,15.2,2.4,-1.3,-2.6,2.4,76.9,9.4,1
0.35,-1.03,-15.57,-0.85,133.76,105.23,-21.49,2.49,0.99,2.18,8.89,-2.22,118.44,11.26,3
6.6,0.1,-3.82,10.9,19.0,86.69,28.9,8.8,1.1,-0.2,-1.1,21.4,284.3,4.8,1
-0.79,-3.0,-0.54,-5.84,122.7,99.27,-124.51,-3.21,-0.4,0.79,0.37,-3.27,219.88,14.77,3
-3.5,0.5,14.14,0.8,37.6,101.35,-63.2,-4.7,0.0,0.8,1.6,-1.4,66.8,7.0,4
-3.27,-1.45,-13.1,-3.42,109.04,99.76,-153.78,-1.81,0.0,4.54,21.35,-10.45,314.85,12.16,4
2.4,-1.8,-12.5,1.5,82.4,88.31,-1.9,5.8,0.7,0.2,0.4,3.0,129.4,4.9,1
-2.14,-6.0,-25.3,7.06,126.05,118.89,-22.68,2.19,1.07,2.14,9.87,-0.63,124.04,9.13,2
0.7,-2.8,-23.52,28.7,48.3,103.81,13.9,9.0,-1.1,0.5,3.6,5.3,144.6,8.1,2
-2.87,-1.29,-16.46,4.83,106.85,99.94,-163.21,-3.88,0.44,5.51,17.53,-5.8,347.57,13.38,4
-7.4,-5.0,-26.26,-2.1,159.6,120.06,-115.9,-2.3,0.1,10.6,29.6,-4.7,132.6,18.4,4
3.2,1.2,-12.73,-0.1,80.3,98.6,-38.4,0.1,0.6,1.7,4.5,-4.7,97.9,9.6,2
-5.54,-4.1,-19.69,-7.05,141.37,99.83,-122.14,-7.17,-0.08,5.88,19.57,-4.22,190.58,15.78,4
-1.95,-5.1,-16.21,0.64,88.88,106.91,-90.13,-4.74,1.17,6.14,13.75,-10.66,187.4,21.46,3
-4.9,0.2,1.09,11.7,86.8,105.5,0.3,3.7,0.9,-1.4,-7.7,8.8,166.4,5.4,1
-2.41,-5.1,-14.42,-2.8,110.0,92.12,-153.18,-4.17,-0.72,5.14,16.26,-7.66,317.77,13.14,4
-0.3,4.8,20.52,13.0,10.6,93.21,-46.7,14.7,0.5,-3.8,-7.4,5.6,115.4,8.7,1
-0.5,2.7,21.45,4.1,37.8,100.0,-54.7,0.6,1.3,0.0,-0.9,0.2,58.0,6.9,1
-2.81,-4.72,-19.59,7.74,112.28,93.34,-156.31,-7.48,0.02,5.98,11.5,-0.64,331.58,14.77,4
-0.99,-3.54,-12.39,-3.32,109.72,102.4,-106.44,-3.94,0.4,4.44,9.82,-8.99,189.3,18.68,3
-3.54,0.45,13.76,0.77,38.74,101.52,-63.69,-4.68,0.0,0.89,1.86,-1.43,67.42,7.11,4
-2.88,-5.83,15.4,-2.39,98.73,102.5,-126.17,-3.95,-0.4,-2.53,-9.34,5.03,289.88,13.3,3
-1.55,-2.92,-0.03,-12.69,173.05,96.91,-138.94,-1.08,0.88,-3.79,-8.56,-1.01,116.83,22.93,4
9.5,0.7,-11.35,8.0,67.8,96.7,48.0,3.7,0.9,1.3,2.7,4.3,267.2,6.8,2
2.4,4.2,22.94,4.5,74.7,109.84,-57.9,-2.1,-0.6,-6.8,-18.6,2.3,94.0,10.9,3
1.2,11.0,11.47,7.4,32.6,123.49,-24.8,13.7,2.6,-1.7,-5.9,5.3,70.7,3.0,1
5.1,-1.5,33.28,5.2,20.1,105.68,54.6,1.2,0.1,0.4,3.4,-9.6,309.0,6.3,1
0.68,-2.96,1.34,-1.29,131.23,100.65,-118.0,0.13,0.07,-0.78,-6.35,-1.44,178.23,14.21,3
-2.9,-3.2,-10.3,1.1,51.8,93.79,-60.6,-0.3,1.0,2.9,6.7,1.9,71.1,14.0,1
0.7,-3.1,0.87,-1.4,131.2,100.0,-118.9,0.2,0.0,-0.5,-5.9,-1.4,179.3,14.4,3
6.0,-5.17,-15.77,2.05,45.5,90.56,31.98,1.69,-1.5,1.4,4.59,6.16,222.51,7.55,2
-2.93,-10.42,-18.11,-2.17,121.88,82.24,-133.78,-9.1,-1.49,5.22,8.76,-1.33,264.2,14.76,4
-1.19,-5.03,-19.03,7.0,101.29,111.9,-13.69,4.21,0.68,1.42,5.9,3.86,131.43,9.2,2
-1.6,-5.6,38.33,8.2,35.1,108.6,-47.4,15.4,1.6,-0.8,-5.7,1.7,50.9,5.9,1
7.0,-0.4,-9.51,4.6,75.7,96.0,40.8,7.4,0.4,-0.6,-0.8,-0.3,98.4,5.2,2
5.4,5.1,-17.19,9.7,40.4,82.36,-15.9,8.7,2.0,-0.2,-1.3,4.6,193.6,8.0,2
-0.65,-1.86,4.86,-0.97,123.43,100.84,-119.51,0.05,0.28,-1.41,-7.6,1.09,205.53,13.49,3
2.63,1.81,23.11,4.15,76.51,107.02,-62.39,-3.15,-0.08,-6.04,-18.31,1.83,96.27,12.42,3
6.9,-2.5,-17.81,1.8,44.0,90.99,37.2,1.5,-1.4,0.4,-0.8,-3.0,216.1,7.7,1
6.1,-2.4,-5.55,15.1,22.0,88.54,58.4,5.9,0.7,0.4,1.6,25.9,303.7,4.8,1
-3.3,-6.4,18.62,-1.7,93.9,103.15,-126.5,-4.1,-0.4,-3.2,-11.3,6.7,304.0,13.0,3
-1.9,-5.6,-19.39,-8.5,178.9,103.46,-131.9,-10.4,0.1,10.7,7.7,-3.0,130.8,26.2,4
0.04,-1.88,-6.85,-7.2,132.2,97.98,-123.85,-2.92,-0.4,2.1,4.22,-6.56,192.15,15.36,3
-2.32,-7.28,-15.62,-2.49,113.04,87.86,-148.46,-5.93,-1.08,5.31,13.21,-5.46,305.9,13.78,4
-2.5,-3.06,-13.29,-3.08,107.15,96.11,-157.6,-2.53,-0.38,4.98,19.13,-9.72,328.88,12.55,4
2.39,0.06,17.56,3.73,79.04,103.77,-68.41,-4.6,0.96,-5.05,-18.35,0.8,100.5,14.33,3
1.35,-1.74,16.1,8.0,40.64,102.96,-60.63,9.51,1.36,-2.88,-10.14,-1.76,104.7,11.11,3
-0.7,-2.6,24.74,7.0,37.3,105.17,-49.1,9.5,0.7,-0.2,-3.1,0.6,53.7,6.5,1
-0.85,-3.62,-6.59,0.17,108.01,106.53,-99.28,-2.84,0.96,1.99,3.05,-6.68,179.28,17.48,3
-0.8,-2.2,-14.22,0.5,93.4,103.54,-16.6,4.6,0.9,0.6,1.6,2.1,137.4,9.8,2
-0.8,-1.2,-0.62,0.0,68.4,94.11,27.0,9.5,5.9,-0.6,-0.5,2.3,152.9,6.2,1
1.91,-0.14,9.47,2.03,108.71,115.65,-94.4,1.92,0.56,-4.72,-13.35,0.77,146.42,15.07,2
1.5,-2.4,-9.7,1.4,135.3,100.0,-19.3,2.0,0.5,1.3,5.0,-1.4,115.1,12.3,3
-3.1,-1.7,-20.1,11.6,109.2,99.45,-163.8,-6.5,0.8,6.1,13.6,-0.7,352.8,14.6,4
-4.3,3.4,-2.78,0.6,43.5,99.71,-63.9,5.4,-0.1,2.6,14.4,2.9,69.5,13.3,1
1.28,-1.45,-11.84,1.07,135.34,101.52,-19.92,2.22,0.98,2.07,8.11,-1.0,116.49,12.15,3
-0.68,-8.22,-32.24,-0.89,53.53,103.41,10.65,5.84,0.18,0.2,-2.42,7.08,147.66,8.0,2
2.17,2.9,21.45,5.26,67.27,108.34,-58.5,0.43,-0.17,-5.95,-16.75,1.42,96.33,10.95,3
5.7,0.8,8.2,10.3,23.7,91.43,58.9,7.6,1.7,0.5,1.3,27.8,313.3,5.3,1
-2.03,-7.88,-5.51,4.67,62.16,98.63,16.03,7.55,2.79,0.62,-1.41,2.88,156.5,7.1,2
4.1,0.3,-4.61,-3.8,82.6,100.0,-31.2,-0.1,1.4,0.4,-4.3,-5.0,87.4,9.6,2
0.56,-2.8,-1.01,-2.75,131.59,99.52,-120.02,-0.51,-0.09,0.12,-3.52,-2.64,181.78,14.63,3
2.0,-3.4,-4.02,3.3,134.8,100.19,-11.9,1.5,1.5,-0.2,-2.2,0.1,111.7,12.1,3
-2.33,-7.01,-15.47,-2.53,112.67,88.38,-149.04,-5.72,-1.04,5.29,13.58,-5.73,307.35,13.7,4
5.0,-2.0,17.79,5.3,74.1,110.33,-24.2,3.7,3.3,-2.2,-9.0,0.9,76.3,7.9,1
0.2,-6.3,71.33,4.3,67.7,117.61,-167.2,-15.4,0.9,-3.6,-9.0,0.2,250.5,8.4,2
2.7,3.9,13.57,6.8,22.3,117.28,-36.8,18.3,2.2,-2.6,-8.9,3.9,95.0,6.3,2
7.6,-2.3,-2.96,6.7,61.9,104.44,61.4,-0.3,0.3,0.0,-2.4,3.9,259.3,6.8,2
-2.23,-10.85,-18.57,-0.08,118.52,80.96,-141.14,-9.46,-1.55,5.75,7.24,-0.53,288.58,15.12,4
-2.13,-11.87,-18.39,-1.38,119.57,78.89,-138.61,-9.79,-1.82,5.71,6.53,-0.51,281.39,15.18,4
5.7,-2.5,23.98,6.5,50.3,109.26,64.0,1.5,4.4,-0.9,-1.1,5.5,132.1,4.7,1
0.7,-3.7,2.44,16.3,36.8,106.62,-26.9,2.7,2.1,-1.3,-8.5,4.3,68.7,5.1,1
-0.2,-0.3,-10.28,-10.3,95.8,96.28,-92.8,-5.1,0.8,5.7,14.0,-10.0,178.2,24.1,2
-0.06,-1.61,-9.79,0.85,53.48,92.11,-82.43,11.5,0.99,0.94,4.85,0.85,108.61,10.24,2
-3.46,-5.42,18.38,-1.46,94.7,103.17,-125.88,-3.66,-0.22,-3.31,-11.46,6.9,301.45,12.74,3
-1.2,-1.6,7.31,8.6,52.0,107.04,-66.8,4.1,2.0,-4.2,-11.5,9.2,88.5,11.5,1
-3.83,0.03,10.72,0.55,47.94,102.94,-67.67,-4.5,0.01,1.63,3.97,-1.68,72.38,7.97,4
-1.4,-3.1,-9.77,11.4,44.9,94.54,-41.4,4.2,2.7,0.0,0.7,4.4,73.7,6.9,1
-1.35,1.61,-22.49,1.81,65.42,100.63,3.78,3.46,0.58,0.72,3.42,6.86,150.83,8.83,2
-2.8,-0.7,24.04,3.3,34.7,109.99,-43.7,29.6,1.7,-1.2,-5.5,1.9,47.4,5.0,1
-2.6,-0.5,7.39,4.3,39.8,98.89,-45.2,3.4,0.8,0.5,8.2,2.1,68.3,6.9,1
2.6,-2.6,9.87,3.2,98.6,109.18,-85.5,-0.5,-0.3,-5.2,-14.6,0.6,139.6,19.6,2
2.8,0.1,23.24,3.9,77.8,105.0,-65.6,-3.9,0.3,-5.5,-18.1,1.5,97.9,13.5,3
0.71,-2.59,-7.44,1.7,120.41,100.0,-16.9,2.11,0.65,0.96,3.24,0.85,125.49,11.55,3
5.5,-2.5,-13.78,1.6,46.1,92.87,27.8,3.6,-1.5,1.3,6.9,4.4,221.0,7.3,2
-2.92,-1.37,-17.15,6.11,107.3,99.85,-163.32,-4.38,0.51,5.62,16.78,-4.84,348.55,13.61,4
-2.6,-0.8,-12.04,-3.4,104.0,100.54,-162.5,-0.7,0.0,4.8,22.3,-12.0,341.2,11.9,4
-0.7,-3.42,-5.31,0.11,110.57,106.48,-100.5,-2.58,0.93,1.44,1.62,-6.15,178.19,16.95,3
2.1,-6.8,-16.82,8.7,76.8,88.33,-80.4,6.2,4.6,-1.5,-5.6,-0.2,91.7,9.6,2
2.44,3.79,22.97,4.44,75.01,109.36,-58.67,-2.28,-0.51,-6.67,-18.55,2.22,94.39,11.16,3
2.14,2.36,17.04,4.06,77.37,106.41,-64.26,-3.63,0.5,-5.75,-18.64,1.2,98.47,12.92,3
-1.2,-2.6,-4.91,-4.0,61.3,101.04,0.1,-3.6,1.3,0.2,-0.4,7.0,146.0,8.9,1
3.4,-1.0,-10.38,-3.01,80.95,95.47,-47.34,2.31,1.84,0.08,-2.88,-3.67,90.06,9.95,2
-6.9,-4.67,-23.28,-2.57,149.43,112.29,-117.03,-3.6,0.07,8.24,25.61,-4.57,158.51,16.67,4
-0.6,-10.0,-6.24,5.2,42.2,96.29,-36.6,4.0,3.0,0.0,-2.2,1.7,71.5,6.7,1
-7.36,-4.97,-26.03,-2.14,158.82,119.46,-115.99,-2.4,0.1,10.42,29.29,-4.69,134.59,18.27,4
-7.38,-4.97,-26.04,-2.08,158.95,119.96,-115.62,-2.31,0.1,10.55,29.45,-4.68,132.25,18.34,4
-5.88,-3.98,-17.27,-3.5,128.84,96.69,-119.58,-6.16,0.0,3.51,17.63,-4.35,211.44,13.19,4
-3.4,-9.4,-17.98,-2.38,123.01,84.52,-131.48,-8.64,-1.25,4.95,10.16,-1.8,255.72,14.52,4
1.73,-0.35,9.77,3.99,76.32,101.85,-71.53,-3.96,1.92,-4.14,-17.7,-0.47,104.62,15.15,3
2.1,7.7,0.75,6.9,8.4,108.14,-27.7,14.3,2.4,-1.1,-1.3,3.7,101.5,6.0,1
-2.47,-8.36,-18.98,3.1,115.99,85.99,-147.31,-8.66,-0.91,5.85,8.97,-0.57,306.05,14.98,4
-1.86,2.35,11.68,4.87,16.81,105.76,-72.35,17.99,-0.97,2.04,7.48,3.59,121.35,8.77,2
-4.8,-1.33,0.69,-0.17,78.23,107.58,-80.75,-3.9,0.03,4.06,10.92,-2.5,88.71,10.8,4
-3.8,-8.53,-17.87,-2.56,123.97,86.48,-129.52,-8.24,-1.05,4.72,11.36,-2.2,248.44,14.3,4
1.0,-1.7,-13.57,2.7,105.2,100.0,45.2,0.5,0.7,1.0,2.3,12.1,176.1,8.5,1
-4.8,1.4,1.39,10.7,54.1,101.13,-65.3,5.3,1.8,1.6,5.9,4.8,73.4,9.8,1
-0.5,1.7,26.02,2.0,37.2,92.5,-53.6,-7.8,3.0,6.7,19.3,-1.8,68.8,15.7,1
-0.7,-4.4,-15.44,6.9,87.8,108.38,-8.7,5.4,0.4,1.0,3.7,6.4,135.3,9.2,2
-2.94,-1.41,-17.5,6.75,107.52,99.8,-163.38,-4.63,0.54,5.68,16.41,-4.35,349.05,13.73,4
-0.5,0.1,25.75,2.8,48.8,109.28,-55.6,7.8,2.0,-2.0,-9.1,3.3,75.8,5.0,1
3.32,1.08,-11.67,-0.58,80.6,98.78,-37.46,0.07,0.7,1.53,3.35,-4.74,96.53,9.6,2
-1.4,0.4,-15.78,3.9,63.2,100.19,5.2,0.4,0.7,0.6,0.2,1.3,148.0,9.0,1
2.0,1.3,-9.15,-0.1,84.9,100.0,2.2,6.4,0.4,0.5,1.2,2.1,124.0,5.6,1
7.9,5.3,3.49,2.0,61.9,117.37,62.5,5.6,1.0,-0.6,-1.0,6.5,102.1,3.8,2
-2.36,-1.49,5.9,-7.04,116.37,98.77,-107.24,-2.6,0.51,-1.87,-4.31,-1.17,95.9,16.26,4
-2.1,-5.3,-17.51,0.7,86.3,106.96,-88.9,-5.0,1.2,6.7,15.2,-11.2,188.5,22.0,3
1.81,-2.79,-5.97,2.83,134.9,100.86,-13.44,1.69,1.55,0.41,0.45,0.03,112.92,12.07,3
7.5,2.6,-1.5,-4.1,33.9,112.3,64.4,1.6,1.3,-0.6,-1.7,3.5,198.3,5.6,1
-3.2,1.9,11.12,4.3,15.2,102.38,-82.8,17.9,-1.9,3.4,12.3,3.5,129.1,9.5,2
-3.4,-4.3,-0.26,7.4,56.0,96.32,-68.9,3.1,1.7,1.4,3.6,3.3,75.4,10.0,1
-5.9,-4.0,-17.3,-3.5,129.0,96.67,-119.3,-6.2,0.0,3.5,17.6,-4.3,210.6,13.2,4
-2.8,-1.17,-15.32,2.7,106.11,100.1,-163.03,-3.06,0.33,5.33,18.76,-7.41,345.92,13.0,4
-6.11,-4.14,-18.58,-3.3,133.36,100.0,-118.82,-5.64,0.01,4.51,19.31,-4.36,199.49,13.94,4
-0.86,-1.66,5.49,-0.9,122.2,100.98,-119.61,0.02,0.32,-1.56,-7.87,1.48,209.67,13.34,3
-2.88,-3.96,-19.72,8.71,111.51,94.87,-158.19,-7.23,0.22,6.01,12.03,-0.66,336.91,14.73,4
-5.52,-4.11,-19.85,-7.3,142.22,100.04,-122.33,-7.24,-0.08,6.04,19.7,-4.22,189.22,15.96,4
1.2,5.3,8.56,23.0,34.7,116.3,-25.0,5.9,2.4,-1.7,-8.0,4.2,67.3,4.0,1
3.49,0.91,-10.16,-1.27,81.03,99.04,-36.12,0.04,0.85,1.29,1.71,-4.8,94.57,9.6,2
-0.6,-0.52,-16.93,-1.68,124.82,107.56,-21.14,2.78,1.3,2.38,9.65,-1.34,125.69,10.38,3
0.03,-2.43,1.11,-0.2,123.33,106.23,-106.59,-1.31,0.79,-1.33,-5.53,-3.5,172.77,14.3,3
2.1,-2.4,26.53,-6.2,43.9,92.26,-74.7,-20.6,-1.4,6.9,17.4,-2.4,115.2,17.7,1
-0.6,0.1,-20.41,-2.7,132.5,109.54,-23.3,2.9,1.4,2.9,12.1,-2.9,121.2,10.4,3
-7.06,-4.78,-24.25,-2.41,152.75,114.82,-116.66,-3.17,0.08,9.01,26.91,-4.61,150.06,17.24,4
0.6,4.9,8.63,-3.0,37.2,120.83,-49.1,15.1,2.0,-1.4,-4.1,-0.2,70.5,8.6,1
0.1,6.9,-1.46,-2.6,99.8,103.87,38.1,3.7,1.0,-1.5,-6.3,3.7,185.1,7.0,1
-2.1,-12.2,-18.34,-1.8,119.9,78.23,-137.8,-9.9,-1.9,5.7,6.3,-0.5,279.1,15.2,4
-0.1,6.4,3.49,8.2,33.8,114.86,-31.0,16.5,3.2,-1.9,-5.2,4.3,56.4,7.1,1
5.0,-1.0,21.39,0.4,22.3,109.59,51.8,4.0,-0.6,0.5,-7.2,27.4,322.9,6.2,1
0.9,-4.3,13.16,9.5,26.0,100.0,-61.8,14.5,2.2,-1.2,-6.5,-3.5,109.3,11.2,3
0.44,-2.54,-2.66,-3.95,131.93,99.09,-121.01,-1.14,-0.17,0.67,-1.41,-3.73,183.96,14.83,3
2.2,-3.1,0.83,4.2,134.1,98.04,-7.7,1.2,1.5,-1.2,-8.0,1.3,108.8,11.6,3
1.98,-3.4,-4.02,3.29,134.49,100.19,-11.91,1.51,1.5,-0.2,-2.18,0.14,111.95,12.09,3
5.6,10.3,-19.51,5.6,37.6,78.78,-15.5,4.1,1.4,0.4,-1.4,2.4,190.5,8.1,2
8.2,-0.9,-6.74,4.0,64.6,100.0,48.9,-0.4,0.6,1.1,-0.4,0.0,262.8,7.2,2
-2.65,-0.9,-12.92,-1.76,104.57,100.42,-162.64,-1.33,0.09,4.94,21.35,-10.76,342.47,12.2,4
1.3,-1.0,-11.49,0.0,100.7,96.46,-95.9,-3.6,0.3,4.0,7.0,-6.6,168.1,25.1,2
-2.7,-3.2,-19.21,5.1,119.7,124.71,-18.2,4.9,-0.8,1.3,8.0,3.1,121.8,8.2,2
5.4,0.5,16.34,37.8,22.7,94.98,59.3,7.1,2.9,0.2,5.8,28.7,324.9,5.6,1
0.9,-0.4,-5.01,2.4,104.9,101.19,54.5,-0.9,0.1,0.1,-3.6,23.8,194.9,8.3,1
1.9,-3.8,-22.85,-1.3,77.4,85.69,-82.2,7.5,2.8,-0.6,0.2,-0.8,95.8,10.7,2
-3.01,-10.25,-18.09,-2.21,122.07,82.63,-133.39,-9.02,-1.45,5.18,8.99,-1.41,262.77,14.72,4
-4.77,-6.45,-17.61,-2.99,126.28,91.16,-124.82,-7.3,-0.57,4.16,14.23,-3.17,231.06,13.8,4
-2.61,-0.82,-12.26,-3.0,104.14,100.51,-162.53,-0.86,0.02,4.83,22.07,-11.7,341.51,11.97,4
-2.49,-3.28,-13.41,-3.05,107.45,95.69,-157.13,-2.7,-0.41,5.0,18.82,-9.5,327.71,12.62,4
-0.85,1.32,-20.26,1.72,76.07,99.77,16.29,3.59,0.71,0.73,3.72,4.34,155.0,8.63,2
-0.76,-3.17,-14.76,3.31,90.94,105.66,-13.13,4.95,0.68,0.78,2.52,3.99,136.48,9.54,2
-2.54,-7.54,-19.12,4.15,115.15,87.65,-149.34,-8.39,-0.7,5.88,9.54,-0.59,311.82,14.93,4
1.0,3.1,8.95,0.5,122.0,124.17,-106.1,5.1,1.7,-4.1,-11.7,1.0,155.4,9.1,2
-7.27,-4.91,-25.49,-2.22,156.98,118.06,-116.19,-2.63,0.09,9.99,28.57,-4.67,139.28,17.95,4
-2.86,-0.61,9.54,-3.58,81.61,99.91,-87.81,-3.53,0.29,-0.69,-1.7,-1.27,83.06,12.18,4
1.3,1.2,1.88,9.4,53.5,94.8,-63.5,2.4,1.6,0.1,-3.7,5.0,79.0,13.8,1
4.1,-2.9,22.52,3.9,55.5,104.82,35.4,-1.5,4.3,-1.1,-2.0,15.2,136.1,5.3,1
-3.48,-9.22,-17.96,-2.42,123.21,84.93,-131.08,-8.56,-1.21,4.9,10.4,-1.88,254.22,14.47,4
0.91,-4.27,13.14,9.46,26.34,100.01,-61.87,14.38,2.2,-1.22,-6.58,-3.48,109.27,11.23,3
-2.1,-6.2,-25.74,7.2,126.5,118.47,-23.0,2.0,1.2,2.2,10.0,-0.9,124.2,9.2,2
0.4,-7.1,58.59,1.5,73.8,107.17,-171.7,-17.7,0.9,-3.8,-9.9,-15.7,284.4,10.1,2
-5.6,-5.0,17.63,10.4,70.2,95.07,6.3,11.1,2.7,1.3,1.6,6.8,168.3,6.7,1
-0.7,2.1,-4.08,1.4,54.7,93.4,-62.2,2.6,1.2,0.8,0.1,5.0,75.2,13.9,1
0.5,-0.6,-13.33,2.5,107.0,99.19,44.8,4.3,1.0,0.8,4.5,-2.0,162.2,8.2,2
-2.4,0.5,-4.48,5.2,44.5,95.34,-45.9,3.8,1.5,1.0,2.9,2.9,70.7,7.0,1
8.3,-1.7,-2.87,5.2,37.2,105.09,52.6,1.3,0.9,-0.6,-2.6,3.1,209.0,6.4,1
6.5,-7.8,-17.73,2.5,44.9,88.28,36.1,-0.2,-1.5,1.5,2.3,7.9,224.0,7.8,2
-0.49,-0.03,-19.83,-2.48,132.65,109.03,-23.08,2.85,1.35,2.81,11.72,-2.82,120.87,10.5,3
0.9,0.2,-15.53,0.5,135.4,104.16,-21.0,2.6,1.8,3.4,13.5,-0.3,118.9,11.9,3
-2.52,-2.62,-13.04,-3.14,106.54,96.98,-158.56,-2.17,-0.3,4.94,19.75,-10.17,331.3,12.43,4
-2.0,2.5,13.52,13.2,37.3,100.0,-64.1,17.2,1.3,-3.3,-12.2,-0.5,80.4,10.9,1
-2.59,-7.02,-19.21,4.82,114.62,88.71,-150.64,-8.22,-0.57,5.9,9.9,-0.6,315.48,14.9,4
-0.6,-2.9,-3.68,2.2,95.6,100.0,-12.9,2.3,0.9,0.4,0.3,4.6,142.8,10.3,3
-2.9,-7.6,12.18,8.6,67.8,95.49,19.6,8.7,4.5,0.9,-0.7,0.1,162.3,6.5,2
7.9,-2.1,1.07,4.7,35.8,108.5,55.4,1.6,1.3,-0.5,-1.8,1.4,202.7,6.0,1
0.4,-2.66,-6.56,1.82,114.58,100.0,-15.96,2.16,0.71,0.83,2.55,1.73,129.56,11.26,3
1.29,-2.42,11.55,6.88,49.94,100.88,-66.43,5.72,2.07,-2.6,-11.83,-2.06,107.07,13.08,3
-5.3,-3.42,-16.35,-3.48,124.47,97.37,-127.13,-5.2,0.0,3.74,18.45,-5.7,234.28,12.96,4
2.3,-3.3,20.41,7.1,25.3,112.23,-43.3,13.5,2.3,-3.5,-10.9,4.1,99.0,7.7,2
-7.01,-4.45,-22.25,-1.81,147.48,118.2,-110.66,-2.54,0.09,9.63,26.82,-4.37,126.06,17.27,4
1.9,-3.2,-3.29,-2.0,99.3,100.0,-88.9,-1.1,0.0,0.4,-4.6,-2.5,155.8,24.2,2
8.3,-2.0,5.78,4.0,65.3,111.65,56.3,4.9,0.5,-0.6,-0.9,4.5,100.0,4.2,2
2.6,4.1,4.61,-2.3,97.6,114.86,-80.2,0.7,-0.6,-5.0,-14.0,0.4,134.4,17.4,2
-3.33,0.92,13.16,0.04,56.85,100.93,-73.98,-3.88,0.05,0.08,0.06,-1.32,73.33,8.94,4
2.83,-4.21,-12.36,4.14,78.92,92.59,-62.45,3.9,3.43,-0.81,-5.13,-1.95,90.13,9.6,2
0.5,-1.8,5.22,-0.4,131.5,106.07,-110.5,-0.5,0.7,-3.1,-10.1,-1.8,169.3,12.6,3
-0.5,-3.0,2.4,4.6,98.3,103.04,-16.6,1.6,0.5,-0.3,-2.1,6.8,145.3,9.9,2
2.3,2.3,77.37,5.1,63.5,127.42,-165.0,-2.8,0.8,-3.2,-6.4,-7.8,223.2,7.0,2
-5.54,-3.65,-16.72,-3.49,126.25,97.1,-124.05,-5.59,0.0,3.64,18.12,-5.15,224.97,13.06,4
-1.4,2.1,-23.06,1.4,63.6,100.0,4.8,3.3,0.6,0.7,3.4,6.9,152.1,8.8,2
-4.5,-4.4,-26.64,-17.4,177.4,109.02,-130.4,-10.0,-0.3,12.8,25.3,-4.0,132.3,23.3,4
-2.55,1.29,12.21,4.63,16.39,103.54,-78.16,17.38,-1.41,2.59,9.58,3.57,125.57,9.29,2
-3.14,-0.13,11.54,-1.68,62.48,100.54,-77.11,-4.04,0.16,-0.04,-0.27,-1.33,75.99,9.93,4
2.08,1.98,15.82,3.97,77.92,105.71,-65.56,-3.95,0.72,-5.53,-18.65,0.98,99.39,13.33,3
8.5,4.9,24.47,2.3,45.6,114.74,63.2,4.1,5.9,-0.9,-2.5,7.5,129.0,4.1,1
-2.8,-7.8,-25.92,10.4,80.1,89.47,-11.6,5.8,-0.3,1.3,6.3,1.6,176.6,7.8,2
2.3,-6.4,37.84,9.6,76.7,100.0,-198.4,-18.6,1.0,-3.9,-10.6,-2.3,305.1,11.9,2
-0.7,-8.3,-32.36,-1.3,53.6,103.4,10.6,5.8,0.2,0.2,-2.5,7.1,147.7,8.0,2
1.82,0.9,19.15,6.44,55.81,106.02,-59.41,4.34,0.49,-4.63,-13.91,0.05,99.93,11.02,3
0.1,-1.8,-7.32,-7.3,132.9,97.89,-123.8,-2.9,-0.4,2.2,4.5,-6.8,190.1,15.4,3
-5.67,-2.56,-8.36,-0.81,105.54,111.77,-92.55,-3.36,0.06,6.26,17.19,-3.24,103.44,13.35,4
-0.3,-3.6,-14.64,19.5,104.4,90.24,-164.7,-3.7,0.6,-2.2,-6.2,2.6,278.4,13.7,2
5.9,-4.9,-9.35,3.1,79.8,90.5,23.3,5.6,1.4,-1.1,-2.1,2.0,102.4,6.9,1
-2.12,-11.66,-18.04,-1.88,119.14,79.3,-138.98,-9.46,-1.81,5.66,7.06,-1.05,282.07,15.04,4
-4.6,1.8,16.57,0.3,100.6,103.32,-121.3,-0.4,1.1,-4.1,-12.6,8.4,282.6,10.8,3
-2.8,6.0,-21.25,-3.6,83.2,88.06,-28.1,3.0,0.4,0.8,2.1,1.5,176.1,7.9,2
0.31,-1.8,-0.7,-3.66,132.16,102.21,-116.77,-1.63,0.18,-0.6,-3.21,-4.16,179.11,13.92,3
1.1,0.9,1.08,1.4,101.7,102.86,56.8,0.9,0.3,-0.8,-3.9,0.4,185.4,7.8,1
-0.6,4.8,10.22,4.7,40.9,107.36,-59.0,16.7,2.3,-1.7,-5.9,2.3,80.5,10.1,1
-1.5,-3.0,-0.36,-13.0,176.2,96.81,-140.7,-1.0,0.9,-3.9,-8.8,-1.0,118.0,23.3,4
0.35,-1.8,0.43,-3.04,132.04,102.94,-115.58,-1.42,0.28,-1.07,-4.52,-3.71,177.25,13.67,3
1.7,0.25,18.4,6.82,52.1,105.27,-59.71,5.6,0.7,-4.2,-12.98,-0.39,101.1,11.04,3
-1.2,-3.8,-10.57,1.9,119.9,78.19,-133.4,-0.7,0.2,1.1,-1.4,-1.4,267.5,14.9,2
-0.6,-2.04,-8.45,0.8,106.13,102.72,-15.87,2.47,1.04,1.11,3.67,2.46,136.64,10.33,3
-2.47,-3.82,-13.71,-2.98,108.21,94.63,-155.95,-3.14,-0.5,5.04,18.06,-8.95,324.74,12.77,4
1.8,0.1,-12.48,5.9,63.4,96.09,43.0,2.4,6.0,-1.0,-1.6,7.4,143.6,6.0,1
-1.66,-0.45,1.62,-4.46,120.81,99.92,-122.86,-1.96,0.16,-0.16,-1.9,-1.11,224.72,13.68,3
-0.63,-3.67,-13.14,13.01,110.12,85.8,-153.16,-2.59,0.45,-0.98,-4.43,1.12,274.38,14.14,2
1.41,-2.42,-9.45,1.43,133.66,100.0,-19.04,2.01,0.52,1.26,4.81,-1.15,116.24,12.22,3
5.7,2.0,19.55,4.1,70.4,118.37,-18.9,6.1,3.2,-2.5,-7.5,1.3,72.8,6.6,1
-2.04,-2.05,3.58,-9.25,138.56,98.04,-119.65,-2.0,0.66,-2.62,-5.98,-1.11,104.1,18.87,4
2.3,0.9,-2.83,-2.8,82.9,107.03,4.1,5.4,0.7,0.6,1.5,3.4,123.5,5.8,1
-1.1,-4.0,-9.78,-10.2,178.5,98.32,-137.6,-3.3,0.7,-1.5,-11.0,-2.1,125.1,25.0,4
-6.06,-4.11,-18.27,-3.35,132.31,99.2,-118.93,-5.78,0.01,4.27,18.9,-4.34,202.15,13.76,4
8.4,-1.8,1.52,-0.1,56.9,110.77,59.4,-0.1,0.7,-1.0,-3.8,3.7,249.1,5.9,2
