PC_CA-avg_3y,REER-pch_3y,X_GS_share_M-pch_5y,FSL-pch,GD-pc_gdp,HPI-pch,NIIP-pc_gdp,ULC-pch_3y,ACT-pch_3y,LTU-pch_3y,YUR-pch_3y,PSCF-pc_gdp,PSD-pc_gdp,UR-avg_3y,label
1.52,-2.45,-9.42,1.49,135.28,100.01,-18.94,1.98,0.55,1.23,4.65,-1.33,114.93,12.29,3
0.03,-3.81,-18.59,-0.3,58.2,111.32,-49.15,-0.83,-0.74,2.13,5.98,-2.62,112.16,9.42,3
-2.2,3.6,6.85,-4.9,181.2,98.21,-143.6,1.4,0.4,-4.6,-9.9,-0.8,115.5,21.5,4
2.2,4.8,3.92,1.7,74.0,113.27,3.7,4.7,1.3,-0.3,-1.2,3.9,121.0,5.5,1
-2.0,2.5,13.52,13.2,37.3,100.0,-64.1,17.2,1.3,-3.3,-12.2,-0.5,80.4,10.9,1
7.9,5.3,3.49,2.0,61.9,117.37,62.5,5.6,1.0,-0.6,-1.0,6.5,102.1,3.8,2
2.0,-3.4,-4.02,3.3,134.8,100.19,-11.9,1.5,1.5,-0.2,-2.2,0.1,111.7,12.1,3
0.0,-8.2,-2.16,8.1,40.0,100.0,-32.9,0.1,2.4,-0.6,-6.9,0.3,68.1,6.1,1
2.41,0.1,17.56,3.53,79.07,104.02,-68.1,-4.33,0.83,-4.42,-14.52,0.89,100.64,14.17,3
2.6,4.1,4.61,-2.3,97.6,114.86,-80.2,0.7,-0.6,-5.0,-14.0,0.4,134.4,17.4,2
-9.65,-0.27,-14.04,-4.39,147.19,123.3,-95.4,3.65,0.21,4.02,18.83,-4.04,162.31,12.45,4
-0.71,-4.18,-15.32,6.27,88.35,107.9,-9.48,5.32,0.45,0.96,3.49,5.98,135.51,9.26,2
-1.12,-4.15,-16.23,6.52,94.48,111.8,-10.69,5.3,0.15,1.06,4.6,5.71,132.47,8.99,2
0.1,-1.8,-7.32,-7.3,132.9,97.89,-123.8,-2.9,-0.4,2.2,4.5,-6.8,190.1,15.4,3
-5.0,-2.0,12.3,4.8,37.0,104.27,-67.6,6.8,1.7,0.8,1.8,0.3,72.1,7.0,4
1.7,0.1,7.33,2.86,81.36,102.26,-72.62,-5.11,1.78,-2.48,-8.07,-0.2,105.58,15.36,3
9.5,0.7,-11.35,8.0,67.8,96.7,48.0,3.7,0.9,1.3,2.7,4.3,267.2,6.8,2
-0.79,-3.0,-0.54,-5.84,122.7,99.27,-124.51,-3.21,-0.4,0.79,0.37,-3.27,219.88,14.77,3
-0.6,0.1,-20.41,-2.7,132.5,109.54,-23.3,2.9,1.4,2.9,12.1,-2.9,121.2,10.4,3
-7.88,-4.32,-20.68,-3.06,144.17,115.23,-111.87,-1.69,-0.04,7.87,24.14,-3.37,157.18,15.94,4
-10.3,1.8,-17.17,-4.0,172.1,136.51,-88.8,6.8,0.6,5.1,22.8,-6.5,130.2,13.4,4
1.04,-2.43,10.16,3.83,33.65,116.78,-41.92,11.22,0.8,-1.45,-4.52,2.68,104.47,7.46,2
0.9,-0.4,-5.01,2.4,104.9,101.19,54.5,-0.9,0.1,0.1,-3.6,23.8,194.9,8.3,1
-6.96,-4.46,-19.27,-0.85,137.37,117.2,-107.14,-0.65,0.39,8.82,24.56,-3.79,121.63,16.33,4
-7.4,-5.0,-26.26,-2.1,159.6,120.06,-115.9,-2.3,0.1,10.6,29.6,-4.7,132.6,18.4,4
0.6,4.9,8.63,-3.0,37.2,120.83,-49.1,15.1,2.0,-1.4,-4.1,-0.2,70.5,8.6,1
-7.36,-4.97,-26.03,-2.14,158.82,119.46,-115.99,-2.4,0.1,10.42,29.29,-4.69,134.59,18.27,4
-4.53,1.33,16.69,0.19,100.22,103.31,-121.6,-0.61,1.01,-4.05,-12.53,8.3,283.82,10.93,3
1.9,-3.2,-3.29,-2.0,99.3,100.0,-88.9,-1.1,0.0,0.4,-4.6,-2.5,155.8,24.2,2
-7.67,-2.74,-11.94,-1.63,113.37,104.63,-115.94,-1.69,-0.08,3.29,13.6,-0.78,234.0,11.87,4
2.0,-4.7,-21.72,0.4,81.9,92.57,-3.2,3.8,0.8,0.0,-1.3,1.2,128.2,4.8,1
0.9,-0.8,14.27,1.4,126.1,114.08,-110.4,2.8,1.5,-3.9,-10.9,2.3,162.4,10.9,2
-5.78,-3.76,-23.94,3.07,140.59,112.29,-133.97,-3.88,0.36,8.9,23.56,-3.19,215.66,16.97,4
1.55,-0.3,-4.44,-3.33,75.37,103.58,-55.77,-2.74,0.44,-1.18,-5.83,-1.96,105.71,12.28,3
-4.35,-0.92,13.09,3.07,37.26,103.01,-65.7,1.84,0.97,0.8,1.71,-0.43,69.81,7.0,4
-2.88,-5.83,15.4,-2.39,98.73,102.5,-126.17,-3.95,-0.4,-2.53,-9.34,5.03,289.88,13.3,3
-3.51,0.48,14.12,0.84,37.59,101.38,-63.24,-4.59,0.02,0.8,1.6,-1.38,66.85,7.0,4
1.9,-0.8,24.41,-0.2,6.1,74.59,-54.0,-2.2,0.5,5.4,10.4,-0.8,118.9,14.2,1
1.0,3.1,8.95,0.5,122.0,124.17,-106.1,5.1,1.7,-4.1,-11.7,1.0,155.4,9.1,2
7.6,-2.3,-2.96,6.7,61.9,104.44,61.4,-0.3,0.3,0.0,-2.4,3.9,259.3,6.8,2
-1.0,-5.1,17.73,9.1,54.3,102.29,-61.6,2.5,1.8,-2.2,-9.6,5.1,81.6,7.6,1
-0.38,-0.17,-19.26,-2.26,132.8,108.52,-22.87,2.8,1.3,2.73,11.34,-2.74,120.55,10.6,3
1.3,1.2,1.88,9.4,53.5,94.8,-63.5,2.4,1.6,0.1,-3.7,5.0,79.0,13.8,1
5.7,-2.5,23.98,6.5,50.3,109.26,64.0,1.5,4.4,-0.9,-1.1,5.5,132.1,4.7,1
1.52,-4.14,-19.63,2.28,77.6,88.94,-85.62,6.86,3.67,-0.48,-2.32,-2.77,96.35,10.26,2
-8.65,-3.22,-11.69,-4.6,119.3,107.44,-105.38,-0.69,-0.26,3.47,15.33,-1.22,196.8,11.98,4
-0.41,0.13,-14.68,3.59,85.44,100.09,30.3,4.29,0.05,0.43,1.92,15.27,167.64,8.25,2
1.5,-4.7,9.44,9.3,29.3,106.56,-47.9,8.6,0.3,-2.9,-11.2,3.0,104.5,9.4,3
-0.7,-2.6,24.74,7.0,37.3,105.17,-49.1,9.5,0.7,-0.2,-3.1,0.6,53.7,6.5,1
5.0,-1.0,21.39,0.4,22.3,109.59,51.8,4.0,-0.6,0.5,-7.2,27.4,322.9,6.2,1
0.92,-2.12,-10.93,2.47,125.04,100.45,-18.36,2.61,0.65,1.12,4.11,-0.23,121.8,11.74,3
0.42,-0.89,-16.68,-3.56,80.38,103.73,-29.42,1.89,-0.12,1.42,4.65,-0.82,121.49,9.52,3
2.4,-1.8,-12.5,1.5,82.4,88.31,-1.9,5.8,0.7,0.2,0.4,3.0,129.4,4.9,1
5.4,5.1,-17.19,9.7,40.4,82.36,-15.9,8.7,2.0,-0.2,-1.3,4.6,193.6,8.0,2
-1.2,-1.6,7.31,8.6,52.0,107.04,-66.8,4.1,2.0,-4.2,-11.5,9.2,88.5,11.5,1
-5.6,-5.0,17.63,10.4,70.2,95.07,6.3,11.1,2.7,1.3,1.6,6.8,168.3,6.7,1
1.78,0.0,9.2,3.47,80.86,101.98,-72.51,-5.61,1.92,-4.32,-18.36,-0.23,104.34,15.53,3
-6.15,-3.91,-16.67,-3.62,127.75,97.46,-118.0,-5.71,-0.03,3.42,17.26,-4.0,210.09,13.03,4
-4.33,-1.98,-17.9,8.04,110.32,100.84,-150.93,-5.21,0.56,5.35,13.6,-0.72,320.84,13.87,4
0.63,-1.37,-14.12,-0.29,134.14,103.94,-20.95,2.37,0.87,1.96,7.93,-2.02,117.62,11.52,3
0.56,-2.19,3.91,-0.7,131.41,104.25,-113.03,-0.29,0.49,-2.32,-8.84,-1.68,172.31,13.14,3
0.5,-1.8,5.22,-0.4,131.5,106.07,-110.5,-0.5,0.7,-3.1,-10.1,-1.8,169.3,12.6,3
-0.65,-4.16,-7.96,-0.39,109.63,103.34,-104.49,-2.3,0.58,2.96,4.24,-6.11,183.72,18.05,3
1.8,0.1,-12.48,5.9,63.4,96.09,43.0,2.4,6.0,-1.0,-1.6,7.4,143.6,6.0,1
-2.1,-6.2,-25.74,7.2,126.5,118.47,-23.0,2.0,1.2,2.2,10.0,-0.9,124.2,9.2,2
0.94,0.9,11.95,1.01,124.32,118.47,-108.53,3.8,1.59,-3.99,-11.25,1.73,159.35,10.12,2
-8.8,-3.0,-9.92,-4.9,114.4,105.91,-104.1,-0.5,-0.3,2.6,13.6,-0.8,204.6,11.2,4
2.3,-7.2,-9.31,0.4,76.2,100.0,-67.9,1.0,4.9,-1.9,-10.9,-2.5,84.2,8.2,1
-0.6,-10.0,-6.24,5.2,42.2,96.29,-36.6,4.0,3.0,0.0,-2.2,1.7,71.5,6.7,1
0.97,-2.63,-7.87,4.14,120.19,100.77,-13.26,2.56,1.35,0.09,-0.84,1.24,122.61,11.37,3
0.19,-6.24,69.43,4.64,68.51,117.0,-167.14,-15.14,0.89,-3.57,-8.94,0.25,251.12,8.52,2
1.26,-4.67,4.82,7.77,33.01,107.59,-47.3,7.3,0.04,-2.08,-8.42,2.12,105.67,9.2,3
-2.4,0.5,-4.48,5.2,44.5,95.34,-45.9,3.8,1.5,1.0,2.9,2.9,70.7,7.0,1
7.06,-2.12,-5.55,0.69,51.91,102.5,44.81,1.61,-0.32,0.06,1.14,4.02,236.12,6.55,2
2.3,-6.4,37.84,9.6,76.7,100.0,-198.4,-18.6,1.0,-3.9,-10.6,-2.3,305.1,11.9,2
0.98,-1.49,-18.82,-7.95,66.24,107.0,-40.38,0.1,-1.09,2.11,6.92,-3.49,108.35,8.87,3
-2.6,-0.5,7.39,4.3,39.8,98.89,-45.2,3.4,0.8,0.5,8.2,2.1,68.3,6.9,1
-10.27,1.78,-16.98,-3.94,171.23,136.3,-88.66,6.8,0.61,5.07,22.66,-6.46,129.83,13.36,4
2.8,0.1,23.24,3.9,77.8,105.0,-65.6,-3.9,0.3,-5.5,-18.1,1.5,97.9,13.5,3
8.5,4.9,24.47,2.3,45.6,114.74,63.2,4.1,5.9,-0.9,-2.5,7.5,129.0,4.1,1
8.3,-1.7,-2.87,5.2,37.2,105.09,52.6,1.3,0.9,-0.6,-2.6,3.1,209.0,6.4,1
-3.2,1.9,11.12,4.3,15.2,102.38,-82.8,17.9,-1.9,3.4,12.3,3.5,129.1,9.5,2
-4.13,-2.54,-19.07,6.07,116.45,98.43,-147.51,-6.39,0.51,5.15,15.06,-2.02,300.74,14.09,4
-3.23,-5.07,-18.7,-6.84,162.32,101.2,-127.71,-9.0,0.07,8.31,10.99,-3.43,157.31,21.88,4
7.5,2.6,-1.5,-4.1,33.9,112.3,64.4,1.6,1.3,-0.6,-1.7,3.5,198.3,5.6,1
6.6,0.1,-3.82,10.9,19.0,86.69,28.9,8.8,1.1,-0.2,-1.1,21.4,284.3,4.8,1
-2.1,-5.3,-17.51,0.7,86.3,106.96,-88.9,-5.0,1.2,6.7,15.2,-11.2,188.5,22.0,3
-2.5,-7.41,-24.77,8.68,82.84,90.68,-5.8,5.7,-0.27,1.14,5.37,3.05,178.2,7.79,2
-3.46,-5.42,18.38,-1.46,94.7,103.17,-125.88,-3.66,-0.22,-3.31,-11.46,6.9,301.45,12.74,3
-4.8,1.4,1.39,10.7,54.1,101.13,-65.3,5.3,1.8,1.6,5.9,4.8,73.4,9.8,1
-8.52,-3.4,-13.22,-4.34,123.52,108.76,-106.48,-0.86,-0.22,4.21,16.83,-1.59,190.07,12.65,4
-2.9,-3.2,-10.3,1.1,51.8,93.79,-60.6,-0.3,1.0,2.9,6.7,1.9,71.1,14.0,1
-0.21,-0.35,-10.28,-10.14,96.11,96.05,-93.32,-5.04,0.79,5.64,13.8,-9.89,179.35,23.98,2
9.9,3.2,1.68,-3.3,52.4,118.9,70.7,3.0,0.7,-1.6,-4.1,4.5,241.6,4.9,2
-3.3,-6.4,18.62,-1.7,93.9,103.15,-126.5,-4.1,-0.4,-3.2,-11.3,6.7,304.0,13.0,3
-2.7,-3.2,-19.21,5.1,119.7,124.71,-18.2,4.9,-0.8,1.3,8.0,3.1,121.8,8.2,2
0.4,-3.6,6.93,10.9,9.8,76.91,-50.7,0.1,0.8,1.8,-6.5,7.6,117.2,13.0,1
-0.73,-3.11,-11.14,-4.3,115.42,101.29,-110.71,-3.69,0.2,3.89,8.51,-8.45,189.5,17.88,3
-0.1,-4.3,-15.53,-5.1,104.8,100.38,40.8,4.9,0.0,-0.1,-2.1,14.7,191.0,7.7,2
-3.54,0.43,14.09,0.91,37.58,101.43,-63.32,-4.39,0.05,0.8,1.61,-1.35,66.94,7.0,4
0.9,5.8,7.29,8.6,10.0,100.0,-39.9,15.3,1.9,-3.1,-7.8,2.7,112.8,7.4,1
-1.75,-0.83,8.14,-0.61,117.03,101.54,-120.01,-0.08,0.51,-2.17,-9.0,3.14,227.14,12.73,3
1.3,-0.6,-18.21,-10.1,70.0,105.12,-39.3,0.1,-1.0,2.0,6.9,-3.7,107.2,9.1,3
0.04,-4.11,-20.59,-1.64,55.24,112.49,-43.53,0.1,-1.36,2.45,6.99,-2.89,111.7,8.2,3
-0.71,-0.69,-17.11,1.96,111.38,105.18,-18.97,3.74,1.23,1.61,6.15,0.53,132.6,10.23,3
0.1,-4.2,-4.32,6.2,80.8,99.03,-104.2,3.8,1.2,1.6,6.5,-4.3,114.8,10.7,2
-0.83,-2.19,-8.88,1.48,60.17,118.69,-29.51,6.94,-0.87,1.47,4.77,2.45,120.31,7.8,2
-6.31,-4.27,-19.75,-3.12,137.36,103.06,-118.37,-5.14,0.03,5.44,20.88,-4.41,189.3,14.62,4
0.3,-0.9,-0.15,1.1,17.1,97.38,-73.5,15.3,1.7,2.7,6.5,2.6,130.6,12.2,2
-3.69,-4.88,-18.45,-6.26,156.57,100.42,-126.26,-8.52,0.06,7.48,12.13,-3.58,166.51,20.38,4
-3.7,0.16,13.89,1.34,37.52,101.74,-63.79,-3.16,0.23,0.8,1.63,-1.17,67.51,7.0,4
-10.05,1.62,-15.76,-3.58,165.64,134.97,-87.79,6.8,0.65,4.89,21.8,-6.17,127.42,13.09,4
-7.73,-4.52,-22.36,-2.77,148.82,116.69,-113.09,-1.87,0.0,8.69,25.79,-3.77,149.76,16.68,4
2.64,-0.26,22.42,4.36,73.56,104.59,-65.29,-2.39,0.46,-5.15,-17.15,1.09,98.83,13.31,3
-2.9,-7.6,12.18,8.6,67.8,95.49,19.6,8.7,4.5,0.9,-0.7,0.1,162.3,6.5,2
-8.07,-2.83,-11.23,-2.78,113.73,105.08,-111.78,-1.27,-0.16,3.05,13.6,-0.79,223.66,11.64,4
-2.26,-7.8,-0.77,5.72,63.67,97.79,16.98,7.86,3.25,0.7,-1.22,2.14,158.06,6.94,2
-7.51,-3.44,-13.19,-4.28,120.87,101.82,-110.84,-3.03,-0.17,3.0,15.37,-2.35,207.26,12.09,4
-6.99,-4.73,-23.83,-2.48,151.29,113.71,-116.82,-3.36,0.07,8.67,26.34,-4.59,153.78,16.99,4
-0.7,-8.3,-32.36,-1.3,53.6,103.4,10.6,5.8,0.2,0.2,-2.5,7.1,147.7,8.0,2
0.2,-6.3,71.33,4.3,67.7,117.61,-167.2,-15.4,0.9,-3.6,-9.0,0.2,250.5,8.4,2
-0.8,-2.2,-14.22,0.5,93.4,103.54,-16.6,4.6,0.9,0.6,1.6,2.1,137.4,9.8,2
4.0,-9.2,-7.55,9.1,42.2,107.3,-1.9,3.1,1.0,-0.1,-4.6,8.4,192.5,7.5,2
-4.76,-3.06,-18.44,2.64,120.95,97.8,-137.39,-6.32,0.33,4.56,15.97,-2.84,268.42,13.77,4
0.8,-0.8,-23.17,-5.8,78.6,89.71,-92.2,7.7,2.5,0.8,1.8,-6.0,102.2,11.1,2
5.93,-4.78,-15.48,1.99,45.58,90.89,31.37,1.96,-1.5,1.39,4.92,5.91,222.29,7.52,2
-4.3,10.1,-9.19,4.8,86.2,94.4,-22.8,4.0,1.2,-0.5,-4.3,6.0,163.6,7.2,2
-4.9,0.2,1.09,11.7,86.8,105.5,0.3,3.7,0.9,-1.4,-7.7,8.8,166.4,5.4,1
5.0,-2.0,17.79,5.3,74.1,110.33,-24.2,3.7,3.3,-2.2,-9.0,0.9,76.3,7.9,1
-4.74,-1.25,1.31,-0.12,76.34,107.29,-79.93,-3.94,0.03,3.91,10.49,-2.45,87.69,10.62,4
7.0,-2.4,-8.35,10.3,61.7,114.09,20.1,5.3,0.3,0.4,1.4,8.2,247.2,4.8,1
1.11,-2.21,-10.52,2.11,128.47,100.3,-18.67,2.41,0.6,1.18,4.41,-0.62,119.56,11.93,3
0.0,5.3,-1.35,15.8,39.7,104.41,-42.9,15.0,3.1,-2.1,-7.4,4.3,56.5,9.2,1
1.1,0.9,1.08,1.4,101.7,102.86,56.8,0.9,0.3,-0.8,-3.9,0.4,185.4,7.8,1
-0.7,2.1,-4.08,1.4,54.7,93.4,-62.2,2.6,1.2,0.8,0.1,5.0,75.2,13.9,1
2.3,-3.3,20.41,7.1,25.3,112.23,-43.3,13.5,2.3,-3.5,-10.9,4.1,99.0,7.7,2
-3.66,0.23,13.94,1.24,37.53,101.67,-63.68,-3.44,0.19,0.8,1.62,-1.21,67.38,7.0,4
-7.1,-2.61,-12.96,0.03,112.85,103.98,-121.93,-2.29,0.03,3.65,13.6,-0.77,248.86,12.22,4
-0.12,-1.62,-13.11,4.37,106.78,101.26,-16.69,3.69,0.92,0.81,2.53,1.85,133.74,10.75,3
-4.94,-2.12,-16.81,6.27,110.88,101.54,-144.51,-4.56,0.44,4.97,13.6,-0.73,304.92,13.5,4
-6.31,-3.86,-16.25,-3.7,126.92,97.99,-117.13,-5.39,-0.04,3.37,17.03,-3.8,209.75,12.92,4
-0.9,-1.1,-5.63,-1.2,46.5,123.79,-39.8,7.7,-1.5,1.7,5.3,0.5,112.9,7.1,2
-0.72,-3.69,-12.74,11.3,111.62,84.63,-150.12,-2.3,0.41,-0.66,-3.96,0.74,273.32,14.26,2
-0.36,-2.53,-9.44,-5.64,123.21,99.78,-116.54,-3.34,-0.07,3.14,6.73,-7.72,189.77,16.77,3
-3.54,-4.92,18.25,-1.34,95.11,103.18,-125.56,-3.43,-0.13,-3.36,-11.54,7.01,300.13,12.6,3
-1.5,-3.0,-0.36,-13.0,176.2,96.81,-140.7,-1.0,0.9,-3.9,-8.8,-1.0,118.0,23.3,4
-5.9,-4.0,-17.3,-3.5,129.0,96.67,-119.3,-6.2,0.0,3.5,17.6,-4.3,210.6,13.2,4
-6.71,-4.47,-25.28,0.08,151.56,116.77,-123.54,-2.97,0.21,9.88,27.05,-4.06,167.71,17.79,4
6.5,-7.8,-17.73,2.5,44.9,88.28,36.1,-0.2,-1.5,1.5,2.3,7.9,224.0,7.8,2
-0.2,-0.3,-10.28,-10.3,95.8,96.28,-92.8,-5.1,0.8,5.7,14.0,-10.0,178.2,24.1,2
5.5,-2.5,-13.78,1.6,46.1,92.87,27.8,3.6,-1.5,1.3,6.9,4.4,221.0,7.3,2
6.9,-2.5,-17.81,1.8,44.0,90.99,37.2,1.5,-1.4,0.4,-0.8,-3.0,216.1,7.7,1
2.6,-2.6,9.87,3.2,98.6,109.18,-85.5,-0.5,-0.3,-5.2,-14.6,0.6,139.6,19.6,2
5.1,-1.5,33.28,5.2,20.1,105.68,54.6,1.2,0.1,0.4,3.4,-9.6,309.0,6.3,1
2.24,-1.97,17.28,6.23,56.87,105.67,-57.96,1.49,0.3,-4.38,-15.12,2.15,100.75,11.73,3
-2.4,2.5,3.2,8.9,49.4,117.31,-68.1,11.3,1.5,-3.6,-11.6,2.0,91.0,8.1,1
2.55,-2.42,9.84,3.12,99.32,109.64,-86.13,-0.33,-0.24,-5.17,-14.51,0.61,140.09,19.28,2
4.9,3.3,8.69,-2.0,21.0,114.88,53.8,7.9,0.2,-0.5,-3.1,-0.5,306.5,5.8,1
-4.5,-10.8,-1.18,-1.7,86.2,108.74,-10.0,5.1,0.9,-1.1,-4.9,7.2,167.7,4.8,1
-4.18,-0.64,13.3,2.62,37.33,102.68,-65.2,0.53,0.77,0.8,1.69,-0.63,69.21,7.0,4
-0.3,-3.6,-14.64,19.5,104.4,90.24,-164.7,-3.7,0.6,-2.2,-6.2,2.6,278.4,13.7,2
6.4,-9.0,-16.75,3.2,81.1,92.35,28.7,2.5,0.9,-1.1,-3.2,1.4,101.9,6.1,1
8.3,-2.0,5.78,4.0,65.3,111.65,56.3,4.9,0.5,-0.6,-0.9,4.5,100.0,4.2,2
1.0,-1.7,-13.57,2.7,105.2,100.0,45.2,0.5,0.7,1.0,2.3,12.1,176.1,8.5,1
-2.8,-7.8,-25.92,10.4,80.1,89.47,-11.6,5.8,-0.3,1.3,6.3,1.6,176.6,7.8,2
-6.55,-3.78,-15.65,-3.81,125.73,98.74,-115.9,-4.92,-0.07,3.3,16.7,-3.52,209.26,12.75,4
-5.18,-2.18,-16.38,5.57,111.1,101.81,-141.97,-4.31,0.4,4.82,13.6,-0.74,298.62,13.36,4
-4.32,-0.87,13.13,2.99,37.27,102.95,-65.61,1.61,0.93,0.8,1.71,-0.47,69.71,7.0,4
-6.26,-4.13,-24.63,1.53,146.24,114.6,-128.6,-3.41,0.29,9.41,25.36,-3.64,190.97,17.39,4
1.91,-2.83,16.35,5.92,23.68,109.3,-49.26,13.86,2.18,-2.28,-7.47,3.8,105.24,8.59,2
-3.0,1.74,10.49,4.12,15.31,102.1,-82.28,17.75,-1.7,3.36,11.98,3.45,129.18,9.65,2
-5.91,-2.34,-15.07,3.45,111.77,102.64,-134.33,-3.54,0.26,4.37,13.6,-0.75,279.64,12.92,4
0.7,-3.1,0.87,-1.4,131.2,100.0,-118.9,0.2,0.0,-0.5,-5.9,-1.4,179.3,14.4,3
-6.53,-3.78,-15.69,-3.8,125.82,98.68,-115.99,-4.96,-0.07,3.3,16.73,-3.54,209.29,12.76,4
-4.2,-0.49,6.89,0.28,59.5,104.71,-72.66,-4.27,0.02,2.56,6.63,-1.99,78.61,9.05,4
-1.6,-5.6,38.33,8.2,35.1,108.6,-47.4,15.4,1.6,-0.8,-5.7,1.7,50.9,5.9,1
-0.7,-4.4,-15.44,6.9,87.8,108.38,-8.7,5.4,0.4,1.0,3.7,6.4,135.3,9.2,2
-6.16,-4.05,-24.49,1.84,145.09,114.13,-129.69,-3.51,0.3,9.3,24.99,-3.55,196.0,17.31,4
0.48,-1.82,5.08,-0.39,131.22,106.08,-110.37,-0.53,0.7,-3.04,-9.94,-1.86,169.42,12.66,3
-0.1,-4.5,-20.85,-0.7,53.6,113.31,-44.0,0.1,-1.4,2.5,7.0,-2.8,112.2,8.1,3
0.4,-1.5,-7.75,5.4,103.5,100.17,51.4,5.1,-0.4,0.2,0.7,22.2,180.5,7.8,2
-1.1,-4.0,-9.78,-10.2,178.5,98.32,-137.6,-3.3,0.7,-1.5,-11.0,-2.1,125.1,25.0,4
1.3,-1.0,-11.49,0.0,100.7,96.46,-95.9,-3.6,0.3,4.0,7.0,-6.6,168.1,25.1,2
0.8,0.1,-5.77,2.0,84.3,100.0,-78.4,-6.1,3.0,0.0,0.2,-1.6,111.9,16.9,3
7.9,-2.1,1.07,4.7,35.8,108.5,55.4,1.6,1.3,-0.5,-1.8,1.4,202.7,6.0,1
1.5,-2.4,-9.7,1.4,135.3,100.0,-19.3,2.0,0.5,1.3,5.0,-1.4,115.1,12.3,3
7.0,-0.4,-9.51,4.6,75.7,96.0,40.8,7.4,0.4,-0.6,-0.8,-0.3,98.4,5.2,2
0.91,0.1,-4.21,2.1,83.95,100.27,-77.71,-5.98,2.85,-0.3,-0.79,-1.43,111.15,16.72,3
2.1,7.7,0.75,6.9,8.4,108.14,-27.7,14.3,2.4,-1.1,-1.3,3.7,101.5,6.0,1
-6.15,-3.92,-16.67,-3.62,127.76,97.45,-118.01,-5.72,-0.03,3.42,17.26,-4.0,210.09,13.03,4
5.4,0.5,16.34,37.8,22.7,94.98,59.3,7.1,2.9,0.2,5.8,28.7,324.9,5.6,1
-5.29,-3.5,-17.91,-0.22,124.7,97.27,-128.97,-6.27,0.17,4.06,16.73,-3.52,241.49,13.5,4
0.3,-1.2,4.06,10.4,51.9,100.0,-63.9,2.7,1.5,-1.8,-7.5,5.1,80.6,13.0,1
-0.8,-1.3,-14.53,5.6,94.9,101.78,-15.6,4.4,1.1,0.6,1.5,3.2,141.5,10.1,3
-1.2,-2.6,-4.91,-4.0,61.3,101.04,0.1,-3.6,1.3,0.2,-0.4,7.0,146.0,8.9,1
1.84,0.1,9.37,2.99,80.91,102.61,-71.72,-4.95,1.59,-2.87,-9.35,0.02,104.59,15.13,3
1.73,-2.38,17.56,7.05,48.63,102.18,-63.46,6.46,1.37,-3.08,-11.57,-1.32,104.32,12.2,3
-7.01,-4.45,-22.25,-1.81,147.48,118.2,-110.66,-2.54,0.09,9.63,26.82,-4.37,126.06,17.27,4
-3.1,-1.7,-20.1,11.6,109.2,99.45,-163.8,-6.5,0.8,6.1,13.6,-0.7,352.8,14.6,4
0.1,6.9,-1.46,-2.6,99.8,103.87,38.1,3.7,1.0,-1.5,-6.3,3.7,185.1,7.0,1
5.7,2.0,19.55,4.1,70.4,118.37,-18.9,6.1,3.2,-2.5,-7.5,1.3,72.8,6.6,1
2.3,-4.3,2.9,2.4,99.2,104.45,-85.5,-1.2,-0.1,-3.5,-11.1,-0.4,147.4,22.1,2
-4.68,0.72,8.72,-0.03,60.88,107.44,-67.63,-2.71,0.1,1.54,5.27,-2.28,77.77,8.11,4
-2.25,-7.93,-27.61,7.34,73.16,93.12,-5.79,5.8,-0.17,1.01,4.0,3.04,169.04,7.85,2
-2.8,6.0,-21.25,-3.6,83.2,88.06,-28.1,3.0,0.4,0.8,2.1,1.5,176.1,7.9,2
-3.5,0.5,14.14,0.8,37.6,101.35,-63.2,-4.7,0.0,0.8,1.6,-1.4,66.8,7.0,4
1.2,1.7,19.36,16.7,40.6,95.53,-46.8,8.7,2.3,-3.2,-13.3,0.2,54.2,12.0,1
-9.72,1.38,-13.93,-3.03,157.23,132.96,-86.47,6.8,0.72,4.63,20.49,-5.75,123.81,12.7,4
-1.4,0.4,-15.78,3.9,63.2,100.19,5.2,0.4,0.7,0.6,0.2,1.3,148.0,9.0,1
0.7,-3.7,2.44,16.3,36.8,106.62,-26.9,2.7,2.1,-1.3,-8.5,4.3,68.7,5.1,1
-1.23,0.5,-21.18,2.76,69.56,102.06,1.47,3.82,0.55,0.77,3.47,6.78,147.96,8.9,2
-7.38,-4.97,-26.04,-2.08,158.95,119.96,-115.62,-2.31,0.1,10.55,29.45,-4.68,132.25,18.34,4
0.63,-1.55,-12.68,0.13,133.58,105.13,-17.92,2.24,1.45,1.44,5.36,-1.49,116.72,11.2,3
2.1,-2.4,26.53,-6.2,43.9,92.26,-74.7,-20.6,-1.4,6.9,17.4,-2.4,115.2,17.7,1
8.4,-1.8,1.52,-0.1,56.9,110.77,59.4,-0.1,0.7,-1.0,-3.8,3.7,249.1,5.9,2
3.1,0.0,10.82,-7.6,72.9,123.6,-55.1,9.1,4.2,-2.0,-9.7,0.7,70.8,5.4,1
-1.2,-3.8,-10.57,1.9,119.9,78.19,-133.4,-0.7,0.2,1.1,-1.4,-1.4,267.5,14.9,2
0.29,-4.42,-7.66,3.26,42.9,108.15,-50.9,5.69,-0.0,1.06,1.76,-3.07,111.08,9.3,3
-4.6,1.8,16.57,0.3,100.6,103.32,-121.3,-0.4,1.1,-4.1,-12.6,8.4,282.6,10.8,3
-4.97,-1.94,12.34,4.71,37.01,104.2,-67.5,6.54,1.66,0.8,1.8,0.26,71.98,7.0,4
-0.5,-3.0,2.4,4.6,98.3,103.04,-16.6,1.6,0.5,-0.3,-2.1,6.8,145.3,9.9,2
0.9,-4.3,13.16,9.5,26.0,100.0,-61.8,14.5,2.2,-1.2,-6.5,-3.5,109.3,11.2,3
-6.68,-4.09,-14.63,-0.02,122.61,115.3,-101.33,0.45,0.58,7.64,21.21,-3.19,114.35,14.96,4
-0.3,4.8,20.52,13.0,10.6,93.21,-46.7,14.7,0.5,-3.8,-7.4,5.6,115.4,8.7,1
7.7,-1.2,-15.87,7.3,44.3,93.85,43.3,2.3,-1.2,-0.1,-2.2,-0.3,214.0,7.4,1
2.19,-2.16,16.73,6.45,54.92,105.74,-57.25,2.0,0.3,-4.27,-14.84,2.21,101.01,11.57,3
2.3,0.9,-2.83,-2.8,82.9,107.03,4.1,5.4,0.7,0.6,1.5,3.4,123.5,5.8,1
2.1,-6.8,-16.82,8.7,76.8,88.33,-80.4,6.2,4.6,-1.5,-5.6,-0.2,91.7,9.6,2
-1.9,-5.6,-19.39,-8.5,178.9,103.46,-131.9,-10.4,0.1,10.7,7.7,-3.0,130.8,26.2,4
2.04,0.1,12.15,3.17,80.29,103.09,-70.49,-4.74,1.33,-3.4,-11.1,0.31,103.25,14.8,3
0.61,-2.5,2.89,-0.94,131.34,102.82,-115.0,-0.12,0.32,-1.71,-7.85,-1.59,174.66,13.56,3
-0.1,6.4,3.49,8.2,33.8,114.86,-31.0,16.5,3.2,-1.9,-5.2,4.3,56.4,7.1,1
-1.47,-4.3,-14.6,-1.58,99.59,104.37,-98.86,-4.4,0.74,5.42,12.15,-9.94,188.96,20.12,3
2.0,1.3,-9.15,-0.1,84.9,100.0,2.2,6.4,0.4,0.5,1.2,2.1,124.0,5.6,1
0.35,-1.8,0.53,-2.98,132.02,103.01,-115.48,-1.4,0.29,-1.12,-4.64,-3.67,177.08,13.65,3
-2.17,-5.85,-24.97,6.95,125.7,119.2,-22.44,2.34,0.97,2.09,9.77,-0.43,123.92,9.08,2
0.58,-3.19,0.11,-1.31,129.35,100.29,-117.66,-0.01,0.05,-0.2,-5.03,-1.8,179.68,14.71,3
1.8,0.0,9.47,3.5,80.8,102.02,-72.4,-5.6,1.9,-4.4,-18.7,-0.2,104.2,15.5,3
-6.4,-4.33,-20.28,-3.03,139.19,104.46,-118.17,-4.9,0.03,5.86,21.6,-4.43,184.63,14.93,4
-3.4,-4.3,-0.26,7.4,56.0,96.32,-68.9,3.1,1.7,1.4,3.6,3.3,75.4,10.0,1
-1.4,2.1,-23.06,1.4,63.6,100.0,4.8,3.3,0.6,0.7,3.4,6.9,152.1,8.8,2
-8.44,-3.51,-14.1,-4.18,125.96,109.53,-107.12,-0.96,-0.2,4.65,17.69,-1.8,186.19,13.04,4
-1.7,-8.6,7.91,5.6,42.4,92.02,-67.5,-6.5,0.9,3.3,-4.8,-5.4,96.8,16.9,1
