PC_CA-avg_3y,REER-pch_3y,X_GS_share_M-pch_5y,FSL-pch,GD-pc_gdp,HPI-pch,NIIP-pc_gdp,ULC-pch_3y,ACT-pch_3y,LTU-pch_3y,YUR-pch_3y,PSCF-pc_gdp,PSD-pc_gdp,UR-avg_3y,label
0.7,-4.6,-5.63,4.33,41.39,109.92,-45.96,4.37,-0.55,-0.21,-2.15,0.11,108.33,8.75,3
0.31,-0.81,-7.75,1.78,84.64,101.18,-80.17,-5.91,2.7,1.13,2.73,-3.22,124.84,17.76,3
6.5,-7.8,-17.73,2.5,44.9,88.28,36.1,-0.2,-1.5,1.5,2.3,7.9,224.0,7.8,2
2.2,4.8,3.92,1.7,74.0,113.27,3.7,4.7,1.3,-0.3,-1.2,3.9,121.0,5.5,1
4.0,-9.2,-7.55,9.1,42.2,107.3,-1.9,3.1,1.0,-0.1,-4.6,8.4,192.5,7.5,2
-1.9,-1.0,21.09,1.2,39.2,98.15,-57.1,6.7,1.6,-0.1,0.1,-2.3,62.1,6.9,2
-2.9,-3.2,-10.3,1.1,51.8,93.79,-60.6,-0.3,1.0,2.9,6.7,1.9,71.1,14.0,1
1.3,1.2,1.88,9.4,53.5,94.8,-63.5,2.4,1.6,0.1,-3.7,5.0,79.0,13.8,1
-4.53,1.36,16.68,0.19,100.24,103.31,-121.58,-0.6,1.02,-4.05,-12.53,8.31,283.75,10.92,3
-3.3,3.4,-11.62,-7.7,84.2,88.71,-17.8,3.9,1.0,0.2,0.8,6.6,170.2,7.8,2
-2.7,-5.04,-15.14,2.89,159.58,98.84,-129.8,-8.48,0.2,3.63,2.54,-3.45,156.74,21.74,4
1.61,-5.89,28.29,8.08,85.23,95.7,-185.57,-15.07,0.84,-2.91,-8.78,-2.12,297.68,12.49,2
-2.68,4.42,-11.51,2.81,89.53,98.62,-19.94,4.28,1.06,0.01,-1.58,4.2,151.5,8.4,2
-2.6,-0.5,7.39,4.3,39.8,98.89,-45.2,3.4,0.8,0.5,8.2,2.1,68.3,6.9,1
-0.5,0.1,25.75,2.8,48.8,109.28,-55.6,7.8,2.0,-2.0,-9.1,3.3,75.8,5.0,1
1.24,-0.51,-16.67,-8.6,71.77,104.49,-44.15,-0.67,-0.5,1.75,6.07,-3.44,107.78,10.07,3
-1.7,-8.6,7.91,5.6,42.4,92.02,-67.5,-6.5,0.9,3.3,-4.8,-5.4,96.8,16.9,1
2.33,0.05,16.75,3.71,79.21,103.59,-68.81,-4.7,1.05,-4.98,-18.38,0.7,100.87,14.44,3
7.0,-0.4,-9.51,4.6,75.7,96.0,40.8,7.4,0.4,-0.6,-0.8,-0.3,98.4,5.2,2
-3.61,-4.75,-15.75,1.08,150.93,98.23,-126.83,-7.84,0.14,3.59,6.8,-3.69,171.98,19.33,4
2.3,2.3,77.37,5.1,63.5,127.42,-165.0,-2.8,0.8,-3.2,-6.4,-7.8,223.2,7.0,2
3.31,1.09,-11.78,-0.53,80.57,98.76,-37.55,0.08,0.69,1.55,3.47,-4.74,96.67,9.6,2
-3.4,-4.3,-0.26,7.4,56.0,96.32,-68.9,3.1,1.7,1.4,3.6,3.3,75.4,10.0,1
-4.48,-7.06,-17.69,-2.87,125.61,89.79,-126.2,-7.58,-0.71,4.32,13.39,-2.88,236.14,13.95,4
7.6,-2.3,-2.96,6.7,61.9,104.44,61.4,-0.3,0.3,0.0,-2.4,3.9,259.3,6.8,2
-1.2,-1.6,7.31,8.6,52.0,107.04,-66.8,4.1,2.0,-4.2,-11.5,9.2,88.5,11.5,1
-7.84,-3.33,-12.36,-4.44,119.23,102.85,-109.13,-2.39,-0.2,2.9,14.92,-1.96,206.59,11.86,4
1.42,-0.46,-11.76,-6.93,72.52,104.4,-47.01,-1.23,-0.32,0.51,0.94,-2.88,106.5,10.59,3
1.8,0.0,9.47,3.5,80.8,102.02,-72.4,-5.6,1.9,-4.4,-18.7,-0.2,104.2,15.5,3
-5.71,-0.7,-8.4,-8.7,174.24,115.8,-115.88,2.73,0.76,0.4,6.31,-3.63,123.83,18.57,4
0.1,6.9,-1.46,-2.6,99.8,103.87,38.1,3.7,1.0,-1.5,-6.3,3.7,185.1,7.0,1
-0.8,-2.2,-14.22,0.5,93.4,103.54,-16.6,4.6,0.9,0.6,1.6,2.1,137.4,9.8,2
-6.55,-2.41,3.23,0.84,68.6,104.94,-82.5,3.82,0.88,1.53,6.62,-0.15,126.19,8.71,4
1.21,-0.47,-15.96,-7.91,72.59,104.19,-46.37,-1.02,-0.28,1.64,5.69,-3.32,108.05,10.51,3
-2.81,-1.19,-15.5,3.04,106.23,100.07,-163.06,-3.19,0.34,5.36,18.56,-7.15,346.18,13.06,4
1.32,0.1,1.82,2.5,82.6,101.31,-75.05,-5.52,2.29,-1.44,-4.59,-0.79,108.24,16.01,3
-2.44,-8.61,-18.94,2.79,116.24,85.49,-146.7,-8.74,-0.98,5.84,8.8,-0.57,304.32,14.99,4
0.3,-0.9,-0.15,1.1,17.1,97.38,-73.5,15.3,1.7,2.7,6.5,2.6,130.6,12.2,2
-5.0,-2.0,12.3,4.8,37.0,104.27,-67.6,6.8,1.7,0.8,1.8,0.3,72.1,7.0,4
5.4,5.1,-17.19,9.7,40.4,82.36,-15.9,8.7,2.0,-0.2,-1.3,4.6,193.6,8.0,2
-3.1,-1.7,-20.1,11.6,109.2,99.45,-163.8,-6.5,0.8,6.1,13.6,-0.7,352.8,14.6,4
-0.62,-0.04,-19.82,-1.87,128.74,108.76,-22.53,3.05,1.37,2.67,11.04,-2.29,123.23,10.37,3
-2.8,-7.8,-25.92,10.4,80.1,89.47,-11.6,5.8,-0.3,1.3,6.3,1.6,176.6,7.8,2
9.9,3.2,1.68,-3.3,52.4,118.9,70.7,3.0,0.7,-1.6,-4.1,4.5,241.6,4.9,2
4.05,0.35,-5.06,-3.59,82.47,99.92,-31.6,-0.09,1.36,0.47,-3.81,-4.98,87.99,9.6,2
-1.08,-4.29,-10.54,-7.2,178.03,98.63,-137.2,-4.46,0.63,-0.55,-10.0,-2.26,125.63,25.24,4
-0.98,-1.84,-18.44,4.73,78.27,105.08,-3.38,4.57,0.48,0.88,3.58,6.6,141.92,9.04,2
0.5,-1.8,5.22,-0.4,131.5,106.07,-110.5,-0.5,0.7,-3.1,-10.1,-1.8,169.3,12.6,3
-4.3,3.4,-2.78,0.6,43.5,99.71,-63.9,5.4,-0.1,2.6,14.4,2.9,69.5,13.3,1
-0.2,-0.3,-10.28,-10.3,95.8,96.28,-92.8,-5.1,0.8,5.7,14.0,-10.0,178.2,24.1,2
-0.45,-3.08,-3.11,0.0,114.94,106.4,-102.59,-2.15,0.88,0.49,-0.83,-5.24,176.33,16.04,3
0.1,-1.8,-7.24,-7.26,132.89,97.94,-123.72,-2.89,-0.39,2.17,4.41,-6.77,189.97,15.38,3
7.0,-2.4,-8.35,10.3,61.7,114.09,20.1,5.3,0.3,0.4,1.4,8.2,247.2,4.8,1
-2.7,-3.2,-19.21,5.1,119.7,124.71,-18.2,4.9,-0.8,1.3,8.0,3.1,121.8,8.2,2
1.0,3.1,8.95,0.5,122.0,124.17,-106.1,5.1,1.7,-4.1,-11.7,1.0,155.4,9.1,2
-8.8,-3.0,-9.92,-4.9,114.4,105.91,-104.1,-0.5,-0.3,2.6,13.6,-0.8,204.6,11.2,4
1.24,-0.52,-16.72,-8.66,71.71,104.51,-43.97,-0.64,-0.52,1.76,6.1,-3.45,107.76,10.03,3
-3.93,-4.64,-15.97,0.43,147.82,98.01,-125.76,-7.6,0.12,3.58,8.33,-3.78,177.45,18.46,4
-4.67,-0.27,8.85,-0.45,54.49,102.35,-72.19,-3.78,-0.07,1.2,4.24,-1.27,97.1,7.92,4
-0.78,-1.15,-15.16,4.71,98.93,102.61,-16.42,4.24,1.13,0.85,2.64,2.55,139.33,10.13,3
2.06,-1.61,19.33,6.07,57.71,103.06,-64.13,3.24,1.04,-3.83,-13.6,-0.44,102.32,12.61,3
0.1,-1.8,-7.32,-7.3,132.9,97.89,-123.8,-2.9,-0.4,2.2,4.5,-6.8,190.1,15.4,3
0.27,-1.81,-12.29,3.65,113.61,100.96,-17.31,3.29,0.82,0.92,3.12,1.07,129.27,11.12,3
2.1,7.7,0.75,6.9,8.4,108.14,-27.7,14.3,2.4,-1.1,-1.3,3.7,101.5,6.0,1
2.6,4.1,4.61,-2.3,97.6,114.86,-80.2,0.7,-0.6,-5.0,-14.0,0.4,134.4,17.4,2
1.32,-6.35,53.44,7.13,72.51,108.2,-183.87,-17.11,0.95,-3.76,-9.85,-1.14,279.67,10.27,2
1.3,-0.6,-18.21,-10.1,70.0,105.12,-39.3,0.1,-1.0,2.0,6.9,-3.7,107.2,9.1,3
5.0,-1.0,21.39,0.4,22.3,109.59,51.8,4.0,-0.6,0.5,-7.2,27.4,322.9,6.2,1
-5.6,-5.0,17.63,10.4,70.2,95.07,6.3,11.1,2.7,1.3,1.6,6.8,168.3,6.7,1
0.55,-1.51,3.54,-0.03,124.3,105.14,-105.6,-1.35,1.05,-2.63,-8.53,-1.77,160.54,13.26,3
-2.18,0.57,3.71,1.87,29.06,111.86,-63.77,13.38,-1.72,2.65,9.2,2.17,121.93,8.44,2
-0.87,-3.65,-6.79,0.18,107.62,106.54,-99.09,-2.88,0.96,2.08,3.26,-6.77,179.44,17.57,3
-2.6,-0.8,-12.04,-3.4,104.0,100.54,-162.5,-0.7,0.0,4.8,22.3,-12.0,341.2,11.9,4
1.02,-2.21,-10.43,0.01,44.4,92.09,-77.44,11.77,2.2,1.21,3.65,1.06,114.85,11.52,2
-2.9,0.4,11.98,11.4,41.6,102.42,-67.1,16.0,1.8,-4.2,-11.4,-4.4,82.2,12.6,1
0.27,-1.8,-2.09,-4.42,132.32,101.3,-118.26,-1.9,0.06,-0.01,-1.58,-4.72,181.43,14.23,3
2.3,0.9,-2.83,-2.8,82.9,107.03,4.1,5.4,0.7,0.6,1.5,3.4,123.5,5.8,1
-2.27,-11.83,-18.29,-1.88,120.31,79.06,-136.96,-9.73,-1.81,5.6,6.81,-0.67,276.0,15.11,4
-2.0,2.5,13.52,13.2,37.3,100.0,-64.1,17.2,1.3,-3.3,-12.2,-0.5,80.4,10.9,1
2.0,1.3,-9.15,-0.1,84.9,100.0,2.2,6.4,0.4,0.5,1.2,2.1,124.0,5.6,1
8.1,-2.1,2.13,5.2,69.2,106.77,51.4,4.9,0.3,-0.6,-0.7,3.7,98.2,4.6,2
5.1,-1.5,33.28,5.2,20.1,105.68,54.6,1.2,0.1,0.4,3.4,-9.6,309.0,6.3,1
-7.71,1.3,-5.23,-2.17,120.83,123.11,-79.04,2.42,0.37,3.46,14.72,-4.56,106.03,10.96,4
-7.05,-5.4,-12.12,-4.09,115.84,98.69,-112.89,-2.95,-0.72,3.41,11.7,-0.72,224.04,12.24,4
-2.1,-6.2,-25.74,7.2,126.5,118.47,-23.0,2.0,1.2,2.2,10.0,-0.9,124.2,9.2,2
-0.7,-8.3,-32.36,-1.3,53.6,103.4,10.6,5.8,0.2,0.2,-2.5,7.1,147.7,8.0,2
2.1,-2.4,26.53,-6.2,43.9,92.26,-74.7,-20.6,-1.4,6.9,17.4,-2.4,115.2,17.7,1
-1.22,-4.09,-16.43,6.43,96.15,112.65,-11.19,5.27,0.09,1.08,4.83,5.54,131.77,8.94,2
1.63,0.1,6.2,2.78,81.62,102.06,-73.12,-5.19,1.89,-2.27,-7.35,-0.32,106.12,15.5,3
-2.1,-12.2,-18.34,-1.8,119.9,78.23,-137.8,-9.9,-1.9,5.7,6.3,-0.5,279.1,15.2,4
-2.11,-12.18,-18.34,-1.8,119.93,78.28,-137.75,-9.89,-1.89,5.69,6.33,-0.51,278.91,15.19,4
-1.4,2.1,-23.06,1.4,63.6,100.0,4.8,3.3,0.6,0.7,3.4,6.9,152.1,8.8,2
1.44,-0.44,-9.71,-0.25,100.36,98.5,-94.16,-3.12,0.2,3.0,4.67,-5.82,164.37,24.25,2
2.4,-1.8,-12.5,1.5,82.4,88.31,-1.9,5.8,0.7,0.2,0.4,3.0,129.4,4.9,1
-4.6,1.8,16.57,0.3,100.6,103.32,-121.3,-0.4,1.1,-4.1,-12.6,8.4,282.6,10.8,3
1.0,-1.7,-13.57,2.7,105.2,100.0,45.2,0.5,0.7,1.0,2.3,12.1,176.1,8.5,1
0.9,-0.8,14.27,1.4,126.1,114.08,-110.4,2.8,1.5,-3.9,-10.9,2.3,162.4,10.9,2
-0.19,-2.8,-4.86,2.04,103.37,100.0,-14.15,2.24,0.82,0.58,1.22,3.43,137.38,10.69,3
8.5,4.9,24.47,2.3,45.6,114.74,63.2,4.1,5.9,-0.9,-2.5,7.5,129.0,4.1,1
-2.31,-7.36,-15.67,-2.48,113.16,87.69,-148.28,-6.0,-1.09,5.32,13.09,-5.38,305.44,13.8,4
0.6,4.9,8.63,-3.0,37.2,120.83,-49.1,15.1,2.0,-1.4,-4.1,-0.2,70.5,8.6,1
0.86,0.09,-4.9,2.09,84.1,100.12,-78.06,-6.07,2.94,-0.25,-0.88,-1.52,111.46,16.82,3
2.3,-4.3,2.9,2.4,99.2,104.45,-85.5,-1.2,-0.1,-3.5,-11.1,-0.4,147.4,22.1,2
-1.08,-3.68,-12.78,-3.01,107.93,102.75,-105.1,-4.03,0.46,4.61,10.23,-9.16,189.24,18.94,3
-0.98,-3.79,-7.7,0.23,105.81,106.58,-98.22,-3.06,0.98,2.47,4.28,-7.14,180.21,17.94,3
0.2,-6.3,71.33,4.3,67.7,117.61,-167.2,-15.4,0.9,-3.6,-9.0,0.2,250.5,8.4,2
0.05,-3.82,2.63,4.85,57.5,93.37,-68.44,6.46,3.06,-0.78,-2.67,-1.28,76.51,8.21,2
-7.69,-3.38,-12.73,-4.37,119.96,102.39,-109.89,-2.67,-0.19,2.94,15.12,-2.13,206.89,11.96,4
1.2,5.3,8.56,23.0,34.7,116.3,-25.0,5.9,2.4,-1.7,-8.0,4.2,67.3,4.0,1
-2.36,-11.84,-18.01,-1.92,119.68,79.32,-136.47,-9.53,-1.84,5.58,6.59,-0.51,276.15,15.04,4
-4.34,0.13,16.99,-0.11,99.24,103.29,-122.36,-1.15,0.8,-3.92,-12.34,8.05,286.95,11.25,3
-3.63,-8.89,-17.92,-2.49,123.57,85.67,-130.33,-8.41,-1.13,4.81,10.86,-2.03,251.45,14.39,4
-4.61,-6.78,-17.65,-2.92,125.91,90.42,-125.57,-7.45,-0.64,4.25,13.77,-3.01,233.83,13.88,4
0.88,-1.66,-12.85,0.19,134.48,102.8,-20.48,2.26,0.76,1.77,7.09,-1.84,116.89,11.74,3
-3.2,1.9,11.12,4.3,15.2,102.38,-82.8,17.9,-1.9,3.4,12.3,3.5,129.1,9.5,2
-3.52,0.47,14.11,0.85,37.59,101.39,-63.26,-4.54,0.02,0.8,1.6,-1.38,66.87,7.0,4
-4.22,9.81,-8.93,4.8,86.47,94.59,-22.66,3.95,1.18,-0.5,-4.25,6.02,163.19,7.26,2
-7.26,0.14,-11.36,-7.11,173.52,122.78,-106.75,4.1,0.7,1.99,11.87,-4.6,125.98,16.82,4
-9.1,-2.06,-11.35,-4.72,125.75,111.93,-101.09,0.94,-0.12,3.09,15.41,-1.92,189.96,11.63,4
-2.8,-0.7,24.04,3.3,34.7,109.99,-43.7,29.6,1.7,-1.2,-5.5,1.9,47.4,5.0,1
-0.8,-1.2,-0.62,0.0,68.4,94.11,27.0,9.5,5.9,-0.6,-0.5,2.3,152.9,6.2,1
-2.1,-5.3,-17.51,0.7,86.3,106.96,-88.9,-5.0,1.2,6.7,15.2,-11.2,188.5,22.0,3
-4.3,10.1,-9.19,4.8,86.2,94.4,-22.8,4.0,1.2,-0.5,-4.3,6.0,163.6,7.2,2
-5.42,-0.77,5.41,-1.27,65.46,103.0,-78.04,-3.18,-0.11,1.45,5.95,-1.18,116.79,8.52,4
-4.8,-11.4,15.13,4.8,54.5,108.27,-62.4,4.2,1.9,1.2,8.5,6.6,73.9,9.2,1
0.92,-4.32,13.01,9.49,26.14,100.27,-61.23,14.26,2.12,-1.27,-6.69,-3.23,109.1,11.13,3
0.9,5.8,7.29,8.6,10.0,100.0,-39.9,15.3,1.9,-3.1,-7.8,2.7,112.8,7.4,1
-1.5,-3.0,-0.36,-13.0,176.2,96.81,-140.7,-1.0,0.9,-3.9,-8.8,-1.0,118.0,23.3,4
1.3,-1.0,-11.49,0.0,100.7,96.46,-95.9,-3.6,0.3,4.0,7.0,-6.6,168.1,25.1,2
-2.69,-0.96,-13.45,-0.77,104.91,100.35,-162.73,-1.72,0.14,5.03,20.78,-10.02,343.23,12.37,4
8.2,-0.9,-6.74,4.0,64.6,100.0,48.9,-0.4,0.6,1.1,-0.4,0.0,262.8,7.2,2
-0.83,-2.93,-12.36,1.27,85.42,103.91,-84.3,-5.48,1.99,3.76,8.63,-6.99,154.93,19.76,3
1.9,-3.8,-22.85,-1.3,77.4,85.69,-82.2,7.5,2.8,-0.6,0.2,-0.8,95.8,10.7,2
0.9,-4.3,13.16,9.5,26.0,100.0,-61.8,14.5,2.2,-1.2,-6.5,-3.5,109.3,11.2,3
-0.6,-10.0,-6.24,5.2,42.2,96.29,-36.6,4.0,3.0,0.0,-2.2,1.7,71.5,6.7,1
-0.1,6.4,3.49,8.2,33.8,114.86,-31.0,16.5,3.2,-1.9,-5.2,4.3,56.4,7.1,1
-2.1,-12.13,-18.3,-1.81,119.8,78.37,-137.96,-9.84,-1.89,5.69,6.4,-0.57,279.49,15.18,4
-4.9,-1.84,12.42,4.54,37.04,104.08,-67.31,6.05,1.59,0.8,1.79,0.19,71.75,7.0,4
-0.16,-2.69,-0.55,-0.12,120.02,106.3,-105.01,-1.64,0.83,-0.61,-3.68,-4.19,174.18,14.99,3
-6.35,1.04,1.02,-1.21,93.96,116.08,-73.93,0.12,0.25,2.6,10.48,-3.54,93.36,9.68,4
-3.11,-10.82,-17.08,-2.27,119.07,82.38,-132.74,-8.49,-1.66,5.23,7.4,-0.55,267.92,14.6,4
5.7,-2.5,23.98,6.5,50.3,109.26,64.0,1.5,4.4,-0.9,-1.1,5.5,132.1,4.7,1
-1.71,0.07,-15.68,2.91,64.48,99.06,7.9,4.43,1.42,0.74,2.54,5.48,154.24,8.32,2
-0.72,-1.9,-10.46,4.32,95.16,101.11,-14.59,3.61,1.02,0.52,1.05,3.73,141.99,10.18,3
1.13,-0.37,-14.1,-6.1,74.73,103.43,-52.23,-1.95,0.32,1.34,4.69,-3.01,108.75,11.68,3
1.5,-2.4,-9.7,1.4,135.3,100.0,-19.3,2.0,0.5,1.3,5.0,-1.4,115.1,12.3,3
-1.2,-3.8,-10.57,1.9,119.9,78.19,-133.4,-0.7,0.2,1.1,-1.4,-1.4,267.5,14.9,2
-9.9,1.51,-14.94,-3.33,161.89,134.07,-87.2,6.8,0.68,4.78,21.21,-5.99,125.81,12.92,4
-3.5,0.5,14.14,0.8,37.6,101.35,-63.2,-4.7,0.0,0.8,1.6,-1.4,66.8,7.0,4
0.7,-2.8,-23.52,28.7,48.3,103.81,13.9,9.0,-1.1,0.5,3.6,5.3,144.6,8.1,2
-5.9,-4.0,-17.3,-3.5,129.0,96.67,-119.3,-6.2,0.0,3.5,17.6,-4.3,210.6,13.2,4
0.8,0.1,-5.77,2.0,84.3,100.0,-78.4,-6.1,3.0,0.0,0.2,-1.6,111.9,16.9,3
-4.9,0.2,1.09,11.7,86.8,105.5,0.3,3.7,0.9,-1.4,-7.7,8.8,166.4,5.4,1
2.7,-5.2,-2.11,19.5,75.5,113.12,-59.6,5.4,5.4,-2.5,-13.7,-3.1,77.5,6.5,1
0.76,-0.12,-6.5,1.87,82.81,100.65,-76.73,-5.8,2.79,0.12,0.53,-1.66,111.91,16.47,3
5.9,-4.9,-9.35,3.1,79.8,90.5,23.3,5.6,1.4,-1.1,-2.1,2.0,102.4,6.9,1
2.53,-0.9,20.37,5.02,67.71,105.32,-61.92,-1.3,0.3,-4.96,-16.66,1.81,99.27,12.65,3
2.0,-3.4,-4.02,3.3,134.8,100.19,-11.9,1.5,1.5,-0.2,-2.2,0.1,111.7,12.1,3
-2.4,2.5,3.2,8.9,49.4,117.31,-68.1,11.3,1.5,-3.6,-11.6,2.0,91.0,8.1,1
-2.13,-12.13,-18.33,-1.81,119.97,78.38,-137.65,-9.87,-1.88,5.68,6.39,-0.53,278.55,15.18,4
-0.1,-4.5,-20.85,-0.7,53.6,113.31,-44.0,0.1,-1.4,2.5,7.0,-2.8,112.2,8.1,3
1.2,11.0,11.47,7.4,32.6,123.49,-24.8,13.7,2.6,-1.7,-5.9,5.3,70.7,3.0,1
1.5,-4.7,9.44,9.3,29.3,106.56,-47.9,8.6,0.3,-2.9,-11.2,3.0,104.5,9.4,3
-1.0,-5.6,-13.98,6.3,175.9,100.0,-135.4,-9.7,0.3,3.7,-5.5,-3.0,128.0,26.3,4
8.3,-1.7,-2.87,5.2,37.2,105.09,52.6,1.3,0.9,-0.6,-2.6,3.1,209.0,6.4,1
-4.57,-1.81,-12.56,-7.86,176.09,112.71,-119.21,0.51,0.66,0.99,1.74,-3.76,127.02,20.63,4
-3.44,-1.94,-4.06,-11.02,175.3,105.56,-129.26,0.72,0.83,-1.92,-1.84,-2.21,120.69,21.12,4
-2.31,-7.44,-15.71,-2.47,113.26,87.55,-148.12,-6.06,-1.11,5.32,12.99,-5.31,305.05,13.82,4
-5.42,-1.27,-13.25,-7.29,175.49,116.27,-114.66,1.45,0.65,1.6,4.89,-4.17,127.5,19.55,4
-1.67,-4.88,-21.93,4.98,115.54,113.53,-20.88,2.86,1.1,1.67,7.22,0.09,128.57,9.4,2
6.67,-7.12,-16.65,2.65,46.84,89.43,37.36,-0.22,-1.29,1.46,2.03,7.12,227.81,7.74,2
-8.73,0.67,-8.42,-1.39,132.01,126.94,-82.51,6.8,0.93,3.82,16.57,-4.48,112.96,11.5,4
0.9,4.2,6.46,7.3,42.6,100.0,-43.6,11.8,2.3,-2.7,-10.4,2.6,55.3,10.5,1
-5.85,-4.12,-17.31,-3.48,128.87,96.41,-119.56,-6.25,-0.03,3.53,17.44,-4.25,211.58,13.23,4
-2.66,-0.91,-13.01,-1.6,104.63,100.41,-162.66,-1.4,0.1,4.96,21.25,-10.64,342.6,12.22,4
-4.8,1.4,1.39,10.7,54.1,101.13,-65.3,5.3,1.8,1.6,5.9,4.8,73.4,9.8,1
-2.4,0.5,-4.48,5.2,44.5,95.34,-45.9,3.8,1.5,1.0,2.9,2.9,70.7,7.0,1
-4.17,-0.62,13.31,2.6,37.33,102.66,-65.18,0.47,0.76,0.8,1.69,-0.64,69.18,7.0,4
1.16,-4.47,11.53,9.41,27.44,102.87,-55.73,11.92,1.37,-1.94,-8.55,-0.66,107.2,10.41,3
-1.1,-4.0,-9.78,-10.2,178.5,98.32,-137.6,-3.3,0.7,-1.5,-11.0,-2.1,125.1,25.0,4
7.7,-1.2,-15.87,7.3,44.3,93.85,43.3,2.3,-1.2,-0.1,-2.2,-0.3,214.0,7.4,1
-0.7,2.1,-4.08,1.4,54.7,93.4,-62.2,2.6,1.2,0.8,0.1,5.0,75.2,13.9,1
0.7,-3.7,2.44,16.3,36.8,106.62,-26.9,2.7,2.1,-1.3,-8.5,4.3,68.7,5.1,1
0.3,-1.2,4.06,10.4,51.9,100.0,-63.9,2.7,1.5,-1.8,-7.5,5.1,80.6,13.0,1
0.0,-8.2,-2.16,8.1,40.0,100.0,-32.9,0.1,2.4,-0.6,-6.9,0.3,68.1,6.1,1
-0.6,0.1,-20.41,-2.7,132.5,109.54,-23.3,2.9,1.4,2.9,12.1,-2.9,121.2,10.4,3
-0.7,-4.4,-15.44,6.9,87.8,108.38,-8.7,5.4,0.4,1.0,3.7,6.4,135.3,9.2,2
0.81,0.09,-5.99,1.78,84.04,100.09,-77.7,-5.99,2.93,0.04,0.32,-1.64,111.82,16.76,3
-0.3,4.8,20.52,13.0,10.6,93.21,-46.7,14.7,0.5,-3.8,-7.4,5.6,115.4,8.7,1
-1.32,-3.96,-5.38,-5.89,176.09,97.99,-138.75,-4.21,0.68,-1.1,-7.58,-1.74,121.69,24.41,4
-0.5,1.7,26.02,2.0,37.2,92.5,-53.6,-7.8,3.0,6.7,19.3,-1.8,68.8,15.7,1
-6.92,-2.51,1.07,-0.1,76.12,105.1,-86.05,3.11,0.69,1.71,7.76,-0.26,139.08,9.12,4
-0.6,-2.9,-3.68,2.2,95.6,100.0,-12.9,2.3,0.9,0.4,0.3,4.6,142.8,10.3,3
3.2,1.2,-12.73,-0.1,80.3,98.6,-38.4,0.1,0.6,1.7,4.5,-4.7,97.9,9.6,2
7.9,5.3,3.49,2.0,61.9,117.37,62.5,5.6,1.0,-0.6,-1.0,6.5,102.1,3.8,2
-4.1,-1.34,17.35,-0.46,98.04,103.26,-123.29,-1.81,0.53,-3.76,-12.1,7.75,290.78,11.64,3
1.54,-2.48,-9.24,1.56,135.26,100.02,-18.69,1.96,0.58,1.18,4.41,-1.28,114.82,12.28,3
-2.53,-7.64,-19.1,4.02,115.26,87.44,-149.09,-8.42,-0.73,5.87,9.47,-0.59,311.09,14.94,4
-0.8,-1.3,-14.53,5.6,94.9,101.78,-15.6,4.4,1.1,0.6,1.5,3.2,141.5,10.1,3
6.9,-2.5,-17.81,1.8,44.0,90.99,37.2,1.5,-1.4,0.4,-0.8,-3.0,216.1,7.7,1
1.1,0.9,1.08,1.4,101.7,102.86,56.8,0.9,0.3,-0.8,-3.9,0.4,185.4,7.8,1
2.3,-6.4,37.84,9.6,76.7,100.0,-198.4,-18.6,1.0,-3.9,-10.6,-2.3,305.1,11.9,2
-2.45,-5.62,-6.96,-0.0,88.52,105.85,-99.87,-4.74,0.73,3.81,7.47,-5.98,222.21,19.37,3
-0.6,-1.05,-4.28,-0.63,39.26,117.28,-48.1,9.57,-0.71,1.95,5.6,1.02,117.26,8.36,2
-1.7,2.7,-27.3,9.4,59.8,100.46,-3.1,7.6,0.5,0.2,0.4,1.7,148.8,8.2,2
-0.5,2.7,21.45,4.1,37.8,100.0,-54.7,0.6,1.3,0.0,-0.9,0.2,58.0,6.9,1
-4.5,-10.8,-1.18,-1.7,86.2,108.74,-10.0,5.1,0.9,-1.1,-4.9,7.2,167.7,4.8,1
-2.32,-11.72,-18.28,-1.9,120.43,79.31,-136.72,-9.68,-1.79,5.57,6.96,-0.72,275.1,15.08,4
4.1,-2.9,22.52,3.9,55.5,104.82,35.4,-1.5,4.3,-1.1,-2.0,15.2,136.1,5.3,1
-3.3,-6.4,18.62,-1.7,93.9,103.15,-126.5,-4.1,-0.4,-3.2,-11.3,6.7,304.0,13.0,3
0.53,-1.46,-6.45,-6.61,96.79,98.66,-90.68,-3.97,0.54,3.03,6.7,-7.21,169.25,23.52,2
-4.03,-1.83,17.48,-0.58,97.64,103.24,-123.6,-2.04,0.44,-3.7,-12.03,7.65,292.06,11.77,3
-0.75,-1.67,-12.04,4.82,95.06,101.37,-14.98,3.92,1.05,0.55,1.22,3.52,141.8,10.15,3
4.1,0.3,-4.61,-3.8,82.6,100.0,-31.2,-0.1,1.4,0.4,-4.3,-5.0,87.4,9.6,2
0.9,-0.4,-5.01,2.4,104.9,101.19,54.5,-0.9,0.1,0.1,-3.6,23.8,194.9,8.3,1
-1.4,0.4,-15.78,3.9,63.2,100.19,5.2,0.4,0.7,0.6,0.2,1.3,148.0,9.0,1
0.8,-0.8,-23.17,-5.8,78.6,89.71,-92.2,7.7,2.5,0.8,1.8,-6.0,102.2,11.1,2
-0.73,-0.78,-16.73,2.49,108.97,104.68,-18.48,3.84,1.21,1.46,5.47,0.92,133.9,10.21,3
1.7,0.7,-18.42,-3.2,81.3,95.34,1.3,6.4,1.1,0.1,0.2,1.0,127.1,5.0,1
-2.82,-1.19,-15.51,3.06,106.24,100.07,-163.06,-3.2,0.34,5.36,18.55,-7.13,346.2,13.06,4
-0.5,-3.0,2.4,4.6,98.3,103.04,-16.6,1.6,0.5,-0.3,-2.1,6.8,145.3,9.9,2
1.2,1.7,19.36,16.7,40.6,95.53,-46.8,8.7,2.3,-3.2,-13.3,0.2,54.2,12.0,1
-4.07,-7.96,-17.8,-2.68,124.61,87.77,-128.23,-7.99,-0.92,4.56,12.15,-2.47,243.65,14.17,4
-2.9,-7.6,12.18,8.6,67.8,95.49,19.6,8.7,4.5,0.9,-0.7,0.1,162.3,6.5,2
-10.3,1.8,-17.17,-4.0,172.1,136.51,-88.8,6.8,0.6,5.1,22.8,-6.5,130.2,13.4,4
0.57,-2.63,-19.58,-5.22,61.48,109.38,-41.74,0.1,-1.21,2.26,6.95,-3.23,109.8,8.58,3
8.3,-2.0,5.78,4.0,65.3,111.65,56.3,4.9,0.5,-0.6,-0.9,4.5,100.0,4.2,2
7.5,2.6,-1.5,-4.1,33.9,112.3,64.4,1.6,1.3,-0.6,-1.7,3.5,198.3,5.6,1
1.8,0.1,-12.48,5.9,63.4,96.09,43.0,2.4,6.0,-1.0,-1.6,7.4,143.6,6.0,1
-4.01,-1.9,17.5,-0.6,97.57,103.24,-123.65,-2.07,0.42,-3.69,-12.01,7.63,292.27,11.79,3
1.08,-4.42,12.04,9.44,26.99,101.97,-57.62,12.73,1.63,-1.71,-7.91,-1.55,107.86,10.66,3
2.1,-6.8,-16.82,8.7,76.8,88.33,-80.4,6.2,4.6,-1.5,-5.6,-0.2,91.7,9.6,2
0.4,-2.66,-6.56,1.82,114.58,100.0,-15.96,2.16,0.71,0.83,2.55,1.73,129.56,11.26,3
-6.31,1.04,1.2,-1.18,93.2,115.88,-73.78,0.05,0.25,2.58,10.36,-3.51,93.01,9.65,4
5.7,2.0,19.55,4.1,70.4,118.37,-18.9,6.1,3.2,-2.5,-7.5,1.3,72.8,6.6,1
-0.63,-0.11,-19.53,-1.46,126.87,108.38,-22.15,3.12,1.36,2.56,10.51,-1.99,124.24,10.36,3
-0.8,-2.21,-14.01,0.55,93.46,103.53,-16.6,4.56,0.89,0.59,1.55,2.16,137.5,9.8,2
1.87,-3.33,13.38,7.76,43.13,106.12,-52.95,5.03,0.3,-3.64,-13.17,2.57,102.62,10.57,3
5.0,-2.0,17.79,5.3,74.1,110.33,-24.2,3.7,3.3,-2.2,-9.0,0.9,76.3,7.9,1
-1.02,-5.48,-13.33,5.38,175.91,99.85,-135.65,-9.29,0.33,3.34,-5.66,-2.9,127.52,26.16,4
-0.9,-1.1,-5.63,-1.2,46.5,123.79,-39.8,7.7,-1.5,1.7,5.3,0.5,112.9,7.1,2
9.5,0.7,-11.35,8.0,67.8,96.7,48.0,3.7,0.9,1.3,2.7,4.3,267.2,6.8,2
-1.37,-3.33,-3.51,-12.06,176.97,97.32,-139.66,-1.77,0.83,-3.1,-9.54,-1.37,120.38,23.87,4
2.8,0.1,23.24,3.9,77.8,105.0,-65.6,-3.9,0.3,-5.5,-18.1,1.5,97.9,13.5,3
