PC_CA-avg_3y,REER-pch_3y,X_GS_share_M-pch_5y,FSL-pch,GD-pc_gdp,HPI-pch,NIIP-pc_gdp,ULC-pch_3y,ACT-pch_3y,LTU-pch_3y,YUR-pch_3y,PSCF-pc_gdp,PSD-pc_gdp,UR-avg_3y,label
-0.34,-1.15,-15.33,2.18,89.47,102.51,-20.77,3.46,0.64,0.91,2.68,1.69,134.02,9.88,3
0.64,-0.89,-0.02,0.74,109.01,103.18,-95.2,-3.17,1.8,-1.62,-5.19,-1.7,141.95,14.65,3
-2.1,-5.3,-17.51,0.7,86.3,106.96,-88.9,-5.0,1.2,6.7,15.2,-11.2,188.5,22.0,3
0.4,-7.1,58.59,1.5,73.8,107.17,-171.7,-17.7,0.9,-3.8,-9.9,-15.7,284.4,10.1,2
-0.8,-1.2,-0.62,0.0,68.4,94.11,27.0,9.5,5.9,-0.6,-0.5,2.3,152.9,6.2,1
-1.0,-5.1,17.73,9.1,54.3,102.29,-61.6,2.5,1.8,-2.2,-9.6,5.1,81.6,7.6,1
5.0,-1.0,21.39,0.4,22.3,109.59,51.8,4.0,-0.6,0.5,-7.2,27.4,322.9,6.2,1
5.7,-2.5,23.98,6.5,50.3,109.26,64.0,1.5,4.4,-0.9,-1.1,5.5,132.1,4.7,1
0.35,-1.8,0.45,-3.03,132.03,102.96,-115.56,-1.41,0.28,-1.08,-4.54,-3.7,177.22,13.67,3
0.0,-8.2,-2.16,8.1,40.0,100.0,-32.9,0.1,2.4,-0.6,-6.9,0.3,68.1,6.1,1
-3.1,-1.69,-20.05,11.5,109.17,99.46,-163.79,-6.46,0.79,6.09,13.66,-0.77,352.73,14.58,4
-0.77,-2.83,-14.57,2.34,91.79,104.93,-14.33,4.83,0.76,0.71,2.2,3.34,136.8,9.63,2
-0.8,-2.41,-10.45,-2.95,110.33,85.38,-117.27,-2.45,0.44,2.93,4.72,-4.82,232.03,18.55,2
2.3,0.9,-2.83,-2.8,82.9,107.03,4.1,5.4,0.7,0.6,1.5,3.4,123.5,5.8,1
-2.4,2.5,3.2,8.9,49.4,117.31,-68.1,11.3,1.5,-3.6,-11.6,2.0,91.0,8.1,1
-1.49,-0.58,0.77,-4.73,121.97,99.73,-122.95,-2.05,0.11,0.07,-1.29,-1.66,221.41,13.84,3
-3.5,0.5,14.14,0.8,37.6,101.35,-63.2,-4.7,0.0,0.8,1.6,-1.4,66.8,7.0,4
-1.64,-4.57,-15.4,-0.96,95.96,105.08,-96.14,-4.56,0.87,5.77,12.98,-10.29,188.83,20.63,3
-0.9,-1.1,-5.63,-1.2,46.5,123.79,-39.8,7.7,-1.5,1.7,5.3,0.5,112.9,7.1,2
-2.13,-11.53,-17.97,-1.89,118.97,79.53,-139.24,-9.36,-1.79,5.65,7.24,-1.17,282.73,15.01,4
-4.5,-4.4,-26.64,-17.4,177.4,109.02,-130.4,-10.0,-0.3,12.8,25.3,-4.0,132.3,23.3,4
-0.35,-1.85,20.84,3.38,34.07,103.34,-52.01,9.21,1.86,-1.35,-3.96,0.06,75.71,7.2,2
0.9,0.2,-15.53,0.5,135.4,104.16,-21.0,2.6,1.8,3.4,13.5,-0.3,118.9,11.9,3
-2.74,-5.51,-19.46,6.74,113.08,91.75,-154.37,-7.73,-0.18,5.95,10.95,-0.63,326.06,14.82,4
2.4,-1.8,-12.5,1.5,82.4,88.31,-1.9,5.8,0.7,0.2,0.4,3.0,129.4,4.9,1
7.0,-2.4,-8.35,10.3,61.7,114.09,20.1,5.3,0.3,0.4,1.4,8.2,247.2,4.8,1
-4.68,-1.46,12.69,3.94,37.13,103.64,-66.66,4.33,1.34,0.8,1.76,-0.06,70.96,7.0,4
-2.13,-5.33,-16.5,0.63,86.51,106.85,-89.95,-4.97,1.16,6.42,14.46,-10.7,191.72,21.75,3
6.6,0.1,-3.82,10.9,19.0,86.69,28.9,8.8,1.1,-0.2,-1.1,21.4,284.3,4.8,1
-1.3,-5.33,-11.99,6.19,165.4,100.32,-130.28,-8.45,0.41,3.48,-4.95,-2.75,123.78,24.84,4
-0.1,6.4,3.49,8.2,33.8,114.86,-31.0,16.5,3.2,-1.9,-5.2,4.3,56.4,7.1,1
2.0,1.3,-9.15,-0.1,84.9,100.0,2.2,6.4,0.4,0.5,1.2,2.1,124.0,5.6,1
-4.04,-0.39,13.48,2.23,37.39,102.39,-64.77,-0.6,0.61,0.8,1.67,-0.79,68.69,7.0,4
1.41,-0.47,-12.28,-7.19,72.31,104.46,-46.39,-1.12,-0.38,0.63,1.42,-2.95,106.56,10.47,3
-5.72,-2.63,-8.85,-0.85,107.02,112.0,-93.19,-3.33,0.06,6.38,17.53,-3.28,104.24,13.49,4
-0.35,-2.95,-2.25,-0.04,116.64,106.36,-103.4,-1.98,0.86,0.12,-1.78,-4.89,175.61,15.69,3
-4.05,-0.42,13.46,2.27,37.38,102.43,-64.82,-0.46,0.63,0.8,1.67,-0.77,68.75,7.0,4
-4.8,1.4,1.39,10.7,54.1,101.13,-65.3,5.3,1.8,1.6,5.9,4.8,73.4,9.8,1
-3.3,-6.4,18.62,-1.7,93.9,103.15,-126.5,-4.1,-0.4,-3.2,-11.3,6.7,304.0,13.0,3
-0.6,-2.9,-3.68,2.2,95.6,100.0,-12.9,2.3,0.9,0.4,0.3,4.6,142.8,10.3,3
5.7,2.0,19.55,4.1,70.4,118.37,-18.9,6.1,3.2,-2.5,-7.5,1.3,72.8,6.6,1
1.07,0.07,-1.66,2.4,83.36,100.55,-76.78,-5.97,2.7,-1.19,-4.9,-1.22,109.82,16.52,3
1.5,-4.7,9.44,9.3,29.3,106.56,-47.9,8.6,0.3,-2.9,-11.2,3.0,104.5,9.4,3
1.9,-3.8,-22.85,-1.3,77.4,85.69,-82.2,7.5,2.8,-0.6,0.2,-0.8,95.8,10.7,2
0.46,-0.99,-10.88,3.77,105.46,99.62,47.7,4.65,0.39,0.54,2.83,8.62,170.23,8.02,2
-2.57,-7.29,-19.16,4.47,114.9,88.15,-149.96,-8.31,-0.64,5.89,9.71,-0.59,313.56,14.92,4
4.17,-9.11,-8.23,8.66,42.38,106.03,0.64,2.88,0.83,0.01,-4.14,8.37,194.61,7.52,2
-2.4,0.5,-4.48,5.2,44.5,95.34,-45.9,3.8,1.5,1.0,2.9,2.9,70.7,7.0,1
7.9,-2.1,1.07,4.7,35.8,108.5,55.4,1.6,1.3,-0.5,-1.8,1.4,202.7,6.0,1
-0.8,-1.3,-14.53,5.6,94.9,101.78,-15.6,4.4,1.1,0.6,1.5,3.2,141.5,10.1,3
1.26,-2.11,-10.95,0.92,134.97,101.11,-19.77,2.1,0.6,1.49,5.83,-1.57,115.81,12.08,3
1.81,0.0,9.6,3.5,80.77,102.05,-72.34,-5.58,1.88,-4.41,-18.69,-0.18,104.14,15.48,3
-1.7,2.7,-27.3,9.4,59.8,100.46,-3.1,7.6,0.5,0.2,0.4,1.7,148.8,8.2,2
-4.3,3.4,-2.78,0.6,43.5,99.71,-63.9,5.4,-0.1,2.6,14.4,2.9,69.5,13.3,1
0.3,-1.2,4.06,10.4,51.9,100.0,-63.9,2.7,1.5,-1.8,-7.5,5.1,80.6,13.0,1
-0.6,0.1,-20.41,-2.7,132.5,109.54,-23.3,2.9,1.4,2.9,12.1,-2.9,121.2,10.4,3
0.2,-2.2,2.63,-0.27,126.36,106.17,-108.04,-1.01,0.76,-1.99,-7.22,-2.87,171.48,13.67,3
-2.5,-7.96,-19.05,3.61,115.58,86.79,-148.29,-8.53,-0.81,5.86,9.25,-0.58,308.85,14.96,4
-4.74,-2.23,10.59,4.9,46.06,103.99,-72.02,5.72,1.61,0.99,1.32,0.08,75.75,8.26,4
-2.07,-5.26,-17.25,0.69,86.83,106.95,-89.15,-4.95,1.19,6.59,14.91,-11.09,188.28,21.89,3
0.19,-0.42,-15.11,2.62,118.54,103.17,-18.75,3.35,1.51,2.23,8.5,1.16,128.31,11.15,3
7.7,-1.2,-15.87,7.3,44.3,93.85,43.3,2.3,-1.2,-0.1,-2.2,-0.3,214.0,7.4,1
1.43,-0.44,-10.82,-6.47,72.88,104.29,-48.14,-1.42,-0.23,0.29,0.06,-2.77,106.4,10.81,3
-3.1,-1.7,-20.1,11.6,109.2,99.45,-163.8,-6.5,0.8,6.1,13.6,-0.7,352.8,14.6,4
1.5,-2.4,-9.7,1.4,135.3,100.0,-19.3,2.0,0.5,1.3,5.0,-1.4,115.1,12.3,3
0.99,-0.17,-10.53,-2.63,78.83,101.96,-63.44,-3.73,1.47,0.77,2.76,-2.4,110.1,13.91,3
2.6,-2.6,9.87,3.2,98.6,109.18,-85.5,-0.5,-0.3,-5.2,-14.6,0.6,139.6,19.6,2
2.6,4.1,4.61,-2.3,97.6,114.86,-80.2,0.7,-0.6,-5.0,-14.0,0.4,134.4,17.4,2
1.2,5.3,8.56,23.0,34.7,116.3,-25.0,5.9,2.4,-1.7,-8.0,4.2,67.3,4.0,1
-0.6,-2.39,-6.55,1.36,101.93,101.64,-14.68,2.4,0.99,0.83,2.32,3.31,139.1,10.32,3
2.3,-2.02,57.73,7.34,70.06,113.79,-181.6,-10.65,0.9,-3.55,-8.49,-5.07,263.9,9.43,2
0.27,-2.69,-6.16,1.87,111.95,100.0,-15.54,2.18,0.74,0.77,2.24,2.13,131.39,11.12,3
-2.8,6.0,-21.25,-3.6,83.2,88.06,-28.1,3.0,0.4,0.8,2.1,1.5,176.1,7.9,2
-1.7,-0.05,0.21,0.72,35.59,116.33,-54.79,11.26,-1.64,2.29,7.74,1.55,118.55,7.94,2
1.9,-3.2,-3.29,-2.0,99.3,100.0,-88.9,-1.1,0.0,0.4,-4.6,-2.5,155.8,24.2,2
1.82,0.0,9.75,3.51,80.74,102.08,-72.26,-5.57,1.87,-4.42,-18.69,-0.17,104.07,15.46,3
0.8,-0.8,-23.17,-5.8,78.6,89.71,-92.2,7.7,2.5,0.8,1.8,-6.0,102.2,11.1,2
-2.68,-6.15,-19.35,5.92,113.74,90.45,-152.77,-7.94,-0.35,5.93,10.5,-0.62,321.54,14.85,4
-0.7,2.1,-4.08,1.4,54.7,93.4,-62.2,2.6,1.2,0.8,0.1,5.0,75.2,13.9,1
-2.0,2.5,13.52,13.2,37.3,100.0,-64.1,17.2,1.3,-3.3,-12.2,-0.5,80.4,10.9,1
-1.7,-8.6,7.91,5.6,42.4,92.02,-67.5,-6.5,0.9,3.3,-4.8,-5.4,96.8,16.9,1
-1.4,2.1,-23.06,1.4,63.6,100.0,4.8,3.3,0.6,0.7,3.4,6.9,152.1,8.8,2
-2.34,-6.84,-15.38,-2.55,112.43,88.72,-149.41,-5.58,-1.01,5.28,13.82,-5.91,308.29,13.65,4
-3.9,-9.76,-21.03,-1.9,133.36,92.42,-130.37,-7.32,-1.22,7.36,14.2,-1.92,229.42,16.29,4
2.1,7.7,0.75,6.9,8.4,108.14,-27.7,14.3,2.4,-1.1,-1.3,3.7,101.5,6.0,1
2.7,-5.2,-2.11,19.5,75.5,113.12,-59.6,5.4,5.4,-2.5,-13.7,-3.1,77.5,6.5,1
-7.4,-5.0,-26.26,-2.1,159.6,120.06,-115.9,-2.3,0.1,10.6,29.6,-4.7,132.6,18.4,4
-1.59,-5.85,-0.85,15.93,60.68,98.53,17.52,8.81,2.46,0.75,0.87,2.0,155.84,7.08,2
-1.24,-4.15,-10.02,0.34,101.2,106.67,-96.02,-3.52,1.04,3.47,6.86,-8.1,182.17,18.9,3
-1.2,-2.6,-4.91,-4.0,61.3,101.04,0.1,-3.6,1.3,0.2,-0.4,7.0,146.0,8.9,1
-4.27,-0.58,6.19,0.23,61.61,105.03,-73.57,-4.23,0.02,2.73,7.11,-2.05,79.75,9.24,4
2.1,-6.8,-16.82,8.7,76.8,88.33,-80.4,6.2,4.6,-1.5,-5.6,-0.2,91.7,9.6,2
1.07,-1.82,7.76,3.41,20.25,103.09,-61.88,14.61,1.93,0.32,-0.19,3.18,118.45,10.47,2
1.3,-1.0,-11.49,0.0,100.7,96.46,-95.9,-3.6,0.3,4.0,7.0,-6.6,168.1,25.1,2
-4.6,1.8,16.57,0.3,100.6,103.32,-121.3,-0.4,1.1,-4.1,-12.6,8.4,282.6,10.8,3
0.0,5.3,-1.35,15.8,39.7,104.41,-42.9,15.0,3.1,-2.1,-7.4,4.3,56.5,9.2,1
-4.3,10.1,-9.19,4.8,86.2,94.4,-22.8,4.0,1.2,-0.5,-4.3,6.0,163.6,7.2,2
-1.89,-4.97,-16.56,-0.05,90.66,106.11,-92.16,-4.8,1.05,6.28,14.2,-10.79,188.65,21.38,3
-0.8,-2.2,-14.22,0.5,93.4,103.54,-16.6,4.6,0.9,0.6,1.6,2.1,137.4,9.8,2
-2.39,-5.51,-14.64,-2.74,110.57,91.32,-152.29,-4.5,-0.79,5.17,15.69,-7.25,315.53,13.26,4
-0.7,-8.3,-32.36,-1.3,53.6,103.4,10.6,5.8,0.2,0.2,-2.5,7.1,147.7,8.0,2
1.21,-0.48,-16.0,-7.95,72.54,104.21,-46.24,-1.0,-0.29,1.64,5.71,-3.33,108.03,10.48,3
0.5,-1.8,5.22,-0.4,131.5,106.07,-110.5,-0.5,0.7,-3.1,-10.1,-1.8,169.3,12.6,3
1.42,0.1,3.22,2.59,82.29,101.55,-74.43,-5.42,2.16,-1.7,-5.47,-0.64,107.56,15.85,3
-0.32,-2.83,-4.47,2.09,100.83,100.0,-13.74,2.26,0.85,0.52,0.92,3.81,139.15,10.56,3
-0.7,-4.4,-15.44,6.9,87.8,108.38,-8.7,5.4,0.4,1.0,3.7,6.4,135.3,9.2,2
3.59,-1.51,-14.47,0.35,57.74,110.37,36.5,5.7,0.6,-0.2,-1.75,6.8,124.95,5.9,2
-2.29,-7.9,-15.97,-2.4,113.91,86.64,-147.11,-6.43,-1.18,5.36,12.33,-4.83,302.5,13.96,4
2.0,-4.7,-21.72,0.4,81.9,92.57,-3.2,3.8,0.8,0.0,-1.3,1.2,128.2,4.8,1
-2.28,-10.29,-18.66,0.64,117.95,82.09,-142.53,-9.28,-1.41,5.77,7.63,-0.54,292.5,15.09,4
-4.49,1.12,16.74,0.13,100.05,103.31,-121.73,-0.71,0.98,-4.03,-12.49,8.26,284.37,10.98,3
-2.89,-1.32,-16.73,5.33,107.03,99.91,-163.26,-4.08,0.47,5.56,17.24,-5.42,347.95,13.47,4
-4.84,-8.47,-22.44,-1.96,140.44,99.88,-126.47,-5.97,-0.87,8.24,18.36,-2.67,203.29,16.86,4
1.4,-4.64,10.03,9.33,28.78,105.52,-50.11,9.54,0.6,-2.63,-10.45,1.97,105.26,9.69,3
1.8,0.0,9.47,3.5,80.8,102.02,-72.4,-5.6,1.9,-4.4,-18.7,-0.2,104.2,15.5,3
-2.34,-6.75,-15.33,-2.57,112.3,88.9,-149.61,-5.5,-0.99,5.27,13.95,-6.0,308.8,13.62,4
-0.8,-2.21,-13.99,0.56,93.47,103.53,-16.6,4.56,0.89,0.59,1.55,2.16,137.51,9.8,2
-5.8,-3.0,-0.52,2.51,77.76,109.52,-83.66,3.77,1.17,4.06,11.04,-1.36,92.21,10.79,4
-2.23,-9.23,-16.7,-2.22,115.75,84.05,-144.24,-7.5,-1.4,5.47,10.47,-3.5,295.3,14.34,4
0.4,-1.5,-7.75,5.4,103.5,100.17,51.4,5.1,-0.4,0.2,0.7,22.2,180.5,7.8,2
6.4,-9.0,-16.75,3.2,81.1,92.35,28.7,2.5,0.9,-1.1,-3.2,1.4,101.9,6.1,1
0.9,-0.8,14.27,1.4,126.1,114.08,-110.4,2.8,1.5,-3.9,-10.9,2.3,162.4,10.9,2
2.8,0.1,23.24,3.9,77.8,105.0,-65.6,-3.9,0.3,-5.5,-18.1,1.5,97.9,13.5,3
-2.71,-1.0,-13.81,-0.1,105.14,100.3,-162.79,-1.98,0.18,5.09,20.39,-9.52,343.75,12.49,4
2.1,-2.4,26.53,-6.2,43.9,92.26,-74.7,-20.6,-1.4,6.9,17.4,-2.4,115.2,17.7,1
0.92,0.09,-3.96,2.18,83.89,100.24,-77.69,-6.04,2.87,-0.52,-2.04,-1.43,110.99,16.73,3
1.1,0.9,1.08,1.4,101.7,102.86,56.8,0.9,0.3,-0.8,-3.9,0.4,185.4,7.8,1
2.3,2.3,77.37,5.1,63.5,127.42,-165.0,-2.8,0.8,-3.2,-6.4,-7.8,223.2,7.0,2
-5.6,-5.0,17.63,10.4,70.2,95.07,6.3,11.1,2.7,1.3,1.6,6.8,168.3,6.7,1
-4.35,-0.91,13.1,3.06,37.26,103.0,-65.69,1.81,0.96,0.8,1.71,-0.44,69.8,7.0,4
8.5,4.9,24.47,2.3,45.6,114.74,63.2,4.1,5.9,-0.9,-2.5,7.5,129.0,4.1,1
0.45,-1.31,-13.79,-0.27,133.43,105.76,-18.69,2.33,1.44,1.65,6.32,-1.69,117.36,11.09,3
9.9,3.2,1.68,-3.3,52.4,118.9,70.7,3.0,0.7,-1.6,-4.1,4.5,241.6,4.9,2
-2.6,-0.5,7.39,4.3,39.8,98.89,-45.2,3.4,0.8,0.5,8.2,2.1,68.3,6.9,1
5.9,-4.9,-9.35,3.1,79.8,90.5,23.3,5.6,1.4,-1.1,-2.1,2.0,102.4,6.9,1
-0.7,-2.6,24.74,7.0,37.3,105.17,-49.1,9.5,0.7,-0.2,-3.1,0.6,53.7,6.5,1
-2.59,-0.96,-12.13,-3.38,104.22,100.23,-162.16,-0.83,-0.03,4.81,22.08,-11.84,340.35,11.95,4
-2.43,-8.73,-18.92,2.63,116.36,85.25,-146.4,-8.77,-1.01,5.83,8.72,-0.57,303.49,15.0,4
-1.37,-4.31,-11.11,0.39,99.03,106.71,-94.99,-3.73,1.06,3.94,8.07,-8.55,183.09,19.35,3
-2.98,-3.82,-0.98,5.56,107.21,102.11,-101.87,-1.54,0.99,2.27,-1.89,-1.37,100.36,16.76,4
-2.43,-4.61,-14.15,-2.86,109.32,93.08,-154.24,-3.78,-0.64,5.1,16.95,-8.15,320.43,13.0,4
0.9,4.2,6.46,7.3,42.6,100.0,-43.6,11.8,2.3,-2.7,-10.4,2.6,55.3,10.5,1
-2.46,1.31,8.74,3.62,15.6,101.32,-80.84,17.35,-1.14,3.25,11.07,3.31,129.42,10.07,2
1.13,-4.45,11.76,9.42,27.24,102.46,-56.58,12.29,1.49,-1.84,-8.26,-1.06,107.5,10.52,3
1.51,-0.34,-6.33,-4.26,74.64,103.79,-53.51,-2.35,0.24,-0.75,-4.09,-2.2,105.91,11.85,3
-1.6,-5.6,38.33,8.2,35.1,108.6,-47.4,15.4,1.6,-0.8,-5.7,1.7,50.9,5.9,1
0.9,-4.3,13.16,9.5,26.0,100.0,-61.8,14.5,2.2,-1.2,-6.5,-3.5,109.3,11.2,3
-2.5,-7.99,-19.05,3.58,115.61,86.75,-148.24,-8.54,-0.82,5.86,9.23,-0.58,308.68,14.96,4
-2.6,-0.8,-12.04,-3.4,104.0,100.54,-162.5,-0.7,0.0,4.8,22.3,-12.0,341.2,11.9,4
7.6,-2.3,-2.96,6.7,61.9,104.44,61.4,-0.3,0.3,0.0,-2.4,3.9,259.3,6.8,2
-0.5,1.7,26.02,2.0,37.2,92.5,-53.6,-7.8,3.0,6.7,19.3,-1.8,68.8,15.7,1
0.3,-0.9,-0.15,1.1,17.1,97.38,-73.5,15.3,1.7,2.7,6.5,2.6,130.6,12.2,2
0.8,0.1,-5.77,2.0,84.3,100.0,-78.4,-6.1,3.0,0.0,0.2,-1.6,111.9,16.9,3
8.4,-1.8,1.52,-0.1,56.9,110.77,59.4,-0.1,0.7,-1.0,-3.8,3.7,249.1,5.9,2
0.93,0.11,-15.24,0.57,135.39,104.06,-20.77,2.57,1.79,3.31,13.11,-0.29,118.72,11.9,3
0.7,-2.8,-23.52,28.7,48.3,103.81,13.9,9.0,-1.1,0.5,3.6,5.3,144.6,8.1,2
1.25,-0.53,-16.92,-8.85,71.48,104.59,-43.35,-0.54,-0.59,1.79,6.21,-3.48,107.69,9.91,3
5.7,0.8,8.2,10.3,23.7,91.43,58.9,7.6,1.7,0.5,1.3,27.8,313.3,5.3,1
0.4,-3.6,6.93,10.9,9.8,76.91,-50.7,0.1,0.8,1.8,-6.5,7.6,117.2,13.0,1
-2.48,-8.2,-19.01,3.31,115.82,86.32,-147.71,-8.6,-0.87,5.85,9.08,-0.58,307.2,14.97,4
5.4,0.5,16.34,37.8,22.7,94.98,59.3,7.1,2.9,0.2,5.8,28.7,324.9,5.6,1
0.5,-0.6,-13.33,2.5,107.0,99.19,44.8,4.3,1.0,0.8,4.5,-2.0,162.2,8.2,2
-2.8,-0.7,24.04,3.3,34.7,109.99,-43.7,29.6,1.7,-1.2,-5.5,1.9,47.4,5.0,1
2.3,-7.2,-9.31,0.4,76.2,100.0,-67.9,1.0,4.9,-1.9,-10.9,-2.5,84.2,8.2,1
-0.5,2.7,21.45,4.1,37.8,100.0,-54.7,0.6,1.3,0.0,-0.9,0.2,58.0,6.9,1
-5.56,-7.5,-23.5,-2.0,145.79,105.51,-123.52,-4.94,-0.6,8.9,21.49,-3.24,183.57,17.29,4
-3.95,-0.24,13.59,1.99,37.42,102.22,-64.51,-1.29,0.5,0.8,1.66,-0.9,68.37,7.0,4
-4.9,-3.08,-22.68,5.86,130.32,108.09,-143.73,-4.74,0.51,7.99,20.3,-2.38,260.54,16.19,4
-3.37,-3.47,1.57,5.41,93.71,102.53,-95.28,0.06,1.13,1.98,-1.18,-1.05,94.92,14.88,4
-0.64,-3.96,-9.79,6.17,91.12,106.69,-11.2,4.2,0.43,0.59,1.86,6.53,138.47,9.42,2
0.28,-1.91,4.01,1.87,38.65,119.51,-41.1,9.85,-0.09,-0.23,-0.7,1.83,107.75,7.32,2
-1.19,-5.43,-12.72,6.23,169.24,100.2,-132.15,-8.91,0.37,3.56,-5.15,-2.84,125.32,25.37,4
-1.4,-3.1,-9.77,11.4,44.9,94.54,-41.4,4.2,2.7,0.0,0.7,4.4,73.7,6.9,1
-7.39,-5.02,-26.24,-2.1,159.49,119.94,-115.96,-2.32,0.09,10.59,29.53,-4.69,133.01,18.39,4
-4.49,-1.14,12.93,3.43,37.21,103.27,-66.09,2.86,1.12,0.8,1.73,-0.28,70.29,7.0,4
-2.8,-7.8,-25.92,10.4,80.1,89.47,-11.6,5.8,-0.3,1.3,6.3,1.6,176.6,7.8,2
-2.2,3.6,6.85,-4.9,181.2,98.21,-143.6,1.4,0.4,-4.6,-9.9,-0.8,115.5,21.5,4
-1.38,-5.26,-11.48,6.16,162.68,100.41,-128.95,-8.13,0.43,3.42,-4.81,-2.69,122.68,24.46,4
-0.61,-2.82,-4.24,2.38,95.56,100.09,-13.04,2.41,0.91,0.41,0.36,4.53,142.73,10.29,3
-1.9,-1.0,21.09,1.2,39.2,98.15,-57.1,6.7,1.6,-0.1,0.1,-2.3,62.1,6.9,2
-3.4,-4.3,-0.26,7.4,56.0,96.32,-68.9,3.1,1.7,1.4,3.6,3.3,75.4,10.0,1
3.1,0.0,10.82,-7.6,72.9,123.6,-55.1,9.1,4.2,-2.0,-9.7,0.7,70.8,5.4,1
1.2,1.7,19.36,16.7,40.6,95.53,-46.8,8.7,2.3,-3.2,-13.3,0.2,54.2,12.0,1
4.0,-9.2,-7.55,9.1,42.2,107.3,-1.9,3.1,1.0,-0.1,-4.6,8.4,192.5,7.5,2
2.3,-6.4,37.84,9.6,76.7,100.0,-198.4,-18.6,1.0,-3.9,-10.6,-2.3,305.1,11.9,2
1.0,3.1,8.95,0.5,122.0,124.17,-106.1,5.1,1.7,-4.1,-11.7,1.0,155.4,9.1,2
-3.5,-2.5,-8.31,3.4,69.9,128.08,-93.8,-1.4,1.2,6.9,21.7,-4.2,198.2,19.7,2
-3.23,0.75,9.59,-1.92,110.04,101.73,-122.03,-1.13,0.66,-2.26,-7.6,3.96,255.56,12.14,3
-3.2,1.9,11.12,4.3,15.2,102.38,-82.8,17.9,-1.9,3.4,12.3,3.5,129.1,9.5,2
-4.99,-1.6,-1.26,-0.31,84.1,108.48,-83.28,-3.79,0.04,4.53,12.27,-2.66,91.88,11.34,4
6.5,-7.8,-17.73,2.5,44.9,88.28,36.1,-0.2,-1.5,1.5,2.3,7.9,224.0,7.8,2
-6.32,-3.65,-8.91,1.0,104.44,112.96,-94.17,1.79,0.82,6.19,17.09,-2.45,105.38,13.27,4
7.9,5.3,3.49,2.0,61.9,117.37,62.5,5.6,1.0,-0.6,-1.0,6.5,102.1,3.8,2
1.9,-0.8,24.41,-0.2,6.1,74.59,-54.0,-2.2,0.5,5.4,10.4,-0.8,118.9,14.2,1
0.9,-0.4,-5.01,2.4,104.9,101.19,54.5,-0.9,0.1,0.1,-3.6,23.8,194.9,8.3,1
0.41,-1.8,2.54,-1.87,131.8,104.32,-113.34,-1.01,0.47,-1.97,-6.98,-2.87,173.74,13.2,3
1.18,-4.49,11.42,9.41,27.55,103.07,-55.29,11.74,1.31,-2.0,-8.7,-0.46,107.05,10.36,3
-2.41,-5.05,-14.39,-2.8,109.93,92.22,-153.29,-4.13,-0.71,5.14,16.33,-7.71,318.04,13.13,4
-2.1,-6.2,-25.74,7.2,126.5,118.47,-23.0,2.0,1.2,2.2,10.0,-0.9,124.2,9.2,2
-6.05,-3.1,-12.29,-1.1,117.41,113.59,-97.68,-3.13,0.07,7.21,19.92,-3.56,109.85,14.46,4
-0.5,-3.0,2.4,4.6,98.3,103.04,-16.6,1.6,0.5,-0.3,-2.1,6.8,145.3,9.9,2
0.1,6.9,-1.46,-2.6,99.8,103.87,38.1,3.7,1.0,-1.5,-6.3,3.7,185.1,7.0,1
1.3,-0.6,-18.21,-10.1,70.0,105.12,-39.3,0.1,-1.0,2.0,6.9,-3.7,107.2,9.1,3
-6.81,-4.17,-20.2,-1.66,141.29,117.25,-107.99,-2.66,0.08,9.13,25.4,-4.2,122.73,16.69,4
-3.24,-6.35,16.94,-1.59,93.55,103.33,-124.75,-4.14,-0.33,-2.74,-10.07,5.87,298.63,13.42,3
-0.86,-4.61,-16.65,6.94,92.34,109.56,-10.38,5.0,0.49,1.14,4.44,5.54,134.0,9.2,2
-2.1,-12.2,-18.34,-1.8,119.9,78.23,-137.8,-9.9,-1.9,5.7,6.3,-0.5,279.1,15.2,4
-1.9,-5.6,-19.39,-8.5,178.9,103.46,-131.9,-10.4,0.1,10.7,7.7,-3.0,130.8,26.2,4
-1.0,-5.6,-13.98,6.3,175.9,100.0,-135.4,-9.7,0.3,3.7,-5.5,-3.0,128.0,26.3,4
-2.1,-12.11,-18.29,-1.81,119.77,78.41,-138.0,-9.83,-1.88,5.69,6.43,-0.59,279.6,15.17,4
-2.9,-7.6,12.18,8.6,67.8,95.49,19.6,8.7,4.5,0.9,-0.7,0.1,162.3,6.5,2
-5.0,-2.0,12.3,4.8,37.0,104.27,-67.6,6.8,1.7,0.8,1.8,0.3,72.1,7.0,4
-1.23,-2.43,-15.35,1.54,99.37,108.35,-16.96,4.67,0.51,0.76,3.05,2.33,133.86,9.44,2
-4.14,-0.57,13.35,2.52,37.34,102.6,-65.09,0.24,0.73,0.8,1.69,-0.67,69.08,7.0,4
1.87,0.01,10.46,3.53,80.59,102.23,-71.91,-5.48,1.79,-4.48,-18.66,-0.08,103.75,15.36,3
0.6,4.9,8.63,-3.0,37.2,120.83,-49.1,15.1,2.0,-1.4,-4.1,-0.2,70.5,8.6,1
0.5,1.7,8.2,6.2,39.3,113.33,-56.2,15.2,2.4,-1.3,-2.6,2.4,76.9,9.4,1
2.3,-3.3,20.41,7.1,25.3,112.23,-43.3,13.5,2.3,-3.5,-10.9,4.1,99.0,7.7,2
-2.9,-3.2,-10.3,1.1,51.8,93.79,-60.6,-0.3,1.0,2.9,6.7,1.9,71.1,14.0,1
1.47,-4.01,4.78,6.03,36.16,106.32,-46.45,7.17,0.08,-2.07,-8.15,1.87,104.96,9.35,3
-1.2,-1.6,7.31,8.6,52.0,107.04,-66.8,4.1,2.0,-4.2,-11.5,9.2,88.5,11.5,1
-1.12,-5.31,-12.64,6.04,169.31,100.06,-131.96,-9.46,0.29,3.56,-5.16,-2.92,125.09,25.38,4
2.0,-3.4,-4.02,3.3,134.8,100.19,-11.9,1.5,1.5,-0.2,-2.2,0.1,111.7,12.1,3
-1.1,-4.0,-9.78,-10.2,178.5,98.32,-137.6,-3.3,0.7,-1.5,-11.0,-2.1,125.1,25.0,4
-2.12,-11.68,-18.06,-1.87,119.18,79.24,-138.92,-9.48,-1.81,5.66,7.02,-1.02,281.91,15.05,4
0.9,5.8,7.29,8.6,10.0,100.0,-39.9,15.3,1.9,-3.1,-7.8,2.7,112.8,7.4,1
-0.2,-0.3,-10.28,-10.3,95.8,96.28,-92.8,-5.1,0.8,5.7,14.0,-10.0,178.2,24.1,2
0.05,0.14,-18.28,-1.3,133.77,107.19,-22.3,2.77,1.57,3.12,12.71,-1.77,120.2,11.05,3
-1.2,-3.8,-10.57,1.9,119.9,78.19,-133.4,-0.7,0.2,1.1,-1.4,-1.4,267.5,14.9,2
-0.6,-10.0,-6.24,5.2,42.2,96.29,-36.6,4.0,3.0,0.0,-2.2,1.7,71.5,6.7,1
-0.3,4.8,20.52,13.0,10.6,93.21,-46.7,14.7,0.5,-3.8,-7.4,5.6,115.4,8.7,1
-4.32,0.06,17.0,-0.12,99.18,103.28,-122.4,-1.18,0.78,-3.91,-12.32,8.04,287.13,11.27,3
-0.66,-2.4,-7.04,3.25,95.38,100.55,-13.74,2.95,0.96,0.46,0.67,4.17,142.4,10.24,3
1.0,-1.7,-13.57,2.7,105.2,100.0,45.2,0.5,0.7,1.0,2.3,12.1,176.1,8.5,1
0.95,-4.19,13.42,9.36,27.34,100.13,-61.9,14.03,2.15,-1.31,-6.8,-3.37,109.01,11.26,3
-6.34,-4.07,-23.13,-2.39,147.35,115.76,-126.17,-1.95,0.08,9.32,27.99,-6.31,178.56,16.97,4
0.1,-1.8,-7.32,-7.3,132.9,97.89,-123.8,-2.9,-0.4,2.2,4.5,-6.8,190.1,15.4,3
0.78,-0.02,-5.09,1.85,87.23,100.38,-80.39,-5.75,2.86,-0.19,-0.44,-1.61,115.46,16.63,3
0.49,-0.67,-12.91,2.72,106.74,99.26,45.3,4.36,0.89,0.75,4.21,-0.18,163.58,8.17,2
1.59,-1.01,10.34,4.91,67.88,101.54,-69.9,-0.86,1.97,-3.65,-15.82,-0.98,105.4,14.49,3
-3.3,3.4,-11.62,-7.7,84.2,88.71,-17.8,3.9,1.0,0.2,0.8,6.6,170.2,7.8,2
-1.1,-5.36,-12.87,6.08,170.43,100.05,-132.55,-9.5,0.29,3.59,-5.22,-2.94,125.58,25.54,4
-2.7,-3.2,-19.21,5.1,119.7,124.71,-18.2,4.9,-0.8,1.3,8.0,3.1,121.8,8.2,2
-4.8,-11.4,15.13,4.8,54.5,108.27,-62.4,4.2,1.9,1.2,8.5,6.6,73.9,9.2,1
-2.11,-12.05,-18.37,-1.61,119.75,78.53,-138.17,-9.85,-1.86,5.71,6.4,-0.5,280.15,15.19,4
5.6,10.3,-19.51,5.6,37.6,78.78,-15.5,4.1,1.4,0.4,-1.4,2.4,190.5,8.1,2
