PC_CA-avg_3y,REER-pch_3y,X_GS_share_M-pch_5y,FSL-pch,GD-pc_gdp,HPI-pch,NIIP-pc_gdp,ULC-pch_3y,ACT-pch_3y,LTU-pch_3y,YUR-pch_3y,PSCF-pc_gdp,PSD-pc_gdp,UR-avg_3y,label
-8.78,-3.01,-9.97,-4.89,114.49,105.85,-104.2,-0.54,-0.3,2.61,13.63,-0.82,204.64,11.21,4
-8.72,-3.03,-10.12,-4.86,114.79,105.66,-104.51,-0.65,-0.29,2.62,13.71,-0.89,204.76,11.25,4
-3.2,1.9,11.12,4.3,15.2,102.38,-82.8,17.9,-1.9,3.4,12.3,3.5,129.1,9.5,2
4.1,-2.9,22.52,3.9,55.5,104.82,35.4,-1.5,4.3,-1.1,-2.0,15.2,136.1,5.3,1
5.4,0.5,16.34,37.8,22.7,94.98,59.3,7.1,2.9,0.2,5.8,28.7,324.9,5.6,1
2.0,-3.4,-4.02,3.3,134.8,100.19,-11.9,1.5,1.5,-0.2,-2.2,0.1,111.7,12.1,3
-4.3,3.4,-2.78,0.6,43.5,99.71,-63.9,5.4,-0.1,2.6,14.4,2.9,69.5,13.3,1
-1.0,-5.6,-13.98,6.3,175.9,100.0,-135.4,-9.7,0.3,3.7,-5.5,-3.0,128.0,26.3,4
-3.31,-9.6,-18.01,-2.34,122.79,84.09,-131.93,-8.73,-1.3,5.0,9.89,-1.71,257.35,14.56,4
-3.1,-1.7,-20.1,11.6,109.2,99.45,-163.8,-6.5,0.8,6.1,13.6,-0.7,352.8,14.6,4
-3.6,-10.14,-16.46,-2.49,118.67,84.43,-130.26,-7.8,-1.54,5.01,7.93,-0.57,262.43,14.3,4
0.5,-1.8,5.07,-0.48,131.52,105.97,-110.65,-0.53,0.69,-3.04,-9.93,-1.86,169.54,12.63,3
-1.3,-0.12,-22.59,8.41,70.92,103.61,-5.32,6.73,0.46,0.52,1.71,3.57,143.44,8.6,2
-4.6,1.8,16.57,0.3,100.6,103.32,-121.3,-0.4,1.1,-4.1,-12.6,8.4,282.6,10.8,3
2.8,0.1,23.24,3.9,77.8,105.0,-65.6,-3.9,0.3,-5.5,-18.1,1.5,97.9,13.5,3
-0.77,-1.57,-12.67,5.02,95.02,101.47,-15.14,4.04,1.07,0.57,1.29,3.44,141.72,10.13,3
7.9,5.3,3.49,2.0,61.9,117.37,62.5,5.6,1.0,-0.6,-1.0,6.5,102.1,3.8,2
2.14,0.03,14.13,3.64,79.78,103.03,-70.1,-5.02,1.36,-4.77,-18.5,0.38,102.07,14.82,3
0.9,-0.4,-5.01,2.4,104.9,101.19,54.5,-0.9,0.1,0.1,-3.6,23.8,194.9,8.3,1
1.49,-4.7,9.48,9.3,29.27,106.5,-48.03,8.66,0.32,-2.88,-11.16,2.94,104.55,9.42,3
-3.4,-4.3,-0.26,7.4,56.0,96.32,-68.9,3.1,1.7,1.4,3.6,3.3,75.4,10.0,1
1.1,-4.43,11.94,9.43,27.09,102.16,-57.23,12.56,1.58,-1.76,-8.05,-1.36,107.72,10.61,3
5.6,10.3,-19.51,5.6,37.6,78.78,-15.5,4.1,1.4,0.4,-1.4,2.4,190.5,8.1,2
-4.99,-8.23,-14.71,-3.14,117.53,90.18,-123.25,-5.84,-1.21,4.36,9.45,-0.63,246.94,13.47,4
5.0,-2.0,17.79,5.3,74.1,110.33,-24.2,3.7,3.3,-2.2,-9.0,0.9,76.3,7.9,1
-2.9,-3.2,-10.3,1.1,51.8,93.79,-60.6,-0.3,1.0,2.9,6.7,1.9,71.1,14.0,1
-3.37,-9.47,-17.99,-2.37,122.93,84.37,-131.64,-8.67,-1.27,4.97,10.06,-1.77,256.29,14.53,4
-0.34,-1.15,-15.33,2.18,89.47,102.51,-20.77,3.46,0.64,0.91,2.68,1.69,134.02,9.88,3
-0.1,6.4,3.49,8.2,33.8,114.86,-31.0,16.5,3.2,-1.9,-5.2,4.3,56.4,7.1,1
1.56,0.02,5.88,3.15,81.62,101.54,-73.81,-5.72,2.16,-3.36,-14.25,-0.53,106.01,15.83,3
-0.6,0.1,-20.41,-2.7,132.5,109.54,-23.3,2.9,1.4,2.9,12.1,-2.9,121.2,10.4,3
2.1,7.7,0.75,6.9,8.4,108.14,-27.7,14.3,2.4,-1.1,-1.3,3.7,101.5,6.0,1
-2.49,-3.26,-13.4,-3.05,107.43,95.73,-157.17,-2.68,-0.41,4.99,18.85,-9.52,327.81,12.61,4
-2.83,-4.55,-19.62,7.96,112.11,93.69,-156.74,-7.42,0.07,5.99,11.62,-0.65,332.79,14.76,4
-2.93,-3.52,-19.8,9.28,111.05,95.78,-159.3,-7.09,0.33,6.03,12.34,-0.67,340.04,14.7,4
-0.16,-2.79,-4.95,2.03,104.0,100.0,-14.25,2.24,0.82,0.59,1.29,3.33,136.94,10.72,3
-2.97,-3.11,-19.86,9.8,110.63,96.61,-160.32,-6.96,0.44,6.05,12.62,-0.67,342.92,14.68,4
4.0,-9.2,-7.55,9.1,42.2,107.3,-1.9,3.1,1.0,-0.1,-4.6,8.4,192.5,7.5,2
-2.6,-0.8,-12.04,-3.4,104.0,100.54,-162.5,-0.7,0.0,4.8,22.3,-12.0,341.2,11.9,4
4.9,3.3,8.69,-2.0,21.0,114.88,53.8,7.9,0.2,-0.5,-3.1,-0.5,306.5,5.8,1
8.5,4.9,24.47,2.3,45.6,114.74,63.2,4.1,5.9,-0.9,-2.5,7.5,129.0,4.1,1
-5.1,-8.08,-14.57,-3.19,117.44,90.62,-122.72,-5.69,-1.18,4.31,9.57,-0.63,245.76,13.41,4
2.7,-5.2,-2.11,19.5,75.5,113.12,-59.6,5.4,5.4,-2.5,-13.7,-3.1,77.5,6.5,1
1.2,1.7,19.36,16.7,40.6,95.53,-46.8,8.7,2.3,-3.2,-13.3,0.2,54.2,12.0,1
0.51,-1.89,4.91,-0.47,131.48,105.64,-111.1,-0.45,0.65,-2.91,-9.8,-1.77,170.02,12.73,3
2.15,-3.12,18.86,6.65,24.68,111.11,-45.58,13.64,2.25,-3.03,-9.59,3.99,101.38,8.04,2
-0.71,-4.25,-15.36,6.47,88.17,108.06,-9.23,5.35,0.43,0.97,3.56,6.11,135.44,9.24,2
-1.7,2.7,-27.3,9.4,59.8,100.46,-3.1,7.6,0.5,0.2,0.4,1.7,148.8,8.2,2
2.0,1.3,-9.15,-0.1,84.9,100.0,2.2,6.4,0.4,0.5,1.2,2.1,124.0,5.6,1
-0.5,0.1,25.75,2.8,48.8,109.28,-55.6,7.8,2.0,-2.0,-9.1,3.3,75.8,5.0,1
0.05,-3.72,-18.31,-0.24,58.78,111.07,-49.8,-0.95,-0.66,2.08,5.85,-2.6,112.15,9.58,3
-1.0,0.14,4.02,2.28,16.4,99.23,-76.94,16.26,0.37,2.96,8.65,2.93,130.04,11.2,2
6.1,-2.4,-5.55,15.1,22.0,88.54,58.4,5.9,0.7,0.4,1.6,25.9,303.7,4.8,1
0.9,-4.3,13.16,9.5,26.0,100.0,-61.8,14.5,2.2,-1.2,-6.5,-3.5,109.3,11.2,3
1.5,-4.7,9.44,9.3,29.3,106.56,-47.9,8.6,0.3,-2.9,-11.2,3.0,104.5,9.4,3
1.3,-1.0,-11.49,0.0,100.7,96.46,-95.9,-3.6,0.3,4.0,7.0,-6.6,168.1,25.1,2
0.7,-2.59,-7.41,1.7,120.19,100.0,-16.86,2.11,0.65,0.96,3.21,0.88,125.64,11.54,3
-8.06,-3.26,-11.81,-4.54,118.13,103.55,-107.99,-1.96,-0.22,2.83,14.62,-1.69,206.13,11.71,4
-8.48,-3.11,-10.73,-4.75,116.0,104.9,-105.76,-1.12,-0.27,2.7,14.04,-1.18,205.26,11.42,4
1.03,0.1,-2.47,2.22,83.56,100.57,-76.94,-5.85,2.69,-0.63,-1.88,-1.25,110.31,16.51,3
-1.51,-1.06,7.41,-0.69,118.46,101.38,-119.9,-0.05,0.46,-2.0,-8.69,2.68,222.31,12.9,3
9.9,3.2,1.68,-3.3,52.4,118.9,70.7,3.0,0.7,-1.6,-4.1,4.5,241.6,4.9,2
-6.2,-4.2,-19.11,-3.22,135.17,101.39,-118.61,-5.41,0.02,4.93,20.02,-4.38,194.86,14.25,4
2.4,-1.8,-12.5,1.5,82.4,88.31,-1.9,5.8,0.7,0.2,0.4,3.0,129.4,4.9,1
1.0,-1.7,-13.57,2.7,105.2,100.0,45.2,0.5,0.7,1.0,2.3,12.1,176.1,8.5,1
-2.29,-5.25,-23.67,6.53,124.35,120.45,-21.48,2.92,0.57,1.91,9.37,0.37,123.44,8.88,2
-1.1,-4.0,-9.78,-10.2,178.5,98.32,-137.6,-3.3,0.7,-1.5,-11.0,-2.1,125.1,25.0,4
-3.5,-2.5,-8.31,3.4,69.9,128.08,-93.8,-1.4,1.2,6.9,21.7,-4.2,198.2,19.7,2
-0.7,-4.4,-15.44,6.9,87.8,108.38,-8.7,5.4,0.4,1.0,3.7,6.4,135.3,9.2,2
0.53,-3.29,0.52,-0.71,129.73,100.0,-121.11,-0.48,0.02,-0.27,-5.22,-1.04,189.75,14.48,3
-1.44,0.49,5.45,2.69,16.16,99.86,-78.12,16.59,-0.09,3.05,9.38,3.05,129.85,10.86,2
-1.0,-4.1,-5.97,1.65,119.6,98.99,-139.87,-7.04,0.02,2.72,4.81,-0.94,272.65,15.56,3
0.2,-6.3,71.33,4.3,67.7,117.61,-167.2,-15.4,0.9,-3.6,-9.0,0.2,250.5,8.4,2
-3.32,-1.56,-20.09,8.45,82.23,91.19,-15.5,5.17,0.22,0.67,2.6,3.13,172.07,7.59,2
0.7,-3.1,0.87,-1.4,131.2,100.0,-118.9,0.2,0.0,-0.5,-5.9,-1.4,179.3,14.4,3
1.38,-4.62,10.21,9.34,28.62,105.2,-50.78,9.82,0.69,-2.55,-10.23,1.65,105.5,9.77,3
-5.6,-5.0,17.63,10.4,70.2,95.07,6.3,11.1,2.7,1.3,1.6,6.8,168.3,6.7,1
-4.39,-9.06,-15.47,-2.86,118.02,87.68,-126.3,-6.69,-1.35,4.64,8.79,-0.6,253.67,13.83,4
-4.9,0.2,1.09,11.7,86.8,105.5,0.3,3.7,0.9,-1.4,-7.7,8.8,166.4,5.4,1
2.1,-2.4,26.53,-6.2,43.9,92.26,-74.7,-20.6,-1.4,6.9,17.4,-2.4,115.2,17.7,1
7.6,-2.3,-2.96,6.7,61.9,104.44,61.4,-0.3,0.3,0.0,-2.4,3.9,259.3,6.8,2
0.8,0.1,-5.77,2.0,84.3,100.0,-78.4,-6.1,3.0,0.0,0.2,-1.6,111.9,16.9,3
0.65,-2.75,2.04,-1.13,131.28,101.64,-116.63,0.01,0.19,-1.2,-7.03,-1.51,176.6,13.91,3
2.0,-2.62,4.27,1.97,104.38,108.93,-90.18,0.23,0.31,-3.64,-11.24,-0.08,149.22,19.15,2
-2.2,3.6,6.85,-4.9,181.2,98.21,-143.6,1.4,0.4,-4.6,-9.9,-0.8,115.5,21.5,4
7.0,-0.4,-9.51,4.6,75.7,96.0,40.8,7.4,0.4,-0.6,-0.8,-0.3,98.4,5.2,2
-1.4,0.4,-15.78,3.9,63.2,100.19,5.2,0.4,0.7,0.6,0.2,1.3,148.0,9.0,1
1.59,-0.25,-1.93,-2.1,76.35,103.3,-58.77,-3.25,0.71,-1.76,-8.16,-1.64,105.44,12.86,3
2.22,0.1,14.76,3.34,79.7,103.54,-69.34,-4.54,1.09,-3.89,-12.75,0.59,101.99,14.49,3
-2.0,-6.2,-4.75,9.8,107.5,100.0,-154.5,-10.8,0.4,3.2,5.1,4.4,347.8,15.7,3
-2.78,-10.73,-18.15,-2.11,121.53,81.54,-134.48,-9.24,-1.56,5.31,8.33,-1.18,266.8,14.84,4
5.0,-1.0,21.39,0.4,22.3,109.59,51.8,4.0,-0.6,0.5,-7.2,27.4,322.9,6.2,1
1.24,0.35,0.28,0.4,64.49,98.43,-45.59,2.64,0.98,1.01,2.81,-3.78,84.13,8.56,2
0.8,-0.8,-23.17,-5.8,78.6,89.71,-92.2,7.7,2.5,0.8,1.8,-6.0,102.2,11.1,2
5.7,2.0,19.55,4.1,70.4,118.37,-18.9,6.1,3.2,-2.5,-7.5,1.3,72.8,6.6,1
2.6,4.1,4.61,-2.3,97.6,114.86,-80.2,0.7,-0.6,-5.0,-14.0,0.4,134.4,17.4,2
-1.2,-3.8,-10.57,1.9,119.9,78.19,-133.4,-0.7,0.2,1.1,-1.4,-1.4,267.5,14.9,2
-7.21,-3.55,-13.97,-4.13,122.41,100.84,-112.44,-3.63,-0.14,3.09,15.79,-2.72,207.89,12.3,4
0.1,-4.2,-4.32,6.2,80.8,99.03,-104.2,3.8,1.2,1.6,6.5,-4.3,114.8,10.7,2
-2.52,-11.3,-18.23,-1.99,120.9,80.26,-135.76,-9.49,-1.69,5.46,7.54,-0.92,271.56,14.98,4
-0.7,-8.3,-32.36,-1.3,53.6,103.4,10.6,5.8,0.2,0.2,-2.5,7.1,147.7,8.0,2
1.25,-0.62,-18.12,-9.71,70.62,105.04,-38.71,0.21,-0.95,1.97,6.77,-3.53,108.05,9.12,3
2.3,-7.2,-9.31,0.4,76.2,100.0,-67.9,1.0,4.9,-1.9,-10.9,-2.5,84.2,8.2,1
4.57,-5.81,-14.57,3.42,63.45,92.04,40.94,1.48,-1.15,1.09,1.79,12.43,210.23,7.8,2
-0.06,-3.97,-0.71,1.76,124.52,100.0,-128.93,-2.9,0.11,0.54,-2.8,0.23,226.77,14.77,3
-2.0,2.5,13.52,13.2,37.3,100.0,-64.1,17.2,1.3,-3.3,-12.2,-0.5,80.4,10.9,1
1.9,-3.8,-22.85,-1.3,77.4,85.69,-82.2,7.5,2.8,-0.6,0.2,-0.8,95.8,10.7,2
-2.14,-11.23,-17.81,-1.94,118.55,80.12,-139.89,-9.12,-1.74,5.62,7.66,-1.47,284.36,14.92,4
-2.1,-12.2,-18.34,-1.8,119.9,78.23,-137.8,-9.9,-1.9,5.7,6.3,-0.5,279.1,15.2,4
-2.38,-5.85,-14.83,-2.69,111.05,90.65,-151.56,-4.78,-0.84,5.2,15.21,-6.9,313.68,13.36,4
-2.78,-5.09,-19.53,7.27,112.66,92.59,-155.4,-7.6,-0.07,5.97,11.24,-0.64,328.98,14.79,4
-7.52,-4.83,-24.86,-2.34,155.73,118.85,-114.89,-2.15,0.07,9.92,28.23,-4.37,138.76,17.78,4
-4.33,-9.14,-15.54,-2.83,118.07,87.43,-126.6,-6.78,-1.37,4.67,8.73,-0.6,254.35,13.87,4
-5.49,-3.66,-17.71,-1.29,126.11,97.08,-125.8,-6.24,0.12,3.88,17.02,-3.77,231.38,13.4,4
-2.4,0.5,-4.48,5.2,44.5,95.34,-45.9,3.8,1.5,1.0,2.9,2.9,70.7,7.0,1
1.04,0.1,-2.33,2.23,83.53,100.59,-76.88,-5.84,2.68,-0.65,-1.97,-1.23,110.24,16.5,3
3.14,1.15,-12.75,-0.09,80.48,98.67,-38.1,0.16,0.6,1.68,4.46,-4.61,98.44,9.6,2
0.89,-2.11,-10.99,2.52,124.51,100.48,-18.31,2.64,0.66,1.11,4.07,-0.17,122.15,11.71,3
-5.52,-4.81,-17.4,-3.33,128.1,94.84,-121.14,-6.57,-0.19,3.72,16.48,-3.92,217.41,13.4,4
-2.9,0.4,11.98,11.4,41.6,102.42,-67.1,16.0,1.8,-4.2,-11.4,-4.4,82.2,12.6,1
1.3,1.2,1.88,9.4,53.5,94.8,-63.5,2.4,1.6,0.1,-3.7,5.0,79.0,13.8,1
-0.1,-4.5,-20.85,-0.7,53.6,113.31,-44.0,0.1,-1.4,2.5,7.0,-2.8,112.2,8.1,3
3.2,1.2,-12.73,-0.1,80.3,98.6,-38.4,0.1,0.6,1.7,4.5,-4.7,97.9,9.6,2
-0.55,0.04,-20.13,-2.59,132.57,109.29,-23.2,2.88,1.38,2.86,11.92,-2.86,121.04,10.45,3
0.9,-0.8,14.27,1.4,126.1,114.08,-110.4,2.8,1.5,-3.9,-10.9,2.3,162.4,10.9,2
-0.76,-3.15,-14.75,3.26,90.98,105.63,-13.19,4.95,0.68,0.77,2.51,3.96,136.49,9.54,2
-2.8,-7.8,-25.92,10.4,80.1,89.47,-11.6,5.8,-0.3,1.3,6.3,1.6,176.6,7.8,2
2.3,-3.3,20.41,7.1,25.3,112.23,-43.3,13.5,2.3,-3.5,-10.9,4.1,99.0,7.7,2
-3.3,3.4,-11.62,-7.7,84.2,88.71,-17.8,3.9,1.0,0.2,0.8,6.6,170.2,7.8,2
-2.17,-10.58,-17.44,-2.03,117.64,81.41,-141.32,-8.59,-1.63,5.57,8.58,-2.14,287.95,14.73,4
-1.67,-5.5,-5.16,7.08,111.53,99.66,-149.62,-9.55,0.27,3.04,5.0,2.62,322.76,15.65,3
8.4,-1.8,1.52,-0.1,56.9,110.77,59.4,-0.1,0.7,-1.0,-3.8,3.7,249.1,5.9,2
-1.9,-1.0,21.09,1.2,39.2,98.15,-57.1,6.7,1.6,-0.1,0.1,-2.3,62.1,6.9,2
1.5,-2.4,-9.7,1.4,135.3,100.0,-19.3,2.0,0.5,1.3,5.0,-1.4,115.1,12.3,3
0.3,-1.2,4.06,10.4,51.9,100.0,-63.9,2.7,1.5,-1.8,-7.5,5.1,80.6,13.0,1
-7.33,-4.95,-25.83,-2.17,158.14,118.94,-116.06,-2.49,0.1,10.26,29.03,-4.68,136.33,18.15,4
-2.14,-12.12,-18.33,-1.82,119.99,78.4,-137.63,-9.87,-1.88,5.68,6.41,-0.54,278.46,15.18,4
-8.27,-3.18,-11.26,-4.65,117.05,104.23,-106.86,-1.53,-0.25,2.76,14.33,-1.43,205.69,11.56,4
-7.48,-3.45,-13.28,-4.26,121.04,101.71,-111.01,-3.09,-0.16,3.01,15.42,-2.39,207.33,12.11,4
-5.48,-3.59,-16.62,-3.49,125.79,97.17,-124.85,-5.49,0.0,3.67,18.2,-5.29,227.39,13.03,4
0.4,-1.5,-7.75,5.4,103.5,100.17,51.4,5.1,-0.4,0.2,0.7,22.2,180.5,7.8,2
-3.01,-2.77,-8.79,3.08,80.46,117.54,-102.17,-1.25,0.99,5.67,16.82,-3.61,212.84,18.69,2
-4.51,-7.0,-17.68,-2.88,125.67,89.92,-126.07,-7.55,-0.7,4.31,13.46,-2.91,235.68,13.93,4
0.51,-2.8,-19.7,-4.8,60.76,109.74,-41.95,0.1,-1.23,2.28,6.96,-3.19,110.02,8.54,3
1.3,-0.6,-18.21,-10.1,70.0,105.12,-39.3,0.1,-1.0,2.0,6.9,-3.7,107.2,9.1,3
-10.3,1.8,-17.17,-4.0,172.1,136.51,-88.8,6.8,0.6,5.1,22.8,-6.5,130.2,13.4,4
0.94,-1.19,-23.13,-5.21,78.44,89.18,-90.89,7.67,2.54,0.62,1.59,-5.32,101.36,11.05,2
7.5,2.6,-1.5,-4.1,33.9,112.3,64.4,1.6,1.3,-0.6,-1.7,3.5,198.3,5.6,1
-5.9,-4.0,-17.3,-3.5,129.0,96.67,-119.3,-6.2,0.0,3.5,17.6,-4.3,210.6,13.2,4
1.9,-0.8,24.41,-0.2,6.1,74.59,-54.0,-2.2,0.5,5.4,10.4,-0.8,118.9,14.2,1
-0.2,-0.3,-10.28,-10.3,95.8,96.28,-92.8,-5.1,0.8,5.7,14.0,-10.0,178.2,24.1,2
0.7,-3.7,2.44,16.3,36.8,106.62,-26.9,2.7,2.1,-1.3,-8.5,4.3,68.7,5.1,1
0.6,4.9,8.63,-3.0,37.2,120.83,-49.1,15.1,2.0,-1.4,-4.1,-0.2,70.5,8.6,1
0.17,-1.95,-6.37,-6.61,132.7,98.14,-123.23,-2.54,-0.35,1.89,3.29,-6.17,188.84,15.28,3
5.1,-1.5,33.28,5.2,20.1,105.68,54.6,1.2,0.1,0.4,3.4,-9.6,309.0,6.3,1
1.82,-3.37,-4.0,3.23,132.13,100.18,-11.97,1.55,1.46,-0.16,-2.03,0.41,113.82,11.98,3
5.7,-2.5,23.98,6.5,50.3,109.26,64.0,1.5,4.4,-0.9,-1.1,5.5,132.1,4.7,1
0.5,-1.8,5.22,-0.4,131.5,106.07,-110.5,-0.5,0.7,-3.1,-10.1,-1.8,169.3,12.6,3
0.13,-1.74,-12.58,3.9,111.23,101.06,-17.1,3.43,0.86,0.88,2.91,1.34,130.83,10.99,3
5.9,-4.9,-9.35,3.1,79.8,90.5,23.3,5.6,1.4,-1.1,-2.1,2.0,102.4,6.9,1
0.0,-8.2,-2.16,8.1,40.0,100.0,-32.9,0.1,2.4,-0.6,-6.9,0.3,68.1,6.1,1
2.7,3.9,13.57,6.8,22.3,117.28,-36.8,18.3,2.2,-2.6,-8.9,3.9,95.0,6.3,2
6.5,-7.8,-17.73,2.5,44.9,88.28,36.1,-0.2,-1.5,1.5,2.3,7.9,224.0,7.8,2
6.6,0.1,-3.82,10.9,19.0,86.69,28.9,8.8,1.1,-0.2,-1.1,21.4,284.3,4.8,1
-2.78,-1.13,-14.99,2.08,105.9,100.14,-162.98,-2.82,0.29,5.28,19.12,-7.87,345.44,12.89,4
-3.65,-8.87,-17.92,-2.49,123.6,85.73,-130.28,-8.4,-1.13,4.81,10.89,-2.05,251.25,14.39,4
-6.95,-4.7,-23.56,-2.52,150.37,113.0,-116.93,-3.48,0.07,8.46,25.98,-4.58,156.13,16.83,4
-8.49,-3.11,-10.72,-4.75,115.98,104.91,-105.75,-1.12,-0.27,2.7,14.03,-1.18,205.25,11.42,4
-0.58,0.41,18.93,2.81,34.34,103.65,-51.27,10.03,1.77,-0.82,-2.49,-0.52,71.55,6.73,2
7.57,-4.43,-6.93,1.04,51.63,100.9,49.18,-0.14,-0.27,0.1,-1.12,5.54,238.09,6.73,2
-2.23,-9.18,-16.67,-2.22,115.69,84.14,-144.35,-7.46,-1.4,5.46,10.54,-3.55,295.56,14.33,4
-0.7,2.1,-4.08,1.4,54.7,93.4,-62.2,2.6,1.2,0.8,0.1,5.0,75.2,13.9,1
-2.27,-11.97,-18.13,-1.88,119.76,78.94,-136.94,-9.66,-1.86,5.62,6.49,-0.51,277.2,15.1,4
-0.8,-2.2,-14.22,0.5,93.4,103.54,-16.6,4.6,0.9,0.6,1.6,2.1,137.4,9.8,2
8.1,-2.1,2.13,5.2,69.2,106.77,51.4,4.9,0.3,-0.6,-0.7,3.7,98.2,4.6,2
-2.2,-9.94,-17.09,-2.12,116.75,82.66,-142.7,-8.07,-1.52,5.52,9.47,-2.78,291.42,14.55,4
2.21,-1.26,20.12,5.64,61.74,103.45,-64.42,1.8,0.89,-4.17,-14.5,-0.05,101.43,12.79,3
-4.3,10.1,-9.19,4.8,86.2,94.4,-22.8,4.0,1.2,-0.5,-4.3,6.0,163.6,7.2,2
0.7,-2.8,-23.52,28.7,48.3,103.81,13.9,9.0,-1.1,0.5,3.6,5.3,144.6,8.1,2
1.8,0.1,-12.48,5.9,63.4,96.09,43.0,2.4,6.0,-1.0,-1.6,7.4,143.6,6.0,1
-0.6,-2.9,-3.68,2.2,95.6,100.0,-12.9,2.3,0.9,0.4,0.3,4.6,142.8,10.3,3
0.1,-1.8,-7.32,-7.3,132.9,97.89,-123.8,-2.9,-0.4,2.2,4.5,-6.8,190.1,15.4,3
9.5,0.7,-11.35,8.0,67.8,96.7,48.0,3.7,0.9,1.3,2.7,4.3,267.2,6.8,2
-0.7,-2.6,24.74,7.0,37.3,105.17,-49.1,9.5,0.7,-0.2,-3.1,0.6,53.7,6.5,1
8.3,-2.0,5.78,4.0,65.3,111.65,56.3,4.9,0.5,-0.6,-0.9,4.5,100.0,4.2,2
1.05,-2.51,-8.41,1.57,126.82,100.0,-17.93,2.06,0.59,1.11,4.0,-0.12,121.02,11.87,3
1.8,0.0,9.47,3.5,80.8,102.02,-72.4,-5.6,1.9,-4.4,-18.7,-0.2,104.2,15.5,3
-6.53,-3.78,-15.69,-3.8,125.82,98.68,-115.99,-4.96,-0.07,3.3,16.73,-3.54,209.29,12.76,4
-2.4,2.5,3.2,8.9,49.4,117.31,-68.1,11.3,1.5,-3.6,-11.6,2.0,91.0,8.1,1
-2.44,-4.48,-14.08,-2.88,109.14,93.33,-154.52,-3.67,-0.61,5.09,17.13,-8.28,321.14,12.97,4
8.3,-1.7,-2.87,5.2,37.2,105.09,52.6,1.3,0.9,-0.6,-2.6,3.1,209.0,6.4,1
1.2,5.3,8.56,23.0,34.7,116.3,-25.0,5.9,2.4,-1.7,-8.0,4.2,67.3,4.0,1
2.3,-4.3,2.9,2.4,99.2,104.45,-85.5,-1.2,-0.1,-3.5,-11.1,-0.4,147.4,22.1,2
0.19,-0.84,-16.39,-1.16,133.55,105.96,-21.8,2.56,1.06,2.3,9.43,-2.34,118.91,11.11,3
-0.94,-1.58,5.73,-0.87,121.73,101.03,-119.64,0.01,0.34,-1.61,-7.97,1.63,211.27,13.29,3
-2.6,-0.86,-12.07,-3.39,104.09,100.42,-162.37,-0.75,-0.01,4.8,22.21,-11.94,340.87,11.92,4
-1.2,-2.6,-4.91,-4.0,61.3,101.04,0.1,-3.6,1.3,0.2,-0.4,7.0,146.0,8.9,1
0.4,-3.6,6.93,10.9,9.8,76.91,-50.7,0.1,0.8,1.8,-6.5,7.6,117.2,13.0,1
5.7,0.8,8.2,10.3,23.7,91.43,58.9,7.6,1.7,0.5,1.3,27.8,313.3,5.3,1
-4.5,-4.4,-26.64,-17.4,177.4,109.02,-130.4,-10.0,-0.3,12.8,25.3,-4.0,132.3,23.3,4
-2.8,-1.17,-15.34,2.74,106.13,100.09,-163.03,-3.08,0.33,5.33,18.74,-7.37,345.95,13.01,4
1.26,-1.68,7.86,0.16,116.32,108.94,-102.55,1.38,0.95,-2.33,-8.6,0.55,159.99,15.75,2
0.3,-0.9,-0.15,1.1,17.1,97.38,-73.5,15.3,1.7,2.7,6.5,2.6,130.6,12.2,2
-1.7,-8.6,7.91,5.6,42.4,92.02,-67.5,-6.5,0.9,3.3,-4.8,-5.4,96.8,16.9,1
-1.2,-1.6,7.31,8.6,52.0,107.04,-66.8,4.1,2.0,-4.2,-11.5,9.2,88.5,11.5,1
-3.7,-10.01,-16.33,-2.54,118.59,84.83,-129.77,-7.66,-1.52,4.96,8.04,-0.57,261.34,14.25,4
3.1,0.0,10.82,-7.6,72.9,123.6,-55.1,9.1,4.2,-2.0,-9.7,0.7,70.8,5.4,1
-4.8,-11.4,15.13,4.8,54.5,108.27,-62.4,4.2,1.9,1.2,8.5,6.6,73.9,9.2,1
-1.02,-2.32,-14.81,1.04,96.49,106.02,-16.79,4.64,0.7,0.68,2.35,2.22,135.57,9.61,2
-2.96,-1.44,-17.79,7.29,107.71,99.76,-163.43,-4.84,0.57,5.73,16.1,-3.94,349.47,13.82,4
0.97,-4.63,-0.55,6.0,37.31,108.79,-46.61,5.8,-0.26,-1.12,-5.2,1.09,107.04,8.97,3
-2.6,-0.5,7.39,4.3,39.8,98.89,-45.2,3.4,0.8,0.5,8.2,2.1,68.3,6.9,1
1.0,3.1,8.95,0.5,122.0,124.17,-106.1,5.1,1.7,-4.1,-11.7,1.0,155.4,9.1,2
-8.8,-3.0,-9.92,-4.9,114.4,105.91,-104.1,-0.5,-0.3,2.6,13.6,-0.8,204.6,11.2,4
-0.3,4.8,20.52,13.0,10.6,93.21,-46.7,14.7,0.5,-3.8,-7.4,5.6,115.4,8.7,1
-2.13,-5.78,-3.64,9.31,107.14,100.17,-152.78,-10.26,0.44,2.82,4.18,4.61,344.42,15.45,3
-0.6,4.8,10.22,4.7,40.9,107.36,-59.0,16.7,2.3,-1.7,-5.9,2.3,80.5,10.1,1
-2.38,-5.72,-14.76,-2.71,110.86,90.91,-151.84,-4.67,-0.82,5.19,15.39,-7.04,314.39,13.32,4
0.4,-7.1,58.59,1.5,73.8,107.17,-171.7,-17.7,0.9,-3.8,-9.9,-15.7,284.4,10.1,2
-0.6,-10.0,-6.24,5.2,42.2,96.29,-36.6,4.0,3.0,0.0,-2.2,1.7,71.5,6.7,1
-0.8,-1.3,-14.53,5.6,94.9,101.78,-15.6,4.4,1.1,0.6,1.5,3.2,141.5,10.1,3
2.3,2.3,77.37,5.1,63.5,127.42,-165.0,-2.8,0.8,-3.2,-6.4,-7.8,223.2,7.0,2
-0.77,-1.12,-15.31,4.51,99.86,102.8,-16.62,4.2,1.14,0.9,2.9,2.4,138.82,10.14,3
-2.1,-6.2,-25.74,7.2,126.5,118.47,-23.0,2.0,1.2,2.2,10.0,-0.9,124.2,9.2,2
-0.5,1.7,26.02,2.0,37.2,92.5,-53.6,-7.8,3.0,6.7,19.3,-1.8,68.8,15.7,1
-7.4,-5.0,-26.26,-2.1,159.6,120.06,-115.9,-2.3,0.1,10.6,29.6,-4.7,132.6,18.4,4
1.76,-3.07,-5.55,2.74,134.59,101.06,-12.97,1.63,1.49,0.09,-0.86,-0.18,112.59,11.94,3
1.49,-4.69,9.51,9.3,29.23,106.43,-48.18,8.72,0.34,-2.87,-11.11,2.87,104.6,9.44,3
-1.6,-5.6,38.33,8.2,35.1,108.6,-47.4,15.4,1.6,-0.8,-5.7,1.7,50.9,5.9,1
2.59,0.1,20.23,3.7,78.47,104.48,-66.93,-4.13,0.58,-4.93,-16.2,1.18,99.35,13.85,3
2.2,4.8,3.92,1.7,74.0,113.27,3.7,4.7,1.3,-0.3,-1.2,3.9,121.0,5.5,1
-2.1,-0.11,3.87,-3.74,117.77,100.43,-122.63,-1.73,0.3,-0.75,-3.51,0.32,233.43,13.25,3
-1.07,-4.24,-30.49,2.65,55.89,102.32,5.55,6.46,0.31,0.2,-1.43,5.11,148.11,8.07,2
0.33,-2.3,-4.19,-5.04,132.25,98.7,-121.92,-1.71,-0.25,1.17,0.52,-4.73,185.97,15.02,3
1.9,-3.2,-3.29,-2.0,99.3,100.0,-88.9,-1.1,0.0,0.4,-4.6,-2.5,155.8,24.2,2
-5.81,-4.19,-17.32,-3.46,128.79,96.25,-119.72,-6.28,-0.04,3.55,17.34,-4.21,212.16,13.25,4
7.0,-2.4,-8.35,10.3,61.7,114.09,20.1,5.3,0.3,0.4,1.4,8.2,247.2,4.8,1
-2.7,-3.2,-19.21,5.1,119.7,124.71,-18.2,4.9,-0.8,1.3,8.0,3.1,121.8,8.2,2
-8.42,-3.55,-14.38,-4.14,126.74,109.77,-107.32,-0.99,-0.19,4.78,17.97,-1.86,184.94,13.17,4
7.7,-1.2,-15.87,7.3,44.3,93.85,43.3,2.3,-1.2,-0.1,-2.2,-0.3,214.0,7.4,1
