PC_CA-avg_3y,REER-pch_3y,X_GS_share_M-pch_5y,FSL-pch,GD-pc_gdp,HPI-pch,NIIP-pc_gdp,ULC-pch_3y,ACT-pch_3y,LTU-pch_3y,YUR-pch_3y,PSCF-pc_gdp,PSD-pc_gdp,UR-avg_3y,label
1.81,0.1,8.81,2.95,81.03,102.51,-71.97,-4.99,1.64,-2.76,-9.0,-0.04,104.86,15.19,3
-1.73,-4.71,-15.79,-0.65,94.18,105.43,-94.8,-4.65,0.93,5.94,13.39,-10.46,188.77,20.88,3
-2.1,-12.2,-18.34,-1.8,119.9,78.23,-137.8,-9.9,-1.9,5.7,6.3,-0.5,279.1,15.2,4
0.2,-6.3,71.33,4.3,67.7,117.61,-167.2,-15.4,0.9,-3.6,-9.0,0.2,250.5,8.4,2
2.3,-7.2,-9.31,0.4,76.2,100.0,-67.9,1.0,4.9,-1.9,-10.9,-2.5,84.2,8.2,1
2.7,3.9,13.57,6.8,22.3,117.28,-36.8,18.3,2.2,-2.6,-8.9,3.9,95.0,6.3,2
-0.7,-8.3,-32.36,-1.3,53.6,103.4,10.6,5.8,0.2,0.2,-2.5,7.1,147.7,8.0,2
0.7,-3.7,2.44,16.3,36.8,106.62,-26.9,2.7,2.1,-1.3,-8.5,4.3,68.7,5.1,1
-0.79,-1.39,-13.95,5.42,94.94,101.68,-15.45,4.29,1.09,0.59,1.44,3.28,141.57,10.11,3
0.7,-2.8,-23.52,28.7,48.3,103.81,13.9,9.0,-1.1,0.5,3.6,5.3,144.6,8.1,2
-3.66,0.23,13.94,1.24,37.53,101.67,-63.68,-3.44,0.19,0.8,1.62,-1.21,67.38,7.0,4
-0.39,-0.35,2.07,1.73,16.73,98.37,-75.34,15.81,0.99,2.84,7.64,2.78,130.3,11.67,2
-1.24,-4.48,-10.6,5.8,111.32,110.17,-19.56,1.78,0.82,0.85,3.49,3.24,135.55,9.58,2
6.5,-7.8,-17.73,2.5,44.9,88.28,36.1,-0.2,-1.5,1.5,2.3,7.9,224.0,7.8,2
-2.9,-3.2,-10.3,1.1,51.8,93.79,-60.6,-0.3,1.0,2.9,6.7,1.9,71.1,14.0,1
-1.67,-5.82,-4.05,8.41,110.44,100.0,-150.09,-9.44,0.35,2.74,3.74,3.68,326.92,15.54,3
-4.5,-4.4,-26.64,-17.4,177.4,109.02,-130.4,-10.0,-0.3,12.8,25.3,-4.0,132.3,23.3,4
0.59,-2.41,3.17,-0.87,131.36,103.21,-114.46,-0.17,0.37,-1.87,-8.12,-1.61,174.02,13.45,3
5.4,5.1,-17.19,9.7,40.4,82.36,-15.9,8.7,2.0,-0.2,-1.3,4.6,193.6,8.0,2
-8.38,-2.89,-7.47,-3.83,105.88,105.73,-100.08,0.3,-0.08,2.4,12.3,-0.68,190.02,10.74,4
2.1,-6.8,-16.82,8.7,76.8,88.33,-80.4,6.2,4.6,-1.5,-5.6,-0.2,91.7,9.6,2
-0.54,-2.91,0.45,4.12,97.72,103.1,-16.6,1.95,0.55,-0.19,-1.67,6.25,144.37,9.89,2
2.4,4.2,22.94,4.5,74.7,109.84,-57.9,-2.1,-0.6,-6.8,-18.6,2.3,94.0,10.9,3
-7.25,-2.59,-0.89,-0.96,82.93,105.24,-89.26,2.47,0.51,1.87,8.8,-0.35,150.73,9.49,4
-3.2,1.9,11.12,4.3,15.2,102.38,-82.8,17.9,-1.9,3.4,12.3,3.5,129.1,9.5,2
-0.6,4.8,10.22,4.7,40.9,107.36,-59.0,16.7,2.3,-1.7,-5.9,2.3,80.5,10.1,1
-5.81,-2.32,-15.26,3.75,111.67,102.52,-135.41,-3.65,0.28,4.44,13.6,-0.75,282.32,12.98,4
1.59,-1.0,10.33,4.9,68.04,101.55,-69.93,-0.92,1.97,-3.65,-15.86,-0.97,105.39,14.5,3
-5.6,-5.0,17.63,10.4,70.2,95.07,6.3,11.1,2.7,1.3,1.6,6.8,168.3,6.7,1
-2.39,-9.18,-18.85,2.06,116.82,84.34,-145.29,-8.92,-1.12,5.82,8.4,-0.56,300.32,15.03,4
-2.1,-5.3,-17.51,0.7,86.3,106.96,-88.9,-5.0,1.2,6.7,15.2,-11.2,188.5,22.0,3
1.2,1.7,19.36,16.7,40.6,95.53,-46.8,8.7,2.3,-3.2,-13.3,0.2,54.2,12.0,1
-4.12,-2.54,-19.08,6.12,116.39,98.44,-147.64,-6.39,0.51,5.16,15.05,-2.01,301.15,14.09,4
1.96,-2.5,-2.13,3.53,134.34,99.15,-10.1,1.45,1.55,-0.37,-4.11,1.01,110.63,11.65,3
-5.97,-3.98,-17.13,-3.53,128.67,96.88,-118.95,-6.07,-0.01,3.48,17.51,-4.22,210.46,13.15,4
-0.01,-3.91,-0.6,1.53,125.0,100.0,-128.21,-2.68,0.1,0.47,-3.02,0.12,223.36,14.74,3
-8.23,-3.78,-10.63,-4.64,114.87,103.56,-106.96,-1.3,-0.44,2.86,12.98,-0.77,210.92,11.54,4
-0.7,2.1,-4.08,1.4,54.7,93.4,-62.2,2.6,1.2,0.8,0.1,5.0,75.2,13.9,1
0.9,-4.3,13.16,9.5,26.0,100.0,-61.8,14.5,2.2,-1.2,-6.5,-3.5,109.3,11.2,3
-3.5,0.5,14.14,0.8,37.6,101.35,-63.2,-4.7,0.0,0.8,1.6,-1.4,66.8,7.0,4
-1.0,-5.6,-13.98,6.3,175.9,100.0,-135.4,-9.7,0.3,3.7,-5.5,-3.0,128.0,26.3,4
0.14,-1.8,-6.07,-6.61,132.76,98.71,-122.47,-2.66,-0.29,1.67,3.04,-6.3,188.02,15.12,3
7.9,-2.1,1.07,4.7,35.8,108.5,55.4,1.6,1.3,-0.5,-1.8,1.4,202.7,6.0,1
-0.5,-3.0,2.4,4.6,98.3,103.04,-16.6,1.6,0.5,-0.3,-2.1,6.8,145.3,9.9,2
-0.07,-4.14,-15.09,-4.51,104.73,100.37,41.39,4.91,-0.02,-0.08,-1.94,15.12,190.41,7.71,2
-3.4,-9.4,-17.98,-2.38,123.01,84.52,-131.48,-8.64,-1.25,4.95,10.16,-1.8,255.72,14.52,4
-1.73,-0.29,-1.51,2.26,90.42,126.54,-98.64,1.16,1.4,2.57,8.55,-2.15,181.35,15.53,2
-1.2,-1.6,7.31,8.6,52.0,107.04,-66.8,4.1,2.0,-4.2,-11.5,9.2,88.5,11.5,1
-1.9,-5.6,-19.39,-8.5,178.9,103.46,-131.9,-10.4,0.1,10.7,7.7,-3.0,130.8,26.2,4
8.1,-2.1,2.13,5.2,69.2,106.77,51.4,4.9,0.3,-0.6,-0.7,3.7,98.2,4.6,2
0.35,-1.8,0.63,-2.93,132.01,103.07,-115.37,-1.38,0.3,-1.16,-4.75,-3.63,176.92,13.63,3
1.3,-0.6,-18.13,-10.02,70.09,105.09,-39.54,0.06,-0.98,1.99,6.86,-3.69,107.23,9.15,3
5.7,2.0,19.55,4.1,70.4,118.37,-18.9,6.1,3.2,-2.5,-7.5,1.3,72.8,6.6,1
0.7,-3.1,0.87,-1.4,131.2,100.0,-118.9,0.2,0.0,-0.5,-5.9,-1.4,179.3,14.4,3
0.9,-0.4,-5.01,2.4,104.9,101.19,54.5,-0.9,0.1,0.1,-3.6,23.8,194.9,8.3,1
-5.9,-4.0,-17.3,-3.5,129.0,96.67,-119.3,-6.2,0.0,3.5,17.6,-4.3,210.6,13.2,4
-1.68,-5.83,-4.08,8.46,110.33,100.0,-150.25,-9.49,0.35,2.76,3.79,3.71,327.68,15.54,3
-4.57,-4.38,-26.19,-16.74,175.09,108.43,-129.87,-9.82,-0.29,12.36,24.93,-4.01,136.04,22.82,4
-2.25,-1.68,5.11,-7.79,123.92,98.52,-111.47,-2.4,0.56,-2.13,-4.88,-1.15,98.69,17.15,4
0.46,-1.8,3.88,-1.14,131.65,105.19,-111.92,-0.76,0.58,-2.53,-8.54,-2.34,171.53,12.9,3
0.99,-3.21,-3.89,2.87,119.6,100.12,-12.29,1.81,1.27,0.03,-1.23,1.85,123.76,11.4,3
-0.6,-2.9,-3.68,2.2,95.6,100.0,-12.9,2.3,0.9,0.4,0.3,4.6,142.8,10.3,3
1.07,-0.28,-12.45,-4.5,76.62,102.75,-57.41,-2.77,0.85,1.07,3.8,-2.73,109.38,12.71,3
1.9,-3.8,-22.85,-1.3,77.4,85.69,-82.2,7.5,2.8,-0.6,0.2,-0.8,95.8,10.7,2
-1.9,-1.0,21.09,1.2,39.2,98.15,-57.1,6.7,1.6,-0.1,0.1,-2.3,62.1,6.9,2
0.17,-2.8,-11.37,0.51,104.11,100.27,46.46,5.01,-0.21,0.06,-0.6,18.71,185.39,7.75,2
0.8,-0.8,-23.17,-5.8,78.6,89.71,-92.2,7.7,2.5,0.8,1.8,-6.0,102.2,11.1,2
-2.1,-6.2,-25.74,7.2,126.5,118.47,-23.0,2.0,1.2,2.2,10.0,-0.9,124.2,9.2,2
-3.3,3.4,-11.62,-7.7,84.2,88.71,-17.8,3.9,1.0,0.2,0.8,6.6,170.2,7.8,2
2.49,0.1,18.81,3.61,78.79,104.24,-67.55,-4.24,0.71,-4.66,-15.31,1.03,100.04,14.02,3
8.39,-1.67,-6.91,-0.73,49.08,105.35,55.38,1.58,-0.27,-0.23,-1.27,6.01,233.81,6.18,2
2.08,1.98,15.82,3.97,77.92,105.71,-65.56,-3.95,0.72,-5.53,-18.65,0.98,99.39,13.33,3
-0.7,-4.4,-15.44,6.9,87.8,108.38,-8.7,5.4,0.4,1.0,3.7,6.4,135.3,9.2,2
-1.93,0.34,-13.04,-3.21,89.23,96.83,-17.14,4.28,0.95,0.42,1.24,4.14,152.25,8.89,2
2.0,-4.7,-21.72,0.4,81.9,92.57,-3.2,3.8,0.8,0.0,-1.3,1.2,128.2,4.8,1
1.09,-0.31,-13.03,-5.06,75.96,102.99,-55.6,-2.48,0.67,1.17,4.11,-2.82,109.16,12.35,3
7.0,-2.4,-8.35,10.3,61.7,114.09,20.1,5.3,0.3,0.4,1.4,8.2,247.2,4.8,1
-3.54,0.43,14.09,0.91,37.58,101.43,-63.32,-4.39,0.05,0.8,1.61,-1.35,66.94,7.0,4
1.5,-2.4,-9.7,1.4,135.3,100.0,-19.3,2.0,0.5,1.3,5.0,-1.4,115.1,12.3,3
0.9,4.2,6.46,7.3,42.6,100.0,-43.6,11.8,2.3,-2.7,-10.4,2.6,55.3,10.5,1
2.3,-3.3,20.41,7.1,25.3,112.23,-43.3,13.5,2.3,-3.5,-10.9,4.1,99.0,7.7,2
2.3,2.3,77.37,5.1,63.5,127.42,-165.0,-2.8,0.8,-3.2,-6.4,-7.8,223.2,7.0,2
-4.05,-0.41,13.47,2.26,37.38,102.42,-64.81,-0.5,0.62,0.8,1.67,-0.78,68.74,7.0,4
-3.01,-10.25,-18.09,-2.21,122.07,82.63,-133.39,-9.02,-1.45,5.18,8.99,-1.41,262.77,14.72,4
-0.1,-4.3,-15.53,-5.1,104.8,100.38,40.8,4.9,0.0,-0.1,-2.1,14.7,191.0,7.7,2
2.7,-5.2,-2.11,19.5,75.5,113.12,-59.6,5.4,5.4,-2.5,-13.7,-3.1,77.5,6.5,1
-2.8,6.0,-21.25,-3.6,83.2,88.06,-28.1,3.0,0.4,0.8,2.1,1.5,176.1,7.9,2
1.05,-5.28,-6.9,6.74,66.96,90.9,-74.3,6.33,3.81,-1.13,-4.11,-0.75,83.95,8.89,2
-0.41,-4.38,-1.45,3.22,121.42,100.0,-133.59,-4.34,0.17,1.03,-1.36,0.99,248.84,14.94,3
0.0,-8.2,-2.16,8.1,40.0,100.0,-32.9,0.1,2.4,-0.6,-6.9,0.3,68.1,6.1,1
-5.67,-4.02,-22.1,-14.01,160.29,108.18,-123.26,-7.42,-0.3,10.03,22.12,-3.13,151.93,20.01,4
0.1,-4.2,-4.32,6.2,80.8,99.03,-104.2,3.8,1.2,1.6,6.5,-4.3,114.8,10.7,2
-0.36,-1.82,-14.05,0.43,91.95,102.99,-19.01,4.1,0.87,0.72,1.92,1.35,133.02,9.78,2
0.8,0.1,-5.77,2.0,84.3,100.0,-78.4,-6.1,3.0,0.0,0.2,-1.6,111.9,16.9,3
8.3,-1.7,-2.87,5.2,37.2,105.09,52.6,1.3,0.9,-0.6,-2.6,3.1,209.0,6.4,1
0.4,-3.6,6.93,10.9,9.8,76.91,-50.7,0.1,0.8,1.8,-6.5,7.6,117.2,13.0,1
0.5,-0.6,-13.33,2.5,107.0,99.19,44.8,4.3,1.0,0.8,4.5,-2.0,162.2,8.2,2
-0.47,-1.01,-14.73,4.6,102.82,102.25,-16.66,4.05,1.24,1.15,3.85,2.52,137.08,10.45,3
-2.0,-6.2,-4.75,9.8,107.5,100.0,-154.5,-10.8,0.4,3.2,5.1,4.4,347.8,15.7,3
-4.64,-0.25,8.95,-0.43,54.16,102.33,-72.02,-3.79,-0.06,1.19,4.19,-1.27,96.51,7.91,4
0.1,-1.8,-7.32,-7.3,132.9,97.89,-123.8,-2.9,-0.4,2.2,4.5,-6.8,190.1,15.4,3
0.93,0.05,-15.2,0.55,135.39,103.92,-20.9,2.57,1.73,3.28,13.01,-0.36,118.68,11.92,3
0.5,-1.8,5.22,-0.4,131.5,106.07,-110.5,-0.5,0.7,-3.1,-10.1,-1.8,169.3,12.6,3
0.17,-0.98,-16.24,-1.69,83.34,103.33,-26.6,2.4,0.13,1.25,4.01,-0.0,125.58,9.64,3
2.06,1.81,15.28,3.93,78.17,105.4,-66.14,-4.09,0.82,-5.44,-18.66,0.88,99.8,13.51,3
9.9,3.2,1.68,-3.3,52.4,118.9,70.7,3.0,0.7,-1.6,-4.1,4.5,241.6,4.9,2
1.63,-0.5,6.0,1.42,110.9,114.57,-96.07,2.03,0.82,-3.81,-11.41,0.32,151.51,15.43,2
-2.95,-10.36,-18.11,-2.18,121.94,82.36,-133.66,-9.07,-1.47,5.21,8.83,-1.35,263.77,14.75,4
-8.8,-3.0,-9.92,-4.9,114.4,105.91,-104.1,-0.5,-0.3,2.6,13.6,-0.8,204.6,11.2,4
-2.51,-11.31,-18.23,-1.98,120.89,80.23,-135.8,-9.5,-1.69,5.46,7.52,-0.91,271.68,14.98,4
2.1,2.47,20.95,5.52,64.81,107.84,-58.69,1.27,-0.03,-5.66,-16.14,1.12,97.11,10.96,3
-4.32,-0.87,13.13,2.99,37.27,102.95,-65.61,1.61,0.93,0.8,1.71,-0.47,69.71,7.0,4
-4.92,-4.28,-23.82,-13.21,162.8,105.29,-127.05,-8.85,-0.21,9.99,22.98,-4.09,155.92,20.25,4
-0.74,-1.77,-11.34,4.6,95.11,101.26,-14.81,3.78,1.04,0.54,1.15,3.61,141.88,10.16,3
2.3,-6.4,37.84,9.6,76.7,100.0,-198.4,-18.6,1.0,-3.9,-10.6,-2.3,305.1,11.9,2
-1.93,-2.24,2.79,-10.0,146.09,97.8,-123.86,-1.8,0.7,-2.88,-6.54,-1.09,106.88,19.76,4
-0.7,-4.37,-15.04,6.85,88.03,108.26,-8.87,5.32,0.4,0.97,3.57,6.41,135.52,9.22,2
-3.19,-1.77,-20.01,11.13,109.81,99.36,-162.42,-6.49,0.78,6.02,13.72,-0.81,348.39,14.56,4
-2.77,-5.19,-19.52,7.15,112.75,92.4,-155.16,-7.63,-0.1,5.97,11.17,-0.63,328.32,14.8,4
1.9,-3.2,-3.29,-2.0,99.3,100.0,-88.9,-1.1,0.0,0.4,-4.6,-2.5,155.8,24.2,2
0.3,-0.9,-0.15,1.1,17.1,97.38,-73.5,15.3,1.7,2.7,6.5,2.6,130.6,12.2,2
-0.8,-2.2,-14.22,0.5,93.4,103.54,-16.6,4.6,0.9,0.6,1.6,2.1,137.4,9.8,2
-2.0,2.5,13.52,13.2,37.3,100.0,-64.1,17.2,1.3,-3.3,-12.2,-0.5,80.4,10.9,1
-7.4,-2.07,-3.54,-3.39,94.04,104.7,-93.26,-1.61,-0.22,2.12,10.42,-0.96,168.08,10.09,4
7.9,5.3,3.49,2.0,61.9,117.37,62.5,5.6,1.0,-0.6,-1.0,6.5,102.1,3.8,2
0.01,-1.94,-7.74,-6.97,130.98,98.26,-122.36,-2.99,-0.33,2.39,4.94,-6.98,190.03,15.67,3
-1.1,-4.0,-9.78,-10.2,178.5,98.32,-137.6,-3.3,0.7,-1.5,-11.0,-2.1,125.1,25.0,4
3.2,1.2,-12.73,-0.1,80.3,98.6,-38.4,0.1,0.6,1.7,4.5,-4.7,97.9,9.6,2
-4.8,1.4,1.39,10.7,54.1,101.13,-65.3,5.3,1.8,1.6,5.9,4.8,73.4,9.8,1
-6.19,-3.9,-16.57,-3.64,127.55,97.59,-117.79,-5.63,-0.03,3.41,17.2,-3.95,210.0,13.0,4
-4.8,-11.4,15.13,4.8,54.5,108.27,-62.4,4.2,1.9,1.2,8.5,6.6,73.9,9.2,1
1.92,0.1,10.52,3.07,80.65,102.81,-71.21,-4.86,1.48,-3.09,-10.08,0.14,104.04,14.99,3
-0.5,1.7,26.02,2.0,37.2,92.5,-53.6,-7.8,3.0,6.7,19.3,-1.8,68.8,15.7,1
0.1,6.9,-1.46,-2.6,99.8,103.87,38.1,3.7,1.0,-1.5,-6.3,3.7,185.1,7.0,1
-1.7,2.7,-27.3,9.4,59.8,100.46,-3.1,7.6,0.5,0.2,0.4,1.7,148.8,8.2,2
7.7,-1.2,-15.87,7.3,44.3,93.85,43.3,2.3,-1.2,-0.1,-2.2,-0.3,214.0,7.4,1
-1.76,-2.55,1.5,-11.23,158.38,97.39,-130.74,-1.48,0.78,-3.3,-7.46,-1.05,111.42,21.2,4
-3.07,-1.97,-20.06,11.26,109.47,98.91,-163.14,-6.59,0.73,6.09,13.41,-0.69,350.92,14.62,4
0.25,-2.13,-5.24,-5.8,132.47,98.43,-122.56,-2.11,-0.3,1.51,1.86,-5.43,187.36,15.15,3
-7.22,-1.95,-2.73,-3.2,91.46,104.55,-91.89,-1.75,-0.21,2.06,10.02,-0.98,163.45,9.95,4
-3.07,-10.1,-18.07,-2.23,122.23,82.94,-133.07,-8.95,-1.41,5.14,9.19,-1.47,261.59,14.69,4
2.3,-4.3,2.9,2.4,99.2,104.45,-85.5,-1.2,-0.1,-3.5,-11.1,-0.4,147.4,22.1,2
0.42,-1.31,-8.92,4.79,104.23,99.96,50.02,4.93,-0.11,0.33,1.5,17.13,176.67,7.88,2
-0.73,-3.11,-11.14,-4.3,115.42,101.29,-110.71,-3.69,0.2,3.89,8.51,-8.45,189.5,17.88,3
1.5,-1.42,10.69,5.48,62.68,101.35,-68.9,1.04,2.0,-3.34,-14.67,-1.29,105.89,14.08,3
5.7,0.8,8.2,10.3,23.7,91.43,58.9,7.6,1.7,0.5,1.3,27.8,313.3,5.3,1
1.0,-1.7,-13.57,2.7,105.2,100.0,45.2,0.5,0.7,1.0,2.3,12.1,176.1,8.5,1
-4.62,-4.37,-25.84,-16.21,173.26,107.96,-129.45,-9.67,-0.27,12.0,24.64,-4.03,139.0,22.44,4
5.9,-4.9,-9.35,3.1,79.8,90.5,23.3,5.6,1.4,-1.1,-2.1,2.0,102.4,6.9,1
-1.6,-5.6,38.33,8.2,35.1,108.6,-47.4,15.4,1.6,-0.8,-5.7,1.7,50.9,5.9,1
4.9,3.3,8.69,-2.0,21.0,114.88,53.8,7.9,0.2,-0.5,-3.1,-0.5,306.5,5.8,1
0.4,-1.5,-7.75,5.4,103.5,100.17,51.4,5.1,-0.4,0.2,0.7,22.2,180.5,7.8,2
6.6,0.1,-3.82,10.9,19.0,86.69,28.9,8.8,1.1,-0.2,-1.1,21.4,284.3,4.8,1
6.4,-9.0,-16.75,3.2,81.1,92.35,28.7,2.5,0.9,-1.1,-3.2,1.4,101.9,6.1,1
1.28,-0.57,-17.61,-9.51,70.69,104.87,-41.2,-0.2,-0.81,1.9,6.57,-3.6,107.43,9.48,3
1.3,-0.6,-18.21,-10.1,70.0,105.12,-39.3,0.1,-1.0,2.0,6.9,-3.7,107.2,9.1,3
-0.04,-2.53,0.49,-0.17,122.1,106.26,-106.01,-1.44,0.8,-1.06,-4.84,-3.76,173.29,14.56,3
2.1,7.7,0.75,6.9,8.4,108.14,-27.7,14.3,2.4,-1.1,-1.3,3.7,101.5,6.0,1
-2.4,0.5,-4.48,5.2,44.5,95.34,-45.9,3.8,1.5,1.0,2.9,2.9,70.7,7.0,1
-6.39,-2.37,4.17,1.25,65.33,104.87,-80.96,4.13,0.97,1.46,6.12,-0.1,120.6,8.54,4
0.5,1.7,8.2,6.2,39.3,113.33,-56.2,15.2,2.4,-1.3,-2.6,2.4,76.9,9.4,1
-3.4,-4.3,-0.26,7.4,56.0,96.32,-68.9,3.1,1.7,1.4,3.6,3.3,75.4,10.0,1
1.0,3.1,8.95,0.5,122.0,124.17,-106.1,5.1,1.7,-4.1,-11.7,1.0,155.4,9.1,2
0.4,-7.1,58.59,1.5,73.8,107.17,-171.7,-17.7,0.9,-3.8,-9.9,-15.7,284.4,10.1,2
-2.4,2.5,3.2,8.9,49.4,117.31,-68.1,11.3,1.5,-3.6,-11.6,2.0,91.0,8.1,1
-3.74,-8.66,-17.89,-2.53,123.83,86.19,-129.81,-8.3,-1.08,4.75,11.18,-2.14,249.53,14.34,4
-7.89,-2.79,-11.54,-2.27,113.57,104.88,-113.62,-1.46,-0.12,3.16,13.6,-0.78,228.23,11.74,4
-5.21,-0.63,6.37,-1.04,62.41,102.82,-76.41,-3.34,-0.1,1.38,5.48,-1.21,111.32,8.36,4
-5.91,-2.34,-15.07,3.45,111.77,102.64,-134.33,-3.54,0.26,4.37,13.6,-0.75,279.64,12.92,4
1.18,2.28,16.06,4.95,27.89,110.95,-43.52,14.46,2.0,-1.77,-5.92,1.85,84.11,6.5,2
0.91,-0.42,13.75,1.31,125.7,115.07,-109.98,3.03,1.52,-3.92,-10.98,2.17,161.71,10.72,2
-2.37,-9.37,-18.81,1.81,117.02,83.94,-144.8,-8.98,-1.17,5.81,8.27,-0.55,298.95,15.04,4
-1.4,0.4,-15.78,3.9,63.2,100.19,5.2,0.4,0.7,0.6,0.2,1.3,148.0,9.0,1
-5.62,-4.08,-19.18,-6.3,138.76,99.16,-121.54,-6.97,-0.06,5.38,19.15,-4.24,194.8,15.24,4
-8.77,-3.01,-9.99,-4.89,114.54,105.82,-104.24,-0.55,-0.3,2.61,13.64,-0.83,204.66,11.22,4
5.7,-2.5,23.98,6.5,50.3,109.26,64.0,1.5,4.4,-0.9,-1.1,5.5,132.1,4.7,1
-1.0,-5.1,17.73,9.1,54.3,102.29,-61.6,2.5,1.8,-2.2,-9.6,5.1,81.6,7.6,1
-2.76,-5.32,-19.49,6.98,112.89,92.14,-154.85,-7.67,-0.13,5.96,11.09,-0.63,327.42,14.81,4
1.08,-0.29,-12.78,-4.81,76.25,102.88,-56.38,-2.61,0.75,1.13,3.97,-2.78,109.25,12.51,3
2.0,1.3,-9.15,-0.1,84.9,100.0,2.2,6.4,0.4,0.5,1.2,2.1,124.0,5.6,1
6.9,-2.5,-17.81,1.8,44.0,90.99,37.2,1.5,-1.4,0.4,-0.8,-3.0,216.1,7.7,1
1.8,0.0,9.47,3.5,80.8,102.02,-72.4,-5.6,1.9,-4.4,-18.7,-0.2,104.2,15.5,3
-0.1,6.4,3.49,8.2,33.8,114.86,-31.0,16.5,3.2,-1.9,-5.2,4.3,56.4,7.1,1
-1.4,-3.1,-9.77,11.4,44.9,94.54,-41.4,4.2,2.7,0.0,0.7,4.4,73.7,6.9,1
5.4,0.5,16.34,37.8,22.7,94.98,59.3,7.1,2.9,0.2,5.8,28.7,324.9,5.6,1
2.0,-3.4,-4.02,3.3,134.8,100.19,-11.9,1.5,1.5,-0.2,-2.2,0.1,111.7,12.1,3
-5.0,-2.0,12.3,4.8,37.0,104.27,-67.6,6.8,1.7,0.8,1.8,0.3,72.1,7.0,4
0.65,-3.16,0.77,-1.2,130.77,100.0,-119.54,0.0,0.01,-0.43,-5.7,-1.3,182.33,14.42,3
-0.5,2.7,21.45,4.1,37.8,100.0,-54.7,0.6,1.3,0.0,-0.9,0.2,58.0,6.9,1
-3.93,-9.69,-16.04,-2.65,118.4,85.79,-128.6,-7.33,-1.46,4.85,8.29,-0.58,258.76,14.11,4
2.8,0.1,23.24,3.9,77.8,105.0,-65.6,-3.9,0.3,-5.5,-18.1,1.5,97.9,13.5,3
-5.63,-2.28,-15.58,4.28,111.51,102.32,-137.3,-3.84,0.31,4.55,13.6,-0.74,287.01,13.09,4
1.1,0.9,1.08,1.4,101.7,102.86,56.8,0.9,0.3,-0.8,-3.9,0.4,185.4,7.8,1
4.1,-2.9,22.52,3.9,55.5,104.82,35.4,-1.5,4.3,-1.1,-2.0,15.2,136.1,5.3,1
1.2,11.0,11.47,7.4,32.6,123.49,-24.8,13.7,2.6,-1.7,-5.9,5.3,70.7,3.0,1
-0.72,-1.91,-10.38,4.3,95.17,101.1,-14.57,3.6,1.02,0.52,1.04,3.74,142.0,10.18,3
-0.78,-1.43,-13.64,5.32,94.96,101.63,-15.38,4.23,1.08,0.58,1.4,3.31,141.61,10.12,3
-3.77,0.05,13.81,1.53,37.49,101.88,-64.0,-2.62,0.31,0.8,1.64,-1.09,67.76,7.0,4
2.6,-2.6,9.87,3.2,98.6,109.18,-85.5,-0.5,-0.3,-5.2,-14.6,0.6,139.6,19.6,2
-5.07,-8.12,-14.61,-3.17,117.46,90.5,-122.87,-5.73,-1.19,4.33,9.53,-0.63,246.09,13.43,4
0.9,-0.8,14.27,1.4,126.1,114.08,-110.4,2.8,1.5,-3.9,-10.9,2.3,162.4,10.9,2
8.2,-0.9,-6.74,4.0,64.6,100.0,48.9,-0.4,0.6,1.1,-0.4,0.0,262.8,7.2,2
5.6,10.3,-19.51,5.6,37.6,78.78,-15.5,4.1,1.4,0.4,-1.4,2.4,190.5,8.1,2
-7.85,-4.31,-11.12,-4.46,115.18,101.97,-108.9,-1.84,-0.53,3.04,12.56,-0.76,215.21,11.77,4
1.54,-1.26,10.55,5.25,64.8,101.43,-69.31,0.27,1.99,-3.47,-15.14,-1.16,105.69,14.24,3
1.81,-2.71,15.34,5.62,23.28,108.57,-50.74,13.94,2.15,-1.97,-6.61,3.73,106.79,8.81,2
2.4,-1.8,-12.5,1.5,82.4,88.31,-1.9,5.8,0.7,0.2,0.4,3.0,129.4,4.9,1
-4.3,3.4,-2.78,0.6,43.5,99.71,-63.9,5.4,-0.1,2.6,14.4,2.9,69.5,13.3,1
2.2,-3.1,0.83,4.2,134.1,98.04,-7.7,1.2,1.5,-1.2,-8.0,1.3,108.8,11.6,3
-4.18,-0.64,13.3,2.62,37.33,102.68,-65.2,0.53,0.77,0.8,1.69,-0.63,69.21,7.0,4
-3.5,-2.5,-8.31,3.4,69.9,128.08,-93.8,-1.4,1.2,6.9,21.7,-4.2,198.2,19.7,2
-0.5,0.1,25.75,2.8,48.8,109.28,-55.6,7.8,2.0,-2.0,-9.1,3.3,75.8,5.0,1
0.88,-1.6,5.83,2.84,19.48,101.7,-64.72,14.78,1.87,0.9,1.44,3.04,121.41,10.89,2
1.74,0.44,18.61,6.71,53.16,105.49,-59.62,5.24,0.64,-4.32,-13.25,-0.26,100.77,11.03,3
0.55,-2.1,4.22,-0.63,131.43,104.68,-112.43,-0.34,0.54,-2.5,-9.14,-1.71,171.59,13.01,3
-1.4,2.1,-23.06,1.4,63.6,100.0,4.8,3.3,0.6,0.7,3.4,6.9,152.1,8.8,2
-0.8,-1.3,-14.53,5.6,94.9,101.78,-15.6,4.4,1.1,0.6,1.5,3.2,141.5,10.1,3
1.7,0.7,-18.42,-3.2,81.3,95.34,1.3,6.4,1.1,0.1,0.2,1.0,127.1,5.0,1
0.6,4.9,8.63,-3.0,37.2,120.83,-49.1,15.1,2.0,-1.4,-4.1,-0.2,70.5,8.6,1
1.03,-3.21,-3.89,2.89,120.13,100.12,-12.27,1.8,1.28,0.02,-1.26,1.78,123.34,11.43,3
-4.5,-10.8,-1.18,-1.7,86.2,108.74,-10.0,5.1,0.9,-1.1,-4.9,7.2,167.7,4.8,1
-7.83,-3.33,-12.38,-4.43,119.26,102.83,-109.16,-2.4,-0.2,2.9,14.93,-1.97,206.6,11.87,4
2.1,-2.4,26.53,-6.2,43.9,92.26,-74.7,-20.6,-1.4,6.9,17.4,-2.4,115.2,17.7,1
0.9,5.8,7.29,8.6,10.0,100.0,-39.9,15.3,1.9,-3.1,-7.8,2.7,112.8,7.4,1
-3.51,0.48,14.13,0.83,37.6,101.37,-63.23,-4.63,0.01,0.8,1.6,-1.39,66.83,7.0,4
1.9,-0.8,24.41,-0.2,6.1,74.59,-54.0,-2.2,0.5,5.4,10.4,-0.8,118.9,14.2,1
5.0,-1.0,21.39,0.4,22.3,109.59,51.8,4.0,-0.6,0.5,-7.2,27.4,322.9,6.2,1
1.28,0.05,1.55,2.72,82.62,100.97,-75.52,-5.86,2.47,-2.11,-8.88,-0.93,108.2,16.23,3
0.9,0.2,-15.53,0.5,135.4,104.16,-21.0,2.6,1.8,3.4,13.5,-0.3,118.9,11.9,3
-2.8,-7.8,-25.92,10.4,80.1,89.47,-11.6,5.8,-0.3,1.3,6.3,1.6,176.6,7.8,2
2.6,4.1,4.61,-2.3,97.6,114.86,-80.2,0.7,-0.6,-5.0,-14.0,0.4,134.4,17.4,2
-0.71,-2.02,-9.63,4.06,95.22,100.98,-14.38,3.45,1.01,0.51,0.96,3.83,142.09,10.19,3
1.15,-0.39,-14.47,-6.46,74.3,103.58,-51.06,-1.76,0.2,1.4,4.89,-3.07,108.61,11.45,3
0.3,-1.2,4.06,10.4,51.9,100.0,-63.9,2.7,1.5,-1.8,-7.5,5.1,80.6,13.0,1
-0.76,-4.25,-8.72,-0.3,107.77,103.63,-103.24,-2.51,0.63,3.26,5.11,-6.51,184.1,18.37,3
-7.75,-2.31,-5.15,-3.77,99.16,105.01,-95.99,-1.33,-0.24,2.24,11.22,-0.92,177.26,10.37,4
5.0,-2.0,17.79,5.3,74.1,110.33,-24.2,3.7,3.3,-2.2,-9.0,0.9,76.3,7.9,1
0.28,-3.43,-1.88,-1.09,124.47,101.04,-114.4,-0.58,0.18,0.58,-2.74,-2.87,180.68,15.54,3
8.18,-0.99,-6.88,3.98,64.35,99.85,48.74,-0.4,0.57,1.11,-0.37,0.1,262.3,7.21,2
-1.36,-4.3,-11.03,0.39,99.19,106.71,-95.06,-3.72,1.06,3.9,7.98,-8.52,183.02,19.32,3
-3.1,-1.7,-20.1,11.6,109.2,99.45,-163.8,-6.5,0.8,6.1,13.6,-0.7,352.8,14.6,4
-5.1,-8.08,-14.57,-3.19,117.44,90.62,-122.72,-5.69,-1.18,4.31,9.57,-0.63,245.76,13.41,4
-1.5,-3.0,-0.36,-13.0,176.2,96.81,-140.7,-1.0,0.9,-3.9,-8.8,-1.0,118.0,23.3,4
-1.7,-8.6,7.91,5.6,42.4,92.02,-67.5,-6.5,0.9,3.3,-4.8,-5.4,96.8,16.9,1
-8.17,-3.22,-11.53,-4.6,117.58,103.9,-107.41,-1.74,-0.23,2.8,14.47,-1.56,205.91,11.64,4
8.3,-2.0,5.78,4.0,65.3,111.65,56.3,4.9,0.5,-0.6,-0.9,4.5,100.0,4.2,2
