PC_CA-avg_3y,REER-pch_3y,X_GS_share_M-pch_5y,FSL-pch,GD-pc_gdp,HPI-pch,NIIP-pc_gdp,ULC-pch_3y,ACT-pch_3y,LTU-pch_3y,YUR-pch_3y,PSCF-pc_gdp,PSD-pc_gdp,UR-avg_3y,label
-6.47,-3.69,-16.63,-1.41,130.52,115.6,-103.34,-2.87,0.08,8.26,22.92,-3.91,116.91,15.68,4
2.4,-1.8,-12.5,1.5,82.4,88.31,-1.9,5.8,0.7,0.2,0.4,3.0,129.4,4.9,1
-1.2,-1.6,7.31,8.6,52.0,107.04,-66.8,4.1,2.0,-4.2,-11.5,9.2,88.5,11.5,1
-4.45,-1.08,12.98,3.32,37.22,103.19,-65.97,2.55,1.07,0.8,1.73,-0.33,70.14,7.0,4
-8.76,-2.99,-9.99,-4.79,114.37,105.87,-104.48,-0.54,-0.29,2.62,13.6,-0.8,205.55,11.22,4
-3.1,-1.7,-20.1,11.6,109.2,99.45,-163.8,-6.5,0.8,6.1,13.6,-0.7,352.8,14.6,4
-0.3,-3.6,-14.64,19.5,104.4,90.24,-164.7,-3.7,0.6,-2.2,-6.2,2.6,278.4,13.7,2
2.3,-6.4,37.84,9.6,76.7,100.0,-198.4,-18.6,1.0,-3.9,-10.6,-2.3,305.1,11.9,2
1.0,-1.7,-13.57,2.7,105.2,100.0,45.2,0.5,0.7,1.0,2.3,12.1,176.1,8.5,1
-4.6,1.8,16.57,0.3,100.6,103.32,-121.3,-0.4,1.1,-4.1,-12.6,8.4,282.6,10.8,3
-0.11,-0.57,1.17,1.48,16.88,97.97,-74.59,15.61,1.28,2.78,7.18,2.71,130.42,11.88,2
-4.8,1.4,1.39,10.7,54.1,101.13,-65.3,5.3,1.8,1.6,5.9,4.8,73.4,9.8,1
-2.07,-5.26,-17.39,0.61,86.84,106.85,-89.31,-4.98,1.18,6.65,15.08,-11.15,188.52,21.92,3
5.7,2.0,19.55,4.1,70.4,118.37,-18.9,6.1,3.2,-2.5,-7.5,1.3,72.8,6.6,1
0.8,-0.8,-23.17,-5.8,78.6,89.71,-92.2,7.7,2.5,0.8,1.8,-6.0,102.2,11.1,2
-3.5,-2.5,-8.31,3.4,69.9,128.08,-93.8,-1.4,1.2,6.9,21.7,-4.2,198.2,19.7,2
-8.8,-3.0,-9.92,-4.9,114.4,105.91,-104.1,-0.5,-0.3,2.6,13.6,-0.8,204.6,11.2,4
1.49,-4.7,9.48,9.3,29.27,106.5,-48.03,8.66,0.32,-2.88,-11.16,2.94,104.55,9.42,3
2.2,4.8,3.92,1.7,74.0,113.27,3.7,4.7,1.3,-0.3,-1.2,3.9,121.0,5.5,1
-1.5,-3.0,-0.36,-13.0,176.2,96.81,-140.7,-1.0,0.9,-3.9,-8.8,-1.0,118.0,23.3,4
3.13,-1.5,-12.61,-2.7,80.32,93.72,-53.58,3.23,2.01,-0.04,-2.33,-3.16,91.09,10.08,2
-2.9,-3.2,-10.3,1.1,51.8,93.79,-60.6,-0.3,1.0,2.9,6.7,1.9,71.1,14.0,1
1.3,1.2,1.88,9.4,53.5,94.8,-63.5,2.4,1.6,0.1,-3.7,5.0,79.0,13.8,1
-4.9,0.2,1.09,11.7,86.8,105.5,0.3,3.7,0.9,-1.4,-7.7,8.8,166.4,5.4,1
2.1,7.7,0.75,6.9,8.4,108.14,-27.7,14.3,2.4,-1.1,-1.3,3.7,101.5,6.0,1
1.34,1.17,5.78,3.56,19.35,105.97,-57.65,16.6,1.92,0.41,-0.15,3.16,115.22,9.65,2
0.9,-0.8,14.27,1.4,126.1,114.08,-110.4,2.8,1.5,-3.9,-10.9,2.3,162.4,10.9,2
-0.68,-1.19,-14.6,5.23,97.82,101.95,-15.99,4.27,1.15,0.8,2.36,2.95,139.87,10.23,3
-0.6,-10.0,-6.24,5.2,42.2,96.29,-36.6,4.0,3.0,0.0,-2.2,1.7,71.5,6.7,1
-1.93,-7.91,-7.51,4.22,61.52,98.99,15.62,7.42,2.6,0.59,-1.5,3.19,155.84,7.16,2
-3.3,3.4,-11.62,-7.7,84.2,88.71,-17.8,3.9,1.0,0.2,0.8,6.6,170.2,7.8,2
7.9,5.3,3.49,2.0,61.9,117.37,62.5,5.6,1.0,-0.6,-1.0,6.5,102.1,3.8,2
-1.0,-5.1,17.73,9.1,54.3,102.29,-61.6,2.5,1.8,-2.2,-9.6,5.1,81.6,7.6,1
-0.05,-4.49,-19.09,-0.17,52.17,112.62,-44.92,0.85,-1.21,2.31,6.3,-2.84,112.05,8.26,3
-5.41,-2.51,5.69,3.62,58.02,106.98,-75.88,5.24,1.43,2.48,6.57,-0.56,82.47,8.95,4
-3.27,-6.4,18.15,-1.47,94.17,103.09,-127.06,-4.24,-0.38,-3.07,-10.97,6.65,304.88,13.05,3
-3.92,-0.1,9.76,0.49,50.81,103.38,-68.91,-4.44,0.01,1.86,4.63,-1.76,73.93,8.23,4
7.9,-2.1,1.07,4.7,35.8,108.5,55.4,1.6,1.3,-0.5,-1.8,1.4,202.7,6.0,1
-0.3,4.8,20.52,13.0,10.6,93.21,-46.7,14.7,0.5,-3.8,-7.4,5.6,115.4,8.7,1
1.59,-3.32,-3.97,3.13,128.57,100.16,-12.06,1.63,1.4,-0.1,-1.8,0.81,116.64,11.81,3
2.4,4.2,22.94,4.5,74.7,109.84,-57.9,-2.1,-0.6,-6.8,-18.6,2.3,94.0,10.9,3
-1.14,-3.5,-30.15,3.37,56.3,102.12,4.62,6.59,0.33,0.2,-1.24,4.74,148.18,8.09,2
0.25,-1.15,-10.36,1.24,118.03,102.34,-17.46,2.47,1.41,2.09,7.74,1.84,129.33,11.2,3
1.9,-0.8,24.41,-0.2,6.1,74.59,-54.0,-2.2,0.5,5.4,10.4,-0.8,118.9,14.2,1
5.5,-2.5,-13.78,1.6,46.1,92.87,27.8,3.6,-1.5,1.3,6.9,4.4,221.0,7.3,2
-1.63,-4.74,-21.54,4.76,114.42,113.02,-20.66,2.95,1.09,1.62,6.93,0.19,129.02,9.42,2
-0.7,-8.3,-32.36,-1.3,53.6,103.4,10.6,5.8,0.2,0.2,-2.5,7.1,147.7,8.0,2
-3.96,-4.82,-16.56,-7.42,159.64,104.19,-123.6,-7.44,-0.02,8.28,9.46,-2.34,152.84,21.72,4
0.9,0.2,-15.53,0.5,135.4,104.16,-21.0,2.6,1.8,3.4,13.5,-0.3,118.9,11.9,3
1.2,1.7,19.36,16.7,40.6,95.53,-46.8,8.7,2.3,-3.2,-13.3,0.2,54.2,12.0,1
4.1,0.3,-4.61,-3.8,82.6,100.0,-31.2,-0.1,1.4,0.4,-4.3,-5.0,87.4,9.6,2
-0.1,-4.5,-20.85,-0.7,53.6,113.31,-44.0,0.1,-1.4,2.5,7.0,-2.8,112.2,8.1,3
-3.4,-5.04,-17.33,-7.72,164.89,103.99,-125.86,-8.25,0.01,8.94,8.98,-2.52,146.83,22.94,4
0.27,-3.46,-20.14,-3.21,57.98,111.12,-42.74,0.1,-1.29,2.37,6.97,-3.04,110.86,8.37,3
0.1,-1.8,-7.32,-7.3,132.9,97.89,-123.8,-2.9,-0.4,2.2,4.5,-6.8,190.1,15.4,3
-0.8,-1.3,-14.53,5.6,94.9,101.78,-15.6,4.4,1.1,0.6,1.5,3.2,141.5,10.1,3
1.3,-0.6,-18.21,-10.1,70.0,105.12,-39.3,0.1,-1.0,2.0,6.9,-3.7,107.2,9.1,3
0.3,-1.2,4.06,10.4,51.9,100.0,-63.9,2.7,1.5,-1.8,-7.5,5.1,80.6,13.0,1
-4.67,-2.91,-22.36,6.58,127.65,106.99,-146.27,-4.96,0.54,7.75,19.46,-2.16,272.19,15.99,4
-6.83,-0.69,2.15,1.77,83.53,115.37,-74.9,6.8,1.32,2.28,9.03,-2.04,92.11,9.2,4
1.94,1.57,19.91,6.05,59.63,106.79,-59.11,3.04,0.27,-5.07,-14.86,0.51,98.73,10.99,3
0.53,-2.3,-9.52,4.5,113.91,101.02,-13.84,3.02,1.29,0.22,-0.26,1.72,127.3,11.05,3
-0.1,6.4,3.49,8.2,33.8,114.86,-31.0,16.5,3.2,-1.9,-5.2,4.3,56.4,7.1,1
-0.77,0.05,-8.98,1.25,97.39,96.54,29.47,4.72,0.04,0.2,0.73,17.26,177.24,7.8,2
-4.5,-10.8,-1.18,-1.7,86.2,108.74,-10.0,5.1,0.9,-1.1,-4.9,7.2,167.7,4.8,1
2.0,-4.7,-21.72,0.4,81.9,92.57,-3.2,3.8,0.8,0.0,-1.3,1.2,128.2,4.8,1
0.38,-1.03,-6.69,-3.54,113.26,98.74,-105.45,-4.19,0.97,1.31,2.76,-4.7,158.49,16.01,3
-1.2,-2.6,-4.91,-4.0,61.3,101.04,0.1,-3.6,1.3,0.2,-0.4,7.0,146.0,8.9,1
6.4,-9.0,-16.75,3.2,81.1,92.35,28.7,2.5,0.9,-1.1,-3.2,1.4,101.9,6.1,1
-1.14,-3.52,-13.64,1.13,85.64,104.67,-85.44,-5.36,1.79,4.49,10.25,-8.04,163.25,20.32,3
1.66,-3.12,11.84,8.45,37.36,107.14,-49.68,6.7,0.14,-3.59,-12.51,2.88,102.64,9.67,3
-0.22,-0.68,-24.97,21.28,52.72,102.52,7.36,8.46,-0.48,0.38,2.37,3.92,146.22,8.14,2
2.37,3.95,22.56,4.63,73.43,109.75,-57.62,-1.8,-0.57,-6.69,-18.39,2.32,94.29,10.86,3
5.0,-2.0,17.79,5.3,74.1,110.33,-24.2,3.7,3.3,-2.2,-9.0,0.9,76.3,7.9,1
6.3,-6.75,-16.95,2.32,45.14,89.19,34.46,0.55,-1.5,1.46,3.21,7.21,223.41,7.7,2
-0.47,-2.99,-6.63,-2.68,126.04,98.46,-132.09,-5.03,-0.18,2.47,4.66,-3.78,232.67,15.48,3
-8.59,-3.08,-10.21,-5.01,116.4,105.83,-104.96,-0.81,-0.29,2.85,13.42,-0.87,202.31,11.67,4
-2.9,0.4,11.98,11.4,41.6,102.42,-67.1,16.0,1.8,-4.2,-11.4,-4.4,82.2,12.6,1
-9.72,1.69,-14.49,-3.59,160.59,133.5,-86.61,5.82,0.55,4.73,20.99,-6.06,124.77,12.85,4
-0.1,-4.3,-15.53,-5.1,104.8,100.38,40.8,4.9,0.0,-0.1,-2.1,14.7,191.0,7.7,2
-1.0,-5.6,-13.98,6.3,175.9,100.0,-135.4,-9.7,0.3,3.7,-5.5,-3.0,128.0,26.3,4
2.3,-7.2,-9.31,0.4,76.2,100.0,-67.9,1.0,4.9,-1.9,-10.9,-2.5,84.2,8.2,1
0.0,5.3,-1.35,15.8,39.7,104.41,-42.9,15.0,3.1,-2.1,-7.4,4.3,56.5,9.2,1
-0.52,-1.33,-4.17,-6.3,128.64,98.61,-123.47,-2.57,-0.2,1.37,2.25,-4.8,202.29,14.79,3
2.48,-2.48,7.66,2.6,97.26,107.88,-85.95,0.05,-0.11,-4.8,-13.5,0.16,137.1,19.03,2
-0.7,-2.6,24.74,7.0,37.3,105.17,-49.1,9.5,0.7,-0.2,-3.1,0.6,53.7,6.5,1
-8.07,-2.83,-11.23,-2.78,113.73,105.08,-111.78,-1.27,-0.16,3.05,13.6,-0.79,223.66,11.64,4
9.9,3.2,1.68,-3.3,52.4,118.9,70.7,3.0,0.7,-1.6,-4.1,4.5,241.6,4.9,2
-2.46,1.31,8.74,3.62,15.6,101.32,-80.84,17.35,-1.14,3.25,11.07,3.31,129.42,10.07,2
-5.04,-3.19,-22.88,5.42,131.94,108.75,-142.18,-4.6,0.48,8.13,20.82,-2.51,253.43,16.31,4
2.19,-3.12,0.48,4.14,134.15,98.19,-8.0,1.22,1.5,-1.13,-7.59,1.21,109.01,11.64,3
0.31,-6.64,49.01,3.86,77.8,104.95,-170.78,-15.87,0.86,-3.59,-9.42,-13.31,283.61,10.57,2
-9.87,0.42,-15.08,-4.26,155.49,127.7,-93.2,4.7,0.34,4.38,20.15,-4.86,151.62,12.77,4
-6.55,-3.8,-17.47,-1.47,133.06,115.99,-104.44,-2.82,0.08,8.47,23.51,-3.98,118.29,15.92,4
1.87,-0.99,15.06,7.3,48.2,107.93,-52.06,4.14,-0.07,-4.52,-14.28,2.71,100.13,10.02,3
-2.1,-6.2,-25.74,7.2,126.5,118.47,-23.0,2.0,1.2,2.2,10.0,-0.9,124.2,9.2,2
9.5,0.7,-11.35,8.0,67.8,96.7,48.0,3.7,0.9,1.3,2.7,4.3,267.2,6.8,2
-1.9,-5.6,-19.39,-8.5,178.9,103.46,-131.9,-10.4,0.1,10.7,7.7,-3.0,130.8,26.2,4
-8.18,-3.89,-17.17,-3.66,134.46,112.19,-109.34,-1.3,-0.12,6.15,20.7,-2.53,172.64,14.4,4
-1.7,-8.6,7.91,5.6,42.4,92.02,-67.5,-6.5,0.9,3.3,-4.8,-5.4,96.8,16.9,1
8.2,-0.9,-6.74,4.0,64.6,100.0,48.9,-0.4,0.6,1.1,-0.4,0.0,262.8,7.2,2
1.8,0.0,9.47,3.5,80.8,102.02,-72.4,-5.6,1.9,-4.4,-18.7,-0.2,104.2,15.5,3
-6.21,-2.41,-14.55,2.61,112.03,102.97,-131.26,-3.23,0.2,4.19,13.6,-0.75,272.01,12.75,4
5.7,-2.5,23.98,6.5,50.3,109.26,64.0,1.5,4.4,-0.9,-1.1,5.5,132.1,4.7,1
-0.09,-4.26,-15.42,-4.96,104.78,100.38,40.95,4.9,-0.01,-0.1,-2.06,14.8,190.86,7.7,2
0.81,-4.61,-3.56,5.01,39.73,109.46,-46.23,4.95,-0.43,-0.58,-3.39,0.51,107.81,8.84,3
0.4,-7.1,58.59,1.5,73.8,107.17,-171.7,-17.7,0.9,-3.8,-9.9,-15.7,284.4,10.1,2
-0.56,-2.82,-3.97,2.16,96.59,100.1,-13.1,2.31,0.92,0.47,0.63,4.48,142.21,10.34,3
-8.17,-2.86,-11.04,-3.08,113.83,105.2,-110.67,-1.16,-0.18,2.99,13.6,-0.79,220.91,11.57,4
7.0,-0.4,-9.51,4.6,75.7,96.0,40.8,7.4,0.4,-0.6,-0.8,-0.3,98.4,5.2,2
-8.53,-2.94,-10.41,-4.11,114.15,105.6,-106.95,-0.79,-0.25,2.77,13.6,-0.8,211.68,11.36,4
-4.81,-1.68,12.53,4.29,37.08,103.9,-67.04,5.34,1.48,0.8,1.77,0.08,71.43,7.0,4
-9.35,-1.25,-12.57,-4.57,135.5,117.1,-98.51,2.17,0.03,3.51,16.96,-2.88,177.4,12.0,4
-2.39,-4.01,-19.68,-0.33,150.56,101.83,-144.87,-8.81,0.38,8.83,10.1,-2.06,221.06,21.48,4
-0.71,-1.18,-3.22,-6.0,127.36,98.82,-123.37,-2.47,-0.14,1.12,1.57,-4.19,205.96,14.61,3
2.2,-3.1,0.83,4.2,134.1,98.04,-7.7,1.2,1.5,-1.2,-8.0,1.3,108.8,11.6,3
-3.74,-3.62,17.93,-1.02,96.17,103.21,-124.74,-2.85,0.11,-3.5,-11.74,7.28,296.76,12.26,3
-7.77,-2.76,-11.77,-1.91,113.46,104.74,-114.92,-1.59,-0.1,3.23,13.6,-0.78,231.47,11.82,4
1.99,-2.57,-1.82,3.6,134.31,99.03,-9.85,1.43,1.55,-0.46,-4.52,1.04,110.43,11.65,3
-3.97,-2.37,-21.34,8.84,119.37,103.61,-154.14,-5.65,0.66,7.01,16.83,-1.51,308.37,15.37,4
-3.4,-4.3,-0.26,7.4,56.0,96.32,-68.9,3.1,1.7,1.4,3.6,3.3,75.4,10.0,1
-1.07,-3.77,-11.16,4.43,117.67,79.92,-137.9,-1.13,0.26,0.63,-2.09,-0.82,269.07,14.73,2
-1.7,2.7,-27.3,9.4,59.8,100.46,-3.1,7.6,0.5,0.2,0.4,1.7,148.8,8.2,2
6.9,-2.5,-17.81,1.8,44.0,90.99,37.2,1.5,-1.4,0.4,-0.8,-3.0,216.1,7.7,1
-2.0,-6.2,-4.75,9.8,107.5,100.0,-154.5,-10.8,0.4,3.2,5.1,4.4,347.8,15.7,3
-1.64,-4.57,-15.4,-0.96,95.96,105.08,-96.14,-4.56,0.87,5.77,12.98,-10.29,188.83,20.63,3
-0.2,-0.3,-10.28,-10.3,95.8,96.28,-92.8,-5.1,0.8,5.7,14.0,-10.0,178.2,24.1,2
-1.22,-2.42,-15.31,1.51,99.15,108.17,-16.95,4.67,0.53,0.75,3.0,2.32,133.99,9.45,2
-1.9,-1.0,21.09,1.2,39.2,98.15,-57.1,6.7,1.6,-0.1,0.1,-2.3,62.1,6.9,2
-2.4,0.5,-4.48,5.2,44.5,95.34,-45.9,3.8,1.5,1.0,2.9,2.9,70.7,7.0,1
-4.96,-1.94,12.35,4.7,37.02,104.2,-67.49,6.51,1.66,0.8,1.79,0.26,71.96,7.0,4
-2.9,-7.6,12.18,8.6,67.8,95.49,19.6,8.7,4.5,0.9,-0.7,0.1,162.3,6.5,2
-7.93,-4.25,-20.1,-3.16,142.55,114.72,-111.45,-1.62,-0.05,7.58,23.56,-3.23,159.76,15.68,4
-2.7,-3.2,-19.21,5.1,119.7,124.71,-18.2,4.9,-0.8,1.3,8.0,3.1,121.8,8.2,2
-2.8,-0.7,24.04,3.3,34.7,109.99,-43.7,29.6,1.7,-1.2,-5.5,1.9,47.4,5.0,1
-0.8,-2.2,-14.22,0.5,93.4,103.54,-16.6,4.6,0.9,0.6,1.6,2.1,137.4,9.8,2
7.0,-2.4,-8.35,10.3,61.7,114.09,20.1,5.3,0.3,0.4,1.4,8.2,247.2,4.8,1
-10.06,1.03,-16.01,-4.14,162.9,131.63,-91.24,5.64,0.46,4.7,21.33,-5.59,142.06,13.05,4
-5.25,-2.31,8.32,4.09,49.64,105.9,-72.58,5.86,1.54,1.81,4.67,-0.22,78.34,8.18,4
-4.49,-2.77,-22.09,7.17,125.48,106.11,-148.32,-5.14,0.57,7.55,18.77,-1.99,281.65,15.83,4
1.18,-0.43,-15.26,-7.23,73.39,103.91,-48.56,-1.37,-0.05,1.53,5.31,-3.2,108.31,10.95,3
-8.29,-3.73,-15.86,-3.88,130.82,111.05,-108.39,-1.15,-0.15,5.51,19.41,-2.22,178.45,13.82,4
-7.08,-2.61,-12.99,0.08,112.83,103.96,-122.11,-2.31,0.03,3.66,13.6,-0.77,249.31,12.23,4
-2.35,-1.73,-9.0,-1.38,78.93,116.99,-93.45,-2.69,1.06,6.48,19.02,-6.22,191.23,21.23,2
1.9,-3.8,-22.85,-1.3,77.4,85.69,-82.2,7.5,2.8,-0.6,0.2,-0.8,95.8,10.7,2
0.97,-0.71,-17.63,-7.6,73.96,104.59,-35.53,0.78,-0.67,1.78,6.04,-2.6,112.65,9.26,3
-2.4,-6.26,2.48,6.24,103.29,100.97,-145.84,-8.73,0.15,1.22,0.03,5.11,334.26,14.87,3
1.55,0.03,5.6,3.12,81.69,101.51,-73.92,-5.73,2.18,-3.28,-13.9,-0.56,106.16,15.86,3
-5.6,-5.0,17.63,10.4,70.2,95.07,6.3,11.1,2.7,1.3,1.6,6.8,168.3,6.7,1
0.2,-6.3,71.33,4.3,67.7,117.61,-167.2,-15.4,0.9,-3.6,-9.0,0.2,250.5,8.4,2
-3.76,-4.9,-16.84,-7.53,161.53,104.12,-124.41,-7.73,-0.01,8.52,9.29,-2.41,150.67,22.16,4
1.2,5.3,8.56,23.0,34.7,116.3,-25.0,5.9,2.4,-1.7,-8.0,4.2,67.3,4.0,1
1.2,11.0,11.47,7.4,32.6,123.49,-24.8,13.7,2.6,-1.7,-5.9,5.3,70.7,3.0,1
-0.8,-1.2,-0.62,0.0,68.4,94.11,27.0,9.5,5.9,-0.6,-0.5,2.3,152.9,6.2,1
0.7,-2.8,-23.52,28.7,48.3,103.81,13.9,9.0,-1.1,0.5,3.6,5.3,144.6,8.1,2
1.7,0.7,-18.42,-3.2,81.3,95.34,1.3,6.4,1.1,0.1,0.2,1.0,127.1,5.0,1
-4.3,10.1,-9.19,4.8,86.2,94.4,-22.8,4.0,1.2,-0.5,-4.3,6.0,163.6,7.2,2
1.2,-0.63,-18.04,-9.37,71.16,104.96,-38.2,0.3,-0.9,1.93,6.65,-3.38,108.8,9.15,3
1.9,-3.2,-3.29,-2.0,99.3,100.0,-88.9,-1.1,0.0,0.4,-4.6,-2.5,155.8,24.2,2
0.31,-0.42,-7.73,-0.87,56.5,116.34,-39.39,5.45,-0.88,1.7,5.06,-1.04,108.46,7.84,2
4.9,3.3,8.69,-2.0,21.0,114.88,53.8,7.9,0.2,-0.5,-3.1,-0.5,306.5,5.8,1
-5.0,-2.0,12.3,4.8,37.0,104.27,-67.6,6.8,1.7,0.8,1.8,0.3,72.1,7.0,4
0.84,0.04,-6.8,1.0,83.12,100.42,-75.17,-5.59,2.67,0.17,0.75,-1.77,111.51,16.26,3
8.5,4.9,24.47,2.3,45.6,114.74,63.2,4.1,5.9,-0.9,-2.5,7.5,129.0,4.1,1
0.8,0.1,-5.77,2.0,84.3,100.0,-78.4,-6.1,3.0,0.0,0.2,-1.6,111.9,16.9,3
-1.4,0.4,-15.78,3.9,63.2,100.19,5.2,0.4,0.7,0.6,0.2,1.3,148.0,9.0,1
2.7,-5.2,-2.11,19.5,75.5,113.12,-59.6,5.4,5.4,-2.5,-13.7,-3.1,77.5,6.5,1
-0.6,4.8,10.22,4.7,40.9,107.36,-59.0,16.7,2.3,-1.7,-5.9,2.3,80.5,10.1,1
-3.27,-5.08,-17.51,-7.79,166.1,103.95,-126.38,-8.44,0.02,9.09,8.87,-2.56,145.44,23.22,4
-5.3,-2.38,7.43,3.93,52.47,106.26,-73.7,5.65,1.5,2.04,5.31,-0.33,79.74,8.44,4
-9.51,-0.72,-13.37,-4.47,141.84,120.46,-96.82,2.97,0.13,3.79,17.98,-3.51,169.22,12.25,4
-0.68,-2.24,-8.15,3.6,95.31,100.73,-14.01,3.17,0.98,0.48,0.79,4.02,142.26,10.22,3
9.7,1.94,-4.88,2.38,60.15,107.73,59.28,3.35,0.8,-0.14,-0.68,4.4,254.48,5.86,2
-2.24,-5.52,-24.26,6.72,124.96,119.89,-21.91,2.66,0.75,2.0,9.55,0.01,123.65,8.97,2
-8.2,0.3,-5.51,-0.52,118.65,123.75,-80.41,6.8,1.04,3.4,14.49,-3.81,107.21,10.87,4
5.6,10.3,-19.51,5.6,37.6,78.78,-15.5,4.1,1.4,0.4,-1.4,2.4,190.5,8.1,2
-7.29,-4.91,-26.1,-1.73,158.25,119.51,-117.18,-2.41,0.12,10.48,29.17,-4.59,138.49,18.3,4
-9.12,-1.96,-11.48,-4.71,126.84,112.51,-100.8,1.07,-0.11,3.14,15.58,-2.03,188.56,11.67,4
2.3,0.9,-2.83,-2.8,82.9,107.03,4.1,5.4,0.7,0.6,1.5,3.4,123.5,5.8,1
-2.1,-5.3,-17.51,0.7,86.3,106.96,-88.9,-5.0,1.2,6.7,15.2,-11.2,188.5,22.0,3
-4.04,-0.4,13.48,2.24,37.38,102.4,-64.78,-0.57,0.61,0.8,1.67,-0.79,68.7,7.0,4
-6.93,-4.41,-18.64,-0.74,135.37,116.94,-106.35,-0.5,0.42,8.66,24.11,-3.71,120.64,16.15,4
2.25,2.7,20.66,5.31,67.04,109.29,-56.21,-0.3,-0.45,-6.14,-17.35,2.42,95.77,10.65,3
5.4,0.5,16.34,37.8,22.7,94.98,59.3,7.1,2.9,0.2,5.8,28.7,324.9,5.6,1
0.3,-0.9,-0.15,1.1,17.1,97.38,-73.5,15.3,1.7,2.7,6.5,2.6,130.6,12.2,2
0.6,-0.9,-9.06,1.41,77.6,102.9,-70.9,-4.75,2.04,0.55,1.68,-1.86,111.97,14.98,3
0.9,-0.4,-5.01,2.4,104.9,101.19,54.5,-0.9,0.1,0.1,-3.6,23.8,194.9,8.3,1
5.0,-1.0,21.39,0.4,22.3,109.59,51.8,4.0,-0.6,0.5,-7.2,27.4,322.9,6.2,1
2.6,-2.6,9.87,3.2,98.6,109.18,-85.5,-0.5,-0.3,-5.2,-14.6,0.6,139.6,19.6,2
-1.1,-4.0,-9.78,-10.2,178.5,98.32,-137.6,-3.3,0.7,-1.5,-11.0,-2.1,125.1,25.0,4
-2.8,6.0,-21.25,-3.6,83.2,88.06,-28.1,3.0,0.4,0.8,2.1,1.5,176.1,7.9,2
0.9,4.2,6.46,7.3,42.6,100.0,-43.6,11.8,2.3,-2.7,-10.4,2.6,55.3,10.5,1
-0.62,-2.95,-10.67,-4.67,117.58,100.87,-112.32,-3.59,0.13,3.68,8.02,-8.25,189.57,17.57,3
3.2,1.2,-12.73,-0.1,80.3,98.6,-38.4,0.1,0.6,1.7,4.5,-4.7,97.9,9.6,2
-7.98,1.36,-6.48,-2.36,126.18,124.51,-80.06,2.87,0.4,3.63,15.56,-4.76,108.56,11.22,4
2.3,2.3,77.37,5.1,63.5,127.42,-165.0,-2.8,0.8,-3.2,-6.4,-7.8,223.2,7.0,2
-8.91,0.8,-9.42,-1.69,136.58,128.03,-83.23,6.8,0.89,3.97,17.28,-4.71,114.92,11.72,4
7.5,2.6,-1.5,-4.1,33.9,112.3,64.4,1.6,1.3,-0.6,-1.7,3.5,198.3,5.6,1
-0.5,2.7,21.45,4.1,37.8,100.0,-54.7,0.6,1.3,0.0,-0.9,0.2,58.0,6.9,1
2.7,3.9,13.57,6.8,22.3,117.28,-36.8,18.3,2.2,-2.6,-8.9,3.9,95.0,6.3,2
-3.84,-0.54,10.34,3.08,102.62,102.35,-131.0,-3.44,0.9,-1.97,-7.43,7.23,301.66,12.23,3
0.79,0.11,-15.47,0.82,132.89,104.01,-20.67,2.71,1.76,3.23,12.76,-0.08,120.3,11.79,3
-8.78,1.51,-10.16,-2.93,142.0,128.64,-83.07,4.23,0.47,4.14,18.06,-5.36,116.01,11.97,4
-10.3,1.8,-17.17,-4.0,172.1,136.51,-88.8,6.8,0.6,5.1,22.8,-6.5,130.2,13.4,4
0.63,-0.04,-15.37,1.3,129.04,103.79,-20.15,2.88,1.69,2.96,11.62,0.25,122.45,11.62,3
0.5,1.7,8.2,6.2,39.3,113.33,-56.2,15.2,2.4,-1.3,-2.6,2.4,76.9,9.4,1
-3.3,-6.4,18.62,-1.7,93.9,103.15,-126.5,-4.1,-0.4,-3.2,-11.3,6.7,304.0,13.0,3
5.4,5.1,-17.19,9.7,40.4,82.36,-15.9,8.7,2.0,-0.2,-1.3,4.6,193.6,8.0,2
-6.1,-3.17,-12.84,-1.14,119.07,113.84,-98.39,-3.1,0.07,7.34,20.3,-3.6,110.74,14.61,4
1.74,0.01,8.61,3.42,81.0,101.91,-72.74,-5.63,1.96,-4.15,-17.63,-0.28,104.64,15.58,3
-1.53,-1.04,11.24,0.31,41.89,107.61,-50.72,7.07,0.46,0.56,2.02,-1.27,80.84,6.97,2
-3.2,1.9,11.12,4.3,15.2,102.38,-82.8,17.9,-1.9,3.4,12.3,3.5,129.1,9.5,2
-3.5,0.5,14.14,0.8,37.6,101.35,-63.2,-4.7,0.0,0.8,1.6,-1.4,66.8,7.0,4
-2.2,3.6,6.85,-4.9,181.2,98.21,-143.6,1.4,0.4,-4.6,-9.9,-0.8,115.5,21.5,4
-3.73,-4.91,-16.88,-7.55,161.8,104.11,-124.53,-7.78,-0.01,8.55,9.26,-2.42,150.36,22.22,4
1.5,-4.7,9.44,9.3,29.3,106.56,-47.9,8.6,0.3,-2.9,-11.2,3.0,104.5,9.4,3
-0.9,-1.1,-5.63,-1.2,46.5,123.79,-39.8,7.7,-1.5,1.7,5.3,0.5,112.9,7.1,2
3.72,0.19,-4.69,-3.6,79.88,101.79,-31.85,0.49,1.18,0.5,-3.58,-4.59,89.32,9.41,2
0.85,0.09,-4.95,2.08,84.11,100.11,-78.08,-6.07,2.94,-0.24,-0.82,-1.52,111.49,16.82,3
-0.55,-3.16,-6.52,-2.0,125.03,98.54,-133.32,-5.35,-0.15,2.51,4.69,-3.33,238.98,15.49,3
2.3,-4.3,2.9,2.4,99.2,104.45,-85.5,-1.2,-0.1,-3.5,-11.1,-0.4,147.4,22.1,2
-4.3,3.4,-2.78,0.6,43.5,99.71,-63.9,5.4,-0.1,2.6,14.4,2.9,69.5,13.3,1
8.3,-1.7,-2.87,5.2,37.2,105.09,52.6,1.3,0.9,-0.6,-2.6,3.1,209.0,6.4,1
0.7,-3.7,2.44,16.3,36.8,106.62,-26.9,2.7,2.1,-1.3,-8.5,4.3,68.7,5.1,1
0.42,-0.22,-15.25,1.94,123.99,103.49,-19.48,3.11,1.6,2.61,10.12,0.69,125.27,11.39,3
-7.4,-5.0,-26.26,-2.1,159.6,120.06,-115.9,-2.3,0.1,10.6,29.6,-4.7,132.6,18.4,4
-3.91,-0.18,13.64,1.89,37.44,102.15,-64.4,-1.56,0.46,0.8,1.65,-0.94,68.25,7.0,4
0.4,-1.5,-7.75,5.4,103.5,100.17,51.4,5.1,-0.4,0.2,0.7,22.2,180.5,7.8,2
-0.6,-2.9,-3.68,2.2,95.6,100.0,-12.9,2.3,0.9,0.4,0.3,4.6,142.8,10.3,3
-6.93,-4.64,-25.59,-0.6,154.08,117.8,-121.14,-2.76,0.18,10.11,27.85,-4.26,156.7,17.98,4
-1.2,-3.8,-10.57,1.9,119.9,78.19,-133.4,-0.7,0.2,1.1,-1.4,-1.4,267.5,14.9,2
0.4,-3.6,6.93,10.9,9.8,76.91,-50.7,0.1,0.8,1.8,-6.5,7.6,117.2,13.0,1
0.2,-3.66,-20.28,-2.71,57.11,111.56,-42.99,0.1,-1.31,2.39,6.98,-2.99,111.13,8.31,3
7.7,-1.2,-15.87,7.3,44.3,93.85,43.3,2.3,-1.2,-0.1,-2.2,-0.3,214.0,7.4,1
-1.6,-5.6,38.33,8.2,35.1,108.6,-47.4,15.4,1.6,-0.8,-5.7,1.7,50.9,5.9,1
8.3,-2.0,5.78,4.0,65.3,111.65,56.3,4.9,0.5,-0.6,-0.9,4.5,100.0,4.2,2
-2.3,-5.29,-2.33,8.72,106.72,100.38,-150.72,-9.62,0.48,2.37,3.09,4.85,340.38,15.14,3
1.55,2.02,7.68,3.17,79.8,104.61,-68.8,-4.23,1.31,-3.19,-8.61,0.23,103.51,14.09,3
-0.5,0.1,25.75,2.8,48.8,109.28,-55.6,7.8,2.0,-2.0,-9.1,3.3,75.8,5.0,1
3.72,0.19,-4.69,-3.6,79.89,101.79,-31.85,0.49,1.18,0.5,-3.58,-4.59,89.32,9.41,2
-5.39,-4.28,-14.6,-6.68,146.24,104.7,-117.82,-5.39,-0.1,6.6,10.69,-1.89,168.17,18.61,4
6.6,0.1,-3.82,10.9,19.0,86.69,28.9,8.8,1.1,-0.2,-1.1,21.4,284.3,4.8,1
-1.84,-4.89,-16.32,-0.23,91.72,105.9,-92.96,-4.76,1.01,6.18,13.96,-10.69,188.69,21.23,3
-2.19,-1.63,-9.09,-2.04,80.19,115.45,-93.4,-2.87,1.04,6.42,18.64,-6.5,190.26,21.45,2
5.8,-4.07,-14.95,1.87,45.75,91.51,30.25,2.48,-1.5,1.36,5.54,5.43,221.89,7.45,2
6.5,-7.8,-17.73,2.5,44.9,88.28,36.1,-0.2,-1.5,1.5,2.3,7.9,224.0,7.8,2
-3.88,-0.14,13.67,1.82,37.45,102.1,-64.32,-1.76,0.43,0.8,1.65,-0.97,68.15,7.0,4
-4.8,-11.4,15.13,4.8,54.5,108.27,-62.4,4.2,1.9,1.2,8.5,6.6,73.9,9.2,1
0.9,-4.3,13.16,9.5,26.0,100.0,-61.8,14.5,2.2,-1.2,-6.5,-3.5,109.3,11.2,3
-2.42,-3.92,-19.7,0.18,148.82,101.73,-145.67,-8.72,0.4,8.71,10.25,-2.01,226.62,21.19,4
2.0,-3.4,-4.02,3.3,134.8,100.19,-11.9,1.5,1.5,-0.2,-2.2,0.1,111.7,12.1,3
