PC_CA-avg_3y,REER-pch_3y,X_GS_share_M-pch_5y,FSL-pch,GD-pc_gdp,HPI-pch,NIIP-pc_gdp,ULC-pch_3y,ACT-pch_3y,LTU-pch_3y,YUR-pch_3y,PSCF-pc_gdp,PSD-pc_gdp,UR-avg_3y,label
0.08,-0.52,-15.05,2.95,115.95,103.02,-18.41,3.46,1.46,2.05,7.74,1.38,129.76,11.04,3
0.93,-0.08,-8.93,-1.07,80.67,101.3,-68.47,-4.53,1.98,0.51,1.9,-2.13,110.71,14.92,3
-2.4,0.5,-4.48,5.2,44.5,95.34,-45.9,3.8,1.5,1.0,2.9,2.9,70.7,7.0,1
-5.9,-4.0,-17.3,-3.5,129.0,96.67,-119.3,-6.2,0.0,3.5,17.6,-4.3,210.6,13.2,4
-1.5,-3.0,-0.36,-13.0,176.2,96.81,-140.7,-1.0,0.9,-3.9,-8.8,-1.0,118.0,23.3,4
-1.7,-8.6,7.91,5.6,42.4,92.02,-67.5,-6.5,0.9,3.3,-4.8,-5.4,96.8,16.9,1
-4.3,3.4,-2.78,0.6,43.5,99.71,-63.9,5.4,-0.1,2.6,14.4,2.9,69.5,13.3,1
6.9,-2.5,-17.81,1.8,44.0,90.99,37.2,1.5,-1.4,0.4,-0.8,-3.0,216.1,7.7,1
-0.68,-2.29,-7.83,3.5,95.33,100.68,-13.93,3.1,0.98,0.48,0.76,4.06,142.3,10.22,3
-5.6,-5.0,17.63,10.4,70.2,95.07,6.3,11.1,2.7,1.3,1.6,6.8,168.3,6.7,1
-7.13,-0.47,0.47,1.27,91.22,117.21,-76.11,6.8,1.26,2.53,10.23,-2.43,95.42,9.57,4
-2.48,-4.31,-21.63,5.88,122.22,122.4,-19.98,3.83,-0.06,1.63,8.74,1.62,122.69,8.57,2
0.24,-1.67,-12.19,-0.41,91.12,102.79,-19.68,3.61,1.01,0.56,0.35,0.6,126.84,9.76,2
2.3,0.9,-2.83,-2.8,82.9,107.03,4.1,5.4,0.7,0.6,1.5,3.4,123.5,5.8,1
1.3,1.2,1.88,9.4,53.5,94.8,-63.5,2.4,1.6,0.1,-3.7,5.0,79.0,13.8,1
-0.08,-4.5,-20.24,-0.52,53.1,113.07,-44.32,0.36,-1.34,2.43,6.76,-2.81,112.15,8.16,3
0.1,-1.8,-7.32,-7.3,132.9,97.89,-123.8,-2.9,-0.4,2.2,4.5,-6.8,190.1,15.4,3
0.56,-4.58,-8.35,3.43,43.57,110.52,-45.61,3.61,-0.7,0.27,-0.51,-0.41,109.02,8.64,3
2.1,7.7,0.75,6.9,8.4,108.14,-27.7,14.3,2.4,-1.1,-1.3,3.7,101.5,6.0,1
-5.81,-3.02,-0.78,2.46,78.58,109.62,-83.98,3.71,1.16,4.12,11.23,-1.4,92.62,10.87,4
-3.5,0.5,14.14,0.8,37.6,101.35,-63.2,-4.7,0.0,0.8,1.6,-1.4,66.8,7.0,4
2.46,3.57,12.29,6.27,23.92,117.72,-37.0,17.59,1.95,-2.31,-7.95,3.67,96.2,6.35,2
-0.9,-1.1,-5.63,-1.2,46.5,123.79,-39.8,7.7,-1.5,1.7,5.3,0.5,112.9,7.1,2
-5.68,-4.48,-17.36,-3.4,128.47,95.59,-120.38,-6.42,-0.11,3.63,16.94,-4.08,214.6,13.32,4
2.7,3.9,13.57,6.8,22.3,117.28,-36.8,18.3,2.2,-2.6,-8.9,3.9,95.0,6.3,2
5.7,-2.5,23.98,6.5,50.3,109.26,64.0,1.5,4.4,-0.9,-1.1,5.5,132.1,4.7,1
-7.25,-4.78,-24.66,-1.99,154.78,119.32,-113.82,-2.39,0.1,10.21,28.49,-4.57,130.0,17.95,4
0.34,-0.3,-15.2,2.19,122.01,103.37,-19.21,3.2,1.57,2.47,9.53,0.86,126.37,11.3,3
2.8,0.1,23.24,3.9,77.8,105.0,-65.6,-3.9,0.3,-5.5,-18.1,1.5,97.9,13.5,3
-3.27,-10.62,-20.08,-1.87,128.63,87.43,-132.99,-8.23,-1.46,6.78,11.42,-1.42,246.89,15.9,4
2.7,-5.2,-2.11,19.5,75.5,113.12,-59.6,5.4,5.4,-2.5,-13.7,-3.1,77.5,6.5,1
-0.6,-10.0,-6.24,5.2,42.2,96.29,-36.6,4.0,3.0,0.0,-2.2,1.7,71.5,6.7,1
-4.87,-8.44,-22.47,-1.96,140.61,100.05,-126.37,-5.93,-0.86,8.26,18.46,-2.69,202.67,16.87,4
1.73,0.1,7.67,2.88,81.29,102.32,-72.47,-5.08,1.75,-2.55,-8.28,-0.16,105.42,15.33,3
-2.98,-2.96,-19.89,9.99,110.49,96.9,-160.67,-6.91,0.48,6.05,12.72,-0.68,343.93,14.67,4
0.45,-1.8,3.72,-1.22,131.67,105.09,-112.09,-0.79,0.57,-2.47,-8.36,-2.4,171.78,12.93,3
-2.92,-3.54,-19.79,9.25,111.08,95.73,-159.24,-7.1,0.33,6.03,12.32,-0.66,339.88,14.71,4
4.1,-2.9,22.52,3.9,55.5,104.82,35.4,-1.5,4.3,-1.1,-2.0,15.2,136.1,5.3,1
0.9,0.2,-15.53,0.5,135.4,104.16,-21.0,2.6,1.8,3.4,13.5,-0.3,118.9,11.9,3
-2.1,-12.2,-18.34,-1.8,119.9,78.23,-137.8,-9.9,-1.9,5.7,6.3,-0.5,279.1,15.2,4
5.6,10.3,-19.51,5.6,37.6,78.78,-15.5,4.1,1.4,0.4,-1.4,2.4,190.5,8.1,2
1.26,0.1,0.88,2.44,82.81,101.15,-75.47,-5.6,2.38,-1.26,-3.99,-0.89,108.69,16.12,3
-7.4,-5.0,-26.26,-2.1,159.6,120.06,-115.9,-2.3,0.1,10.6,29.6,-4.7,132.6,18.4,4
-0.7,2.1,-4.08,1.4,54.7,93.4,-62.2,2.6,1.2,0.8,0.1,5.0,75.2,13.9,1
6.0,-5.13,-15.74,2.05,45.5,90.59,31.92,1.71,-1.5,1.4,4.61,6.14,222.49,7.55,2
-5.63,-2.78,2.24,3.0,68.99,108.39,-80.2,4.43,1.28,3.36,9.05,-1.0,87.89,9.97,4
1.39,0.24,45.29,10.12,77.76,114.46,-164.9,-3.11,0.73,-2.85,-6.33,-4.17,242.44,9.34,2
-1.4,-3.1,-9.77,11.4,44.9,94.54,-41.4,4.2,2.7,0.0,0.7,4.4,73.7,6.9,1
2.3,2.3,77.37,5.1,63.5,127.42,-165.0,-2.8,0.8,-3.2,-6.4,-7.8,223.2,7.0,2
0.9,-0.8,14.27,1.4,126.1,114.08,-110.4,2.8,1.5,-3.9,-10.9,2.3,162.4,10.9,2
-0.45,-1.18,-15.15,2.95,90.69,102.34,-19.61,3.67,0.75,0.84,2.41,2.03,135.7,9.93,3
0.65,-2.41,-19.44,-5.74,62.39,108.92,-41.48,0.1,-1.19,2.23,6.95,-3.28,109.52,8.64,3
-0.3,-3.6,-14.64,19.5,104.4,90.24,-164.7,-3.7,0.6,-2.2,-6.2,2.6,278.4,13.7,2
-1.4,2.1,-23.06,1.4,63.6,100.0,4.8,3.3,0.6,0.7,3.4,6.9,152.1,8.8,2
0.8,0.1,-5.77,2.0,84.3,100.0,-78.4,-6.1,3.0,0.0,0.2,-1.6,111.9,16.9,3
-2.8,6.0,-21.25,-3.6,83.2,88.06,-28.1,3.0,0.4,0.8,2.1,1.5,176.1,7.9,2
0.78,-4.32,8.94,8.24,29.42,101.65,-59.59,12.72,1.75,-0.74,-4.83,-3.41,109.66,10.82,3
-5.03,-2.04,11.75,4.7,38.75,104.5,-68.29,6.67,1.68,0.94,2.2,0.23,72.96,7.16,4
-2.52,-7.8,-19.08,3.81,115.42,87.12,-148.69,-8.48,-0.77,5.87,9.36,-0.58,309.98,14.95,4
1.22,-4.51,11.19,9.39,27.74,103.47,-54.46,11.38,1.2,-2.1,-8.98,-0.07,106.76,10.25,3
-3.87,-2.82,17.72,-0.83,96.83,103.22,-124.23,-2.48,0.26,-3.59,-11.87,7.44,294.65,12.04,3
5.7,2.0,19.55,4.1,70.4,118.37,-18.9,6.1,3.2,-2.5,-7.5,1.3,72.8,6.6,1
2.05,-0.25,2.41,-3.14,73.88,105.06,-52.38,-1.89,-0.35,-1.73,-5.54,-1.11,102.57,11.29,3
7.7,-1.2,-15.87,7.3,44.3,93.85,43.3,2.3,-1.2,-0.1,-2.2,-0.3,214.0,7.4,1
0.0,-8.2,-2.16,8.1,40.0,100.0,-32.9,0.1,2.4,-0.6,-6.9,0.3,68.1,6.1,1
-2.79,4.79,-11.36,2.94,89.31,98.35,-20.12,4.26,1.07,-0.02,-1.75,4.32,152.28,8.32,2
0.7,-2.8,-23.52,28.7,48.3,103.81,13.9,9.0,-1.1,0.5,3.6,5.3,144.6,8.1,2
5.4,5.1,-17.19,9.7,40.4,82.36,-15.9,8.7,2.0,-0.2,-1.3,4.6,193.6,8.0,2
-0.8,-1.3,-14.53,5.6,94.9,101.78,-15.6,4.4,1.1,0.6,1.5,3.2,141.5,10.1,3
0.63,-1.3,-11.1,0.32,133.2,104.5,-16.46,2.15,1.44,1.1,3.29,-1.06,115.76,10.93,3
0.92,-0.73,14.14,1.35,125.71,114.09,-109.98,2.77,1.47,-3.92,-10.94,2.27,162.01,10.99,2
-0.71,-0.7,-17.07,2.02,111.13,105.13,-18.92,3.75,1.23,1.59,6.07,0.57,132.74,10.23,3
-0.8,-1.2,-0.62,0.0,68.4,94.11,27.0,9.5,5.9,-0.6,-0.5,2.3,152.9,6.2,1
-1.47,-5.69,-2.0,16.58,60.05,98.79,17.34,8.82,2.28,0.74,1.01,2.17,155.27,7.14,2
1.2,1.7,19.36,16.7,40.6,95.53,-46.8,8.7,2.3,-3.2,-13.3,0.2,54.2,12.0,1
1.25,-0.53,-16.97,-8.89,71.43,104.61,-43.21,-0.52,-0.6,1.8,6.23,-3.49,107.67,9.88,3
0.7,-3.1,0.87,-1.4,131.2,100.0,-118.9,0.2,0.0,-0.5,-5.9,-1.4,179.3,14.4,3
-4.37,-7.31,-17.72,-2.81,125.33,89.23,-126.77,-7.69,-0.77,4.39,13.04,-2.77,238.25,14.01,4
-3.1,-1.7,-20.1,11.6,109.2,99.45,-163.8,-6.5,0.8,6.1,13.6,-0.7,352.8,14.6,4
5.1,-1.5,33.28,5.2,20.1,105.68,54.6,1.2,0.1,0.4,3.4,-9.6,309.0,6.3,1
9.5,0.7,-11.35,8.0,67.8,96.7,48.0,3.7,0.9,1.3,2.7,4.3,267.2,6.8,2
-1.9,-5.6,-19.39,-8.5,178.9,103.46,-131.9,-10.4,0.1,10.7,7.7,-3.0,130.8,26.2,4
-6.54,-4.42,-21.1,-2.91,141.98,106.59,-117.86,-4.55,0.04,6.51,22.69,-4.47,177.51,15.41,4
-4.07,-0.45,13.44,2.32,37.37,102.46,-64.88,-0.32,0.65,0.8,1.68,-0.75,68.82,7.0,4
5.9,-4.9,-9.35,3.1,79.8,90.5,23.3,5.6,1.4,-1.1,-2.1,2.0,102.4,6.9,1
-0.5,2.7,21.45,4.1,37.8,100.0,-54.7,0.6,1.3,0.0,-0.9,0.2,58.0,6.9,1
-4.8,1.4,1.39,10.7,54.1,101.13,-65.3,5.3,1.8,1.6,5.9,4.8,73.4,9.8,1
0.43,3.13,12.63,5.84,19.57,111.55,-54.49,18.15,0.62,-0.29,-0.75,3.75,108.11,7.53,2
1.06,-4.4,12.19,9.45,26.86,101.72,-58.17,12.96,1.7,-1.64,-7.73,-1.8,108.04,10.73,3
2.3,-4.3,2.9,2.4,99.2,104.45,-85.5,-1.2,-0.1,-3.5,-11.1,-0.4,147.4,22.1,2
-5.25,-4.19,-21.67,-10.0,151.63,102.44,-124.49,-7.98,-0.14,7.85,21.2,-4.16,173.99,17.92,4
8.2,-0.9,-6.74,4.0,64.6,100.0,48.9,-0.4,0.6,1.1,-0.4,0.0,262.8,7.2,2
-4.19,8.75,-10.45,5.22,85.74,94.03,-21.96,4.14,1.09,-0.36,-3.5,5.67,164.58,7.25,2
4.1,0.3,-4.61,-3.8,82.6,100.0,-31.2,-0.1,1.4,0.4,-4.3,-5.0,87.4,9.6,2
-2.8,-7.8,-25.92,10.4,80.1,89.47,-11.6,5.8,-0.3,1.3,6.3,1.6,176.6,7.8,2
-2.0,2.5,13.52,13.2,37.3,100.0,-64.1,17.2,1.3,-3.3,-12.2,-0.5,80.4,10.9,1
0.7,-3.7,2.44,16.3,36.8,106.62,-26.9,2.7,2.1,-1.3,-8.5,4.3,68.7,5.1,1
1.58,-1.52,-6.99,2.43,134.72,100.97,-14.06,1.87,1.64,1.0,2.28,0.54,113.63,11.74,3
-5.0,-2.0,12.3,4.8,37.0,104.27,-67.6,6.8,1.7,0.8,1.8,0.3,72.1,7.0,4
-6.53,-4.42,-21.04,-2.91,141.79,106.44,-117.88,-4.57,0.04,6.47,22.61,-4.47,178.01,15.37,4
1.1,0.9,1.08,1.4,101.7,102.86,56.8,0.9,0.3,-0.8,-3.9,0.4,185.4,7.8,1
1.57,-0.47,-10.72,-7.57,71.41,105.1,-44.05,-0.62,-0.76,0.64,2.38,-2.76,105.52,9.9,3
6.6,0.1,-3.82,10.9,19.0,86.69,28.9,8.8,1.1,-0.2,-1.1,21.4,284.3,4.8,1
1.63,0.1,6.32,2.79,81.59,102.08,-73.07,-5.18,1.87,-2.29,-7.43,-0.31,106.07,15.48,3
-0.17,-0.39,-17.17,-1.65,132.74,107.79,-20.92,2.64,1.42,2.27,9.03,-2.26,119.31,10.58,3
-4.6,1.8,16.57,0.3,100.6,103.32,-121.3,-0.4,1.1,-4.1,-12.6,8.4,282.6,10.8,3
1.06,0.62,4.19,2.9,18.75,103.68,-61.88,16.25,1.86,1.02,1.63,3.01,119.33,10.33,2
-6.81,-4.17,-20.2,-1.66,141.29,117.25,-107.99,-2.66,0.08,9.13,25.4,-4.2,122.73,16.69,4
0.9,-0.4,-5.01,2.4,104.9,101.19,54.5,-0.9,0.1,0.1,-3.6,23.8,194.9,8.3,1
-4.84,0.76,7.98,-0.14,64.07,108.27,-68.24,-2.44,0.12,1.65,5.77,-2.4,79.28,8.26,4
-0.66,-2.43,-6.85,3.19,95.4,100.52,-13.69,2.91,0.96,0.46,0.65,4.19,142.42,10.24,3
-7.4,-5.0,-26.23,-2.1,159.51,119.99,-115.91,-2.31,0.1,10.58,29.57,-4.7,132.82,18.39,4
-7.0,-0.57,1.2,1.48,87.91,116.42,-75.59,6.8,1.29,2.42,9.71,-2.26,93.99,9.41,4
-0.47,-3.11,-3.29,0.01,114.58,106.4,-102.42,-2.18,0.89,0.57,-0.63,-5.32,176.49,16.12,3
0.9,-4.3,13.16,9.5,26.0,100.0,-61.8,14.5,2.2,-1.2,-6.5,-3.5,109.3,11.2,3
-2.72,-5.7,-19.43,6.49,113.28,91.36,-153.89,-7.8,-0.23,5.95,10.82,-0.62,324.7,14.83,4
-0.63,-1.05,-4.39,-0.68,39.82,117.79,-47.46,9.43,-0.77,1.93,5.57,0.98,116.92,8.26,2
-4.68,-3.0,-18.52,3.05,120.4,97.88,-138.62,-6.33,0.35,4.63,15.86,-2.74,272.33,13.81,4
-4.94,-1.53,-0.75,-0.27,82.56,108.25,-82.62,-3.82,0.04,4.41,11.92,-2.62,91.05,11.2,4
5.0,-2.0,17.79,5.3,74.1,110.33,-24.2,3.7,3.3,-2.2,-9.0,0.9,76.3,7.9,1
0.4,-1.5,-7.75,5.4,103.5,100.17,51.4,5.1,-0.4,0.2,0.7,22.2,180.5,7.8,2
-0.1,6.4,3.49,8.2,33.8,114.86,-31.0,16.5,3.2,-1.9,-5.2,4.3,56.4,7.1,1
0.5,-1.8,5.22,-0.4,131.5,106.07,-110.5,-0.5,0.7,-3.1,-10.1,-1.8,169.3,12.6,3
-5.91,-4.01,-17.36,-3.49,129.19,96.82,-119.28,-6.18,0.0,3.55,17.68,-4.3,210.11,13.23,4
0.5,1.7,8.2,6.2,39.3,113.33,-56.2,15.2,2.4,-1.3,-2.6,2.4,76.9,9.4,1
6.37,-7.11,-17.21,2.38,45.06,88.88,35.01,0.3,-1.5,1.47,2.9,7.44,223.61,7.73,2
-10.3,1.8,-17.17,-4.0,172.1,136.51,-88.8,6.8,0.6,5.1,22.8,-6.5,130.2,13.4,4
4.9,3.3,8.69,-2.0,21.0,114.88,53.8,7.9,0.2,-0.5,-3.1,-0.5,306.5,5.8,1
-0.6,4.8,10.22,4.7,40.9,107.36,-59.0,16.7,2.3,-1.7,-5.9,2.3,80.5,10.1,1
-3.72,-2.21,-19.48,8.26,113.58,98.84,-153.96,-6.43,0.62,5.53,14.48,-1.5,321.37,14.29,4
5.5,-2.5,-13.78,1.6,46.1,92.87,27.8,3.6,-1.5,1.3,6.9,4.4,221.0,7.3,2
-1.07,-4.49,-10.78,-0.07,102.75,104.41,-99.89,-3.1,0.76,4.06,7.47,-7.61,185.13,19.22,3
-0.7,-8.3,-32.36,-1.3,53.6,103.4,10.6,5.8,0.2,0.2,-2.5,7.1,147.7,8.0,2
-4.5,-4.4,-26.64,-17.4,177.4,109.02,-130.4,-10.0,-0.3,12.8,25.3,-4.0,132.3,23.3,4
2.2,4.8,3.92,1.7,74.0,113.27,3.7,4.7,1.3,-0.3,-1.2,3.9,121.0,5.5,1
0.9,5.8,7.29,8.6,10.0,100.0,-39.9,15.3,1.9,-3.1,-7.8,2.7,112.8,7.4,1
-5.87,-4.07,-17.31,-3.49,128.93,96.52,-119.45,-6.23,-0.02,3.52,17.51,-4.27,211.15,13.22,4
-6.23,-6.59,-24.51,-2.03,150.85,110.84,-120.73,-3.97,-0.34,9.52,24.47,-3.77,164.88,17.69,4
0.99,-0.7,-17.66,-7.75,73.73,104.62,-35.75,0.74,-0.69,1.79,6.09,-2.67,112.34,9.25,3
-4.02,-9.59,-21.21,-1.91,134.3,93.41,-129.86,-7.14,-1.17,7.48,14.75,-2.02,225.95,16.36,4
-7.21,-4.74,-24.34,-1.96,153.79,119.17,-113.39,-2.41,0.1,10.13,28.27,-4.54,129.47,17.86,4
6.4,-9.0,-16.75,3.2,81.1,92.35,28.7,2.5,0.9,-1.1,-3.2,1.4,101.9,6.1,1
-2.29,-5.25,-23.67,6.53,124.35,120.45,-21.48,2.92,0.57,1.91,9.37,0.37,123.44,8.88,2
-3.26,0.77,9.76,-1.87,109.81,101.77,-122.01,-1.11,0.67,-2.3,-7.72,4.06,256.21,12.11,3
2.71,0.06,20.87,3.1,77.35,105.01,-64.1,-3.67,0.23,-5.07,-16.67,1.2,98.43,13.25,3
-1.1,-4.0,-9.78,-10.2,178.5,98.32,-137.6,-3.3,0.7,-1.5,-11.0,-2.1,125.1,25.0,4
2.2,-3.1,0.83,4.2,134.1,98.04,-7.7,1.2,1.5,-1.2,-8.0,1.3,108.8,11.6,3
-2.35,-11.67,-18.27,-1.91,120.49,79.43,-136.59,-9.66,-1.78,5.56,7.04,-0.75,274.63,15.07,4
-2.9,-7.6,12.18,8.6,67.8,95.49,19.6,8.7,4.5,0.9,-0.7,0.1,162.3,6.5,2
-0.5,1.7,26.02,2.0,37.2,92.5,-53.6,-7.8,3.0,6.7,19.3,-1.8,68.8,15.7,1
0.4,-3.6,6.93,10.9,9.8,76.91,-50.7,0.1,0.8,1.8,-6.5,7.6,117.2,13.0,1
-1.7,2.7,-27.3,9.4,59.8,100.46,-3.1,7.6,0.5,0.2,0.4,1.7,148.8,8.2,2
1.2,5.3,8.56,23.0,34.7,116.3,-25.0,5.9,2.4,-1.7,-8.0,4.2,67.3,4.0,1
9.9,3.2,1.68,-3.3,52.4,118.9,70.7,3.0,0.7,-1.6,-4.1,4.5,241.6,4.9,2
0.11,0.15,-18.11,-1.19,133.87,107.0,-22.21,2.76,1.59,3.14,12.76,-1.67,120.11,11.11,3
7.0,-0.4,-9.51,4.6,75.7,96.0,40.8,7.4,0.4,-0.6,-0.8,-0.3,98.4,5.2,2
-2.01,-5.16,-17.09,0.37,88.22,106.59,-90.34,-4.91,1.13,6.51,14.76,-11.02,188.57,21.73,3
5.4,0.5,16.34,37.8,22.7,94.98,59.3,7.1,2.9,0.2,5.8,28.7,324.9,5.6,1
0.3,-0.9,-0.15,1.1,17.1,97.38,-73.5,15.3,1.7,2.7,6.5,2.6,130.6,12.2,2
-5.73,-4.37,-17.35,-3.42,128.59,95.84,-120.14,-6.37,-0.09,3.6,17.09,-4.13,213.7,13.29,4
0.1,6.9,-1.46,-2.6,99.8,103.87,38.1,3.7,1.0,-1.5,-6.3,3.7,185.1,7.0,1
-2.9,-3.2,-10.3,1.1,51.8,93.79,-60.6,-0.3,1.0,2.9,6.7,1.9,71.1,14.0,1
7.9,5.3,3.49,2.0,61.9,117.37,62.5,5.6,1.0,-0.6,-1.0,6.5,102.1,3.8,2
-0.6,-2.9,-3.68,2.2,95.6,100.0,-12.9,2.3,0.9,0.4,0.3,4.6,142.8,10.3,3
-4.8,-11.4,15.13,4.8,54.5,108.27,-62.4,4.2,1.9,1.2,8.5,6.6,73.9,9.2,1
-4.0,-0.34,13.52,2.14,37.4,102.33,-64.67,-0.85,0.57,0.8,1.67,-0.83,68.57,7.0,4
-2.51,-7.86,-19.07,3.74,115.48,87.0,-148.55,-8.49,-0.78,5.87,9.32,-0.58,309.56,14.95,4
-3.52,-9.14,-17.95,-2.43,123.29,85.11,-130.9,-8.52,-1.19,4.88,10.51,-1.92,253.56,14.45,4
-2.15,-12.09,-18.33,-1.82,120.02,78.48,-137.55,-9.85,-1.87,5.67,6.45,-0.55,278.16,15.17,4
2.38,-0.07,2.77,-2.36,70.13,99.47,-38.64,1.85,1.46,0.26,-3.04,-4.22,80.13,8.82,2
0.46,-0.99,-10.88,3.77,105.46,99.62,47.7,4.65,0.39,0.54,2.83,8.62,170.23,8.02,2
-4.78,-8.56,-22.34,-1.95,139.97,99.37,-126.73,-6.06,-0.89,8.18,18.08,-2.62,205.05,16.82,4
2.0,-4.7,-21.72,0.4,81.9,92.57,-3.2,3.8,0.8,0.0,-1.3,1.2,128.2,4.8,1
-5.44,-2.55,5.29,3.55,59.29,107.14,-76.38,5.15,1.41,2.58,6.85,-0.61,83.1,9.07,4
-3.07,-1.98,-20.05,11.24,109.49,98.87,-163.09,-6.59,0.73,6.09,13.4,-0.69,350.8,14.62,4
-4.3,10.1,-9.19,4.8,86.2,94.4,-22.8,4.0,1.2,-0.5,-4.3,6.0,163.6,7.2,2
-1.9,-1.0,21.09,1.2,39.2,98.15,-57.1,6.7,1.6,-0.1,0.1,-2.3,62.1,6.9,2
-4.26,-9.26,-21.57,-1.92,136.11,95.31,-128.86,-6.8,-1.08,7.7,15.81,-2.21,219.29,16.51,4
-2.94,-6.07,7.76,-0.98,91.62,104.3,-115.2,-4.37,0.08,-0.22,-3.33,1.32,269.28,15.71,3
-2.1,-5.3,-17.51,0.7,86.3,106.96,-88.9,-5.0,1.2,6.7,15.2,-11.2,188.5,22.0,3
2.6,4.1,4.61,-2.3,97.6,114.86,-80.2,0.7,-0.6,-5.0,-14.0,0.4,134.4,17.4,2
-3.3,-6.4,18.62,-1.7,93.9,103.15,-126.5,-4.1,-0.4,-3.2,-11.3,6.7,304.0,13.0,3
2.3,-7.2,-9.31,0.4,76.2,100.0,-67.9,1.0,4.9,-1.9,-10.9,-2.5,84.2,8.2,1
-3.5,-2.5,-8.31,3.4,69.9,128.08,-93.8,-1.4,1.2,6.9,21.7,-4.2,198.2,19.7,2
-0.2,-0.3,-10.28,-10.3,95.8,96.28,-92.8,-5.1,0.8,5.7,14.0,-10.0,178.2,24.1,2
0.4,-7.1,58.59,1.5,73.8,107.17,-171.7,-17.7,0.9,-3.8,-9.9,-15.7,284.4,10.1,2
0.3,-1.2,4.06,10.4,51.9,100.0,-63.9,2.7,1.5,-1.8,-7.5,5.1,80.6,13.0,1
0.45,-4.39,-2.2,4.89,38.47,106.01,-53.76,8.0,0.57,0.47,-0.4,-3.18,110.61,9.8,3
8.4,-1.8,1.52,-0.1,56.9,110.77,59.4,-0.1,0.7,-1.0,-3.8,3.7,249.1,5.9,2
-4.35,-0.92,13.09,3.08,37.26,103.01,-65.7,1.84,0.97,0.8,1.71,-0.43,69.82,7.0,4
-4.9,0.2,1.09,11.7,86.8,105.5,0.3,3.7,0.9,-1.4,-7.7,8.8,166.4,5.4,1
-2.63,-6.64,-19.27,5.3,114.23,89.48,-151.58,-8.1,-0.47,5.91,10.17,-0.61,318.16,14.88,4
5.0,-1.0,21.39,0.4,22.3,109.59,51.8,4.0,-0.6,0.5,-7.2,27.4,322.9,6.2,1
0.5,-0.6,-13.33,2.5,107.0,99.19,44.8,4.3,1.0,0.8,4.5,-2.0,162.2,8.2,2
1.9,-3.8,-22.85,-1.3,77.4,85.69,-82.2,7.5,2.8,-0.6,0.2,-0.8,95.8,10.7,2
-0.64,-2.59,-5.8,2.87,95.46,100.35,-13.43,2.71,0.94,0.44,0.53,4.33,142.55,10.26,3
-0.51,-3.16,-3.6,0.03,113.97,106.42,-102.12,-2.25,0.89,0.7,-0.29,-5.45,176.75,16.25,3
-2.67,-6.21,-19.34,5.85,113.8,90.34,-152.63,-7.96,-0.36,5.93,10.46,-0.61,321.15,14.86,4
-0.1,-4.5,-20.85,-0.7,53.6,113.31,-44.0,0.1,-1.4,2.5,7.0,-2.8,112.2,8.1,3
0.8,-0.8,-23.17,-5.8,78.6,89.71,-92.2,7.7,2.5,0.8,1.8,-6.0,102.2,11.1,2
1.3,-0.6,-18.21,-10.1,70.0,105.12,-39.3,0.1,-1.0,2.0,6.9,-3.7,107.2,9.1,3
0.2,-6.3,71.33,4.3,67.7,117.61,-167.2,-15.4,0.9,-3.6,-9.0,0.2,250.5,8.4,2
-0.65,-2.53,-6.21,2.99,95.44,100.41,-13.53,2.79,0.95,0.45,0.58,4.27,142.5,10.25,3
1.94,2.31,-5.53,-3.58,90.67,105.68,-84.58,3.25,0.53,-2.88,-8.23,-1.94,122.65,15.1,2
-0.3,4.8,20.52,13.0,10.6,93.21,-46.7,14.7,0.5,-3.8,-7.4,5.6,115.4,8.7,1
2.1,-6.8,-16.82,8.7,76.8,88.33,-80.4,6.2,4.6,-1.5,-5.6,-0.2,91.7,9.6,2
6.1,-2.4,-5.55,15.1,22.0,88.54,58.4,5.9,0.7,0.4,1.6,25.9,303.7,4.8,1
-3.93,-8.24,-17.84,-2.62,124.29,87.13,-128.87,-8.11,-0.98,4.64,11.75,-2.33,246.05,14.23,4
-1.2,-2.6,-4.91,-4.0,61.3,101.04,0.1,-3.6,1.3,0.2,-0.4,7.0,146.0,8.9,1
1.2,11.0,11.47,7.4,32.6,123.49,-24.8,13.7,2.6,-1.7,-5.9,5.3,70.7,3.0,1
7.79,4.63,1.96,2.31,63.52,114.86,59.95,5.81,0.93,-0.6,-0.98,5.7,101.67,3.96,2
-2.33,-9.82,-18.74,1.24,117.47,83.05,-143.7,-9.13,-1.29,5.79,7.96,-0.55,295.83,15.06,4
0.85,0.03,-7.1,0.7,82.77,100.55,-74.21,-5.44,2.57,0.21,0.92,-1.82,111.4,16.06,3
-2.9,0.4,11.98,11.4,41.6,102.42,-67.1,16.0,1.8,-4.2,-11.4,-4.4,82.2,12.6,1
6.5,-7.8,-17.73,2.5,44.9,88.28,36.1,-0.2,-1.5,1.5,2.3,7.9,224.0,7.8,2
-3.2,1.9,11.12,4.3,15.2,102.38,-82.8,17.9,-1.9,3.4,12.3,3.5,129.1,9.5,2
-2.4,2.5,3.2,8.9,49.4,117.31,-68.1,11.3,1.5,-3.6,-11.6,2.0,91.0,8.1,1
-0.08,-2.09,-8.15,-6.65,129.09,98.63,-120.95,-3.07,-0.27,2.57,5.38,-7.16,189.97,15.94,3
-0.8,-2.2,-14.22,0.5,93.4,103.54,-16.6,4.6,0.9,0.6,1.6,2.1,137.4,9.8,2
-4.94,-3.21,-18.26,1.67,122.22,97.62,-134.53,-6.3,0.27,4.39,16.23,-3.07,259.27,13.68,4
7.5,2.6,-1.5,-4.1,33.9,112.3,64.4,1.6,1.3,-0.6,-1.7,3.5,198.3,5.6,1
2.4,-1.8,-12.5,1.5,82.4,88.31,-1.9,5.8,0.7,0.2,0.4,3.0,129.4,4.9,1
-4.99,-4.26,-23.39,-12.56,160.56,104.72,-126.54,-8.68,-0.2,9.56,22.62,-4.1,159.54,19.79,4
1.8,0.1,-12.48,5.9,63.4,96.09,43.0,2.4,6.0,-1.0,-1.6,7.4,143.6,6.0,1
-4.5,-10.8,-1.18,-1.7,86.2,108.74,-10.0,5.1,0.9,-1.1,-4.9,7.2,167.7,4.8,1
2.14,-2.94,0.04,4.02,134.16,98.34,-8.35,1.27,1.51,-0.98,-6.96,1.22,109.29,11.61,3
7.6,-2.3,-2.96,6.7,61.9,104.44,61.4,-0.3,0.3,0.0,-2.4,3.9,259.3,6.8,2
0.6,4.9,8.63,-3.0,37.2,120.83,-49.1,15.1,2.0,-1.4,-4.1,-0.2,70.5,8.6,1
-2.1,-6.2,-25.74,7.2,126.5,118.47,-23.0,2.0,1.2,2.2,10.0,-0.9,124.2,9.2,2
-0.6,-2.74,-4.58,1.94,97.59,100.51,-13.46,2.33,0.93,0.53,0.94,4.2,141.64,10.31,3
-3.31,-6.35,18.61,-1.69,93.94,103.15,-126.47,-4.08,-0.39,-3.21,-11.31,6.71,303.87,12.99,3
8.1,-2.1,2.13,5.2,69.2,106.77,51.4,4.9,0.3,-0.6,-0.7,3.7,98.2,4.6,2
-1.66,-0.45,1.64,-4.45,120.78,99.93,-122.86,-1.96,0.16,-0.16,-1.91,-1.1,224.8,13.67,3
-2.7,-3.2,-19.21,5.1,119.7,124.71,-18.2,4.9,-0.8,1.3,8.0,3.1,121.8,8.2,2
-0.12,-3.75,-4.53,-0.78,118.0,102.05,-110.08,-1.33,0.35,1.62,0.3,-4.28,182.0,16.63,3
0.46,-0.93,-11.27,3.57,105.71,99.55,47.23,4.6,0.48,0.58,3.1,6.93,168.95,8.05,2
-3.57,-4.69,18.19,-1.28,95.29,103.19,-125.42,-3.33,-0.09,-3.39,-11.57,7.05,299.55,12.54,3
-0.6,0.1,-20.41,-2.7,132.5,109.54,-23.3,2.9,1.4,2.9,12.1,-2.9,121.2,10.4,3
-7.95,1.35,-6.34,-2.34,125.59,124.35,-79.95,2.82,0.39,3.61,15.47,-4.74,108.28,11.19,4
-1.6,-5.6,38.33,8.2,35.1,108.6,-47.4,15.4,1.6,-0.8,-5.7,1.7,50.9,5.9,1
2.0,1.3,-9.15,-0.1,84.9,100.0,2.2,6.4,0.4,0.5,1.2,2.1,124.0,5.6,1
-4.5,-1.17,12.91,3.48,37.2,103.3,-66.14,2.99,1.14,0.8,1.73,-0.26,70.35,7.0,4
1.5,-4.7,9.44,9.3,29.3,106.56,-47.9,8.6,0.3,-2.9,-11.2,3.0,104.5,9.4,3
