PC_CA-avg_3y,REER-pch_3y,X_GS_share_M-pch_5y,FSL-pch,GD-pc_gdp,HPI-pch,NIIP-pc_gdp,ULC-pch_3y,ACT-pch_3y,LTU-pch_3y,YUR-pch_3y,PSCF-pc_gdp,PSD-pc_gdp,UR-avg_3y,label
0.9,-0.8,14.27,1.4,126.1,114.08,-110.4,2.8,1.5,-3.9,-10.9,2.3,162.4,10.9,2
-7.21,-3.52,-16.12,-9.54,137.76,107.06,-113.85,-4.02,-0.3,6.38,17.94,-1.99,177.79,15.69,4
-1.7,2.7,-27.3,9.4,59.8,100.46,-3.1,7.6,0.5,0.2,0.4,1.7,148.8,8.2,2
-1.4,0.4,-15.78,3.9,63.2,100.19,5.2,0.4,0.7,0.6,0.2,1.3,148.0,9.0,1
2.0,1.3,-9.15,-0.1,84.9,100.0,2.2,6.4,0.4,0.5,1.2,2.1,124.0,5.6,1
2.8,0.1,23.24,3.9,77.8,105.0,-65.6,-3.9,0.3,-5.5,-18.1,1.5,97.9,13.5,3
-0.35,-2.95,-2.25,-0.04,116.64,106.36,-103.4,-1.98,0.86,0.12,-1.78,-4.89,175.61,15.69,3
5.7,0.8,8.2,10.3,23.7,91.43,58.9,7.6,1.7,0.5,1.3,27.8,313.3,5.3,1
-0.43,-1.48,-13.75,4.92,101.43,101.49,-16.2,4.01,1.0,0.71,2.07,2.46,137.23,10.46,3
9.9,3.2,1.68,-3.3,52.4,118.9,70.7,3.0,0.7,-1.6,-4.1,4.5,241.6,4.9,2
0.9,-0.4,-5.01,2.4,104.9,101.19,54.5,-0.9,0.1,0.1,-3.6,23.8,194.9,8.3,1
7.9,5.3,3.49,2.0,61.9,117.37,62.5,5.6,1.0,-0.6,-1.0,6.5,102.1,3.8,2
7.0,-0.4,-9.51,4.6,75.7,96.0,40.8,7.4,0.4,-0.6,-0.8,-0.3,98.4,5.2,2
-2.71,-0.99,-13.77,-0.18,105.11,100.31,-162.78,-1.94,0.17,5.08,20.43,-9.58,343.69,12.48,4
-10.3,1.8,-17.17,-4.0,172.1,136.51,-88.8,6.8,0.6,5.1,22.8,-6.5,130.2,13.4,4
0.7,-3.1,0.87,-1.4,131.2,100.0,-118.9,0.2,0.0,-0.5,-5.9,-1.4,179.3,14.4,3
-0.9,-1.1,-5.63,-1.2,46.5,123.79,-39.8,7.7,-1.5,1.7,5.3,0.5,112.9,7.1,2
-2.82,-0.69,9.22,-3.88,84.6,99.81,-89.48,-3.45,0.31,-0.79,-1.93,-1.26,84.16,12.53,4
-1.02,-3.76,-11.38,5.38,116.83,80.57,-139.59,-1.29,0.28,0.45,-2.35,-0.61,269.66,14.66,2
8.2,-0.9,-6.74,4.0,64.6,100.0,48.9,-0.4,0.6,1.1,-0.4,0.0,262.8,7.2,2
0.66,-0.79,-0.62,0.88,106.41,102.84,-93.44,-3.48,1.92,-1.45,-4.63,-1.69,138.79,14.89,3
-0.6,4.8,10.22,4.7,40.9,107.36,-59.0,16.7,2.3,-1.7,-5.9,2.3,80.5,10.1,1
-1.0,-5.6,-13.98,6.3,175.9,100.0,-135.4,-9.7,0.3,3.7,-5.5,-3.0,128.0,26.3,4
-0.54,-2.88,0.01,4.01,97.6,103.11,-16.6,2.03,0.56,-0.17,-1.57,6.12,144.16,9.89,2
-0.6,-10.0,-6.24,5.2,42.2,96.29,-36.6,4.0,3.0,0.0,-2.2,1.7,71.5,6.7,1
-2.4,2.5,3.2,8.9,49.4,117.31,-68.1,11.3,1.5,-3.6,-11.6,2.0,91.0,8.1,1
5.0,-2.0,17.79,5.3,74.1,110.33,-24.2,3.7,3.3,-2.2,-9.0,0.9,76.3,7.9,1
2.1,-2.4,26.53,-6.2,43.9,92.26,-74.7,-20.6,-1.4,6.9,17.4,-2.4,115.2,17.7,1
-1.4,-3.1,-9.77,11.4,44.9,94.54,-41.4,4.2,2.7,0.0,0.7,4.4,73.7,6.9,1
-4.82,-8.47,-14.93,-3.06,117.67,89.45,-124.13,-6.09,-1.25,4.44,9.26,-0.62,248.89,13.58,4
-2.52,-7.8,-19.08,3.81,115.42,87.12,-148.69,-8.48,-0.77,5.87,9.36,-0.58,309.98,14.95,4
-1.14,-2.81,-6.12,1.04,82.72,115.83,-91.66,-1.27,0.68,4.06,10.23,-3.46,179.71,21.66,2
-4.47,1.71,16.29,0.28,101.37,103.39,-121.03,-0.4,1.09,-4.08,-12.54,8.15,279.78,10.84,3
1.37,-2.43,-9.32,1.45,132.82,100.0,-18.9,2.02,0.53,1.24,4.71,-1.02,116.83,12.17,3
1.8,0.0,9.47,3.5,80.8,102.02,-72.4,-5.6,1.9,-4.4,-18.7,-0.2,104.2,15.5,3
1.81,-2.98,-1.7,-1.69,101.73,101.28,-90.85,-0.75,0.14,0.01,-5.17,-2.06,156.4,22.99,2
0.31,-1.77,-14.03,0.09,106.3,99.57,43.53,4.49,0.68,0.51,2.41,3.29,171.32,8.04,2
0.9,0.2,-15.53,0.5,135.4,104.16,-21.0,2.6,1.8,3.4,13.5,-0.3,118.9,11.9,3
1.77,-0.03,8.03,2.79,80.24,102.18,-70.68,-5.3,1.75,-4.07,-17.37,-0.38,104.36,15.17,3
-5.98,-1.14,2.89,-1.87,73.51,103.48,-82.32,-2.74,-0.14,1.64,7.21,-1.12,131.23,8.96,4
1.8,-0.01,9.21,3.37,80.7,102.05,-72.09,-5.55,1.87,-4.34,-18.46,-0.23,104.23,15.44,3
-2.36,-6.25,-15.05,-2.63,111.6,89.87,-150.69,-5.1,-0.91,5.23,14.65,-6.5,311.5,13.48,4
0.95,-0.12,-9.63,-1.75,79.87,101.59,-66.28,-4.18,1.76,0.62,2.28,-2.25,110.44,14.48,3
2.3,-4.3,2.9,2.4,99.2,104.45,-85.5,-1.2,-0.1,-3.5,-11.1,-0.4,147.4,22.1,2
-2.15,2.53,-12.29,2.15,90.63,100.02,-18.98,4.37,1.02,0.18,-0.67,3.6,147.48,8.8,2
-0.5,1.7,26.02,2.0,37.2,92.5,-53.6,-7.8,3.0,6.7,19.3,-1.8,68.8,15.7,1
-9.41,-1.05,-12.86,-4.53,137.8,118.32,-97.89,2.46,0.07,3.61,17.33,-3.11,174.43,12.09,4
-0.6,-2.9,-3.68,2.2,95.6,100.0,-12.9,2.3,0.9,0.4,0.3,4.6,142.8,10.3,3
-2.75,-1.07,-14.43,1.05,105.54,100.22,-162.89,-2.42,0.24,5.19,19.72,-8.65,344.64,12.7,4
1.55,-2.56,-10.05,-1.67,88.96,97.13,-88.83,3.22,1.19,-1.36,-4.69,-3.18,124.94,16.63,2
6.5,-7.8,-17.73,2.5,44.9,88.28,36.1,-0.2,-1.5,1.5,2.3,7.9,224.0,7.8,2
-0.3,-3.6,-14.64,19.5,104.4,90.24,-164.7,-3.7,0.6,-2.2,-6.2,2.6,278.4,13.7,2
-2.1,-12.2,-18.34,-1.8,119.9,78.23,-137.8,-9.9,-1.9,5.7,6.3,-0.5,279.1,15.2,4
1.3,-0.6,-18.21,-10.1,70.0,105.12,-39.3,0.1,-1.0,2.0,6.9,-3.7,107.2,9.1,3
-2.24,-5.52,-24.26,6.72,124.96,119.89,-21.91,2.66,0.75,2.0,9.55,0.01,123.65,8.97,2
0.8,0.01,-5.58,1.91,85.61,100.0,-79.53,-5.92,2.92,-0.01,0.03,-1.59,113.78,16.83,3
2.1,7.7,0.75,6.9,8.4,108.14,-27.7,14.3,2.4,-1.1,-1.3,3.7,101.5,6.0,1
-4.8,1.4,1.39,10.7,54.1,101.13,-65.3,5.3,1.8,1.6,5.9,4.8,73.4,9.8,1
5.7,-2.5,23.98,6.5,50.3,109.26,64.0,1.5,4.4,-0.9,-1.1,5.5,132.1,4.7,1
2.69,1.21,23.16,4.06,76.96,106.31,-63.52,-3.41,0.06,-5.85,-18.23,1.72,96.85,12.8,3
-0.7,-8.3,-32.36,-1.3,53.6,103.4,10.6,5.8,0.2,0.2,-2.5,7.1,147.7,8.0,2
-5.65,-7.32,-13.88,-3.44,116.99,92.9,-119.94,-4.92,-1.05,4.06,10.17,-0.66,239.62,13.08,4
-8.92,-2.61,-10.52,-4.83,119.14,108.43,-102.84,0.1,-0.23,2.81,14.36,-1.27,198.48,11.38,4
0.55,-1.48,3.37,0.0,123.54,105.05,-105.09,-1.44,1.09,-2.58,-8.36,-1.77,159.62,13.33,3
-3.9,1.15,14.5,0.08,104.63,102.88,-120.98,-0.32,0.95,-3.63,-11.72,7.11,268.98,11.27,3
1.9,-3.8,-22.85,-1.3,77.4,85.69,-82.2,7.5,2.8,-0.6,0.2,-0.8,95.8,10.7,2
2.43,3.52,12.12,6.2,24.12,117.77,-37.03,17.5,1.92,-2.28,-7.83,3.64,96.35,6.36,2
1.8,-2.76,-6.06,2.8,134.91,100.89,-13.52,1.7,1.55,0.44,0.59,0.03,112.98,12.06,3
2.3,0.9,-2.83,-2.8,82.9,107.03,4.1,5.4,0.7,0.6,1.5,3.4,123.5,5.8,1
-3.5,-2.5,-8.31,3.4,69.9,128.08,-93.8,-1.4,1.2,6.9,21.7,-4.2,198.2,19.7,2
2.3,-3.3,20.41,7.1,25.3,112.23,-43.3,13.5,2.3,-3.5,-10.9,4.1,99.0,7.7,2
-0.77,-1.55,-12.81,5.06,95.01,101.5,-15.17,4.07,1.07,0.57,1.31,3.42,141.71,10.13,3
7.03,-1.59,-9.78,2.96,56.61,96.92,39.79,1.33,-0.31,1.19,2.75,1.9,244.75,7.24,2
-0.65,-2.52,-6.25,3.01,95.43,100.42,-13.54,2.8,0.95,0.45,0.58,4.27,142.49,10.25,3
1.2,1.7,19.36,16.7,40.6,95.53,-46.8,8.7,2.3,-3.2,-13.3,0.2,54.2,12.0,1
-1.89,-4.91,-16.67,0.79,86.16,106.46,-88.15,-5.08,1.33,6.22,14.13,-10.51,183.02,21.64,3
0.0,-8.2,-2.16,8.1,40.0,100.0,-32.9,0.1,2.4,-0.6,-6.9,0.3,68.1,6.1,1
2.26,-1.14,20.4,5.48,63.21,103.59,-64.53,1.28,0.84,-4.29,-14.83,0.09,101.11,12.85,3
1.0,3.1,8.95,0.5,122.0,124.17,-106.1,5.1,1.7,-4.1,-11.7,1.0,155.4,9.1,2
-10.28,1.8,-17.08,-3.99,171.72,136.41,-88.73,6.77,0.6,5.09,22.74,-6.49,130.02,13.38,4
9.5,0.7,-11.35,8.0,67.8,96.7,48.0,3.7,0.9,1.3,2.7,4.3,267.2,6.8,2
4.1,-2.9,22.52,3.9,55.5,104.82,35.4,-1.5,4.3,-1.1,-2.0,15.2,136.1,5.3,1
6.9,-2.5,-17.81,1.8,44.0,90.99,37.2,1.5,-1.4,0.4,-0.8,-3.0,216.1,7.7,1
-2.2,3.6,6.85,-4.9,181.2,98.21,-143.6,1.4,0.4,-4.6,-9.9,-0.8,115.5,21.5,4
1.99,0.1,11.51,3.13,80.43,102.98,-70.77,-4.79,1.39,-3.28,-10.7,0.25,103.56,14.87,3
-5.54,-4.06,-22.59,-14.37,162.13,108.27,-124.02,-7.7,-0.3,10.33,22.46,-3.22,149.83,20.37,4
-5.6,-5.0,17.63,10.4,70.2,95.07,6.3,11.1,2.7,1.3,1.6,6.8,168.3,6.7,1
1.5,-4.7,9.44,9.3,29.3,106.56,-47.9,8.6,0.3,-2.9,-11.2,3.0,104.5,9.4,3
-2.0,2.5,13.52,13.2,37.3,100.0,-64.1,17.2,1.3,-3.3,-12.2,-0.5,80.4,10.9,1
-2.53,-7.87,-26.76,8.87,76.63,91.29,-8.69,5.8,-0.23,1.16,5.15,2.32,172.82,7.83,2
0.07,-1.01,-16.06,-0.94,84.53,103.17,-25.47,2.61,0.23,1.18,3.75,0.33,127.22,9.68,3
-2.8,-7.8,-25.92,10.4,80.1,89.47,-11.6,5.8,-0.3,1.3,6.3,1.6,176.6,7.8,2
-4.99,-2.13,-16.72,6.11,110.93,101.6,-143.95,-4.51,0.43,4.94,13.6,-0.73,303.53,13.47,4
0.4,-3.6,6.93,10.9,9.8,76.91,-50.7,0.1,0.8,1.8,-6.5,7.6,117.2,13.0,1
2.6,-2.6,9.87,3.2,98.6,109.18,-85.5,-0.5,-0.3,-5.2,-14.6,0.6,139.6,19.6,2
-2.82,-1.2,-15.67,3.35,106.34,100.05,-163.08,-3.31,0.36,5.38,18.39,-6.92,346.42,13.11,4
-2.1,-5.3,-17.51,0.7,86.3,106.96,-88.9,-5.0,1.2,6.7,15.2,-11.2,188.5,22.0,3
0.9,4.2,6.46,7.3,42.6,100.0,-43.6,11.8,2.3,-2.7,-10.4,2.6,55.3,10.5,1
0.6,4.9,8.63,-3.0,37.2,120.83,-49.1,15.1,2.0,-1.4,-4.1,-0.2,70.5,8.6,1
-2.07,-5.27,-17.3,0.68,86.82,106.88,-89.25,-4.94,1.19,6.62,14.95,-11.09,188.39,21.91,3
5.4,5.1,-17.19,9.7,40.4,82.36,-15.9,8.7,2.0,-0.2,-1.3,4.6,193.6,8.0,2
-2.52,-7.75,-19.09,3.88,115.36,87.23,-148.83,-8.46,-0.75,5.87,9.4,-0.58,310.36,14.95,4
-1.9,-1.0,21.09,1.2,39.2,98.15,-57.1,6.7,1.6,-0.1,0.1,-2.3,62.1,6.9,2
-0.27,-0.84,-14.84,4.02,107.42,102.52,-17.27,3.84,1.32,1.47,5.21,2.12,134.51,10.66,3
-0.7,-4.4,-15.44,6.9,87.8,108.38,-8.7,5.4,0.4,1.0,3.7,6.4,135.3,9.2,2
0.41,0.72,1.38,1.72,37.67,121.41,-38.71,11.57,-0.15,0.13,0.12,1.74,106.37,6.81,2
0.8,0.12,-15.47,0.79,133.11,104.03,-20.69,2.7,1.76,3.24,12.82,-0.1,120.18,11.8,3
3.1,0.0,10.82,-7.6,72.9,123.6,-55.1,9.1,4.2,-2.0,-9.7,0.7,70.8,5.4,1
-7.32,-5.03,-11.78,-4.22,115.61,99.81,-111.53,-2.57,-0.65,3.28,11.99,-0.73,221.01,12.08,4
-2.14,-12.14,-18.29,-1.82,119.87,78.41,-137.59,-9.84,-1.89,5.68,6.35,-0.5,278.63,15.17,4
0.93,0.35,12.7,1.13,124.89,117.06,-109.13,3.48,1.56,-3.96,-11.14,1.92,160.33,10.37,2
-2.8,-0.7,24.04,3.3,34.7,109.99,-43.7,29.6,1.7,-1.2,-5.5,1.9,47.4,5.0,1
-2.52,-7.81,-19.08,3.8,115.43,87.1,-148.66,-8.48,-0.77,5.87,9.35,-0.58,309.9,14.95,4
-0.74,-1.78,-11.27,4.58,95.11,101.24,-14.79,3.77,1.04,0.54,1.14,3.62,141.89,10.16,3
-2.69,-5.99,-19.38,6.13,113.57,90.79,-153.19,-7.89,-0.3,5.94,10.62,-0.62,322.71,14.84,4
-3.57,-10.18,-16.49,-2.48,118.69,84.32,-130.39,-7.83,-1.55,5.02,7.9,-0.57,262.72,14.32,4
-1.73,-0.23,10.17,-0.09,118.01,104.87,-115.21,-0.46,0.87,-3.54,-11.19,2.65,218.75,11.81,3
-3.4,-4.3,-0.26,7.4,56.0,96.32,-68.9,3.1,1.7,1.4,3.6,3.3,75.4,10.0,1
-2.41,-5.15,-14.44,-2.79,110.06,92.04,-153.08,-4.21,-0.72,5.14,16.2,-7.62,317.53,13.16,4
-1.7,-0.05,0.21,0.72,35.59,116.33,-54.79,11.26,-1.64,2.29,7.74,1.55,118.55,7.94,2
-5.49,-7.55,-14.08,-3.37,117.12,92.22,-120.77,-5.15,-1.09,4.13,9.99,-0.65,241.44,13.18,4
-6.82,-1.69,-0.95,-2.77,85.76,104.21,-88.85,-2.07,-0.19,1.93,9.12,-1.02,153.21,9.63,4
-0.7,-2.6,24.74,7.0,37.3,105.17,-49.1,9.5,0.7,-0.2,-3.1,0.6,53.7,6.5,1
-8.83,-2.91,-10.05,-4.88,115.43,106.45,-103.83,-0.37,-0.28,2.64,13.76,-0.9,203.28,11.24,4
-2.6,-0.5,7.39,4.3,39.8,98.89,-45.2,3.4,0.8,0.5,8.2,2.1,68.3,6.9,1
5.5,-2.5,-13.78,1.6,46.1,92.87,27.8,3.6,-1.5,1.3,6.9,4.4,221.0,7.3,2
-1.5,-3.0,-0.36,-13.0,176.2,96.81,-140.7,-1.0,0.9,-3.9,-8.8,-1.0,118.0,23.3,4
0.83,0.18,-5.19,2.05,84.11,100.2,-77.99,-6.02,2.93,-0.14,-0.18,-1.52,111.54,16.78,3
1.1,0.9,1.08,1.4,101.7,102.86,56.8,0.9,0.3,-0.8,-3.9,0.4,185.4,7.8,1
8.1,-2.1,2.13,5.2,69.2,106.77,51.4,4.9,0.3,-0.6,-0.7,3.7,98.2,4.6,2
5.4,0.5,16.34,37.8,22.7,94.98,59.3,7.1,2.9,0.2,5.8,28.7,324.9,5.6,1
-2.5,0.32,11.89,0.01,113.33,104.45,-116.85,-0.44,0.94,-3.69,-11.57,4.2,235.93,11.54,3
-3.47,0.45,13.93,0.6,39.58,101.29,-64.31,-4.65,0.01,0.73,1.45,-1.39,67.53,7.23,4
-1.2,-3.8,-10.57,1.9,119.9,78.19,-133.4,-0.7,0.2,1.1,-1.4,-1.4,267.5,14.9,2
0.79,-0.16,-5.22,1.72,88.18,100.0,-81.75,-5.58,2.75,-0.04,-0.3,-1.58,117.47,16.69,3
1.3,-1.0,-11.49,0.0,100.7,96.46,-95.9,-3.6,0.3,4.0,7.0,-6.6,168.1,25.1,2
-0.8,-1.2,-0.62,0.0,68.4,94.11,27.0,9.5,5.9,-0.6,-0.5,2.3,152.9,6.2,1
-1.6,-5.6,38.33,8.2,35.1,108.6,-47.4,15.4,1.6,-0.8,-5.7,1.7,50.9,5.9,1
-0.3,4.8,20.52,13.0,10.6,93.21,-46.7,14.7,0.5,-3.8,-7.4,5.6,115.4,8.7,1
-8.5,-2.89,-10.02,-4.83,113.9,105.65,-106.9,-0.51,-0.29,2.71,14.02,-1.34,211.15,11.23,4
-3.81,0.56,12.72,0.58,43.68,102.94,-64.36,-4.18,0.03,0.99,2.56,-1.63,69.67,7.29,4
1.03,-4.39,12.35,9.46,26.72,101.43,-58.77,13.21,1.79,-1.57,-7.53,-2.08,108.25,10.81,3
1.58,-2.56,-8.81,1.7,135.22,100.03,-18.14,1.92,0.66,1.06,3.87,-1.16,114.57,12.27,3
-5.3,-7.81,-14.32,-3.28,117.27,91.45,-121.7,-5.41,-1.14,4.22,9.79,-0.64,243.52,13.29,4
-3.54,0.47,13.95,0.75,38.22,101.39,-63.53,-4.67,-0.0,0.81,1.7,-1.4,67.91,7.03,4
0.63,-2.39,20.68,4.76,30.82,106.64,-48.78,10.8,2.02,-2.15,-6.53,1.56,84.34,7.38,2
2.4,-1.8,-12.5,1.5,82.4,88.31,-1.9,5.8,0.7,0.2,0.4,3.0,129.4,4.9,1
-0.43,-2.01,-13.5,0.18,92.59,103.27,-17.7,4.25,0.94,0.58,1.16,1.57,133.64,9.78,2
-2.34,-6.83,-15.37,-2.55,112.4,88.75,-149.44,-5.56,-1.0,5.28,13.84,-5.92,308.37,13.64,4
-2.7,-0.9,8.32,-4.74,93.23,99.53,-94.3,-3.21,0.36,-1.09,-2.57,-1.24,87.35,13.54,4
4.1,0.3,-4.61,-3.8,82.6,100.0,-31.2,-0.1,1.4,0.4,-4.3,-5.0,87.4,9.6,2
7.6,-2.3,-2.96,6.7,61.9,104.44,61.4,-0.3,0.3,0.0,-2.4,3.9,259.3,6.8,2
-5.43,-4.1,-23.01,-14.68,163.71,108.34,-124.68,-7.94,-0.3,10.58,22.76,-3.3,148.02,20.67,4
-2.1,-6.2,-25.74,7.2,126.5,118.47,-23.0,2.0,1.2,2.2,10.0,-0.9,124.2,9.2,2
1.9,-0.8,24.41,-0.2,6.1,74.59,-54.0,-2.2,0.5,5.4,10.4,-0.8,118.9,14.2,1
-0.2,-0.3,-10.28,-10.3,95.8,96.28,-92.8,-5.1,0.8,5.7,14.0,-10.0,178.2,24.1,2
0.8,0.1,-5.77,2.0,84.3,100.0,-78.4,-6.1,3.0,0.0,0.2,-1.6,111.9,16.9,3
-1.9,-5.6,-19.39,-8.5,178.9,103.46,-131.9,-10.4,0.1,10.7,7.7,-3.0,130.8,26.2,4
2.0,-3.4,-4.02,3.3,134.8,100.19,-11.9,1.5,1.5,-0.2,-2.2,0.1,111.7,12.1,3
-6.24,1.02,1.5,-1.14,91.89,115.54,-73.53,-0.06,0.24,2.54,10.16,-3.46,92.39,9.58,4
5.0,-1.0,21.39,0.4,22.3,109.59,51.8,4.0,-0.6,0.5,-7.2,27.4,322.9,6.2,1
-2.0,-6.77,-22.85,5.82,87.4,92.69,3.88,5.53,-0.21,0.89,3.82,5.47,180.85,7.77,2
-0.7,2.1,-4.08,1.4,54.7,93.4,-62.2,2.6,1.2,0.8,0.1,5.0,75.2,13.9,1
0.5,-1.8,5.22,-0.4,131.5,106.07,-110.5,-0.5,0.7,-3.1,-10.1,-1.8,169.3,12.6,3
0.93,-0.08,-8.93,-1.07,80.67,101.3,-68.47,-4.52,1.98,0.51,1.9,-2.13,110.71,14.92,3
2.2,4.8,3.92,1.7,74.0,113.27,3.7,4.7,1.3,-0.3,-1.2,3.9,121.0,5.5,1
5.7,2.0,19.55,4.1,70.4,118.37,-18.9,6.1,3.2,-2.5,-7.5,1.3,72.8,6.6,1
-1.2,-1.6,7.31,8.6,52.0,107.04,-66.8,4.1,2.0,-4.2,-11.5,9.2,88.5,11.5,1
-4.5,-4.4,-26.64,-17.4,177.4,109.02,-130.4,-10.0,-0.3,12.8,25.3,-4.0,132.3,23.3,4
-1.0,-5.1,17.73,9.1,54.3,102.29,-61.6,2.5,1.8,-2.2,-9.6,5.1,81.6,7.6,1
-2.19,-12.07,-18.22,-1.84,119.82,78.61,-137.34,-9.77,-1.88,5.66,6.4,-0.5,278.08,15.15,4
-3.71,-9.98,-16.31,-2.55,118.58,84.9,-129.68,-7.64,-1.51,4.95,8.06,-0.57,261.16,14.24,4
-2.15,-11.11,-17.74,-1.95,118.39,80.35,-140.15,-9.02,-1.72,5.61,7.82,-1.59,285.01,14.89,4
1.34,-4.59,10.43,9.35,28.42,104.81,-51.61,10.18,0.81,-2.45,-9.94,1.26,105.78,9.88,3
-0.8,-2.21,-13.99,0.56,93.47,103.53,-16.6,4.56,0.89,0.59,1.55,2.16,137.51,9.8,2
-2.79,1.57,9.8,3.92,15.42,101.79,-81.71,17.59,-1.48,3.32,11.62,3.39,129.28,9.82,2
-6.87,-3.63,-17.41,-10.5,142.62,107.3,-115.88,-4.76,-0.3,7.17,18.84,-2.23,172.22,16.62,4
6.1,-2.4,-5.55,15.1,22.0,88.54,58.4,5.9,0.7,0.4,1.6,25.9,303.7,4.8,1
-2.51,-7.86,-19.07,3.74,115.48,87.0,-148.55,-8.49,-0.78,5.87,9.32,-0.58,309.56,14.95,4
-2.48,-11.68,-17.87,-1.97,119.59,79.78,-135.91,-9.37,-1.81,5.53,6.71,-0.52,274.92,14.98,4
1.2,5.3,8.56,23.0,34.7,116.3,-25.0,5.9,2.4,-1.7,-8.0,4.2,67.3,4.0,1
8.4,-1.8,1.52,-0.1,56.9,110.77,59.4,-0.1,0.7,-1.0,-3.8,3.7,249.1,5.9,2
-9.59,-0.46,-13.76,-4.42,144.98,122.13,-95.99,3.37,0.18,3.92,18.48,-3.82,165.17,12.37,4
-9.66,-0.24,-14.08,-4.38,147.53,123.48,-95.31,3.69,0.22,4.04,18.88,-4.07,161.88,12.46,4
2.31,3.67,22.33,4.81,71.68,109.23,-58.14,-1.07,-0.43,-6.45,-17.85,1.94,94.95,10.92,3
0.9,-4.3,13.16,9.5,26.0,100.0,-61.8,14.5,2.2,-1.2,-6.5,-3.5,109.3,11.2,3
0.57,-3.2,0.01,-1.3,129.11,100.32,-117.5,-0.04,0.06,-0.16,-4.92,-1.86,179.73,14.75,3
-1.7,-8.6,7.91,5.6,42.4,92.02,-67.5,-6.5,0.9,3.3,-4.8,-5.4,96.8,16.9,1
1.78,-3.67,12.4,8.14,39.69,106.23,-51.69,5.92,0.3,-3.46,-12.68,2.68,103.09,10.28,3
-3.2,1.9,11.12,4.3,15.2,102.38,-82.8,17.9,-1.9,3.4,12.3,3.5,129.1,9.5,2
-4.3,10.1,-9.19,4.8,86.2,94.4,-22.8,4.0,1.2,-0.5,-4.3,6.0,163.6,7.2,2
4.9,3.3,8.69,-2.0,21.0,114.88,53.8,7.9,0.2,-0.5,-3.1,-0.5,306.5,5.8,1
0.0,5.3,-1.35,15.8,39.7,104.41,-42.9,15.0,3.1,-2.1,-7.4,4.3,56.5,9.2,1
0.5,-0.6,-13.33,2.5,107.0,99.19,44.8,4.3,1.0,0.8,4.5,-2.0,162.2,8.2,2
2.7,-5.2,-2.11,19.5,75.5,113.12,-59.6,5.4,5.4,-2.5,-13.7,-3.1,77.5,6.5,1
-1.52,-4.84,-13.7,0.26,95.61,105.52,-95.12,-3.92,0.95,5.21,10.82,-9.17,186.59,20.42,3
6.6,0.1,-3.82,10.9,19.0,86.69,28.9,8.8,1.1,-0.2,-1.1,21.4,284.3,4.8,1
-3.9,0.58,12.31,0.52,45.46,103.4,-64.7,-4.03,0.04,1.05,2.84,-1.7,70.51,7.37,4
-4.6,1.8,16.57,0.3,100.6,103.32,-121.3,-0.4,1.1,-4.1,-12.6,8.4,282.6,10.8,3
-8.56,-3.33,-10.22,-4.79,114.59,104.93,-105.29,-0.83,-0.36,2.71,13.34,-0.79,207.23,11.34,4
0.1,6.9,-1.46,-2.6,99.8,103.87,38.1,3.7,1.0,-1.5,-6.3,3.7,185.1,7.0,1
1.8,0.1,-12.48,5.9,63.4,96.09,43.0,2.4,6.0,-1.0,-1.6,7.4,143.6,6.0,1
8.5,4.9,24.47,2.3,45.6,114.74,63.2,4.1,5.9,-0.9,-2.5,7.5,129.0,4.1,1
-1.14,-3.59,-10.55,1.17,118.46,79.27,-130.97,-0.96,0.24,1.38,-0.48,-1.91,262.16,15.45,2
1.19,-4.49,11.39,9.4,27.57,103.13,-55.18,11.69,1.29,-2.01,-8.74,-0.4,107.01,10.34,3
-7.93,1.35,-6.28,-2.33,125.31,124.28,-79.89,2.8,0.39,3.6,15.42,-4.73,108.14,11.17,4
-3.1,-1.7,-20.1,11.6,109.2,99.45,-163.8,-6.5,0.8,6.1,13.6,-0.7,352.8,14.6,4
1.3,-1.12,-11.31,1.53,135.18,102.7,-17.66,2.2,1.69,2.08,7.74,-0.15,116.26,11.97,3
-2.7,-3.2,-19.21,5.1,119.7,124.71,-18.2,4.9,-0.8,1.3,8.0,3.1,121.8,8.2,2
-0.5,-3.0,2.4,4.6,98.3,103.04,-16.6,1.6,0.5,-0.3,-2.1,6.8,145.3,9.9,2
-2.6,-0.8,-12.04,-3.4,104.0,100.54,-162.5,-0.7,0.0,4.8,22.3,-12.0,341.2,11.9,4
-4.46,-0.14,9.77,-0.24,51.56,102.18,-70.64,-3.94,-0.05,1.13,3.78,-1.29,91.85,7.76,4
0.91,0.1,-4.21,2.1,83.95,100.27,-77.71,-5.98,2.85,-0.3,-0.79,-1.43,111.15,16.72,3
-1.63,2.23,-26.51,9.23,61.67,100.99,-3.47,7.45,0.49,0.25,0.62,2.01,147.9,8.27,2
0.2,-6.3,71.33,4.3,67.7,117.61,-167.2,-15.4,0.9,-3.6,-9.0,0.2,250.5,8.4,2
0.8,-0.8,-23.17,-5.8,78.6,89.71,-92.2,7.7,2.5,0.8,1.8,-6.0,102.2,11.1,2
-0.8,-2.2,-14.22,0.5,93.4,103.54,-16.6,4.6,0.9,0.6,1.6,2.1,137.4,9.8,2
-2.17,-11.52,-18.45,-0.93,119.2,79.61,-139.5,-9.68,-1.72,5.73,6.78,-0.51,283.91,15.16,4
1.2,11.0,11.47,7.4,32.6,123.49,-24.8,13.7,2.6,-1.7,-5.9,5.3,70.7,3.0,1
-4.5,-10.8,-1.18,-1.7,86.2,108.74,-10.0,5.1,0.9,-1.1,-4.9,7.2,167.7,4.8,1
2.71,-2.29,-16.12,-2.22,79.32,90.97,-63.39,4.7,2.28,-0.23,-1.46,-2.35,92.7,10.29,2
2.66,0.1,21.15,3.76,78.27,104.64,-66.52,-4.06,0.49,-5.1,-16.78,1.28,98.91,13.74,3
-0.15,-1.08,-15.67,0.74,87.19,102.81,-22.93,3.07,0.45,1.03,3.17,1.06,130.89,9.79,3
2.4,4.2,22.94,4.5,74.7,109.84,-57.9,-2.1,-0.6,-6.8,-18.6,2.3,94.0,10.9,3
1.9,-3.2,-3.29,-2.0,99.3,100.0,-88.9,-1.1,0.0,0.4,-4.6,-2.5,155.8,24.2,2
2.3,-6.4,37.84,9.6,76.7,100.0,-198.4,-18.6,1.0,-3.9,-10.6,-2.3,305.1,11.9,2
2.7,3.9,13.57,6.8,22.3,117.28,-36.8,18.3,2.2,-2.6,-8.9,3.9,95.0,6.3,2
1.92,0.01,11.07,3.55,80.45,102.37,-71.61,-5.4,1.71,-4.53,-18.63,-0.0,103.47,15.27,3
1.5,-2.4,-9.7,1.4,135.3,100.0,-19.3,2.0,0.5,1.3,5.0,-1.4,115.1,12.3,3
0.69,-2.59,-7.37,1.71,119.95,100.0,-16.83,2.12,0.65,0.95,3.18,0.92,125.81,11.53,3
1.3,1.2,1.88,9.4,53.5,94.8,-63.5,2.4,1.6,0.1,-3.7,5.0,79.0,13.8,1
-0.5,2.7,21.45,4.1,37.8,100.0,-54.7,0.6,1.3,0.0,-0.9,0.2,58.0,6.9,1
-2.46,-8.39,-18.98,3.06,116.02,85.93,-147.23,-8.67,-0.92,5.85,8.95,-0.57,305.84,14.98,4
-0.1,-4.3,-15.53,-5.1,104.8,100.38,40.8,4.9,0.0,-0.1,-2.1,14.7,191.0,7.7,2
-4.8,-11.4,15.13,4.8,54.5,108.27,-62.4,4.2,1.9,1.2,8.5,6.6,73.9,9.2,1
0.88,-3.19,-3.87,2.83,117.97,100.11,-12.33,1.84,1.24,0.06,-1.13,2.03,125.05,11.33,3
-8.8,-3.0,-9.92,-4.9,114.4,105.91,-104.1,-0.5,-0.3,2.6,13.6,-0.8,204.6,11.2,4
-4.3,3.4,-2.78,0.6,43.5,99.71,-63.9,5.4,-0.1,2.6,14.4,2.9,69.5,13.3,1
7.5,2.6,-1.5,-4.1,33.9,112.3,64.4,1.6,1.3,-0.6,-1.7,3.5,198.3,5.6,1
-2.28,-8.13,-16.09,-2.37,114.23,86.19,-146.61,-6.62,-1.22,5.38,12.01,-4.6,301.26,14.02,4
-1.18,-4.57,-11.45,0.01,101.1,104.67,-98.79,-3.29,0.8,4.33,8.24,-7.97,185.47,19.49,3
0.09,-2.36,1.61,-0.23,124.32,106.21,-107.07,-1.21,0.78,-1.54,-6.08,-3.29,172.35,14.09,3
0.3,-0.9,-0.15,1.1,17.1,97.38,-73.5,15.3,1.7,2.7,6.5,2.6,130.6,12.2,2
7.25,-4.75,-12.87,3.16,53.61,93.46,41.76,-0.29,-0.57,1.32,1.11,4.41,241.16,7.53,2
-8.37,-2.9,-10.69,-3.65,114.01,105.42,-108.61,-0.95,-0.22,2.86,13.6,-0.79,215.8,11.46,4
-3.5,0.5,14.14,0.8,37.6,101.35,-63.2,-4.7,0.0,0.8,1.6,-1.4,66.8,7.0,4
-3.73,1.18,14.62,0.18,105.9,103.79,-119.45,-0.42,1.03,-3.93,-12.17,6.65,263.17,11.11,3
1.41,-2.81,20.55,5.85,28.24,109.26,-46.22,12.06,2.15,-2.78,-8.58,2.75,91.2,7.53,2
-2.23,-5.54,-24.31,6.74,125.01,119.84,-21.95,2.63,0.76,2.0,9.56,-0.02,123.67,8.98,2
-0.8,-1.3,-14.53,5.6,94.9,101.78,-15.6,4.4,1.1,0.6,1.5,3.2,141.5,10.1,3
-5.5,-0.82,5.07,-1.35,66.54,103.07,-78.61,-3.12,-0.11,1.48,6.12,-1.17,118.72,8.58,4
-4.9,0.2,1.09,11.7,86.8,105.5,0.3,3.7,0.9,-1.4,-7.7,8.8,166.4,5.4,1
8.3,-1.7,-2.87,5.2,37.2,105.09,52.6,1.3,0.9,-0.6,-2.6,3.1,209.0,6.4,1
-7.02,1.17,-2.06,-1.68,107.2,119.54,-76.45,1.25,0.31,3.03,12.57,-4.04,99.61,10.31,4
8.3,-2.0,5.78,4.0,65.3,111.65,56.3,4.9,0.5,-0.6,-0.9,4.5,100.0,4.2,2
