PC_CA-avg_3y,REER-pch_3y,X_GS_share_M-pch_5y,FSL-pch,GD-pc_gdp,HPI-pch,NIIP-pc_gdp,ULC-pch_3y,ACT-pch_3y,LTU-pch_3y,YUR-pch_3y,PSCF-pc_gdp,PSD-pc_gdp,UR-avg_3y,label
0.57,-4.37,1.92,6.13,35.12,104.4,-55.92,9.74,1.01,0.02,-2.04,-3.27,110.26,10.18,3
-0.98,-3.79,-7.7,0.23,105.81,106.58,-98.22,-3.06,0.98,2.47,4.28,-7.14,180.21,17.94,3
2.4,-1.8,-12.5,1.5,82.4,88.31,-1.9,5.8,0.7,0.2,0.4,3.0,129.4,4.9,1
-1.1,-4.0,-9.78,-10.2,178.5,98.32,-137.6,-3.3,0.7,-1.5,-11.0,-2.1,125.1,25.0,4
-1.5,-3.0,-0.36,-13.0,176.2,96.81,-140.7,-1.0,0.9,-3.9,-8.8,-1.0,118.0,23.3,4
1.2,1.7,19.36,16.7,40.6,95.53,-46.8,8.7,2.3,-3.2,-13.3,0.2,54.2,12.0,1
-0.5,-3.0,2.4,4.6,98.3,103.04,-16.6,1.6,0.5,-0.3,-2.1,6.8,145.3,9.9,2
-1.9,-1.0,21.09,1.2,39.2,98.15,-57.1,6.7,1.6,-0.1,0.1,-2.3,62.1,6.9,2
1.3,-4.68,5.69,8.06,32.31,107.4,-47.42,7.55,0.09,-2.23,-8.94,2.28,105.45,9.24,3
2.0,-4.7,-21.72,0.4,81.9,92.57,-3.2,3.8,0.8,0.0,-1.3,1.2,128.2,4.8,1
-3.53,0.46,13.81,0.78,38.58,101.5,-63.63,-4.68,0.0,0.88,1.83,-1.43,67.33,7.09,4
1.12,1.71,5.14,3.29,32.92,120.14,-38.12,13.65,0.58,-0.71,-2.67,2.41,102.85,6.65,2
-2.47,0.95,5.81,2.56,25.12,109.16,-69.18,14.67,-1.77,2.86,10.08,2.55,123.97,8.74,2
1.2,5.3,8.56,23.0,34.7,116.3,-25.0,5.9,2.4,-1.7,-8.0,4.2,67.3,4.0,1
-2.6,-0.5,7.39,4.3,39.8,98.89,-45.2,3.4,0.8,0.5,8.2,2.1,68.3,6.9,1
-0.81,-3.24,-11.53,-4.0,113.67,101.63,-109.4,-3.77,0.26,4.06,8.92,-8.62,189.44,18.12,3
1.7,0.7,-18.42,-3.2,81.3,95.34,1.3,6.4,1.1,0.1,0.2,1.0,127.1,5.0,1
2.44,3.79,22.97,4.44,75.01,109.36,-58.67,-2.28,-0.51,-6.67,-18.55,2.22,94.39,11.16,3
0.3,-1.2,4.06,10.4,51.9,100.0,-63.9,2.7,1.5,-1.8,-7.5,5.1,80.6,13.0,1
-4.04,-0.41,13.47,2.25,37.38,102.41,-64.8,-0.53,0.62,0.8,1.67,-0.78,68.72,7.0,4
-3.5,0.5,14.14,0.8,37.6,101.35,-63.2,-4.7,0.0,0.8,1.6,-1.4,66.8,7.0,4
3.79,0.61,-7.44,-2.51,81.8,99.51,-33.71,-0.03,1.12,0.85,-1.23,-4.9,91.06,9.6,2
0.8,0.1,-5.77,2.0,84.3,100.0,-78.4,-6.1,3.0,0.0,0.2,-1.6,111.9,16.9,3
-6.35,1.04,1.02,-1.21,93.96,116.08,-73.93,0.12,0.25,2.6,10.48,-3.54,93.36,9.68,4
0.4,-7.1,58.59,1.5,73.8,107.17,-171.7,-17.7,0.9,-3.8,-9.9,-15.7,284.4,10.1,2
-0.1,-4.3,-15.53,-5.1,104.8,100.38,40.8,4.9,0.0,-0.1,-2.1,14.7,191.0,7.7,2
-2.4,-5.38,-14.57,-2.76,110.38,91.59,-152.59,-4.39,-0.76,5.16,15.88,-7.38,316.28,13.22,4
-5.79,-2.99,-0.46,2.52,77.57,109.5,-83.58,3.79,1.17,4.04,11.0,-1.35,92.12,10.77,4
-4.9,0.2,1.09,11.7,86.8,105.5,0.3,3.7,0.9,-1.4,-7.7,8.8,166.4,5.4,1
-2.43,-8.71,-18.93,2.65,116.34,85.28,-146.44,-8.77,-1.0,5.83,8.73,-0.57,303.6,15.0,4
-0.9,-1.1,-5.63,-1.2,46.5,123.79,-39.8,7.7,-1.5,1.7,5.3,0.5,112.9,7.1,2
6.9,-2.5,-17.81,1.8,44.0,90.99,37.2,1.5,-1.4,0.4,-0.8,-3.0,216.1,7.7,1
-2.31,-9.95,-18.72,1.07,117.61,82.78,-143.37,-9.17,-1.32,5.79,7.87,-0.54,294.9,15.07,4
0.46,0.17,-16.95,-0.43,134.55,105.73,-21.67,2.69,1.68,3.25,13.09,-1.06,119.57,11.46,3
-7.29,-4.86,-24.42,-1.77,153.76,119.31,-113.6,-1.87,0.18,10.13,28.28,-4.46,129.72,17.86,4
-1.86,-4.93,-16.42,-0.16,91.29,105.99,-92.64,-4.78,1.03,6.22,14.05,-10.73,188.67,21.29,3
-6.34,1.04,1.06,-1.21,93.8,116.04,-73.9,0.11,0.25,2.6,10.46,-3.53,93.29,9.67,4
-1.4,-3.1,-9.77,11.4,44.9,94.54,-41.4,4.2,2.7,0.0,0.7,4.4,73.7,6.9,1
5.1,-1.5,33.28,5.2,20.1,105.68,54.6,1.2,0.1,0.4,3.4,-9.6,309.0,6.3,1
-2.8,6.0,-21.25,-3.6,83.2,88.06,-28.1,3.0,0.4,0.8,2.1,1.5,176.1,7.9,2
5.0,-2.0,17.79,5.3,74.1,110.33,-24.2,3.7,3.3,-2.2,-9.0,0.9,76.3,7.9,1
-0.8,-1.31,-14.46,5.58,94.9,101.77,-15.58,4.39,1.1,0.6,1.49,3.21,141.51,10.1,3
2.1,7.7,0.75,6.9,8.4,108.14,-27.7,14.3,2.4,-1.1,-1.3,3.7,101.5,6.0,1
6.6,0.1,-3.82,10.9,19.0,86.69,28.9,8.8,1.1,-0.2,-1.1,21.4,284.3,4.8,1
-2.69,-3.24,-19.3,5.13,119.79,124.62,-18.27,4.86,-0.77,1.31,8.03,3.04,121.83,8.21,2
-3.1,-1.7,-20.08,11.56,109.19,99.45,-163.8,-6.48,0.8,6.1,13.62,-0.73,352.77,14.59,4
-1.55,-2.6,-16.2,2.33,103.85,111.95,-17.24,4.72,0.22,0.88,4.14,2.5,131.2,9.16,2
4.1,0.3,-4.61,-3.8,82.6,100.0,-31.2,-0.1,1.4,0.4,-4.3,-5.0,87.4,9.6,2
-2.7,-3.2,-19.21,5.1,119.7,124.71,-18.2,4.9,-0.8,1.3,8.0,3.1,121.8,8.2,2
-0.7,-4.4,-15.44,6.9,87.8,108.38,-8.7,5.4,0.4,1.0,3.7,6.4,135.3,9.2,2
-3.28,-1.95,-1.43,0.51,93.05,105.24,-104.19,-2.83,1.15,1.6,2.08,-1.95,232.89,16.72,3
-0.72,-1.92,-10.32,4.28,95.17,101.09,-14.55,3.59,1.02,0.52,1.03,3.74,142.0,10.18,3
7.0,-2.4,-8.35,10.3,61.7,114.09,20.1,5.3,0.3,0.4,1.4,8.2,247.2,4.8,1
0.0,5.3,-1.35,15.8,39.7,104.41,-42.9,15.0,3.1,-2.1,-7.4,4.3,56.5,9.2,1
1.3,-1.0,-11.49,0.0,100.7,96.46,-95.9,-3.6,0.3,4.0,7.0,-6.6,168.1,25.1,2
-0.2,-0.3,-10.28,-10.3,95.8,96.28,-92.8,-5.1,0.8,5.7,14.0,-10.0,178.2,24.1,2
-0.87,-3.65,-6.79,0.18,107.62,106.54,-99.09,-2.88,0.96,2.08,3.27,-6.77,179.44,17.57,3
-3.68,0.25,12.31,0.67,43.11,102.2,-65.58,-4.59,0.0,1.24,2.87,-1.55,69.77,7.52,4
-5.83,-7.14,-23.91,-2.01,147.82,107.65,-122.4,-4.56,-0.49,9.15,22.69,-3.45,176.08,17.45,4
2.38,0.06,17.5,3.73,79.05,103.76,-68.43,-4.61,0.97,-5.04,-18.35,0.79,100.53,14.33,3
1.96,1.7,20.06,5.97,60.38,106.95,-59.05,2.78,0.22,-5.15,-15.04,0.59,98.5,10.99,3
2.8,0.1,23.24,3.9,77.8,105.0,-65.6,-3.9,0.3,-5.5,-18.1,1.5,97.9,13.5,3
0.67,-4.35,5.24,7.12,32.43,103.1,-57.65,11.15,1.36,-0.34,-3.36,-3.34,109.98,10.48,3
-2.1,-5.3,-17.51,0.7,86.3,106.96,-88.9,-5.0,1.2,6.7,15.2,-11.2,188.5,22.0,3
1.0,-1.7,-13.57,2.7,105.2,100.0,45.2,0.5,0.7,1.0,2.3,12.1,176.1,8.5,1
-2.87,5.66,-19.99,-4.14,83.33,88.15,-26.75,3.12,0.48,0.72,1.93,2.17,175.33,7.89,2
1.9,-0.8,24.41,-0.2,6.1,74.59,-54.0,-2.2,0.5,5.4,10.4,-0.8,118.9,14.2,1
0.9,-4.3,13.16,9.5,26.0,100.0,-61.8,14.5,2.2,-1.2,-6.5,-3.5,109.3,11.2,3
4.1,-2.9,22.52,3.9,55.5,104.82,35.4,-1.5,4.3,-1.1,-2.0,15.2,136.1,5.3,1
-2.34,0.07,5.09,-3.35,116.12,100.71,-122.5,-1.6,0.38,-1.07,-4.39,1.1,238.17,13.01,3
-1.1,-3.11,-16.84,2.02,100.92,106.93,-18.05,4.01,0.97,0.96,3.51,1.42,134.4,9.66,2
-2.66,-5.81,-0.78,-0.41,89.82,105.2,-106.31,-4.58,0.46,2.12,2.93,-2.91,241.99,17.83,3
-0.7,2.1,-4.08,1.4,54.7,93.4,-62.2,2.6,1.2,0.8,0.1,5.0,75.2,13.9,1
-2.62,1.77,-12.45,-7.15,88.55,91.18,-5.42,4.11,0.79,0.14,0.19,8.31,174.59,7.78,2
2.7,3.9,13.57,6.8,22.3,117.28,-36.8,18.3,2.2,-2.6,-8.9,3.9,95.0,6.3,2
-0.74,-1.78,-11.27,4.58,95.11,101.24,-14.79,3.77,1.04,0.54,1.14,3.62,141.89,10.16,3
-3.3,-6.4,18.62,-1.7,93.9,103.15,-126.5,-4.1,-0.4,-3.2,-11.3,6.7,304.0,13.0,3
-5.91,-2.9,-10.86,-0.99,113.09,112.93,-95.81,-3.21,0.06,6.86,18.93,-3.44,107.52,14.05,4
1.1,0.9,1.08,1.4,101.7,102.86,56.8,0.9,0.3,-0.8,-3.9,0.4,185.4,7.8,1
2.3,-3.3,20.41,7.1,25.3,112.23,-43.3,13.5,2.3,-3.5,-10.9,4.1,99.0,7.7,2
0.5,-0.6,-13.33,2.5,107.0,99.19,44.8,4.3,1.0,0.8,4.5,-2.0,162.2,8.2,2
-1.2,-1.6,7.31,8.6,52.0,107.04,-66.8,4.1,2.0,-4.2,-11.5,9.2,88.5,11.5,1
-2.3,-7.55,-15.77,-2.45,113.41,87.34,-147.88,-6.14,-1.12,5.33,12.83,-5.19,304.45,13.85,4
-2.83,-1.22,-15.81,3.61,106.43,100.03,-163.11,-3.41,0.37,5.41,18.23,-6.72,346.62,13.16,4
-2.6,-0.8,-12.04,-3.4,104.0,100.54,-162.5,-0.7,0.0,4.8,22.3,-12.0,341.2,11.9,4
1.8,0.0,9.47,3.5,80.8,102.02,-72.4,-5.6,1.9,-4.4,-18.7,-0.2,104.2,15.5,3
-4.5,-10.8,-1.18,-1.7,86.2,108.74,-10.0,5.1,0.9,-1.1,-4.9,7.2,167.7,4.8,1
-2.69,5.71,-21.39,-3.22,81.72,88.96,-25.62,3.02,0.42,0.79,2.2,1.91,174.29,7.97,2
-1.5,-4.5,-12.3,0.45,96.66,106.76,-93.85,-3.97,1.09,4.45,9.4,-9.05,184.1,19.85,3
0.5,-1.8,5.22,-0.4,131.5,106.07,-110.5,-0.5,0.7,-3.1,-10.1,-1.8,169.3,12.6,3
-2.58,-1.35,-12.34,-3.32,104.76,99.47,-161.32,-1.14,-0.09,4.84,21.53,-11.45,338.22,12.06,4
-4.8,1.4,1.39,10.7,54.1,101.13,-65.3,5.3,1.8,1.6,5.9,4.8,73.4,9.8,1
-1.53,-0.64,-2.77,0.06,93.1,97.75,-17.04,2.45,0.68,-0.12,-1.03,6.73,154.48,9.13,2
0.9,0.2,-15.53,0.5,135.4,104.16,-21.0,2.6,1.8,3.4,13.5,-0.3,118.9,11.9,3
-1.9,-5.6,-19.39,-8.5,178.9,103.46,-131.9,-10.4,0.1,10.7,7.7,-3.0,130.8,26.2,4
-0.8,-2.2,-14.22,0.5,93.4,103.54,-16.6,4.6,0.9,0.6,1.6,2.1,137.4,9.8,2
3.2,1.2,-12.73,-0.1,80.3,98.6,-38.4,0.1,0.6,1.7,4.5,-4.7,97.9,9.6,2
-0.89,-3.38,-11.92,-3.69,111.85,101.99,-108.04,-3.85,0.32,4.23,9.33,-8.79,189.38,18.38,3
-2.1,-6.2,-25.74,7.2,126.5,118.47,-23.0,2.0,1.2,2.2,10.0,-0.9,124.2,9.2,2
-5.38,-3.45,-23.36,4.34,135.91,110.37,-138.42,-4.27,0.43,8.48,22.08,-2.82,236.11,16.61,4
-0.8,-1.3,-14.53,5.6,94.9,101.78,-15.6,4.4,1.1,0.6,1.5,3.2,141.5,10.1,3
0.6,0.18,-16.52,-0.15,134.81,105.25,-21.47,2.66,1.72,3.3,13.22,-0.83,119.37,11.6,3
-7.4,-5.0,-26.26,-2.1,159.6,120.06,-115.9,-2.3,0.1,10.6,29.6,-4.7,132.6,18.4,4
0.54,-3.12,-3.83,2.68,112.73,100.08,-12.46,1.95,1.16,0.14,-0.79,2.63,129.21,11.09,3
-2.7,-5.85,0.46,-0.49,90.08,105.06,-107.6,-4.55,0.4,1.78,2.02,-2.3,245.95,17.52,3
2.3,0.9,-2.83,-2.8,82.9,107.03,4.1,5.4,0.7,0.6,1.5,3.4,123.5,5.8,1
-1.33,-8.1,-19.56,1.54,57.68,101.13,13.19,6.63,1.44,0.4,-1.98,5.09,151.89,7.57,2
-4.9,-8.39,-22.53,-1.96,140.89,100.34,-126.22,-5.88,-0.84,8.29,18.62,-2.72,201.66,16.89,4
-0.8,-1.2,-0.62,0.0,68.4,94.11,27.0,9.5,5.9,-0.6,-0.5,2.3,152.9,6.2,1
-5.08,-1.95,11.88,4.67,38.93,104.73,-67.9,6.8,1.68,0.86,2.1,0.2,72.93,7.09,4
-2.93,-1.39,-17.3,6.38,107.39,99.83,-163.35,-4.48,0.52,5.65,16.63,-4.63,348.76,13.66,4
-5.15,-1.83,-3.0,-0.43,89.35,109.29,-85.56,-3.68,0.04,4.96,13.48,-2.8,94.71,11.84,4
-3.59,0.35,14.03,1.03,37.56,101.52,-63.46,-4.03,0.1,0.8,1.61,-1.3,67.11,7.0,4
2.46,0.1,18.34,3.58,78.9,104.16,-67.76,-4.27,0.76,-4.57,-15.01,0.98,100.27,14.07,3
-10.3,1.8,-17.17,-4.0,172.1,136.51,-88.8,6.8,0.6,5.1,22.8,-6.5,130.2,13.4,4
-2.17,-11.52,-18.45,-0.93,119.2,79.61,-139.5,-9.68,-1.72,5.73,6.78,-0.51,283.91,15.16,4
-2.5,-6.78,9.19,7.88,72.4,95.92,22.56,8.18,4.09,0.89,-0.09,-0.15,162.29,6.7,2
0.65,-0.02,-15.38,1.25,129.44,103.81,-20.21,2.86,1.7,2.99,11.73,0.22,122.23,11.64,3
-5.44,-2.55,5.29,3.55,59.29,107.14,-76.38,5.15,1.41,2.58,6.85,-0.61,83.1,9.07,4
-0.7,-8.3,-32.36,-1.3,53.6,103.4,10.6,5.8,0.2,0.2,-2.5,7.1,147.7,8.0,2
-4.5,-4.4,-26.64,-17.4,177.4,109.02,-130.4,-10.0,-0.3,12.8,25.3,-4.0,132.3,23.3,4
-1.7,-8.6,7.91,5.6,42.4,92.02,-67.5,-6.5,0.9,3.3,-4.8,-5.4,96.8,16.9,1
1.5,-4.7,9.44,9.3,29.3,106.56,-47.9,8.6,0.3,-2.9,-11.2,3.0,104.5,9.4,3
-2.71,-1.0,-13.82,-0.1,105.15,100.3,-162.79,-1.98,0.18,5.09,20.38,-9.51,343.76,12.49,4
4.0,-9.2,-7.55,9.1,42.2,107.3,-1.9,3.1,1.0,-0.1,-4.6,8.4,192.5,7.5,2
-1.23,0.32,4.77,2.5,16.27,99.56,-77.56,16.43,0.13,3.01,9.03,2.99,129.95,11.02,2
4.9,3.3,8.69,-2.0,21.0,114.88,53.8,7.9,0.2,-0.5,-3.1,-0.5,306.5,5.8,1
-4.8,-11.4,15.13,4.8,54.5,108.27,-62.4,4.2,1.9,1.2,8.5,6.6,73.9,9.2,1
0.2,-6.3,71.33,4.3,67.7,117.61,-167.2,-15.4,0.9,-3.6,-9.0,0.2,250.5,8.4,2
0.95,0.02,-14.96,0.64,135.37,103.96,-20.55,2.55,1.79,3.22,12.73,-0.28,118.55,11.91,3
2.6,-2.6,9.87,3.2,98.6,109.18,-85.5,-0.5,-0.3,-5.2,-14.6,0.6,139.6,19.6,2
-3.36,-6.0,18.52,-1.6,94.23,103.16,-126.25,-3.92,-0.33,-3.24,-11.36,6.78,302.96,12.89,3
-2.4,0.5,-4.48,5.2,44.5,95.34,-45.9,3.8,1.5,1.0,2.9,2.9,70.7,7.0,1
1.9,-3.2,-3.29,-2.0,99.3,100.0,-88.9,-1.1,0.0,0.4,-4.6,-2.5,155.8,24.2,2
0.0,-8.2,-2.16,8.1,40.0,100.0,-32.9,0.1,2.4,-0.6,-6.9,0.3,68.1,6.1,1
0.6,4.9,8.63,-3.0,37.2,120.83,-49.1,15.1,2.0,-1.4,-4.1,-0.2,70.5,8.6,1
-4.05,-2.43,-21.45,8.59,120.28,103.98,-153.27,-5.58,0.65,7.09,17.12,-1.58,304.39,15.44,4
-6.6,-4.0,-13.36,0.21,118.59,114.78,-99.74,0.74,0.64,7.32,20.3,-3.03,112.36,14.59,4
0.1,-2.33,1.75,-0.23,124.6,106.21,-107.2,-1.19,0.78,-1.6,-6.24,-3.23,172.23,14.03,3
-2.59,-7.01,-19.21,4.83,114.61,88.72,-150.66,-8.22,-0.56,5.9,9.91,-0.6,315.55,14.9,4
-7.0,-0.57,1.2,1.48,87.91,116.42,-75.59,6.8,1.29,2.42,9.71,-2.26,93.99,9.41,4
-1.2,-2.6,-4.91,-4.0,61.3,101.04,0.1,-3.6,1.3,0.2,-0.4,7.0,146.0,8.9,1
2.47,-0.19,17.46,6.97,24.0,114.41,-40.49,15.57,2.26,-3.11,-10.04,4.01,97.27,7.1,2
0.25,-1.8,-2.53,-4.66,132.36,101.02,-118.72,-1.98,0.02,0.17,-1.08,-4.89,182.15,14.33,3
-0.71,-0.68,-17.13,1.93,111.53,105.21,-19.01,3.74,1.23,1.62,6.19,0.5,132.52,10.23,3
7.6,-2.3,-2.96,6.7,61.9,104.44,61.4,-0.3,0.3,0.0,-2.4,3.9,259.3,6.8,2
-5.6,-5.0,17.63,10.4,70.2,95.07,6.3,11.1,2.7,1.3,1.6,6.8,168.3,6.7,1
2.04,1.71,14.94,3.91,78.32,105.2,-66.51,-4.18,0.88,-5.37,-18.66,0.82,100.06,13.63,3
-3.4,-4.3,-0.26,7.4,56.0,96.32,-68.9,3.1,1.7,1.4,3.6,3.3,75.4,10.0,1
-0.6,4.8,10.22,4.7,40.9,107.36,-59.0,16.7,2.3,-1.7,-5.9,2.3,80.5,10.1,1
2.7,-5.2,-2.11,19.5,75.5,113.12,-59.6,5.4,5.4,-2.5,-13.7,-3.1,77.5,6.5,1
2.0,-3.4,-4.02,3.3,134.8,100.19,-11.9,1.5,1.5,-0.2,-2.2,0.1,111.7,12.1,3
-5.0,-2.0,12.3,4.8,37.0,104.27,-67.6,6.8,1.7,0.8,1.8,0.3,72.1,7.0,4
2.2,4.8,3.92,1.7,74.0,113.27,3.7,4.7,1.3,-0.3,-1.2,3.9,121.0,5.5,1
-3.55,0.42,13.59,0.76,39.27,101.61,-63.92,-4.67,0.0,0.93,1.98,-1.45,67.7,7.16,4
-1.6,-5.6,38.33,8.2,35.1,108.6,-47.4,15.4,1.6,-0.8,-5.7,1.7,50.9,5.9,1
1.56,-1.32,-7.26,0.63,100.28,98.98,-93.84,-2.99,0.18,2.18,2.73,-5.18,162.46,24.01,2
8.3,-1.7,-2.87,5.2,37.2,105.09,52.6,1.3,0.9,-0.6,-2.6,3.1,209.0,6.4,1
0.8,-0.8,-23.17,-5.8,78.6,89.71,-92.2,7.7,2.5,0.8,1.8,-6.0,102.2,11.1,2
-0.04,-4.49,-18.91,-0.12,52.02,112.55,-45.02,0.92,-1.19,2.29,6.23,-2.84,112.03,8.28,3
-4.6,1.8,16.57,0.3,100.6,103.32,-121.3,-0.4,1.1,-4.1,-12.6,8.4,282.6,10.8,3
-3.1,-1.7,-20.1,11.6,109.2,99.45,-163.8,-6.5,0.8,6.1,13.6,-0.7,352.8,14.6,4
9.9,3.2,1.68,-3.3,52.4,118.9,70.7,3.0,0.7,-1.6,-4.1,4.5,241.6,4.9,2
8.3,-2.0,5.78,4.0,65.3,111.65,56.3,4.9,0.5,-0.6,-0.9,4.5,100.0,4.2,2
-3.5,-2.5,-8.31,3.4,69.9,128.08,-93.8,-1.4,1.2,6.9,21.7,-4.2,198.2,19.7,2
-2.86,-1.27,-16.21,4.36,106.69,99.98,-163.17,-3.7,0.41,5.47,17.8,-6.15,347.2,13.3,4
-5.02,-8.24,-22.7,-1.97,141.74,101.24,-125.75,-5.72,-0.8,8.4,19.12,-2.81,198.51,16.96,4
-4.88,-3.06,-22.65,5.94,130.03,107.97,-144.0,-4.76,0.51,7.96,20.21,-2.35,261.78,16.17,4
0.63,-0.97,0.4,0.65,110.81,103.41,-96.43,-2.95,1.71,-1.74,-5.59,-1.71,144.14,14.48,3
1.12,-2.49,10.77,4.03,33.15,116.51,-42.0,11.35,0.89,-1.57,-4.9,2.77,104.15,7.48,2
-0.75,-3.29,-14.83,3.68,90.62,105.95,-12.67,5.0,0.65,0.8,2.64,4.24,136.36,9.5,2
-3.0,-2.7,-19.93,10.32,110.22,97.43,-161.33,-6.82,0.54,6.06,12.91,-0.68,345.79,14.66,4
-0.1,-4.5,-20.85,-0.7,53.6,113.31,-44.0,0.1,-1.4,2.5,7.0,-2.8,112.2,8.1,3
-4.11,-0.51,13.4,2.41,37.36,102.53,-64.98,-0.06,0.69,0.8,1.68,-0.71,68.94,7.0,4
1.7,-3.34,-3.98,3.17,130.33,100.17,-12.01,1.59,1.43,-0.13,-1.91,0.61,115.25,11.89,3
7.9,-2.1,1.07,4.7,35.8,108.5,55.4,1.6,1.3,-0.5,-1.8,1.4,202.7,6.0,1
1.9,-3.8,-22.85,-1.3,77.4,85.69,-82.2,7.5,2.8,-0.6,0.2,-0.8,95.8,10.7,2
-2.56,-1.66,-12.52,-3.28,105.2,98.85,-160.63,-1.4,-0.14,4.87,21.09,-11.13,336.51,12.15,4
-2.48,-3.56,-13.57,-3.01,107.85,95.13,-156.51,-2.93,-0.46,5.02,18.42,-9.21,326.14,12.7,4
1.28,-4.55,10.83,9.37,28.06,104.1,-53.1,10.81,1.01,-2.26,-9.44,0.57,106.3,10.07,3
-2.1,-12.2,-18.34,-1.8,119.9,78.23,-137.8,-9.9,-1.9,5.7,6.3,-0.5,279.1,15.2,4
6.5,-7.8,-17.73,2.5,44.9,88.28,36.1,-0.2,-1.5,1.5,2.3,7.9,224.0,7.8,2
2.1,-6.8,-16.82,8.7,76.8,88.33,-80.4,6.2,4.6,-1.5,-5.6,-0.2,91.7,9.6,2
5.7,0.8,8.2,10.3,23.7,91.43,58.9,7.6,1.7,0.5,1.3,27.8,313.3,5.3,1
-2.9,-7.6,12.18,8.6,67.8,95.49,19.6,8.7,4.5,0.9,-0.7,0.1,162.3,6.5,2
-0.1,6.4,3.49,8.2,33.8,114.86,-31.0,16.5,3.2,-1.9,-5.2,4.3,56.4,7.1,1
-0.6,-2.9,-3.68,2.2,95.6,100.0,-12.9,2.3,0.9,0.4,0.3,4.6,142.8,10.3,3
5.9,-4.9,-9.35,3.1,79.8,90.5,23.3,5.6,1.4,-1.1,-2.1,2.0,102.4,6.9,1
-0.18,-2.72,-0.72,-0.11,119.68,106.3,-104.85,-1.68,0.83,-0.54,-3.48,-4.26,174.32,15.06,3
3.1,0.0,10.82,-7.6,72.9,123.6,-55.1,9.1,4.2,-2.0,-9.7,0.7,70.8,5.4,1
-6.38,-1.01,4.61,2.5,72.25,112.68,-73.13,6.8,1.41,1.92,7.28,-1.47,87.26,8.67,4
-1.4,2.1,-23.06,1.4,63.6,100.0,4.8,3.3,0.6,0.7,3.4,6.9,152.1,8.8,2
-5.51,-7.57,-23.43,-1.99,145.43,105.13,-123.71,-5.01,-0.61,8.85,21.29,-3.2,184.87,17.26,4
2.0,1.3,-9.15,-0.1,84.9,100.0,2.2,6.4,0.4,0.5,1.2,2.1,124.0,5.6,1
5.7,2.0,19.55,4.1,70.4,118.37,-18.9,6.1,3.2,-2.5,-7.5,1.3,72.8,6.6,1
8.4,-1.8,1.52,-0.1,56.9,110.77,59.4,-0.1,0.7,-1.0,-3.8,3.7,249.1,5.9,2
-0.07,-4.5,-20.3,-0.52,53.16,113.19,-44.07,0.25,-1.37,2.4,6.67,-2.7,112.06,8.12,3
0.75,-4.33,8.06,7.97,30.14,101.99,-59.13,12.34,1.66,-0.65,-4.48,-3.4,109.73,10.74,3
-3.73,0.12,13.86,1.4,37.51,101.79,-63.86,-2.97,0.26,0.8,1.63,-1.14,67.6,7.0,4
7.0,-0.4,-9.51,4.6,75.7,96.0,40.8,7.4,0.4,-0.6,-0.8,-0.3,98.4,5.2,2
-5.88,-3.11,-1.91,2.26,82.19,110.09,-85.4,3.45,1.11,4.41,12.05,-1.54,94.4,11.2,4
-0.7,-2.6,24.74,7.0,37.3,105.17,-49.1,9.5,0.7,-0.2,-3.1,0.6,53.7,6.5,1
-3.2,1.9,11.12,4.3,15.2,102.38,-82.8,17.9,-1.9,3.4,12.3,3.5,129.1,9.5,2
-3.3,3.4,-11.62,-7.7,84.2,88.71,-17.8,3.9,1.0,0.2,0.8,6.6,170.2,7.8,2
-7.31,-4.88,-24.74,-1.83,154.75,119.44,-113.99,-1.94,0.16,10.21,28.5,-4.5,130.21,17.95,4
1.96,-3.28,-4.41,3.2,134.82,100.33,-12.21,1.54,1.51,-0.08,-1.66,0.09,111.95,12.09,3
2.87,-4.07,-12.12,3.89,79.03,92.82,-61.48,3.78,3.37,-0.77,-5.1,-2.05,90.05,9.6,2
-2.8,-0.7,24.04,3.3,34.7,109.99,-43.7,29.6,1.7,-1.2,-5.5,1.9,47.4,5.0,1
8.2,-0.9,-6.74,4.0,64.6,100.0,48.9,-0.4,0.6,1.1,-0.4,0.0,262.8,7.2,2
9.5,0.7,-11.35,8.0,67.8,96.7,48.0,3.7,0.9,1.3,2.7,4.3,267.2,6.8,2
-3.52,0.47,13.88,0.78,38.37,101.47,-63.53,-4.68,0.0,0.86,1.78,-1.42,67.22,7.07,4
5.7,-2.5,23.98,6.5,50.3,109.26,64.0,1.5,4.4,-0.9,-1.1,5.5,132.1,4.7,1
0.3,-0.9,-0.15,1.1,17.1,97.38,-73.5,15.3,1.7,2.7,6.5,2.6,130.6,12.2,2
7.12,-5.28,-13.72,3.05,52.09,92.56,40.77,-0.27,-0.73,1.35,1.31,5.02,238.16,7.58,2
2.35,4.08,22.09,4.43,74.98,109.55,-58.51,-2.22,-0.49,-6.6,-18.04,2.18,94.53,11.08,3
-0.69,-2.16,-8.72,3.78,95.28,100.83,-14.15,3.27,0.99,0.49,0.86,3.95,142.2,10.21,3
6.1,-2.4,-5.55,15.1,22.0,88.54,58.4,5.9,0.7,0.4,1.6,25.9,303.7,4.8,1
5.6,10.3,-19.51,5.6,37.6,78.78,-15.5,4.1,1.4,0.4,-1.4,2.4,190.5,8.1,2
0.7,-2.8,-23.52,28.7,48.3,103.81,13.9,9.0,-1.1,0.5,3.6,5.3,144.6,8.1,2
2.3,2.3,77.37,5.1,63.5,127.42,-165.0,-2.8,0.8,-3.2,-6.4,-7.8,223.2,7.0,2
1.99,3.16,15.65,3.87,77.14,107.34,-63.11,-3.12,0.31,-5.07,-13.83,1.31,98.55,12.42,3
0.9,-0.4,-5.01,2.4,104.9,101.19,54.5,-0.9,0.1,0.1,-3.6,23.8,194.9,8.3,1
-4.7,-1.51,12.66,4.01,37.12,103.7,-66.73,4.54,1.37,0.8,1.76,-0.03,71.06,7.0,4
7.9,5.3,3.49,2.0,61.9,117.37,62.5,5.6,1.0,-0.6,-1.0,6.5,102.1,3.8,2
-0.5,2.7,21.45,4.1,37.8,100.0,-54.7,0.6,1.3,0.0,-0.9,0.2,58.0,6.9,1
-5.95,-2.95,-11.19,-1.02,114.1,113.08,-96.25,-3.2,0.06,6.95,19.16,-3.47,108.06,14.15,4
7.7,-1.2,-15.87,7.3,44.3,93.85,43.3,2.3,-1.2,-0.1,-2.2,-0.3,214.0,7.4,1
2.4,4.2,22.94,4.5,74.7,109.84,-57.9,-2.1,-0.6,-6.8,-18.6,2.3,94.0,10.9,3
-4.36,0.32,16.94,-0.06,99.39,103.29,-122.24,-1.07,0.83,-3.94,-12.36,8.09,286.47,11.2,3
-2.9,0.4,11.98,11.4,41.6,102.42,-67.1,16.0,1.8,-4.2,-11.4,-4.4,82.2,12.6,1
0.1,-1.8,-7.32,-7.3,132.9,97.89,-123.8,-2.9,-0.4,2.2,4.5,-6.8,190.1,15.4,3
0.4,-3.6,6.93,10.9,9.8,76.91,-50.7,0.1,0.8,1.8,-6.5,7.6,117.2,13.0,1
1.31,-4.68,5.82,8.11,32.2,107.37,-47.43,7.59,0.1,-2.26,-9.03,2.31,105.42,9.24,3
1.79,-3.36,-3.99,3.21,131.59,100.17,-11.98,1.57,1.45,-0.15,-2.0,0.47,114.24,11.95,3
-2.9,-3.2,-10.3,1.1,51.8,93.79,-60.6,-0.3,1.0,2.9,6.7,1.9,71.1,14.0,1
0.12,-1.8,-6.64,-6.93,132.82,98.33,-123.08,-2.77,-0.34,1.91,3.71,-6.53,188.98,15.25,3
-5.34,-3.42,-23.31,4.45,135.5,110.2,-138.81,-4.31,0.43,8.45,21.95,-2.79,237.92,16.58,4
-0.5,1.7,26.02,2.0,37.2,92.5,-53.6,-7.8,3.0,6.7,19.3,-1.8,68.8,15.7,1
1.81,2.7,12.42,3.58,78.22,106.24,-65.41,-3.57,0.72,-4.31,-11.71,0.87,100.56,13.1,3
-0.75,-7.6,-31.74,-1.12,54.27,103.17,10.21,5.63,0.23,0.23,-2.11,7.09,147.99,8.05,2
-1.3,-1.33,20.99,2.05,37.2,100.17,-55.12,7.68,1.7,-0.59,-1.48,-1.38,67.4,7.02,2
-0.6,0.1,-20.41,-2.7,132.5,109.54,-23.3,2.9,1.4,2.9,12.1,-2.9,121.2,10.4,3
-4.43,-1.05,13.0,3.28,37.23,103.16,-65.92,2.42,1.05,0.8,1.72,-0.35,70.08,7.0,4
1.2,11.0,11.47,7.4,32.6,123.49,-24.8,13.7,2.6,-1.7,-5.9,5.3,70.7,3.0,1
-2.0,2.5,13.52,13.2,37.3,100.0,-64.1,17.2,1.3,-3.3,-12.2,-0.5,80.4,10.9,1
-4.23,-2.22,-16.86,-2.96,122.86,107.16,-146.7,-1.24,0.03,6.77,24.78,-9.52,270.46,14.1,4
5.4,0.5,16.34,37.8,22.7,94.98,59.3,7.1,2.9,0.2,5.8,28.7,324.9,5.6,1
