PC_CA-avg_3y,REER-pch_3y,X_GS_share_M-pch_5y,FSL-pch,GD-pc_gdp,HPI-pch,NIIP-pc_gdp,ULC-pch_3y,ACT-pch_3y,LTU-pch_3y,YUR-pch_3y,PSCF-pc_gdp,PSD-pc_gdp,UR-avg_3y,label
-2.41,-5.1,-14.41,-2.8,109.99,92.13,-153.19,-4.17,-0.72,5.14,16.27,-7.67,317.8,13.14,4
5.1,-1.5,33.28,5.2,20.1,105.68,54.6,1.2,0.1,0.4,3.4,-9.6,309.0,6.3,1
2.1,-6.8,-16.82,8.7,76.8,88.33,-80.4,6.2,4.6,-1.5,-5.6,-0.2,91.7,9.6,2
-2.12,-11.8,-18.12,-1.86,119.34,79.02,-138.67,-9.57,-1.83,5.67,6.87,-0.91,281.29,15.08,4
-6.0,-6.84,-13.44,-3.6,116.7,94.34,-118.18,-4.43,-0.97,3.9,10.55,-0.67,235.73,12.87,4
-2.9,-7.6,12.18,8.6,67.8,95.49,19.6,8.7,4.5,0.9,-0.7,0.1,162.3,6.5,2
0.7,-3.1,0.87,-1.4,131.2,100.0,-118.9,0.2,0.0,-0.5,-5.9,-1.4,179.3,14.4,3
7.5,2.6,-1.5,-4.1,33.9,112.3,64.4,1.6,1.3,-0.6,-1.7,3.5,198.3,5.6,1
7.0,-0.4,-9.51,4.6,75.7,96.0,40.8,7.4,0.4,-0.6,-0.8,-0.3,98.4,5.2,2
1.2,5.3,8.56,23.0,34.7,116.3,-25.0,5.9,2.4,-1.7,-8.0,4.2,67.3,4.0,1
-2.15,-2.91,-17.76,3.76,112.05,118.56,-17.73,4.81,-0.31,1.1,6.14,2.81,126.34,8.67,2
-2.1,-6.2,-25.74,7.2,126.5,118.47,-23.0,2.0,1.2,2.2,10.0,-0.9,124.2,9.2,2
-2.35,-6.25,1.56,6.7,103.83,100.85,-146.94,-8.99,0.18,1.47,0.67,5.02,335.98,14.97,3
0.9,-4.3,13.16,9.5,26.0,100.0,-61.8,14.5,2.2,-1.2,-6.5,-3.5,109.3,11.2,3
8.2,-0.9,-6.74,4.0,64.6,100.0,48.9,-0.4,0.6,1.1,-0.4,0.0,262.8,7.2,2
-5.0,-2.0,12.3,4.8,37.0,104.27,-67.6,6.8,1.7,0.8,1.8,0.3,72.1,7.0,4
2.3,2.3,77.37,5.1,63.5,127.42,-165.0,-2.8,0.8,-3.2,-6.4,-7.8,223.2,7.0,2
0.88,0.31,-4.28,2.13,83.8,100.51,-77.34,-5.89,2.81,-0.35,-0.78,-1.4,110.97,16.59,3
-7.4,-5.0,-26.26,-2.1,159.6,120.06,-115.9,-2.3,0.1,10.6,29.6,-4.7,132.6,18.4,4
4.0,-9.2,-7.55,9.1,42.2,107.3,-1.9,3.1,1.0,-0.1,-4.6,8.4,192.5,7.5,2
0.78,-0.02,-5.09,1.85,87.23,100.38,-80.39,-5.75,2.86,-0.19,-0.44,-1.61,115.46,16.63,3
2.3,-6.4,37.84,9.6,76.7,100.0,-198.4,-18.6,1.0,-3.9,-10.6,-2.3,305.1,11.9,2
-2.8,6.0,-21.25,-3.6,83.2,88.06,-28.1,3.0,0.4,0.8,2.1,1.5,176.1,7.9,2
0.1,6.9,-1.46,-2.6,99.8,103.87,38.1,3.7,1.0,-1.5,-6.3,3.7,185.1,7.0,1
1.3,-0.6,-18.21,-10.1,70.0,105.12,-39.3,0.1,-1.0,2.0,6.9,-3.7,107.2,9.1,3
1.43,-0.45,-5.15,-2.41,63.32,112.71,-35.79,4.07,-0.15,1.09,0.83,-2.06,101.02,8.26,2
0.9,5.8,7.29,8.6,10.0,100.0,-39.9,15.3,1.9,-3.1,-7.8,2.7,112.8,7.4,1
-2.59,-0.96,-12.13,-3.38,104.23,100.22,-162.15,-0.83,-0.03,4.81,22.07,-11.84,340.31,11.95,4
5.9,-4.9,-9.35,3.1,79.8,90.5,23.3,5.6,1.4,-1.1,-2.1,2.0,102.4,6.9,1
-2.73,-1.03,-14.14,0.51,105.36,100.26,-162.84,-2.21,0.21,5.14,20.03,-9.05,344.23,12.6,4
-2.0,2.5,13.52,13.2,37.3,100.0,-64.1,17.2,1.3,-3.3,-12.2,-0.5,80.4,10.9,1
2.7,-5.2,-2.11,19.5,75.5,113.12,-59.6,5.4,5.4,-2.5,-13.7,-3.1,77.5,6.5,1
1.9,-0.8,24.41,-0.2,6.1,74.59,-54.0,-2.2,0.5,5.4,10.4,-0.8,118.9,14.2,1
1.55,2.02,7.68,3.17,79.8,104.61,-68.8,-4.23,1.31,-3.19,-8.61,0.23,103.51,14.09,3
6.75,-1.76,-10.52,2.71,54.66,96.17,37.56,1.75,-0.53,1.21,3.52,2.36,240.34,7.25,2
-6.37,-6.34,-12.97,-3.78,116.4,95.87,-116.33,-3.91,-0.88,3.72,10.95,-0.69,231.63,12.65,4
-3.72,-1.89,-13.82,-3.43,112.48,99.23,-147.85,-2.57,0.0,4.36,20.71,-9.39,296.91,12.34,4
2.0,-3.4,-4.02,3.3,134.8,100.19,-11.9,1.5,1.5,-0.2,-2.2,0.1,111.7,12.1,3
2.0,-4.7,-21.72,0.4,81.9,92.57,-3.2,3.8,0.8,0.0,-1.3,1.2,128.2,4.8,1
2.1,-6.73,-16.95,8.48,76.81,88.27,-80.44,6.23,4.56,-1.48,-5.47,-0.21,91.79,9.62,2
8.5,4.9,24.47,2.3,45.6,114.74,63.2,4.1,5.9,-0.9,-2.5,7.5,129.0,4.1,1
2.01,-5.51,-19.42,4.39,77.06,87.19,-81.17,6.76,3.83,-1.11,-3.1,-0.46,93.47,10.07,2
1.14,-0.57,-13.06,1.1,135.27,103.31,-19.05,2.36,1.74,2.63,10.14,-0.21,117.36,11.94,3
-2.8,-0.7,24.04,3.3,34.7,109.99,-43.7,29.6,1.7,-1.2,-5.5,1.9,47.4,5.0,1
-1.9,-5.6,-19.39,-8.5,178.9,103.46,-131.9,-10.4,0.1,10.7,7.7,-3.0,130.8,26.2,4
-1.27,-2.45,-15.45,1.63,99.88,108.76,-16.99,4.67,0.48,0.77,3.18,2.35,133.56,9.41,2
1.1,0.9,1.08,1.4,101.7,102.86,56.8,0.9,0.3,-0.8,-3.9,0.4,185.4,7.8,1
-4.56,-2.9,-18.64,3.71,119.54,98.0,-140.55,-6.34,0.38,4.74,15.69,-2.58,278.52,13.87,4
1.3,-1.0,-11.49,0.0,100.7,96.46,-95.9,-3.6,0.3,4.0,7.0,-6.6,168.1,25.1,2
1.0,-1.7,-13.57,2.7,105.2,100.0,45.2,0.5,0.7,1.0,2.3,12.1,176.1,8.5,1
-4.8,1.4,1.39,10.7,54.1,101.13,-65.3,5.3,1.8,1.6,5.9,4.8,73.4,9.8,1
-4.8,-11.4,15.13,4.8,54.5,108.27,-62.4,4.2,1.9,1.2,8.5,6.6,73.9,9.2,1
-4.35,-7.35,-17.72,-2.81,125.28,89.14,-126.85,-7.71,-0.78,4.4,12.99,-2.75,238.57,14.02,4
-8.58,-3.08,-10.48,-4.79,115.5,105.21,-105.25,-0.93,-0.28,2.67,13.9,-1.06,205.05,11.35,4
0.0,-8.2,-2.16,8.1,40.0,100.0,-32.9,0.1,2.4,-0.6,-6.9,0.3,68.1,6.1,1
1.7,0.7,-18.42,-3.2,81.3,95.34,1.3,6.4,1.1,0.1,0.2,1.0,127.1,5.0,1
0.4,-3.6,6.93,10.9,9.8,76.91,-50.7,0.1,0.8,1.8,-6.5,7.6,117.2,13.0,1
-3.5,-2.5,-8.31,3.4,69.9,128.08,-93.8,-1.4,1.2,6.9,21.7,-4.2,198.2,19.7,2
-5.69,-0.95,4.19,-1.56,69.35,103.23,-80.11,-2.96,-0.12,1.54,6.56,-1.15,123.76,8.74,4
-4.36,-7.33,-17.72,-2.81,125.31,89.19,-126.8,-7.7,-0.77,4.39,13.02,-2.76,238.38,14.01,4
1.76,1.4,-1.08,-4.02,71.96,107.09,-47.04,-0.82,-0.83,-1.66,-3.72,-1.2,101.7,9.85,3
0.88,-4.3,12.31,9.25,26.69,100.33,-61.36,14.14,2.11,-1.11,-6.16,-3.48,109.37,11.12,3
-0.1,-4.5,-20.85,-0.7,53.6,113.31,-44.0,0.1,-1.4,2.5,7.0,-2.8,112.2,8.1,3
-0.99,-4.78,-17.6,6.96,95.9,110.49,-11.69,4.69,0.57,1.25,5.02,4.87,132.98,9.2,2
-2.9,0.4,11.98,11.4,41.6,102.42,-67.1,16.0,1.8,-4.2,-11.4,-4.4,82.2,12.6,1
-2.8,-7.8,-25.92,10.4,80.1,89.47,-11.6,5.8,-0.3,1.3,6.3,1.6,176.6,7.8,2
-0.26,-0.36,-18.25,-1.91,132.8,108.31,-21.8,2.72,1.41,2.49,10.21,-2.5,119.95,10.62,3
-1.7,-8.6,7.91,5.6,42.4,92.02,-67.5,-6.5,0.9,3.3,-4.8,-5.4,96.8,16.9,1
-0.3,4.8,20.52,13.0,10.6,93.21,-46.7,14.7,0.5,-3.8,-7.4,5.6,115.4,8.7,1
1.29,-0.59,-18.07,-9.96,70.17,105.06,-39.75,0.03,-0.95,1.98,6.82,-3.68,107.25,9.19,3
-0.03,-4.32,-20.73,-1.14,54.36,112.93,-43.78,0.1,-1.38,2.48,7.0,-2.84,111.97,8.15,3
-8.76,-3.06,-9.97,-4.88,114.43,105.73,-104.31,-0.56,-0.31,2.62,13.55,-0.8,205.07,11.23,4
0.16,-1.8,-5.33,-6.2,132.68,99.19,-121.69,-2.52,-0.23,1.36,2.18,-6.01,186.79,14.95,3
7.0,-2.4,-8.35,10.3,61.7,114.09,20.1,5.3,0.3,0.4,1.4,8.2,247.2,4.8,1
-0.75,-1.06,-5.6,-1.28,47.61,123.06,-39.54,7.46,-1.41,1.66,5.0,0.33,112.12,7.18,2
-4.2,-0.74,17.21,-0.32,98.52,103.27,-122.91,-1.55,0.64,-3.82,-12.2,7.87,289.23,11.48,3
2.07,2.35,20.81,5.59,64.08,107.69,-58.75,1.52,0.01,-5.58,-15.96,1.03,97.34,10.97,3
0.9,-0.4,-5.01,2.4,104.9,101.19,54.5,-0.9,0.1,0.1,-3.6,23.8,194.9,8.3,1
-6.0,-4.07,-17.88,-3.41,131.0,98.2,-119.08,-5.95,0.01,3.96,18.38,-4.33,205.51,13.54,4
-0.1,6.4,3.49,8.2,33.8,114.86,-31.0,16.5,3.2,-1.9,-5.2,4.3,56.4,7.1,1
-3.3,-6.4,18.62,-1.7,93.9,103.15,-126.5,-4.1,-0.4,-3.2,-11.3,6.7,304.0,13.0,3
-1.4,-3.1,-9.77,11.4,44.9,94.54,-41.4,4.2,2.7,0.0,0.7,4.4,73.7,6.9,1
-0.6,4.8,10.22,4.7,40.9,107.36,-59.0,16.7,2.3,-1.7,-5.9,2.3,80.5,10.1,1
-4.36,-0.71,5.26,0.16,64.42,105.46,-74.79,-4.17,0.02,2.95,7.76,-2.13,81.27,9.51,4
0.95,1.33,11.36,0.91,123.86,119.6,-108.05,4.06,1.61,-4.01,-11.34,1.59,158.57,9.91,2
1.5,-2.4,-9.7,1.4,135.3,100.0,-19.3,2.0,0.5,1.3,5.0,-1.4,115.1,12.3,3
-6.31,-1.35,1.39,-2.22,78.3,103.77,-84.87,-2.47,-0.16,1.75,7.96,-1.08,139.83,9.23,4
-3.2,1.9,11.12,4.3,15.2,102.38,-82.8,17.9,-1.9,3.4,12.3,3.5,129.1,9.5,2
-0.35,-1.01,-3.1,-0.14,32.92,111.59,-55.36,11.21,-0.02,2.16,5.85,1.47,121.07,9.46,2
1.64,0.89,-5.48,-5.58,71.45,106.58,-45.06,-0.58,-0.88,-0.72,-0.99,-1.84,103.12,9.66,3
-4.57,1.63,16.61,0.26,100.46,103.32,-121.4,-0.47,1.07,-4.08,-12.57,8.37,283.03,10.84,3
-0.69,-3.69,-12.87,11.84,111.15,84.99,-151.07,-2.39,0.43,-0.76,-4.11,0.86,273.65,14.22,2
-4.9,-3.18,-18.3,1.89,121.94,97.66,-135.18,-6.31,0.29,4.43,16.17,-3.02,261.34,13.7,4
-6.78,-2.47,1.91,0.26,73.19,105.04,-84.67,3.39,0.76,1.64,7.32,-0.21,134.05,8.96,4
-2.65,-0.89,-12.81,-1.97,104.49,100.44,-162.62,-1.25,0.08,4.92,21.47,-10.92,342.3,12.16,4
0.5,1.7,8.2,6.2,39.3,113.33,-56.2,15.2,2.4,-1.3,-2.6,2.4,76.9,9.4,1
7.9,-2.1,1.07,4.7,35.8,108.5,55.4,1.6,1.3,-0.5,-1.8,1.4,202.7,6.0,1
0.2,-6.3,71.33,4.3,67.7,117.61,-167.2,-15.4,0.9,-3.6,-9.0,0.2,250.5,8.4,2
0.89,0.32,-4.22,2.13,83.78,100.53,-77.3,-5.88,2.81,-0.37,-0.81,-1.39,110.94,16.58,3
8.3,-2.0,5.78,4.0,65.3,111.65,56.3,4.9,0.5,-0.6,-0.9,4.5,100.0,4.2,2
5.5,-2.5,-13.78,1.6,46.1,92.87,27.8,3.6,-1.5,1.3,6.9,4.4,221.0,7.3,2
2.4,-1.8,-12.5,1.5,82.4,88.31,-1.9,5.8,0.7,0.2,0.4,3.0,129.4,4.9,1
2.14,3.54,18.3,4.1,76.25,108.25,-61.21,-2.75,-0.02,-5.7,-15.56,1.67,96.89,11.87,3
-4.9,0.2,1.09,11.7,86.8,105.5,0.3,3.7,0.9,-1.4,-7.7,8.8,166.4,5.4,1
-4.15,0.43,12.91,1.93,101.78,102.75,-126.99,-2.18,0.98,-2.85,-9.57,7.71,293.78,11.64,3
0.73,-0.28,-7.02,1.78,81.76,101.1,-75.56,-5.59,2.64,0.21,0.76,-1.7,111.92,16.17,3
0.7,-2.8,-23.52,28.7,48.3,103.81,13.9,9.0,-1.1,0.5,3.6,5.3,144.6,8.1,2
-3.0,1.74,10.49,4.12,15.31,102.1,-82.28,17.75,-1.7,3.36,11.98,3.45,129.18,9.65,2
-8.75,-3.07,-9.99,-4.87,114.44,105.69,-104.37,-0.58,-0.31,2.63,13.54,-0.8,205.2,11.23,4
0.0,5.3,-1.35,15.8,39.7,104.41,-42.9,15.0,3.1,-2.1,-7.4,4.3,56.5,9.2,1
-6.98,-3.63,-14.55,-4.02,123.56,100.12,-113.63,-4.07,-0.11,3.16,16.11,-2.99,208.36,12.45,4
-7.63,-2.23,-4.62,-3.64,97.48,104.91,-95.09,-1.43,-0.23,2.2,10.96,-0.93,174.24,10.27,4
-7.37,-3.49,-13.57,-4.21,121.62,101.34,-111.62,-3.32,-0.15,3.05,15.58,-2.53,207.57,12.19,4
-3.55,0.42,13.59,0.76,39.27,101.61,-63.92,-4.67,0.0,0.93,1.98,-1.45,67.7,7.16,4
0.02,0.14,-18.4,-1.38,133.69,107.32,-22.35,2.78,1.56,3.11,12.68,-1.83,120.25,11.02,3
5.0,-2.0,17.79,5.3,74.1,110.33,-24.2,3.7,3.3,-2.2,-9.0,0.9,76.3,7.9,1
-3.7,-2.19,-19.5,8.36,113.45,98.85,-154.26,-6.44,0.63,5.54,14.46,-1.47,322.31,14.3,4
-1.38,2.02,-22.96,1.32,64.13,100.0,5.26,3.32,0.59,0.69,3.33,7.0,152.6,8.79,2
-1.23,-4.59,-5.69,3.53,116.82,99.23,-143.23,-7.9,0.11,2.83,4.88,0.29,289.93,15.59,3
-4.91,-1.85,12.41,4.57,37.04,104.1,-67.34,6.13,1.6,0.8,1.79,0.2,71.79,7.0,4
6.1,-2.4,-5.55,15.1,22.0,88.54,58.4,5.9,0.7,0.4,1.6,25.9,303.7,4.8,1
1.01,-1.41,-18.76,-8.15,66.6,106.82,-40.27,0.1,-1.08,2.1,6.92,-3.51,108.24,8.89,3
3.1,0.0,10.82,-7.6,72.9,123.6,-55.1,9.1,4.2,-2.0,-9.7,0.7,70.8,5.4,1
2.3,-4.3,2.9,2.4,99.2,104.45,-85.5,-1.2,-0.1,-3.5,-11.1,-0.4,147.4,22.1,2
0.5,-1.8,5.22,-0.4,131.5,106.07,-110.5,-0.5,0.7,-3.1,-10.1,-1.8,169.3,12.6,3
-3.39,-5.81,18.47,-1.56,94.38,103.16,-126.13,-3.84,-0.29,-3.26,-11.39,6.82,302.47,12.84,3
4.9,3.3,8.69,-2.0,21.0,114.88,53.8,7.9,0.2,-0.5,-3.1,-0.5,306.5,5.8,1
-2.34,-9.65,-18.77,1.45,117.31,83.37,-144.1,-9.08,-1.25,5.8,8.07,-0.55,296.97,15.05,4
-4.6,1.8,16.57,0.3,100.6,103.32,-121.3,-0.4,1.1,-4.1,-12.6,8.4,282.6,10.8,3
-0.2,-0.3,-10.28,-10.3,95.8,96.28,-92.8,-5.1,0.8,5.7,14.0,-10.0,178.2,24.1,2
2.92,0.04,0.46,-2.81,74.03,99.63,-36.31,1.24,1.44,0.3,-3.43,-4.47,82.41,9.07,2
-2.17,-12.05,-18.32,-1.83,120.06,78.56,-137.47,-9.83,-1.87,5.66,6.5,-0.57,277.88,15.16,4
-2.0,-6.2,-4.75,9.8,107.5,100.0,-154.5,-10.8,0.4,3.2,5.1,4.4,347.8,15.7,3
0.51,-1.84,5.1,-0.43,131.49,105.9,-110.73,-0.48,0.68,-3.03,-9.98,-1.79,169.58,12.65,3
-1.1,-4.0,-9.78,-10.2,178.5,98.32,-137.6,-3.3,0.7,-1.5,-11.0,-2.1,125.1,25.0,4
-3.4,-4.3,-0.26,7.4,56.0,96.32,-68.9,3.1,1.7,1.4,3.6,3.3,75.4,10.0,1
0.8,0.1,-5.77,2.0,84.3,100.0,-78.4,-6.1,3.0,0.0,0.2,-1.6,111.9,16.9,3
0.9,4.2,6.46,7.3,42.6,100.0,-43.6,11.8,2.3,-2.7,-10.4,2.6,55.3,10.5,1
-2.15,-11.7,-18.42,-1.16,119.39,79.25,-139.05,-9.74,-1.77,5.72,6.65,-0.51,282.64,15.17,4
-4.39,-0.99,13.04,3.19,37.24,103.09,-65.82,2.16,1.01,0.8,1.72,-0.39,69.96,7.0,4
-0.45,-1.38,-4.54,-6.42,129.14,98.52,-123.51,-2.61,-0.23,1.47,2.51,-5.03,200.86,14.86,3
1.26,-0.55,-17.31,-9.23,71.03,104.75,-42.12,-0.35,-0.71,1.86,6.42,-3.55,107.54,9.66,3
-2.57,-7.25,-19.17,4.52,114.86,88.23,-150.06,-8.3,-0.63,5.89,9.74,-0.59,313.84,14.92,4
-4.93,-1.89,12.38,4.62,37.03,104.14,-67.4,6.28,1.62,0.8,1.79,0.22,71.86,7.0,4
1.81,-3.03,20.49,6.41,26.93,110.58,-44.92,12.7,2.22,-3.1,-9.61,3.35,94.67,7.61,2
1.5,-4.7,9.44,9.3,29.3,106.56,-47.9,8.6,0.3,-2.9,-11.2,3.0,104.5,9.4,3
-2.36,-6.16,-15.0,-2.65,111.47,90.05,-150.89,-5.02,-0.89,5.22,14.78,-6.59,312.01,13.45,4
0.08,-4.52,-17.4,0.44,50.84,112.54,-44.44,1.07,-1.21,1.89,4.93,-2.14,111.32,8.25,3
-2.2,-6.23,-1.08,8.0,105.37,100.49,-150.11,-9.75,0.27,2.2,2.53,4.76,340.93,15.28,3
4.1,0.3,-4.61,-3.8,82.6,100.0,-31.2,-0.1,1.4,0.4,-4.3,-5.0,87.4,9.6,2
-0.5,0.1,25.75,2.8,48.8,109.28,-55.6,7.8,2.0,-2.0,-9.1,3.3,75.8,5.0,1
1.03,-4.64,0.59,6.38,36.4,108.53,-46.76,6.12,-0.2,-1.32,-5.88,1.3,106.75,9.02,3
-0.9,-1.1,-5.63,-1.2,46.5,123.79,-39.8,7.7,-1.5,1.7,5.3,0.5,112.9,7.1,2
0.9,-0.8,14.27,1.4,126.1,114.08,-110.4,2.8,1.5,-3.9,-10.9,2.3,162.4,10.9,2
1.0,3.1,8.95,0.5,122.0,124.17,-106.1,5.1,1.7,-4.1,-11.7,1.0,155.4,9.1,2
2.7,3.9,13.57,6.8,22.3,117.28,-36.8,18.3,2.2,-2.6,-8.9,3.9,95.0,6.3,2
-1.9,-1.0,21.09,1.2,39.2,98.15,-57.1,6.7,1.6,-0.1,0.1,-2.3,62.1,6.9,2
0.3,-0.9,-0.15,1.1,17.1,97.38,-73.5,15.3,1.7,2.7,6.5,2.6,130.6,12.2,2
0.76,-0.01,-5.86,1.47,87.05,99.88,-80.97,-5.92,2.81,0.12,0.44,-1.89,116.33,16.82,3
-0.8,-2.2,-14.22,0.5,93.4,103.54,-16.6,4.6,0.9,0.6,1.6,2.1,137.4,9.8,2
2.55,3.7,12.79,6.48,23.28,117.54,-36.92,17.87,2.05,-2.43,-8.32,3.76,95.73,6.33,2
0.9,0.2,-15.53,0.5,135.4,104.16,-21.0,2.6,1.8,3.4,13.5,-0.3,118.9,11.9,3
6.9,-2.5,-17.81,1.8,44.0,90.99,37.2,1.5,-1.4,0.4,-0.8,-3.0,216.1,7.7,1
-3.64,-8.87,-17.92,-2.49,123.59,85.71,-130.3,-8.4,-1.13,4.81,10.88,-2.04,251.32,14.39,4
2.0,1.3,-9.15,-0.1,84.9,100.0,2.2,6.4,0.4,0.5,1.2,2.1,124.0,5.6,1
-3.5,0.5,14.14,0.8,37.6,101.35,-63.2,-4.7,0.0,0.8,1.6,-1.4,66.8,7.0,4
-0.7,2.1,-4.08,1.4,54.7,93.4,-62.2,2.6,1.2,0.8,0.1,5.0,75.2,13.9,1
1.2,1.7,19.36,16.7,40.6,95.53,-46.8,8.7,2.3,-3.2,-13.3,0.2,54.2,12.0,1
6.6,0.1,-3.82,10.9,19.0,86.69,28.9,8.8,1.1,-0.2,-1.1,21.4,284.3,4.8,1
-4.65,-8.69,-15.13,-2.98,117.8,88.78,-124.95,-6.32,-1.29,4.52,9.08,-0.61,250.7,13.68,4
-2.18,-11.34,-18.48,-0.7,119.02,79.97,-139.94,-9.62,-1.68,5.73,6.9,-0.52,285.16,15.15,4
-6.73,-4.55,-22.23,-2.73,145.83,109.54,-117.43,-4.05,0.06,7.41,24.2,-4.52,167.69,16.06,4
1.75,0.49,18.67,6.68,53.45,105.55,-59.6,5.14,0.62,-4.36,-13.32,-0.23,100.68,11.03,3
-2.55,-7.13,8.67,10.57,65.88,96.31,19.04,8.73,3.95,0.86,-0.28,0.61,160.56,6.66,2
-0.23,-0.63,-23.32,16.62,55.07,102.12,9.87,6.48,-0.35,0.59,3.51,6.01,147.92,8.41,2
-5.69,-4.46,-17.36,-3.4,128.49,95.64,-120.34,-6.41,-0.11,3.62,16.97,-4.09,214.44,13.31,4
-2.1,-12.2,-18.34,-1.8,119.9,78.23,-137.8,-9.9,-1.9,5.7,6.3,-0.5,279.1,15.2,4
-4.13,-0.55,13.37,2.48,37.35,102.57,-65.04,0.12,0.71,0.8,1.68,-0.69,69.02,7.0,4
-6.57,-3.96,-12.85,0.3,116.95,114.57,-99.1,0.87,0.66,7.19,19.93,-2.96,111.55,14.43,4
0.3,-1.2,4.06,10.4,51.9,100.0,-63.9,2.7,1.5,-1.8,-7.5,5.1,80.6,13.0,1
1.3,1.2,1.88,9.4,53.5,94.8,-63.5,2.4,1.6,0.1,-3.7,5.0,79.0,13.8,1
-3.51,-9.16,-17.95,-2.43,123.27,85.07,-130.94,-8.53,-1.2,4.88,10.49,-1.91,253.7,14.46,4
-2.32,-7.09,-15.52,-2.52,112.78,88.22,-148.86,-5.78,-1.05,5.3,13.47,-5.65,306.91,13.72,4
0.44,-1.8,3.23,-1.5,131.72,104.77,-112.61,-0.88,0.53,-2.26,-7.78,-2.59,172.6,13.04,3
2.3,-3.3,20.41,7.1,25.3,112.23,-43.3,13.5,2.3,-3.5,-10.9,4.1,99.0,7.7,2
0.74,-1.73,-1.98,0.06,111.07,100.0,-101.51,-2.5,1.29,-0.29,-3.28,-1.49,150.37,15.47,3
-0.7,-4.4,-15.44,6.9,87.8,108.38,-8.7,5.4,0.4,1.0,3.7,6.4,135.3,9.2,2
1.06,-4.41,12.17,9.45,26.88,101.75,-58.09,12.92,1.69,-1.65,-7.76,-1.76,108.02,10.72,3
-2.4,0.5,-4.48,5.2,44.5,95.34,-45.9,3.8,1.5,1.0,2.9,2.9,70.7,7.0,1
0.6,4.9,8.63,-3.0,37.2,120.83,-49.1,15.1,2.0,-1.4,-4.1,-0.2,70.5,8.6,1
-2.4,2.5,3.2,8.9,49.4,117.31,-68.1,11.3,1.5,-3.6,-11.6,2.0,91.0,8.1,1
2.2,-3.1,0.83,4.2,134.1,98.04,-7.7,1.2,1.5,-1.2,-8.0,1.3,108.8,11.6,3
-5.9,-4.0,-17.3,-3.5,129.0,96.67,-119.3,-6.2,0.0,3.5,17.6,-4.3,210.6,13.2,4
5.6,10.3,-19.51,5.6,37.6,78.78,-15.5,4.1,1.4,0.4,-1.4,2.4,190.5,8.1,2
1.14,-0.37,-14.11,-6.11,74.71,103.43,-52.19,-1.94,0.32,1.34,4.69,-3.01,108.75,11.67,3
7.9,5.3,3.49,2.0,61.9,117.37,62.5,5.6,1.0,-0.6,-1.0,6.5,102.1,3.8,2
-4.22,-0.71,13.25,2.73,37.31,102.76,-65.32,0.85,0.82,0.8,1.7,-0.58,69.36,7.0,4
2.3,-7.2,-9.31,0.4,76.2,100.0,-67.9,1.0,4.9,-1.9,-10.9,-2.5,84.2,8.2,1
-2.48,-3.55,-13.56,-3.01,107.83,95.17,-156.55,-2.92,-0.46,5.02,18.45,-9.23,326.24,12.69,4
2.3,0.9,-2.83,-2.8,82.9,107.03,4.1,5.4,0.7,0.6,1.5,3.4,123.5,5.8,1
-3.1,-1.7,-20.1,11.6,109.2,99.45,-163.8,-6.5,0.8,6.1,13.6,-0.7,352.8,14.6,4
1.9,-3.2,-3.29,-2.0,99.3,100.0,-88.9,-1.1,0.0,0.4,-4.6,-2.5,155.8,24.2,2
0.44,-4.57,-10.6,2.68,45.38,111.03,-45.32,2.98,-0.82,0.67,0.84,-0.84,109.59,8.54,3
0.21,-1.8,-3.79,-5.36,132.51,100.19,-120.05,-2.22,-0.09,0.71,0.39,-5.39,184.24,14.61,3
-3.92,-2.08,-14.15,-3.44,114.03,98.99,-145.16,-2.91,0.0,4.28,20.41,-8.91,288.78,12.42,4
9.9,3.2,1.68,-3.3,52.4,118.9,70.7,3.0,0.7,-1.6,-4.1,4.5,241.6,4.9,2
-3.8,-0.67,9.98,3.24,102.73,102.29,-131.57,-3.62,0.88,-1.84,-7.13,7.16,302.76,12.32,3
-0.7,-2.6,24.74,7.0,37.3,105.17,-49.1,9.5,0.7,-0.2,-3.1,0.6,53.7,6.5,1
7.6,-2.3,-2.96,6.7,61.9,104.44,61.4,-0.3,0.3,0.0,-2.4,3.9,259.3,6.8,2
-0.3,-3.6,-14.64,19.5,104.4,90.24,-164.7,-3.7,0.6,-2.2,-6.2,2.6,278.4,13.7,2
-2.27,-8.39,-16.23,-2.34,114.58,85.69,-146.06,-6.82,-1.26,5.4,11.65,-4.35,299.87,14.1,4
0.11,-3.41,-17.28,-0.06,60.87,110.16,-52.15,-1.37,-0.36,1.91,5.39,-2.52,112.13,10.18,3
-2.48,-3.33,-18.79,5.3,116.17,122.9,-17.15,4.96,-0.67,1.27,7.52,3.47,123.3,8.31,2
2.1,7.7,0.75,6.9,8.4,108.14,-27.7,14.3,2.4,-1.1,-1.3,3.7,101.5,6.0,1
-2.6,-0.8,-12.04,-3.4,104.0,100.54,-162.5,-0.7,0.0,4.8,22.3,-12.0,341.2,11.9,4
-0.8,-1.2,-0.62,0.0,68.4,94.11,27.0,9.5,5.9,-0.6,-0.5,2.3,152.9,6.2,1
-6.27,-1.33,1.59,-2.17,77.67,103.73,-84.54,-2.51,-0.16,1.74,7.86,-1.09,138.69,9.19,4
-0.1,-4.3,-15.53,-5.1,104.8,100.38,40.8,4.9,0.0,-0.1,-2.1,14.7,191.0,7.7,2
8.3,-1.7,-2.87,5.2,37.2,105.09,52.6,1.3,0.9,-0.6,-2.6,3.1,209.0,6.4,1
-0.88,-2.7,-17.43,5.46,81.47,106.19,-5.17,4.85,0.45,0.92,3.62,6.53,139.7,9.1,2
0.57,-1.07,-9.6,1.31,76.5,103.38,-69.66,-4.52,1.88,0.64,1.93,-1.9,111.98,14.66,3
0.82,0.14,-5.5,2.02,84.21,100.09,-78.21,-6.06,2.97,-0.06,0.02,-1.56,111.73,16.84,3
2.1,-2.4,26.53,-6.2,43.9,92.26,-74.7,-20.6,-1.4,6.9,17.4,-2.4,115.2,17.7,1
-2.7,-3.2,-19.21,5.1,119.7,124.71,-18.2,4.9,-0.8,1.3,8.0,3.1,121.8,8.2,2
-8.8,-3.0,-9.92,-4.9,114.4,105.91,-104.1,-0.5,-0.3,2.6,13.6,-0.8,204.6,11.2,4
9.5,0.7,-11.35,8.0,67.8,96.7,48.0,3.7,0.9,1.3,2.7,4.3,267.2,6.8,2
-2.36,0.08,5.19,-3.32,115.99,100.73,-122.49,-1.59,0.39,-1.1,-4.45,1.16,238.52,12.99,3
-4.5,-10.8,-1.18,-1.7,86.2,108.74,-10.0,5.1,0.9,-1.1,-4.9,7.2,167.7,4.8,1
-4.44,1.3,15.24,0.89,101.03,103.11,-123.38,-1.05,1.06,-3.64,-11.49,8.15,286.68,11.11,3
-1.2,-2.6,-4.91,-4.0,61.3,101.04,0.1,-3.6,1.3,0.2,-0.4,7.0,146.0,8.9,1
-1.4,2.1,-23.06,1.4,63.6,100.0,4.8,3.3,0.6,0.7,3.4,6.9,152.1,8.8,2
-8.21,-3.85,-16.85,-3.71,133.57,111.91,-109.11,-1.26,-0.13,5.99,20.39,-2.45,174.06,14.25,4
-0.5,2.7,21.45,4.1,37.8,100.0,-54.7,0.6,1.3,0.0,-0.9,0.2,58.0,6.9,1
0.1,-1.8,-7.32,-7.3,132.9,97.89,-123.8,-2.9,-0.4,2.2,4.5,-6.8,190.1,15.4,3
1.1,-0.44,-13.49,1.0,135.29,103.46,-19.38,2.4,1.75,2.76,10.71,-0.23,117.62,11.94,3
1.9,-3.8,-22.85,-1.3,77.4,85.69,-82.2,7.5,2.8,-0.6,0.2,-0.8,95.8,10.7,2
-2.9,-3.2,-10.3,1.1,51.8,93.79,-60.6,-0.3,1.0,2.9,6.7,1.9,71.1,14.0,1
-1.2,-3.8,-10.57,1.9,119.9,78.19,-133.4,-0.7,0.2,1.1,-1.4,-1.4,267.5,14.9,2
-6.86,-3.67,-14.85,-3.97,124.15,99.74,-114.25,-4.31,-0.1,3.2,16.27,-3.14,208.61,12.54,4
0.36,-3.22,-19.98,-3.79,58.99,110.62,-42.45,0.1,-1.27,2.34,6.97,-3.1,110.56,8.43,3
0.55,-1.48,3.37,0.0,123.54,105.05,-105.09,-1.44,1.09,-2.58,-8.36,-1.77,159.62,13.33,3
2.4,4.2,22.94,4.5,74.7,109.84,-57.9,-2.1,-0.6,-6.8,-18.6,2.3,94.0,10.9,3
1.16,-4.66,3.03,7.18,34.44,107.99,-47.07,6.8,-0.06,-1.76,-7.35,1.77,106.13,9.12,3
-3.23,-9.77,-18.03,-2.3,122.6,83.7,-132.31,-8.8,-1.34,5.05,9.65,-1.63,258.77,14.61,4
2.6,-2.6,9.87,3.2,98.6,109.18,-85.5,-0.5,-0.3,-5.2,-14.6,0.6,139.6,19.6,2
-3.55,-1.43,7.95,4.14,103.39,101.98,-134.72,-4.6,0.82,-1.15,-5.45,6.78,308.95,12.78,3
0.94,0.74,12.18,1.05,124.49,118.05,-108.71,3.71,1.58,-3.98,-11.22,1.79,159.64,10.19,2
-0.71,-3.69,-12.8,11.55,111.4,84.79,-150.56,-2.34,0.42,-0.71,-4.03,0.79,273.47,14.24,2
1.8,0.1,-12.48,5.9,63.4,96.09,43.0,2.4,6.0,-1.0,-1.6,7.4,143.6,6.0,1
-3.2,-1.38,-13.0,-3.42,108.54,99.84,-154.65,-1.7,0.0,4.56,21.45,-10.6,317.46,12.14,4
-0.6,0.1,-20.41,-2.7,132.5,109.54,-23.3,2.9,1.4,2.9,12.1,-2.9,121.2,10.4,3
-2.2,3.6,6.85,-4.9,181.2,98.21,-143.6,1.4,0.4,-4.6,-9.9,-0.8,115.5,21.5,4
-3.5,0.49,14.13,0.81,37.6,101.36,-63.21,-4.67,0.0,0.8,1.6,-1.4,66.81,7.0,4
5.4,5.1,-17.19,9.7,40.4,82.36,-15.9,8.7,2.0,-0.2,-1.3,4.6,193.6,8.0,2
