PC_CA-avg_3y,REER-pch_3y,X_GS_share_M-pch_5y,FSL-pch,GD-pc_gdp,HPI-pch,NIIP-pc_gdp,ULC-pch_3y,ACT-pch_3y,LTU-pch_3y,YUR-pch_3y,PSCF-pc_gdp,PSD-pc_gdp,UR-avg_3y,label
0.41,-1.91,-12.35,0.82,70.9,105.81,-63.39,-3.39,1.08,1.09,3.17,-2.12,112.03,13.06,3
1.44,-3.06,16.0,7.92,40.59,101.41,-62.87,9.32,1.66,-2.41,-9.77,-2.09,106.09,11.85,3
-8.8,-3.0,-9.92,-4.9,114.4,105.91,-104.1,-0.5,-0.3,2.6,13.6,-0.8,204.6,11.2,4
6.6,0.1,-3.82,10.9,19.0,86.69,28.9,8.8,1.1,-0.2,-1.1,21.4,284.3,4.8,1
1.2,11.0,11.47,7.4,32.6,123.49,-24.8,13.7,2.6,-1.7,-5.9,5.3,70.7,3.0,1
2.3,-3.3,20.41,7.1,25.3,112.23,-43.3,13.5,2.3,-3.5,-10.9,4.1,99.0,7.7,2
-1.1,-4.0,-9.78,-10.2,178.5,98.32,-137.6,-3.3,0.7,-1.5,-11.0,-2.1,125.1,25.0,4
0.0,5.3,-1.35,15.8,39.7,104.41,-42.9,15.0,3.1,-2.1,-7.4,4.3,56.5,9.2,1
2.08,2.38,20.85,5.57,64.3,107.74,-58.73,1.45,-0.0,-5.6,-16.02,1.06,97.27,10.96,3
-0.7,-4.4,-15.44,6.9,87.8,108.38,-8.7,5.4,0.4,1.0,3.7,6.4,135.3,9.2,2
-7.74,-0.03,-2.95,0.25,106.91,120.95,-78.57,6.8,1.13,3.03,12.67,-3.22,102.16,10.31,4
-0.68,-4.26,-13.69,6.67,88.83,107.86,-9.48,5.03,0.41,0.87,3.13,6.44,136.28,9.27,2
2.52,-5.31,-14.26,6.08,78.01,90.77,-70.1,4.88,3.93,-1.1,-5.33,-1.21,90.8,9.6,2
-0.3,4.8,20.52,13.0,10.6,93.21,-46.7,14.7,0.5,-3.8,-7.4,5.6,115.4,8.7,1
2.2,-3.1,0.83,4.2,134.1,98.04,-7.7,1.2,1.5,-1.2,-8.0,1.3,108.8,11.6,3
1.34,-1.82,16.02,8.04,40.24,102.88,-60.66,9.65,1.38,-2.84,-10.04,-1.8,104.83,11.11,3
8.2,-0.9,-6.74,4.0,64.6,100.0,48.9,-0.4,0.6,1.1,-0.4,0.0,262.8,7.2,2
1.87,2.85,13.47,3.68,77.86,106.6,-64.66,-3.42,0.59,-4.56,-12.4,1.01,99.9,12.88,3
7.7,-1.2,-15.87,7.3,44.3,93.85,43.3,2.3,-1.2,-0.1,-2.2,-0.3,214.0,7.4,1
-10.29,1.79,-17.09,-3.98,171.72,136.42,-88.74,6.8,0.6,5.09,22.74,-6.48,130.04,13.38,4
-0.6,-2.9,-3.68,2.2,95.6,100.0,-12.9,2.3,0.9,0.4,0.3,4.6,142.8,10.3,3
-0.85,-3.72,-12.17,8.83,113.8,82.94,-145.73,-1.88,0.36,-0.2,-3.29,0.18,271.79,14.43,2
-0.5,0.1,25.75,2.8,48.8,109.28,-55.6,7.8,2.0,-2.0,-9.1,3.3,75.8,5.0,1
-4.13,-0.54,13.37,2.47,37.35,102.57,-65.04,0.11,0.71,0.8,1.68,-0.69,69.01,7.0,4
-0.6,0.1,-20.41,-2.7,132.5,109.54,-23.3,2.9,1.4,2.9,12.1,-2.9,121.2,10.4,3
0.7,-2.8,-23.52,28.7,48.3,103.81,13.9,9.0,-1.1,0.5,3.6,5.3,144.6,8.1,2
-4.34,-9.12,-15.52,-2.84,118.06,87.49,-126.53,-6.76,-1.36,4.66,8.74,-0.6,254.18,13.86,4
-0.71,-1.99,-9.87,4.14,95.2,101.02,-14.44,3.5,1.01,0.51,0.98,3.8,142.06,10.19,3
-5.6,-5.0,17.63,10.4,70.2,95.07,6.3,11.1,2.7,1.3,1.6,6.8,168.3,6.7,1
-2.45,-11.73,-18.86,-1.82,122.49,80.96,-136.37,-9.4,-1.77,6.02,7.82,-0.77,269.55,15.41,4
2.6,-2.6,9.87,3.2,98.6,109.18,-85.5,-0.5,-0.3,-5.2,-14.6,0.6,139.6,19.6,2
0.4,-1.5,-7.75,5.4,103.5,100.17,51.4,5.1,-0.4,0.2,0.7,22.2,180.5,7.8,2
-7.0,-5.54,-25.66,-2.08,156.6,116.9,-117.55,-2.87,-0.05,10.23,27.84,-4.38,143.67,18.16,4
-0.29,-3.65,-19.16,0.98,64.63,110.23,-36.42,1.25,-0.73,1.99,5.53,-1.2,120.02,8.63,3
-2.44,-8.61,-18.94,2.79,116.24,85.49,-146.7,-8.74,-0.98,5.84,8.8,-0.57,304.32,14.99,4
0.98,0.57,-2.5,2.28,83.21,101.12,-76.07,-5.65,2.59,-0.77,-1.94,-1.16,109.86,16.22,3
-6.34,-2.44,-14.31,2.21,112.16,103.13,-129.83,-3.09,0.17,4.11,13.6,-0.76,268.47,12.67,4
2.0,1.3,-9.15,-0.1,84.9,100.0,2.2,6.4,0.4,0.5,1.2,2.1,124.0,5.6,1
-3.2,1.9,11.12,4.3,15.2,102.38,-82.8,17.9,-1.9,3.4,12.3,3.5,129.1,9.5,2
2.3,-6.4,37.84,9.6,76.7,100.0,-198.4,-18.6,1.0,-3.9,-10.6,-2.3,305.1,11.9,2
5.5,-2.5,-13.78,1.6,46.1,92.87,27.8,3.6,-1.5,1.3,6.9,4.4,221.0,7.3,2
0.69,-3.01,1.18,-1.33,131.22,100.43,-118.3,0.15,0.05,-0.69,-6.2,-1.43,178.58,14.27,3
7.0,-2.4,-8.35,10.3,61.7,114.09,20.1,5.3,0.3,0.4,1.4,8.2,247.2,4.8,1
-0.5,1.7,26.02,2.0,37.2,92.5,-53.6,-7.8,3.0,6.7,19.3,-1.8,68.8,15.7,1
-0.59,-3.62,-5.5,5.62,93.65,105.4,-13.1,3.28,0.46,0.28,0.47,6.62,140.87,9.59,2
-8.78,-3.03,-10.15,-4.86,115.04,106.11,-104.27,-0.53,-0.29,2.71,13.83,-0.86,203.57,11.3,4
-0.07,-4.82,24.28,12.62,87.78,102.63,-165.83,-9.0,0.74,-2.83,-7.47,1.51,265.77,11.3,2
-0.3,-3.6,-14.64,19.5,104.4,90.24,-164.7,-3.7,0.6,-2.2,-6.2,2.6,278.4,13.7,2
0.3,-0.9,-0.15,1.1,17.1,97.38,-73.5,15.3,1.7,2.7,6.5,2.6,130.6,12.2,2
0.2,-6.3,71.33,4.3,67.7,117.61,-167.2,-15.4,0.9,-3.6,-9.0,0.2,250.5,8.4,2
1.85,0.1,9.42,2.99,80.9,102.62,-71.7,-4.95,1.59,-2.88,-9.38,0.02,104.57,15.12,3
0.18,-3.07,-16.18,0.14,63.12,109.18,-54.66,-1.82,-0.04,1.73,4.89,-2.43,112.11,10.83,3
-2.8,6.0,-21.25,-3.6,83.2,88.06,-28.1,3.0,0.4,0.8,2.1,1.5,176.1,7.9,2
-3.5,0.5,14.14,0.8,37.6,101.35,-63.2,-4.7,0.0,0.8,1.6,-1.4,66.8,7.0,4
-1.2,-1.6,7.31,8.6,52.0,107.04,-66.8,4.1,2.0,-4.2,-11.5,9.2,88.5,11.5,1
0.5,-1.8,5.22,-0.4,131.5,106.07,-110.5,-0.5,0.7,-3.1,-10.1,-1.8,169.3,12.6,3
0.24,-4.43,-9.34,2.75,44.26,108.81,-50.02,4.97,-0.18,1.25,2.43,-3.04,111.22,9.15,3
-8.46,0.48,-6.92,-0.94,125.1,125.29,-81.42,6.8,0.98,3.6,15.49,-4.13,109.99,11.17,4
-6.23,-6.59,-24.51,-2.03,150.85,110.84,-120.73,-3.97,-0.34,9.52,24.47,-3.77,164.88,17.69,4
0.66,-2.83,1.77,-1.19,131.26,101.26,-117.16,0.05,0.15,-1.04,-6.77,-1.48,177.23,14.03,3
-0.79,-1.38,-13.97,5.42,94.94,101.69,-15.46,4.29,1.09,0.59,1.44,3.27,141.57,10.11,3
0.4,-3.6,6.93,10.9,9.8,76.91,-50.7,0.1,0.8,1.8,-6.5,7.6,117.2,13.0,1
-0.65,-2.0,-15.91,4.23,85.89,104.29,-21.79,3.46,0.55,1.01,2.7,1.89,135.11,9.66,3
8.4,-1.8,1.52,-0.1,56.9,110.77,59.4,-0.1,0.7,-1.0,-3.8,3.7,249.1,5.9,2
-0.7,-2.6,24.74,7.0,37.3,105.17,-49.1,9.5,0.7,-0.2,-3.1,0.6,53.7,6.5,1
0.44,-1.11,-10.18,4.14,105.02,99.74,48.53,4.75,0.21,0.46,2.35,11.66,172.53,7.97,2
0.7,-3.1,0.87,-1.4,131.2,100.0,-118.9,0.2,0.0,-0.5,-5.9,-1.4,179.3,14.4,3
2.8,0.1,23.24,3.9,77.8,105.0,-65.6,-3.9,0.3,-5.5,-18.1,1.5,97.9,13.5,3
-0.8,-1.3,-14.53,5.6,94.9,101.78,-15.6,4.4,1.1,0.6,1.5,3.2,141.5,10.1,3
-0.99,-4.42,-0.72,5.68,117.2,102.45,-136.72,-6.64,0.52,0.65,-1.04,1.89,275.65,14.45,3
3.11,1.15,-12.57,-0.12,79.55,99.16,-38.43,0.27,0.55,1.7,4.52,-4.58,98.23,9.54,2
-1.64,-5.79,-4.01,8.32,110.62,100.0,-149.81,-9.35,0.35,2.71,3.65,3.64,325.59,15.53,3
2.3,2.3,77.37,5.1,63.5,127.42,-165.0,-2.8,0.8,-3.2,-6.4,-7.8,223.2,7.0,2
1.44,-2.09,4.82,-0.43,111.68,106.5,-98.83,0.7,0.69,-1.59,-7.51,-0.28,158.85,18.06,2
-2.2,3.6,6.85,-4.9,181.2,98.21,-143.6,1.4,0.4,-4.6,-9.9,-0.8,115.5,21.5,4
2.26,0.1,15.41,3.39,79.55,103.65,-69.06,-4.49,1.03,-4.02,-13.16,0.66,101.68,14.42,3
-2.0,-6.2,-4.75,9.8,107.5,100.0,-154.5,-10.8,0.4,3.2,5.1,4.4,347.8,15.7,3
-3.51,0.48,14.13,0.83,37.6,101.37,-63.24,-4.61,0.01,0.8,1.6,-1.39,66.84,7.0,4
-1.0,-5.1,17.73,9.1,54.3,102.29,-61.6,2.5,1.8,-2.2,-9.6,5.1,81.6,7.6,1
5.7,-2.5,23.98,6.5,50.3,109.26,64.0,1.5,4.4,-0.9,-1.1,5.5,132.1,4.7,1
7.6,-2.3,-2.96,6.7,61.9,104.44,61.4,-0.3,0.3,0.0,-2.4,3.9,259.3,6.8,2
2.4,4.2,22.94,4.5,74.7,109.84,-57.9,-2.1,-0.6,-6.8,-18.6,2.3,94.0,10.9,3
-3.55,0.42,13.59,0.76,39.27,101.61,-63.92,-4.67,0.0,0.93,1.98,-1.45,67.7,7.16,4
-4.33,-9.14,-15.54,-2.83,118.07,87.43,-126.6,-6.77,-1.37,4.67,8.73,-0.6,254.33,13.87,4
4.1,-2.9,22.52,3.9,55.5,104.82,35.4,-1.5,4.3,-1.1,-2.0,15.2,136.1,5.3,1
-2.1,-12.2,-18.34,-1.8,119.9,78.23,-137.8,-9.9,-1.9,5.7,6.3,-0.5,279.1,15.2,4
5.0,-2.0,17.79,5.3,74.1,110.33,-24.2,3.7,3.3,-2.2,-9.0,0.9,76.3,7.9,1
-0.57,-3.98,-15.21,6.41,89.93,107.36,-2.77,5.28,0.47,0.98,3.79,5.47,138.28,9.09,2
2.67,1.45,23.14,4.1,76.78,106.59,-63.07,-3.31,0.0,-5.93,-18.26,1.76,96.62,12.65,3
-2.8,-7.8,-25.92,10.4,80.1,89.47,-11.6,5.8,-0.3,1.3,6.3,1.6,176.6,7.8,2
-2.73,-5.57,-19.45,6.66,113.14,91.63,-154.22,-7.75,-0.2,5.95,10.91,-0.63,325.64,14.82,4
-0.1,-4.5,-20.85,-0.7,53.6,113.31,-44.0,0.1,-1.4,2.5,7.0,-2.8,112.2,8.1,3
0.6,-0.52,-13.11,2.49,106.42,99.42,45.03,4.32,1.0,0.78,4.43,-1.89,161.43,8.14,2
1.1,0.9,1.08,1.4,101.7,102.86,56.8,0.9,0.3,-0.8,-3.9,0.4,185.4,7.8,1
-2.4,0.5,-4.48,5.2,44.5,95.34,-45.9,3.8,1.5,1.0,2.9,2.9,70.7,7.0,1
4.1,0.3,-4.61,-3.8,82.6,100.0,-31.2,-0.1,1.4,0.4,-4.3,-5.0,87.4,9.6,2
5.0,-1.0,21.39,0.4,22.3,109.59,51.8,4.0,-0.6,0.5,-7.2,27.4,322.9,6.2,1
-4.53,1.59,16.02,0.55,100.78,103.23,-122.16,-0.67,1.08,-3.91,-12.14,8.3,284.28,10.93,3
-4.3,3.4,-2.78,0.6,43.5,99.71,-63.9,5.4,-0.1,2.6,14.4,2.9,69.5,13.3,1
-5.91,-2.9,-10.86,-0.99,113.09,112.93,-95.81,-3.21,0.06,6.86,18.93,-3.44,107.52,14.05,4
6.5,-7.8,-17.73,2.5,44.9,88.28,36.1,-0.2,-1.5,1.5,2.3,7.9,224.0,7.8,2
-0.25,-3.81,-19.5,0.65,62.45,110.84,-37.92,1.02,-0.86,2.09,5.82,-1.51,118.48,8.53,3
2.7,-5.2,-2.11,19.5,75.5,113.12,-59.6,5.4,5.4,-2.5,-13.7,-3.1,77.5,6.5,1
2.76,0.1,22.66,3.86,77.93,104.9,-65.86,-3.94,0.35,-5.39,-17.73,1.44,98.18,13.57,3
-2.45,-4.83,-1.09,8.17,106.32,100.57,-148.81,-9.02,0.52,1.95,2.07,5.09,336.62,14.86,3
2.1,-6.8,-16.82,8.7,76.8,88.33,-80.4,6.2,4.6,-1.5,-5.6,-0.2,91.7,9.6,2
1.18,2.28,16.06,4.95,27.89,110.95,-43.52,14.46,2.0,-1.77,-5.92,1.85,84.11,6.5,2
-7.05,-5.4,-12.12,-4.09,115.84,98.69,-112.89,-2.95,-0.72,3.41,11.7,-0.72,224.04,12.24,4
-4.5,-10.8,-1.18,-1.7,86.2,108.74,-10.0,5.1,0.9,-1.1,-4.9,7.2,167.7,4.8,1
-8.34,-3.66,-15.33,-3.97,129.36,110.59,-108.01,-1.1,-0.17,5.25,18.89,-2.09,180.77,13.58,4
-0.79,-1.23,-14.8,5.21,96.65,102.14,-15.96,4.33,1.11,0.71,1.99,2.92,140.56,10.11,3
-4.93,-1.89,12.38,4.62,37.03,104.14,-67.4,6.28,1.62,0.8,1.79,0.22,71.86,7.0,4
-6.12,-3.4,-5.73,1.57,94.32,111.65,-90.18,2.55,0.95,5.38,14.8,-2.04,100.39,12.33,4
0.89,-1.48,8.26,0.33,122.44,105.89,-102.93,-1.07,0.63,-3.5,-11.45,-1.24,157.26,12.75,3
3.1,0.0,10.82,-7.6,72.9,123.6,-55.1,9.1,4.2,-2.0,-9.7,0.7,70.8,5.4,1
-5.65,-7.32,-13.88,-3.44,116.99,92.9,-119.94,-4.92,-1.05,4.06,10.17,-0.66,239.62,13.08,4
1.47,1.44,9.22,1.28,115.2,119.81,-100.11,3.47,1.12,-4.42,-12.54,0.88,150.81,12.15,2
-10.23,1.57,-16.82,-4.04,169.35,135.05,-89.53,6.45,0.56,4.98,22.36,-6.23,133.74,13.3,4
-10.24,1.61,-16.88,-4.04,169.82,135.3,-89.4,6.51,0.56,5.0,22.44,-6.27,133.14,13.31,4
0.1,6.9,-1.46,-2.6,99.8,103.87,38.1,3.7,1.0,-1.5,-6.3,3.7,185.1,7.0,1
-5.0,-2.0,12.3,4.8,37.0,104.27,-67.6,6.8,1.7,0.8,1.8,0.3,72.1,7.0,4
6.9,-2.5,-17.81,1.8,44.0,90.99,37.2,1.5,-1.4,0.4,-0.8,-3.0,216.1,7.7,1
5.4,0.5,16.34,37.8,22.7,94.98,59.3,7.1,2.9,0.2,5.8,28.7,324.9,5.6,1
-6.35,1.04,1.02,-1.21,93.96,116.08,-73.93,0.12,0.25,2.6,10.48,-3.54,93.36,9.68,4
7.9,-2.1,1.07,4.7,35.8,108.5,55.4,1.6,1.3,-0.5,-1.8,1.4,202.7,6.0,1
0.49,-2.31,20.7,4.56,31.28,106.17,-49.24,10.57,2.0,-2.04,-6.16,1.34,83.11,7.36,2
0.8,0.1,-5.77,2.0,84.3,100.0,-78.4,-6.1,3.0,0.0,0.2,-1.6,111.9,16.9,3
-10.3,1.8,-17.17,-4.0,172.1,136.51,-88.8,6.8,0.6,5.1,22.8,-6.5,130.2,13.4,4
-0.2,-0.3,-10.28,-10.3,95.8,96.28,-92.8,-5.1,0.8,5.7,14.0,-10.0,178.2,24.1,2
-2.67,-6.21,-19.34,5.85,113.8,90.34,-152.63,-7.96,-0.36,5.93,10.46,-0.61,321.15,14.86,4
6.1,-2.4,-5.55,15.1,22.0,88.54,58.4,5.9,0.7,0.4,1.6,25.9,303.7,4.8,1
1.03,0.1,-2.39,2.22,83.54,100.58,-76.91,-5.84,2.69,-0.64,-1.93,-1.24,110.27,16.5,3
8.5,4.9,24.47,2.3,45.6,114.74,63.2,4.1,5.9,-0.9,-2.5,7.5,129.0,4.1,1
-2.4,2.5,3.2,8.9,49.4,117.31,-68.1,11.3,1.5,-3.6,-11.6,2.0,91.0,8.1,1
-3.4,-4.3,-0.26,7.4,56.0,96.32,-68.9,3.1,1.7,1.4,3.6,3.3,75.4,10.0,1
-1.4,-3.1,-9.77,11.4,44.9,94.54,-41.4,4.2,2.7,0.0,0.7,4.4,73.7,6.9,1
-4.91,-1.5,-0.52,-0.25,81.86,108.14,-82.32,-3.83,0.04,4.36,11.76,-2.6,90.67,11.14,4
-7.61,-4.7,-23.81,-2.52,152.82,117.94,-114.13,-2.03,0.04,9.4,27.2,-4.11,143.41,17.32,4
2.66,-0.02,22.12,3.63,81.13,105.07,-68.39,-3.69,0.32,-5.35,-17.6,1.3,102.33,13.44,3
-4.87,-8.4,-14.86,-3.08,117.63,89.67,-123.87,-6.01,-1.24,4.42,9.32,-0.62,248.31,13.55,4
-8.27,-3.76,-16.15,-3.83,131.63,111.3,-108.6,-1.19,-0.15,5.65,19.7,-2.29,177.16,13.94,4
-4.8,-11.4,15.13,4.8,54.5,108.27,-62.4,4.2,1.9,1.2,8.5,6.6,73.9,9.2,1
0.78,1.23,3.31,2.53,35.23,120.76,-38.4,12.64,0.22,-0.3,-1.31,2.08,104.56,6.73,2
-2.61,-4.31,0.27,7.56,105.87,100.78,-146.68,-8.35,0.56,1.48,0.93,5.34,332.43,14.55,3
0.06,-3.68,-18.17,-0.22,59.05,110.95,-50.11,-1.0,-0.62,2.06,5.79,-2.59,112.15,9.66,3
-0.1,6.4,3.49,8.2,33.8,114.86,-31.0,16.5,3.2,-1.9,-5.2,4.3,56.4,7.1,1
-0.5,-3.0,2.4,4.6,98.3,103.04,-16.6,1.6,0.5,-0.3,-2.1,6.8,145.3,9.9,2
-6.28,-6.47,-13.09,-3.73,116.47,95.48,-116.8,-4.04,-0.9,3.77,10.85,-0.69,232.67,12.71,4
-4.5,-4.4,-26.64,-17.4,177.4,109.02,-130.4,-10.0,-0.3,12.8,25.3,-4.0,132.3,23.3,4
1.8,0.1,-12.48,5.9,63.4,96.09,43.0,2.4,6.0,-1.0,-1.6,7.4,143.6,6.0,1
0.9,-0.8,14.27,1.4,126.1,114.08,-110.4,2.8,1.5,-3.9,-10.9,2.3,162.4,10.9,2
1.9,-3.8,-22.85,-1.3,77.4,85.69,-82.2,7.5,2.8,-0.6,0.2,-0.8,95.8,10.7,2
2.7,3.9,13.57,6.8,22.3,117.28,-36.8,18.3,2.2,-2.6,-8.9,3.9,95.0,6.3,2
-1.0,-5.6,-13.98,6.3,175.9,100.0,-135.4,-9.7,0.3,3.7,-5.5,-3.0,128.0,26.3,4
-0.97,-4.39,-0.64,5.6,117.39,102.5,-136.38,-6.56,0.52,0.6,-1.16,1.85,274.27,14.42,3
0.9,-0.4,-5.01,2.4,104.9,101.19,54.5,-0.9,0.1,0.1,-3.6,23.8,194.9,8.3,1
2.13,-3.14,20.12,7.01,24.99,111.93,-44.51,13.64,2.17,-3.29,-10.19,4.08,99.93,7.76,2
-1.4,2.1,-23.06,1.4,63.6,100.0,4.8,3.3,0.6,0.7,3.4,6.9,152.1,8.8,2
0.9,4.2,6.46,7.3,42.6,100.0,-43.6,11.8,2.3,-2.7,-10.4,2.6,55.3,10.5,1
-3.51,0.48,14.13,0.83,37.6,101.37,-63.23,-4.63,0.01,0.8,1.6,-1.39,66.83,7.0,4
-0.9,-1.1,-5.63,-1.2,46.5,123.79,-39.8,7.7,-1.5,1.7,5.3,0.5,112.9,7.1,2
-4.9,0.2,1.09,11.7,86.8,105.5,0.3,3.7,0.9,-1.4,-7.7,8.8,166.4,5.4,1
-4.6,1.8,16.57,0.3,100.6,103.32,-121.3,-0.4,1.1,-4.1,-12.6,8.4,282.6,10.8,3
-1.7,2.7,-27.3,9.4,59.8,100.46,-3.1,7.6,0.5,0.2,0.4,1.7,148.8,8.2,2
-2.9,0.4,11.98,11.4,41.6,102.42,-67.1,16.0,1.8,-4.2,-11.4,-4.4,82.2,12.6,1
-9.31,-1.37,-12.38,-4.59,133.97,116.29,-98.91,1.98,0.01,3.45,16.72,-2.73,179.37,11.95,4
-4.78,-8.56,-22.34,-1.95,139.97,99.37,-126.73,-6.06,-0.89,8.18,18.08,-2.62,205.05,16.82,4
-5.15,-1.83,-3.0,-0.43,89.35,109.29,-85.56,-3.68,0.04,4.96,13.48,-2.8,94.71,11.84,4
-5.6,-7.4,-13.95,-3.42,117.03,92.67,-120.22,-5.0,-1.07,4.08,10.11,-0.66,240.23,13.11,4
2.2,-2.64,-17.74,23.83,51.66,105.36,22.27,8.19,-0.78,0.28,2.71,5.14,135.8,7.33,2
2.32,-2.9,20.03,7.08,25.13,112.51,-42.94,13.77,2.29,-3.45,-10.79,4.09,98.78,7.62,2
-5.79,-7.14,-13.71,-3.51,116.87,93.46,-119.26,-4.73,-1.02,3.99,10.32,-0.67,238.12,13.0,4
5.7,0.8,8.2,10.3,23.7,91.43,58.9,7.6,1.7,0.5,1.3,27.8,313.3,5.3,1
-8.24,-3.8,-16.48,-3.78,132.54,111.59,-108.84,-1.22,-0.14,5.81,20.02,-2.37,175.7,14.09,4
-4.1,-1.93,-18.32,8.71,110.11,100.58,-153.34,-5.45,0.61,5.49,13.6,-0.72,326.82,14.0,4
-4.8,1.4,1.39,10.7,54.1,101.13,-65.3,5.3,1.8,1.6,5.9,4.8,73.4,9.8,1
2.1,-2.4,26.53,-6.2,43.9,92.26,-74.7,-20.6,-1.4,6.9,17.4,-2.4,115.2,17.7,1
-2.74,-5.45,-19.47,6.82,113.02,91.88,-154.52,-7.71,-0.16,5.96,11.0,-0.63,326.5,14.81,4
0.18,-3.08,-16.18,0.14,63.1,109.19,-54.65,-1.82,-0.04,1.73,4.9,-2.43,112.11,10.82,3
-1.2,-3.8,-10.57,1.9,119.9,78.19,-133.4,-0.7,0.2,1.1,-1.4,-1.4,267.5,14.9,2
-3.5,-2.5,-8.31,3.4,69.9,128.08,-93.8,-1.4,1.2,6.9,21.7,-4.2,198.2,19.7,2
0.5,-0.6,-13.33,2.5,107.0,99.19,44.8,4.3,1.0,0.8,4.5,-2.0,162.2,8.2,2
1.3,-1.0,-11.49,0.0,100.7,96.46,-95.9,-3.6,0.3,4.0,7.0,-6.6,168.1,25.1,2
0.9,-4.3,13.16,9.5,26.0,100.0,-61.8,14.5,2.2,-1.2,-6.5,-3.5,109.3,11.2,3
-3.3,3.4,-11.62,-7.7,84.2,88.71,-17.8,3.9,1.0,0.2,0.8,6.6,170.2,7.8,2
7.5,2.6,-1.5,-4.1,33.9,112.3,64.4,1.6,1.3,-0.6,-1.7,3.5,198.3,5.6,1
0.9,0.2,-15.53,0.5,135.4,104.16,-21.0,2.6,1.8,3.4,13.5,-0.3,118.9,11.9,3
1.22,-2.5,15.23,8.44,36.3,102.08,-60.97,10.99,1.61,-2.38,-9.06,-2.27,106.06,11.14,3
2.3,0.9,-2.83,-2.8,82.9,107.03,4.1,5.4,0.7,0.6,1.5,3.4,123.5,5.8,1
-2.8,-4.82,-19.58,7.62,112.38,93.15,-156.08,-7.51,-0.0,5.98,11.43,-0.64,330.93,14.78,4
1.0,-1.7,-13.57,2.7,105.2,100.0,45.2,0.5,0.7,1.0,2.3,12.1,176.1,8.5,1
-4.26,-9.26,-21.57,-1.92,136.11,95.31,-128.86,-6.8,-1.08,7.7,15.81,-2.21,219.29,16.51,4
1.7,0.7,-18.42,-3.2,81.3,95.34,1.3,6.4,1.1,0.1,0.2,1.0,127.1,5.0,1
2.0,-3.4,-4.02,3.3,134.8,100.19,-11.9,1.5,1.5,-0.2,-2.2,0.1,111.7,12.1,3
-2.9,-3.2,-10.3,1.1,51.8,93.79,-60.6,-0.3,1.0,2.9,6.7,1.9,71.1,14.0,1
0.2,-2.64,2.34,-1.24,128.34,100.31,-119.12,0.14,0.1,-0.84,-6.53,-0.48,188.96,14.06,3
-0.6,-1.15,-13.44,-0.66,117.14,105.57,-18.97,2.65,1.19,1.86,7.19,0.22,130.19,10.36,3
-4.06,-0.43,13.45,2.29,37.38,102.44,-64.84,-0.41,0.63,0.8,1.67,-0.77,68.78,7.0,4
2.6,4.1,4.61,-2.3,97.6,114.86,-80.2,0.7,-0.6,-5.0,-14.0,0.4,134.4,17.4,2
-2.53,-7.64,-19.1,4.02,115.26,87.44,-149.09,-8.42,-0.73,5.87,9.47,-0.59,311.09,14.94,4
-0.6,-10.0,-6.24,5.2,42.2,96.29,-36.6,4.0,3.0,0.0,-2.2,1.7,71.5,6.7,1
5.1,-1.5,33.28,5.2,20.1,105.68,54.6,1.2,0.1,0.4,3.4,-9.6,309.0,6.3,1
1.9,-0.8,24.41,-0.2,6.1,74.59,-54.0,-2.2,0.5,5.4,10.4,-0.8,118.9,14.2,1
0.85,0.16,-15.5,0.64,134.27,104.09,-20.85,2.65,1.78,3.32,13.17,-0.2,119.53,11.85,3
-0.59,-1.05,-4.2,-0.6,38.81,116.88,-48.62,9.69,-0.66,1.96,5.61,1.05,117.53,8.43,2
-7.4,-5.0,-26.26,-2.1,159.6,120.06,-115.9,-2.3,0.1,10.6,29.6,-4.7,132.6,18.4,4
8.3,-2.0,5.78,4.0,65.3,111.65,56.3,4.9,0.5,-0.6,-0.9,4.5,100.0,4.2,2
-3.1,-1.7,-20.1,11.6,109.2,99.45,-163.8,-6.5,0.8,6.1,13.6,-0.7,352.8,14.6,4
-4.91,-1.85,12.41,4.57,37.04,104.1,-67.34,6.13,1.6,0.8,1.79,0.2,71.79,7.0,4
6.4,-9.0,-16.75,3.2,81.1,92.35,28.7,2.5,0.9,-1.1,-3.2,1.4,101.9,6.1,1
1.5,-2.4,-9.7,1.4,135.3,100.0,-19.3,2.0,0.5,1.3,5.0,-1.4,115.1,12.3,3
6.21,-2.33,-10.01,1.18,48.76,97.28,35.59,2.69,-0.96,0.73,4.26,4.23,227.92,6.96,2
-2.98,-2.96,-19.89,9.99,110.49,96.9,-160.67,-6.91,0.48,6.05,12.72,-0.68,343.93,14.67,4
0.7,-3.06,0.79,-1.36,130.65,100.0,-118.43,0.13,0.03,-0.49,-5.83,-1.4,178.52,14.43,3
1.0,3.1,8.95,0.5,122.0,124.17,-106.1,5.1,1.7,-4.1,-11.7,1.0,155.4,9.1,2
0.5,1.7,8.2,6.2,39.3,113.33,-56.2,15.2,2.4,-1.3,-2.6,2.4,76.9,9.4,1
7.9,5.3,3.49,2.0,61.9,117.37,62.5,5.6,1.0,-0.6,-1.0,6.5,102.1,3.8,2
-0.7,2.1,-4.08,1.4,54.7,93.4,-62.2,2.6,1.2,0.8,0.1,5.0,75.2,13.9,1
0.52,-2.63,-6.88,1.77,116.7,100.0,-16.3,2.14,0.69,0.88,2.8,1.41,128.08,11.36,3
1.9,-3.2,-3.29,-2.0,99.3,100.0,-88.9,-1.1,0.0,0.4,-4.6,-2.5,155.8,24.2,2
-6.83,-2.55,-13.44,0.81,112.6,103.68,-124.74,-2.57,0.08,3.81,13.6,-0.77,255.85,12.38,4
-2.6,-0.5,7.39,4.3,39.8,98.89,-45.2,3.4,0.8,0.5,8.2,2.1,68.3,6.9,1
0.3,-1.2,4.06,10.4,51.9,100.0,-63.9,2.7,1.5,-1.8,-7.5,5.1,80.6,13.0,1
-5.97,-3.21,-3.26,2.02,86.48,110.64,-87.09,3.13,1.05,4.76,13.02,-1.72,96.52,11.6,4
-1.9,-1.0,21.09,1.2,39.2,98.15,-57.1,6.7,1.6,-0.1,0.1,-2.3,62.1,6.9,2
5.6,10.3,-19.51,5.6,37.6,78.78,-15.5,4.1,1.4,0.4,-1.4,2.4,190.5,8.1,2
-1.94,-6.09,-4.5,9.55,108.1,100.15,-153.41,-10.54,0.41,3.04,4.72,4.25,343.36,15.62,3
0.0,-8.2,-2.16,8.1,40.0,100.0,-32.9,0.1,2.4,-0.6,-6.9,0.3,68.1,6.1,1
3.2,1.2,-12.73,-0.1,80.3,98.6,-38.4,0.1,0.6,1.7,4.5,-4.7,97.9,9.6,2
2.1,7.7,0.75,6.9,8.4,108.14,-27.7,14.3,2.4,-1.1,-1.3,3.7,101.5,6.0,1
1.83,0.96,19.22,6.4,56.16,106.09,-59.38,4.22,0.47,-4.67,-13.99,0.09,99.82,11.01,3
2.78,0.1,22.97,3.88,77.86,104.95,-65.72,-3.92,0.33,-5.45,-17.93,1.47,98.03,13.53,3
2.2,4.8,3.92,1.7,74.0,113.27,3.7,4.7,1.3,-0.3,-1.2,3.9,121.0,5.5,1
-3.62,-1.2,8.57,3.87,103.19,102.07,-133.76,-4.3,0.84,-1.36,-5.96,6.9,307.08,12.64,3
-2.32,-9.89,-18.73,1.15,117.55,82.9,-143.52,-9.15,-1.31,5.79,7.9,-0.54,295.3,15.07,4
-2.0,2.5,13.52,13.2,37.3,100.0,-64.1,17.2,1.3,-3.3,-12.2,-0.5,80.4,10.9,1
0.55,-1.5,3.47,-0.02,124.0,105.11,-105.4,-1.39,1.07,-2.61,-8.46,-1.77,160.18,13.28,3
6.38,-7.18,-17.27,2.39,45.04,88.82,35.13,0.25,-1.5,1.48,2.84,7.49,223.65,7.74,2
0.15,-2.59,2.5,-1.22,128.03,100.34,-119.15,0.14,0.11,-0.87,-6.59,-0.38,190.01,14.03,3
9.9,3.2,1.68,-3.3,52.4,118.9,70.7,3.0,0.7,-1.6,-4.1,4.5,241.6,4.9,2
-8.52,-3.39,-13.14,-4.35,123.29,108.69,-106.42,-0.85,-0.22,4.17,16.75,-1.57,190.43,12.62,4
2.3,-4.3,2.9,2.4,99.2,104.45,-85.5,-1.2,-0.1,-3.5,-11.1,-0.4,147.4,22.1,2
-0.5,2.7,21.45,4.1,37.8,100.0,-54.7,0.6,1.3,0.0,-0.9,0.2,58.0,6.9,1
-8.55,-3.36,-12.89,-4.39,122.62,108.48,-106.25,-0.83,-0.23,4.05,16.51,-1.51,191.51,12.51,4
0.8,-0.8,-23.17,-5.8,78.6,89.71,-92.2,7.7,2.5,0.8,1.8,-6.0,102.2,11.1,2
