PC_CA-avg_3y,REER-pch_3y,X_GS_share_M-pch_5y,FSL-pch,GD-pc_gdp,HPI-pch,NIIP-pc_gdp,ULC-pch_3y,ACT-pch_3y,LTU-pch_3y,YUR-pch_3y,PSCF-pc_gdp,PSD-pc_gdp,UR-avg_3y,label
1.71,0.26,18.41,6.82,52.15,105.28,-59.71,5.59,0.7,-4.21,-13.0,-0.39,101.09,11.04,3
-1.15,-4.02,-9.18,0.3,102.86,106.63,-96.81,-3.35,1.02,3.11,5.93,-7.76,181.47,18.56,3
0.9,5.8,7.29,8.6,10.0,100.0,-39.9,15.3,1.9,-3.1,-7.8,2.7,112.8,7.4,1
-0.7,-2.6,24.74,7.0,37.3,105.17,-49.1,9.5,0.7,-0.2,-3.1,0.6,53.7,6.5,1
5.0,-2.0,17.79,5.3,74.1,110.33,-24.2,3.7,3.3,-2.2,-9.0,0.9,76.3,7.9,1
-1.4,0.4,-15.78,3.9,63.2,100.19,5.2,0.4,0.7,0.6,0.2,1.3,148.0,9.0,1
-1.4,2.1,-23.06,1.4,63.6,100.0,4.8,3.3,0.6,0.7,3.4,6.9,152.1,8.8,2
-4.3,3.4,-2.78,0.6,43.5,99.71,-63.9,5.4,-0.1,2.6,14.4,2.9,69.5,13.3,1
1.68,2.35,9.97,3.37,79.04,105.4,-67.16,-3.91,1.03,-3.73,-10.11,0.54,102.08,13.61,3
-2.8,-7.8,-25.92,10.4,80.1,89.47,-11.6,5.8,-0.3,1.3,6.3,1.6,176.6,7.8,2
-3.69,-8.77,-17.91,-2.51,123.7,85.94,-130.07,-8.35,-1.11,4.78,11.02,-2.09,250.48,14.36,4
2.52,0.74,16.57,6.93,23.62,115.06,-39.65,16.19,2.24,-2.99,-9.78,3.99,96.76,6.91,2
-1.76,-6.08,0.87,14.97,61.62,98.13,17.79,8.8,2.73,0.77,0.66,1.75,156.69,7.01,2
2.3,-7.2,-9.31,0.4,76.2,100.0,-67.9,1.0,4.9,-1.9,-10.9,-2.5,84.2,8.2,1
1.5,-4.7,9.44,9.3,29.3,106.56,-47.9,8.6,0.3,-2.9,-11.2,3.0,104.5,9.4,3
0.68,-2.94,1.39,-1.28,131.24,100.72,-117.9,0.12,0.08,-0.81,-6.4,-1.45,178.11,14.19,3
2.4,-1.8,-12.5,1.5,82.4,88.31,-1.9,5.8,0.7,0.2,0.4,3.0,129.4,4.9,1
-1.8,-5.06,-15.54,0.48,91.11,106.21,-92.11,-4.44,1.07,5.93,12.94,-10.15,187.51,21.19,3
2.4,4.2,22.94,4.5,74.7,109.84,-57.9,-2.1,-0.6,-6.8,-18.6,2.3,94.0,10.9,3
-4.39,-0.99,13.04,3.19,37.24,103.09,-65.82,2.16,1.01,0.8,1.72,-0.39,69.96,7.0,4
0.9,-0.8,14.27,1.4,126.1,114.08,-110.4,2.8,1.5,-3.9,-10.9,2.3,162.4,10.9,2
0.43,-1.19,-9.7,4.39,104.72,99.83,49.1,4.82,0.09,0.41,2.02,13.76,174.12,7.94,2
-0.6,-10.0,-6.24,5.2,42.2,96.29,-36.6,4.0,3.0,0.0,-2.2,1.7,71.5,6.7,1
-2.31,-7.36,-15.67,-2.48,113.16,87.69,-148.28,-6.0,-1.09,5.32,13.09,-5.38,305.44,13.8,4
-2.6,-0.5,7.39,4.3,39.8,98.89,-45.2,3.4,0.8,0.5,8.2,2.1,68.3,6.9,1
-1.9,-1.0,21.09,1.2,39.2,98.15,-57.1,6.7,1.6,-0.1,0.1,-2.3,62.1,6.9,2
-2.28,-11.81,-18.29,-1.88,120.34,79.11,-136.91,-9.72,-1.81,5.59,6.84,-0.68,275.81,15.1,4
0.16,-3.16,-16.45,0.09,62.56,109.43,-54.04,-1.71,-0.12,1.77,5.02,-2.45,112.11,10.67,3
-1.6,-5.6,38.33,8.2,35.1,108.6,-47.4,15.4,1.6,-0.8,-5.7,1.7,50.9,5.9,1
-2.45,-5.13,-14.97,3.39,161.98,99.01,-130.62,-8.66,0.21,3.64,1.36,-3.39,152.51,22.41,4
8.3,-1.7,-2.87,5.2,37.2,105.09,52.6,1.3,0.9,-0.6,-2.6,3.1,209.0,6.4,1
2.0,-4.7,-21.72,0.4,81.9,92.57,-3.2,3.8,0.8,0.0,-1.3,1.2,128.2,4.8,1
-4.64,-6.73,-17.65,-2.93,125.97,90.54,-125.45,-7.43,-0.63,4.23,13.84,-3.04,233.37,13.86,4
0.75,-0.16,-6.63,1.85,82.55,100.76,-76.44,-5.75,2.75,0.14,0.59,-1.67,111.92,16.4,3
-5.71,-2.61,-8.72,-0.84,106.64,111.94,-93.02,-3.34,0.06,6.35,17.45,-3.27,104.04,13.45,4
0.58,-2.34,3.42,-0.81,131.38,103.56,-113.97,-0.21,0.41,-2.03,-8.37,-1.63,173.43,13.34,3
-4.48,-1.14,12.94,3.42,37.21,103.26,-66.08,2.82,1.11,0.8,1.73,-0.29,70.27,7.0,4
-1.2,-2.6,-4.91,-4.0,61.3,101.04,0.1,-3.6,1.3,0.2,-0.4,7.0,146.0,8.9,1
-0.1,-4.5,-20.85,-0.7,53.6,113.31,-44.0,0.1,-1.4,2.5,7.0,-2.8,112.2,8.1,3
4.1,-2.9,22.52,3.9,55.5,104.82,35.4,-1.5,4.3,-1.1,-2.0,15.2,136.1,5.3,1
0.7,-3.1,0.87,-1.4,131.2,100.0,-118.9,0.2,0.0,-0.5,-5.9,-1.4,179.3,14.4,3
1.25,-4.53,10.99,9.38,27.92,103.83,-53.69,11.06,1.09,-2.19,-9.24,0.29,106.5,10.15,3
2.6,-2.6,9.87,3.2,98.6,109.18,-85.5,-0.5,-0.3,-5.2,-14.6,0.6,139.6,19.6,2
5.1,-1.5,33.28,5.2,20.1,105.68,54.6,1.2,0.1,0.4,3.4,-9.6,309.0,6.3,1
-0.7,-4.37,-15.42,6.81,87.88,108.31,-8.81,5.39,0.41,0.99,3.67,6.34,135.33,9.21,2
-5.96,-3.2,-3.18,2.03,86.21,110.61,-86.99,3.15,1.06,4.73,12.96,-1.71,96.38,11.58,4
-0.42,-1.02,-3.45,-0.29,34.82,113.3,-53.19,10.72,-0.23,2.1,5.78,1.33,119.93,9.13,2
0.7,-2.8,-23.52,28.7,48.3,103.81,13.9,9.0,-1.1,0.5,3.6,5.3,144.6,8.1,2
2.7,-5.2,-2.11,19.5,75.5,113.12,-59.6,5.4,5.4,-2.5,-13.7,-3.1,77.5,6.5,1
-4.8,1.4,1.39,10.7,54.1,101.13,-65.3,5.3,1.8,1.6,5.9,4.8,73.4,9.8,1
-0.64,-3.33,-4.74,0.08,111.69,106.46,-101.03,-2.47,0.92,1.2,0.99,-5.92,177.72,16.72,3
-2.78,-3.79,1.66,6.94,105.43,101.0,-144.52,-7.67,0.61,1.01,-0.22,5.6,328.2,14.23,3
8.5,4.9,24.47,2.3,45.6,114.74,63.2,4.1,5.9,-0.9,-2.5,7.5,129.0,4.1,1
2.6,4.1,4.61,-2.3,97.6,114.86,-80.2,0.7,-0.6,-5.0,-14.0,0.4,134.4,17.4,2
-2.0,-6.2,-4.75,9.8,107.5,100.0,-154.5,-10.8,0.4,3.2,5.1,4.4,347.8,15.7,3
8.1,-2.1,2.13,5.2,69.2,106.77,51.4,4.9,0.3,-0.6,-0.7,3.7,98.2,4.6,2
-1.37,-4.72,-12.7,0.15,98.04,105.14,-96.74,-3.64,0.89,4.82,9.68,-8.64,186.09,20.01,3
-6.24,-3.55,-7.65,1.23,100.44,112.44,-92.59,2.09,0.87,5.87,16.19,-2.29,103.41,12.9,4
-3.42,-4.81,-15.62,1.45,152.71,98.35,-127.44,-7.97,0.15,3.6,5.92,-3.64,168.85,19.82,4
-1.5,-4.5,-12.3,0.45,96.66,106.76,-93.85,-3.97,1.09,4.45,9.4,-9.05,184.1,19.85,3
-2.09,-5.37,-16.47,1.44,88.03,106.39,-94.27,-5.47,1.13,6.41,14.37,-9.92,201.53,21.48,3
9.9,3.2,1.68,-3.3,52.4,118.9,70.7,3.0,0.7,-1.6,-4.1,4.5,241.6,4.9,2
2.13,2.66,21.17,5.4,65.9,108.06,-58.61,0.9,-0.09,-5.79,-16.41,1.25,96.77,10.95,3
2.0,-3.4,-4.02,3.3,134.8,100.19,-11.9,1.5,1.5,-0.2,-2.2,0.1,111.7,12.1,3
0.5,-0.6,-13.33,2.5,107.0,99.19,44.8,4.3,1.0,0.8,4.5,-2.0,162.2,8.2,2
2.07,-6.41,-17.61,7.39,76.88,87.98,-80.64,6.37,4.36,-1.38,-4.84,-0.28,92.24,9.74,2
-1.1,-4.0,-9.78,-10.2,178.5,98.32,-137.6,-3.3,0.7,-1.5,-11.0,-2.1,125.1,25.0,4
-7.4,-5.0,-26.26,-2.1,159.6,120.06,-115.9,-2.3,0.1,10.6,29.6,-4.7,132.6,18.4,4
2.3,0.9,-2.83,-2.8,82.9,107.03,4.1,5.4,0.7,0.6,1.5,3.4,123.5,5.8,1
-3.12,-2.75,4.45,5.7,104.52,101.43,-140.17,-6.31,0.7,0.05,-2.54,6.13,319.66,13.59,3
2.24,-1.31,9.66,2.59,103.92,112.59,-90.18,0.77,0.15,-4.95,-13.94,0.69,143.19,17.21,2
-2.22,-4.96,-15.85,0.68,86.99,106.78,-90.47,-4.78,1.2,6.18,13.85,-10.25,193.07,21.46,3
-10.3,1.8,-17.17,-4.0,172.1,136.51,-88.8,6.8,0.6,5.1,22.8,-6.5,130.2,13.4,4
-2.2,-6.31,7.97,7.92,75.34,96.48,26.32,7.94,3.46,0.75,-0.4,4.77,166.15,6.77,2
-0.3,-3.6,-14.64,19.5,104.4,90.24,-164.7,-3.7,0.6,-2.2,-6.2,2.6,278.4,13.7,2
1.18,-4.49,11.43,9.41,27.53,103.04,-55.35,11.76,1.32,-1.99,-8.68,-0.48,107.07,10.36,3
-4.5,-10.8,-1.18,-1.7,86.2,108.74,-10.0,5.1,0.9,-1.1,-4.9,7.2,167.7,4.8,1
-2.1,-12.13,-18.3,-1.81,119.8,78.37,-137.96,-9.84,-1.89,5.69,6.4,-0.57,279.49,15.18,4
-3.2,1.9,11.12,4.3,15.2,102.38,-82.8,17.9,-1.9,3.4,12.3,3.5,129.1,9.5,2
7.7,-1.2,-15.87,7.3,44.3,93.85,43.3,2.3,-1.2,-0.1,-2.2,-0.3,214.0,7.4,1
-2.9,0.4,11.98,11.4,41.6,102.42,-67.1,16.0,1.8,-4.2,-11.4,-4.4,82.2,12.6,1
1.1,0.9,1.08,1.4,101.7,102.86,56.8,0.9,0.3,-0.8,-3.9,0.4,185.4,7.8,1
-6.23,-4.22,-19.27,-3.19,135.73,101.81,-118.55,-5.34,0.02,5.06,20.24,-4.39,193.45,14.34,4
-2.67,-0.86,-12.24,-3.38,104.79,100.82,-161.84,-0.72,0.0,4.88,22.4,-11.9,338.23,11.99,4
-0.7,-4.4,-15.44,6.9,87.8,108.38,-8.7,5.4,0.4,1.0,3.7,6.4,135.3,9.2,2
-1.0,-5.6,-13.98,6.3,175.9,100.0,-135.4,-9.7,0.3,3.7,-5.5,-3.0,128.0,26.3,4
7.5,2.6,-1.5,-4.1,33.9,112.3,64.4,1.6,1.3,-0.6,-1.7,3.5,198.3,5.6,1
2.14,-5.98,-15.2,7.87,78.37,90.33,-80.38,5.79,4.21,-1.76,-6.23,-0.15,94.92,10.19,2
-0.87,-3.65,-6.79,0.18,107.62,106.54,-99.09,-2.88,0.96,2.08,3.27,-6.77,179.44,17.57,3
-4.3,10.1,-9.19,4.8,86.2,94.4,-22.8,4.0,1.2,-0.5,-4.3,6.0,163.6,7.2,2
-7.21,-4.74,-24.34,-1.96,153.79,119.17,-113.39,-2.41,0.1,10.13,28.27,-4.54,129.47,17.86,4
0.0,5.3,-1.35,15.8,39.7,104.41,-42.9,15.0,3.1,-2.1,-7.4,4.3,56.5,9.2,1
6.21,0.43,-4.67,-3.96,71.73,112.07,59.67,3.7,0.44,-1.05,-3.36,8.26,222.94,5.93,2
-1.5,-3.0,-0.36,-13.0,176.2,96.81,-140.7,-1.0,0.9,-3.9,-8.8,-1.0,118.0,23.3,4
5.4,0.5,16.34,37.8,22.7,94.98,59.3,7.1,2.9,0.2,5.8,28.7,324.9,5.6,1
-2.8,6.0,-21.25,-3.6,83.2,88.06,-28.1,3.0,0.4,0.8,2.1,1.5,176.1,7.9,2
-0.2,-0.3,-10.28,-10.3,95.8,96.28,-92.8,-5.1,0.8,5.7,14.0,-10.0,178.2,24.1,2
2.04,0.1,12.15,3.17,80.29,103.09,-70.49,-4.74,1.33,-3.4,-11.1,0.31,103.25,14.8,3
0.2,-6.3,71.33,4.3,67.7,117.61,-167.2,-15.4,0.9,-3.6,-9.0,0.2,250.5,8.4,2
-2.11,-12.04,-18.25,-1.82,119.68,78.54,-138.14,-9.77,-1.87,5.69,6.52,-0.66,279.95,15.15,4
2.2,4.8,3.92,1.7,74.0,113.27,3.7,4.7,1.3,-0.3,-1.2,3.9,121.0,5.5,1
2.14,0.1,13.65,3.27,79.95,103.35,-69.83,-4.63,1.19,-3.68,-12.05,0.48,102.53,14.62,3
0.5,-1.8,5.22,-0.4,131.5,106.07,-110.5,-0.5,0.7,-3.1,-10.1,-1.8,169.3,12.6,3
1.51,-4.64,9.52,9.27,29.58,106.58,-47.96,8.53,0.29,-2.92,-11.25,3.0,104.43,9.41,3
-1.8,-0.79,8.28,-0.6,116.76,101.57,-120.03,-0.08,0.52,-2.2,-9.06,3.22,228.03,12.7,3
-0.5,2.7,21.45,4.1,37.8,100.0,-54.7,0.6,1.3,0.0,-0.9,0.2,58.0,6.9,1
8.92,0.04,-3.9,-1.63,50.25,110.1,60.76,2.08,0.07,-0.71,-2.26,5.48,236.54,5.73,2
-2.51,-2.87,-13.19,-3.11,106.89,96.48,-158.01,-2.37,-0.35,4.96,19.39,-9.91,329.91,12.5,4
1.5,-2.4,-9.7,1.4,135.3,100.0,-19.3,2.0,0.5,1.3,5.0,-1.4,115.1,12.3,3
-4.8,-2.93,-15.54,-3.47,120.64,97.96,-133.75,-4.36,0.0,3.93,19.17,-6.88,254.29,12.77,4
0.46,-4.39,-1.88,4.99,38.21,105.89,-53.93,8.13,0.61,0.44,-0.53,-3.19,110.58,9.83,3
-2.13,-12.13,-18.33,-1.81,119.97,78.38,-137.65,-9.87,-1.88,5.68,6.39,-0.53,278.55,15.18,4
-10.29,1.79,-17.09,-3.98,171.72,136.42,-88.74,6.8,0.6,5.09,22.74,-6.48,130.04,13.38,4
-0.55,-1.08,-14.68,4.84,100.97,102.14,-16.41,4.13,1.2,1.02,3.3,2.68,138.11,10.37,3
-0.6,0.1,-20.41,-2.7,132.5,109.54,-23.3,2.9,1.4,2.9,12.1,-2.9,121.2,10.4,3
-7.07,-4.78,-24.29,-2.41,152.86,114.91,-116.65,-3.16,0.08,9.04,26.96,-4.61,149.79,17.25,4
-0.86,-4.61,-16.65,6.94,92.34,109.56,-10.38,5.0,0.49,1.14,4.44,5.54,134.0,9.2,2
-6.73,-4.55,-22.23,-2.73,145.83,109.54,-117.43,-4.05,0.06,7.41,24.2,-4.52,167.69,16.06,4
-2.43,-4.57,-14.12,-2.87,109.26,93.16,-154.33,-3.74,-0.63,5.1,17.01,-8.19,320.65,12.99,4
6.9,-2.5,-17.81,1.8,44.0,90.99,37.2,1.5,-1.4,0.4,-0.8,-3.0,216.1,7.7,1
-2.1,-6.2,-25.74,7.2,126.5,118.47,-23.0,2.0,1.2,2.2,10.0,-0.9,124.2,9.2,2
0.6,4.9,8.63,-3.0,37.2,120.83,-49.1,15.1,2.0,-1.4,-4.1,-0.2,70.5,8.6,1
-0.1,-4.3,-15.53,-5.1,104.8,100.38,40.8,4.9,0.0,-0.1,-2.1,14.7,191.0,7.7,2
-3.67,-8.81,-17.91,-2.5,123.66,85.85,-130.15,-8.37,-1.11,4.79,10.97,-2.07,250.79,14.37,4
-0.8,-1.3,-14.53,5.6,94.9,101.78,-15.6,4.4,1.1,0.6,1.5,3.2,141.5,10.1,3
0.89,-2.04,-4.53,-4.76,97.28,99.84,-89.62,-3.4,0.41,1.69,3.05,-5.81,164.77,23.23,2
-2.0,2.5,13.52,13.2,37.3,100.0,-64.1,17.2,1.3,-3.3,-12.2,-0.5,80.4,10.9,1
1.9,-0.8,24.41,-0.2,6.1,74.59,-54.0,-2.2,0.5,5.4,10.4,-0.8,118.9,14.2,1
0.4,-1.5,-7.75,5.4,103.5,100.17,51.4,5.1,-0.4,0.2,0.7,22.2,180.5,7.8,2
-4.49,-1.14,12.93,3.43,37.21,103.27,-66.09,2.86,1.12,0.8,1.73,-0.28,70.29,7.0,4
-3.4,-4.3,-0.26,7.4,56.0,96.32,-68.9,3.1,1.7,1.4,3.6,3.3,75.4,10.0,1
-4.22,0.72,11.37,0.36,98.42,103.88,-116.36,-1.1,1.12,-2.45,-8.36,5.41,268.24,12.51,3
2.2,-3.1,0.83,4.2,134.1,98.04,-7.7,1.2,1.5,-1.2,-8.0,1.3,108.8,11.6,3
2.7,3.9,13.57,6.8,22.3,117.28,-36.8,18.3,2.2,-2.6,-8.9,3.9,95.0,6.3,2
7.0,-2.4,-8.35,10.3,61.7,114.09,20.1,5.3,0.3,0.4,1.4,8.2,247.2,4.8,1
0.9,4.2,6.46,7.3,42.6,100.0,-43.6,11.8,2.3,-2.7,-10.4,2.6,55.3,10.5,1
-2.31,-7.42,-15.7,-2.47,113.24,87.58,-148.15,-6.05,-1.1,5.32,13.0,-5.32,305.12,13.82,4
-3.86,-2.02,-14.04,-3.44,113.53,99.07,-146.04,-2.8,0.0,4.3,20.51,-9.07,291.43,12.4,4
0.75,-0.22,-3.91,1.59,92.28,101.03,-83.82,-5.15,2.61,-0.52,-1.54,-1.63,121.6,16.17,3
-3.34,-4.83,-15.57,1.61,153.47,98.41,-127.7,-8.03,0.16,3.6,5.55,-3.62,167.51,20.03,4
-2.47,-3.77,-13.68,-2.98,108.15,94.72,-156.06,-3.1,-0.5,5.03,18.13,-9.0,325.0,12.76,4
6.5,-7.8,-17.73,2.5,44.9,88.28,36.1,-0.2,-1.5,1.5,2.3,7.9,224.0,7.8,2
-1.69,0.69,6.25,2.92,16.02,100.22,-78.78,16.78,-0.35,3.1,9.79,3.11,129.75,10.67,2
2.61,2.06,23.1,4.19,76.32,107.31,-61.92,-3.04,-0.13,-6.12,-18.34,1.88,96.04,12.26,3
2.33,0.1,16.48,3.46,79.31,103.84,-68.58,-4.41,0.93,-4.22,-13.84,0.78,101.16,14.29,3
5.9,-4.9,-9.35,3.1,79.8,90.5,23.3,5.6,1.4,-1.1,-2.1,2.0,102.4,6.9,1
-3.5,0.5,14.14,0.8,37.6,101.35,-63.2,-4.7,0.0,0.8,1.6,-1.4,66.8,7.0,4
-3.72,-1.89,-13.82,-3.43,112.48,99.23,-147.85,-2.57,0.0,4.36,20.71,-9.39,296.91,12.34,4
-0.5,-3.0,2.4,4.6,98.3,103.04,-16.6,1.6,0.5,-0.3,-2.1,6.8,145.3,9.9,2
1.9,-3.8,-22.85,-1.3,77.4,85.69,-82.2,7.5,2.8,-0.6,0.2,-0.8,95.8,10.7,2
-0.8,-2.2,-14.22,0.5,93.4,103.54,-16.6,4.6,0.9,0.6,1.6,2.1,137.4,9.8,2
-1.7,2.7,-27.3,9.4,59.8,100.46,-3.1,7.6,0.5,0.2,0.4,1.7,148.8,8.2,2
-2.9,-3.2,-10.3,1.1,51.8,93.79,-60.6,-0.3,1.0,2.9,6.7,1.9,71.1,14.0,1
4.0,-9.2,-7.55,9.1,42.2,107.3,-1.9,3.1,1.0,-0.1,-4.6,8.4,192.5,7.5,2
1.43,-1.53,-10.0,1.85,135.11,102.25,-16.63,2.07,1.66,1.67,5.96,-0.11,115.44,12.0,3
0.7,-3.7,2.44,16.3,36.8,106.62,-26.9,2.7,2.1,-1.3,-8.5,4.3,68.7,5.1,1
1.79,2.93,15.06,5.69,25.64,113.5,-40.82,16.0,2.08,-2.11,-7.12,2.67,88.49,6.42,2
-0.9,-1.1,-5.63,-1.2,46.5,123.79,-39.8,7.7,-1.5,1.7,5.3,0.5,112.9,7.1,2
2.3,-6.4,37.84,9.6,76.7,100.0,-198.4,-18.6,1.0,-3.9,-10.6,-2.3,305.1,11.9,2
-2.28,-8.06,-16.05,-2.38,114.13,86.32,-146.76,-6.56,-1.21,5.37,12.1,-4.67,301.63,14.0,4
0.9,0.2,-15.53,0.5,135.4,104.16,-21.0,2.6,1.8,3.4,13.5,-0.3,118.9,11.9,3
1.7,0.7,-18.42,-3.2,81.3,95.34,1.3,6.4,1.1,0.1,0.2,1.0,127.1,5.0,1
7.6,-2.3,-2.96,6.7,61.9,104.44,61.4,-0.3,0.3,0.0,-2.4,3.9,259.3,6.8,2
2.8,0.1,23.24,3.9,77.8,105.0,-65.6,-3.9,0.3,-5.5,-18.1,1.5,97.9,13.5,3
0.1,6.9,-1.46,-2.6,99.8,103.87,38.1,3.7,1.0,-1.5,-6.3,3.7,185.1,7.0,1
-7.48,-0.22,-1.48,0.69,100.17,119.34,-77.51,6.8,1.19,2.81,11.62,-2.88,99.27,9.99,4
-4.35,-7.35,-17.72,-2.81,125.28,89.14,-126.85,-7.71,-0.78,4.4,12.99,-2.75,238.57,14.02,4
-5.38,-7.74,-23.24,-1.99,144.47,104.11,-124.25,-5.2,-0.66,8.73,20.72,-3.1,188.45,17.18,4
-5.58,-4.1,-17.08,-2.86,132.06,96.89,-120.35,-6.43,0.02,3.51,16.09,-4.22,205.21,14.05,4
-1.16,-0.03,14.56,5.34,18.94,106.03,-68.18,16.27,-0.34,0.85,3.71,3.72,117.96,8.83,2
7.55,-1.26,-3.65,4.9,72.43,101.42,46.13,6.14,0.35,-0.6,-0.75,1.71,98.3,4.9,2
-2.75,-5.03,-15.16,2.8,159.17,98.81,-129.66,-8.45,0.19,3.63,2.74,-3.46,157.47,21.63,4
-5.9,-4.0,-17.3,-3.5,129.0,96.67,-119.3,-6.2,0.0,3.5,17.6,-4.3,210.6,13.2,4
-8.46,0.48,-6.92,-0.94,125.1,125.29,-81.42,6.8,0.98,3.6,15.49,-4.13,109.99,11.17,4
-4.14,-0.57,13.35,2.52,37.34,102.6,-65.09,0.24,0.73,0.8,1.69,-0.67,69.08,7.0,4
-3.3,3.4,-11.62,-7.7,84.2,88.71,-17.8,3.9,1.0,0.2,0.8,6.6,170.2,7.8,2
1.0,3.1,8.95,0.5,122.0,124.17,-106.1,5.1,1.7,-4.1,-11.7,1.0,155.4,9.1,2
-4.85,-4.34,-16.59,-1.4,139.06,97.38,-122.75,-6.95,0.06,3.54,12.65,-4.02,192.89,16.01,4
-3.59,-1.3,8.3,3.98,103.28,102.03,-134.18,-4.43,0.83,-1.27,-5.74,6.85,307.89,12.7,3
-4.6,1.8,16.57,0.3,100.6,103.32,-121.3,-0.4,1.1,-4.1,-12.6,8.4,282.6,10.8,3
6.4,-9.0,-16.75,3.2,81.1,92.35,28.7,2.5,0.9,-1.1,-3.2,1.4,101.9,6.1,1
-0.7,-8.3,-32.36,-1.3,53.6,103.4,10.6,5.8,0.2,0.2,-2.5,7.1,147.7,8.0,2
-0.1,6.4,3.49,8.2,33.8,114.86,-31.0,16.5,3.2,-1.9,-5.2,4.3,56.4,7.1,1
6.6,0.1,-3.82,10.9,19.0,86.69,28.9,8.8,1.1,-0.2,-1.1,21.4,284.3,4.8,1
-4.9,0.2,1.09,11.7,86.8,105.5,0.3,3.7,0.9,-1.4,-7.7,8.8,166.4,5.4,1
-2.1,-12.2,-18.34,-1.8,119.9,78.23,-137.8,-9.9,-1.9,5.7,6.3,-0.5,279.1,15.2,4
0.3,-0.9,-0.15,1.1,17.1,97.38,-73.5,15.3,1.7,2.7,6.5,2.6,130.6,12.2,2
-0.34,-0.21,-19.08,-2.19,132.85,108.36,-22.8,2.79,1.29,2.7,11.22,-2.71,120.44,10.64,3
0.9,-4.3,13.16,9.5,26.0,100.0,-61.8,14.5,2.2,-1.2,-6.5,-3.5,109.3,11.2,3
-5.77,-3.87,-17.09,-3.5,128.01,96.82,-121.01,-5.98,0.0,3.55,17.79,-4.6,215.76,13.15,4
0.4,-7.1,58.59,1.5,73.8,107.17,-171.7,-17.7,0.9,-3.8,-9.9,-15.7,284.4,10.1,2
-7.29,-4.92,-25.58,-2.21,157.29,118.29,-116.16,-2.59,0.09,10.06,28.69,-4.67,138.49,18.01,4
2.3,-3.3,20.41,7.1,25.3,112.23,-43.3,13.5,2.3,-3.5,-10.9,4.1,99.0,7.7,2
1.2,5.3,8.56,23.0,34.7,116.3,-25.0,5.9,2.4,-1.7,-8.0,4.2,67.3,4.0,1
-2.9,-7.6,12.18,8.6,67.8,95.49,19.6,8.7,4.5,0.9,-0.7,0.1,162.3,6.5,2
2.31,3.98,21.39,4.37,75.22,109.31,-59.0,-2.32,-0.41,-6.43,-17.59,2.09,94.96,11.22,3
0.26,-0.36,-15.16,2.41,120.24,103.27,-18.98,3.27,1.54,2.35,9.01,1.01,127.36,11.23,3
-4.93,-1.89,12.38,4.62,37.03,104.14,-67.4,6.28,1.62,0.8,1.79,0.22,71.86,7.0,4
8.3,-2.0,5.78,4.0,65.3,111.65,56.3,4.9,0.5,-0.6,-0.9,4.5,100.0,4.2,2
-5.72,-2.63,-8.85,-0.85,107.02,112.0,-93.19,-3.33,0.06,6.38,17.53,-3.28,104.24,13.49,4
7.0,-0.4,-9.51,4.6,75.7,96.0,40.8,7.4,0.4,-0.6,-0.8,-0.3,98.4,5.2,2
0.5,1.7,8.2,6.2,39.3,113.33,-56.2,15.2,2.4,-1.3,-2.6,2.4,76.9,9.4,1
0.1,-4.2,-4.32,6.2,80.8,99.03,-104.2,3.8,1.2,1.6,6.5,-4.3,114.8,10.7,2
-4.27,-0.58,6.19,0.23,61.61,105.03,-73.57,-4.23,0.02,2.73,7.11,-2.05,79.75,9.24,4
0.62,-0.83,-8.83,1.45,78.06,102.7,-71.41,-4.84,2.11,0.51,1.58,-1.84,111.96,15.11,3
1.95,-1.91,11.56,2.51,109.18,111.06,-95.08,0.77,0.39,-4.7,-13.18,1.25,148.37,16.25,2
2.3,-4.3,2.9,2.4,99.2,104.45,-85.5,-1.2,-0.1,-3.5,-11.1,-0.4,147.4,22.1,2
2.1,7.7,0.75,6.9,8.4,108.14,-27.7,14.3,2.4,-1.1,-1.3,3.7,101.5,6.0,1
-0.7,2.1,-4.08,1.4,54.7,93.4,-62.2,2.6,1.2,0.8,0.1,5.0,75.2,13.9,1
-4.06,-0.43,13.45,2.29,37.38,102.44,-64.84,-0.41,0.63,0.8,1.67,-0.77,68.78,7.0,4
-5.0,-2.0,12.3,4.8,37.0,104.27,-67.6,6.8,1.7,0.8,1.8,0.3,72.1,7.0,4
-1.2,-1.6,7.31,8.6,52.0,107.04,-66.8,4.1,2.0,-4.2,-11.5,9.2,88.5,11.5,1
0.12,-2.95,-14.73,-2.33,105.6,99.95,42.26,4.68,0.36,0.23,0.31,8.61,180.49,7.88,2
0.87,-4.31,12.0,9.15,26.94,100.45,-61.19,14.01,2.08,-1.07,-6.04,-3.48,109.4,11.09,3
0.42,-3.32,-0.97,-1.19,126.71,100.7,-115.9,-0.32,0.12,0.22,-3.79,-2.38,180.22,15.16,3
-2.2,3.6,6.85,-4.9,181.2,98.21,-143.6,1.4,0.4,-4.6,-9.9,-0.8,115.5,21.5,4
-0.5,0.1,25.75,2.8,48.8,109.28,-55.6,7.8,2.0,-2.0,-9.1,3.3,75.8,5.0,1
-4.8,-11.4,15.13,4.8,54.5,108.27,-62.4,4.2,1.9,1.2,8.5,6.6,73.9,9.2,1
2.1,-6.8,-16.82,8.7,76.8,88.33,-80.4,6.2,4.6,-1.5,-5.6,-0.2,91.7,9.6,2
0.82,-2.08,-11.12,2.63,123.42,100.52,-18.21,2.71,0.68,1.09,3.97,-0.05,122.86,11.65,3
-2.4,0.5,-4.48,5.2,44.5,95.34,-45.9,3.8,1.5,1.0,2.9,2.9,70.7,7.0,1
-6.01,0.98,2.6,-0.97,87.17,114.31,-72.64,-0.46,0.22,2.38,9.41,-3.28,90.17,9.36,4
-1.7,-8.6,7.91,5.6,42.4,92.02,-67.5,-6.5,0.9,3.3,-4.8,-5.4,96.8,16.9,1
0.4,-3.6,6.93,10.9,9.8,76.91,-50.7,0.1,0.8,1.8,-6.5,7.6,117.2,13.0,1
-4.91,-1.85,12.41,4.57,37.04,104.1,-67.34,6.13,1.6,0.8,1.79,0.2,71.79,7.0,4
-1.4,-3.1,-9.77,11.4,44.9,94.54,-41.4,4.2,2.7,0.0,0.7,4.4,73.7,6.9,1
1.8,0.1,-12.48,5.9,63.4,96.09,43.0,2.4,6.0,-1.0,-1.6,7.4,143.6,6.0,1
1.2,-4.5,11.29,9.4,27.66,103.3,-54.81,11.53,1.25,-2.05,-8.86,-0.23,106.89,10.3,3
5.7,2.0,19.55,4.1,70.4,118.37,-18.9,6.1,3.2,-2.5,-7.5,1.3,72.8,6.6,1
2.3,2.3,77.37,5.1,63.5,127.42,-165.0,-2.8,0.8,-3.2,-6.4,-7.8,223.2,7.0,2
-1.0,-5.1,17.73,9.1,54.3,102.29,-61.6,2.5,1.8,-2.2,-9.6,5.1,81.6,7.6,1
0.83,0.17,-5.25,2.04,84.13,100.18,-78.03,-6.03,2.94,-0.12,-0.14,-1.53,111.58,16.79,3
-2.04,-5.81,-10.32,5.82,98.24,103.04,-125.84,-8.27,0.75,4.73,9.51,-2.42,278.2,18.45,3
2.1,-2.4,26.53,-6.2,43.9,92.26,-74.7,-20.6,-1.4,6.9,17.4,-2.4,115.2,17.7,1
2.72,0.9,23.18,4.02,77.19,105.95,-64.09,-3.55,0.12,-5.75,-18.2,1.66,97.14,12.99,3
-3.3,-4.85,-15.54,1.69,153.85,98.43,-127.83,-8.05,0.16,3.61,5.36,-3.61,166.83,20.14,4
3.1,0.0,10.82,-7.6,72.9,123.6,-55.1,9.1,4.2,-2.0,-9.7,0.7,70.8,5.4,1
0.92,-2.12,-10.93,2.47,125.04,100.45,-18.36,2.61,0.65,1.12,4.11,-0.23,121.8,11.74,3
2.33,-2.82,19.95,7.08,25.1,112.57,-42.87,13.82,2.29,-3.44,-10.77,4.09,98.73,7.61,2
0.07,-4.0,-7.1,18.08,100.42,91.64,-169.54,-5.84,0.66,-2.44,-6.83,1.9,282.24,13.44,2
0.8,0.1,-5.77,2.0,84.3,100.0,-78.4,-6.1,3.0,0.0,0.2,-1.6,111.9,16.9,3
-9.28,1.6,-12.47,-3.28,151.92,131.23,-84.96,5.07,0.51,4.45,19.62,-5.73,120.69,12.44,4
-2.6,-0.8,-12.04,-3.4,104.0,100.54,-162.5,-0.7,0.0,4.8,22.3,-12.0,341.2,11.9,4
1.2,1.7,19.36,16.7,40.6,95.53,-46.8,8.7,2.3,-3.2,-13.3,0.2,54.2,12.0,1
-3.84,-2.01,-14.02,-3.44,113.42,99.08,-146.22,-2.77,0.0,4.31,20.53,-9.1,291.99,12.39,4
-2.1,-5.3,-17.51,0.7,86.3,106.96,-88.9,-5.0,1.2,6.7,15.2,-11.2,188.5,22.0,3
