PC_CA-avg_3y,REER-pch_3y,X_GS_share_M-pch_5y,FSL-pch,GD-pc_gdp,HPI-pch,NIIP-pc_gdp,ULC-pch_3y,ACT-pch_3y,LTU-pch_3y,YUR-pch_3y,PSCF-pc_gdp,PSD-pc_gdp,UR-avg_3y,label
-3.9,-2.6,17.67,-0.77,97.0,103.23,-124.09,-2.39,0.29,-3.62,-11.9,7.49,294.09,11.98,3
-2.48,-6.27,3.81,5.59,102.52,101.15,-144.24,-8.35,0.11,0.86,-0.91,5.24,331.76,14.71,3
0.9,-4.3,13.16,9.5,26.0,100.0,-61.8,14.5,2.2,-1.2,-6.5,-3.5,109.3,11.2,3
-0.1,-4.5,-20.85,-0.7,53.6,113.31,-44.0,0.1,-1.4,2.5,7.0,-2.8,112.2,8.1,3
7.9,5.3,3.49,2.0,61.9,117.37,62.5,5.6,1.0,-0.6,-1.0,6.5,102.1,3.8,2
1.2,1.7,19.36,16.7,40.6,95.53,-46.8,8.7,2.3,-3.2,-13.3,0.2,54.2,12.0,1
-3.5,0.5,14.14,0.8,37.6,101.35,-63.2,-4.7,0.0,0.8,1.6,-1.4,66.8,7.0,4
2.3,-3.3,20.41,7.1,25.3,112.23,-43.3,13.5,2.3,-3.5,-10.9,4.1,99.0,7.7,2
0.45,-4.39,-2.2,4.89,38.47,106.01,-53.76,8.0,0.57,0.47,-0.4,-3.18,110.61,9.8,3
-2.9,-3.2,-10.3,1.1,51.8,93.79,-60.6,-0.3,1.0,2.9,6.7,1.9,71.1,14.0,1
-7.39,-4.98,-26.15,-2.09,159.26,120.01,-115.75,-2.31,0.1,10.57,29.52,-4.69,132.42,18.37,4
-0.73,-3.67,-15.04,4.78,89.65,106.78,-11.32,5.14,0.57,0.87,3.0,4.98,136.0,9.4,2
1.39,-2.21,11.1,4.38,21.59,105.51,-56.97,14.31,2.03,-0.69,-3.02,3.42,113.31,9.74,2
0.8,-0.8,-23.17,-5.8,78.6,89.71,-92.2,7.7,2.5,0.8,1.8,-6.0,102.2,11.1,2
-3.3,3.4,-11.62,-7.7,84.2,88.71,-17.8,3.9,1.0,0.2,0.8,6.6,170.2,7.8,2
1.08,-3.29,14.33,8.9,31.81,101.17,-61.33,12.52,1.87,-1.87,-7.94,-2.81,107.47,11.16,3
5.1,-1.5,33.28,5.2,20.1,105.68,54.6,1.2,0.1,0.4,3.4,-9.6,309.0,6.3,1
-1.8,-5.06,-15.54,0.48,91.11,106.21,-92.11,-4.44,1.07,5.93,12.94,-10.15,187.51,21.19,3
0.4,-7.1,58.59,1.5,73.8,107.17,-171.7,-17.7,0.9,-3.8,-9.9,-15.7,284.4,10.1,2
-6.96,-1.78,-1.55,-2.92,87.68,104.32,-89.87,-1.96,-0.2,1.97,9.43,-1.01,156.66,9.74,4
-0.1,6.4,3.49,8.2,33.8,114.86,-31.0,16.5,3.2,-1.9,-5.2,4.3,56.4,7.1,1
-2.11,-6.16,-25.66,7.17,126.41,118.55,-22.94,2.04,1.17,2.19,9.97,-0.85,124.17,9.19,2
1.3,-1.0,-11.49,0.0,100.7,96.46,-95.9,-3.6,0.3,4.0,7.0,-6.6,168.1,25.1,2
-3.1,-1.69,-20.03,11.48,109.16,99.46,-163.79,-6.45,0.79,6.09,13.67,-0.79,352.71,14.58,4
-5.9,-4.0,-17.3,-3.5,129.0,96.67,-119.3,-6.2,0.0,3.5,17.6,-4.3,210.6,13.2,4
5.7,2.0,19.55,4.1,70.4,118.37,-18.9,6.1,3.2,-2.5,-7.5,1.3,72.8,6.6,1
-3.46,-1.63,-13.41,-3.43,110.52,99.53,-151.23,-2.14,0.0,4.46,21.07,-9.99,307.12,12.24,4
0.16,-3.16,-16.45,0.09,62.56,109.43,-54.04,-1.71,-0.12,1.77,5.02,-2.45,112.11,10.67,3
8.1,-2.1,2.13,5.2,69.2,106.77,51.4,4.9,0.3,-0.6,-0.7,3.7,98.2,4.6,2
-6.56,-3.73,-18.64,-11.42,147.27,107.53,-117.82,-5.46,-0.3,7.92,19.7,-2.47,166.88,17.51,4
-1.0,-5.1,17.73,9.1,54.3,102.29,-61.6,2.5,1.8,-2.2,-9.6,5.1,81.6,7.6,1
2.1,7.7,0.75,6.9,8.4,108.14,-27.7,14.3,2.4,-1.1,-1.3,3.7,101.5,6.0,1
-7.04,-3.57,-16.75,-10.0,140.12,107.18,-114.84,-4.38,-0.3,6.76,18.38,-2.11,175.08,16.14,4
0.35,-2.0,3.92,-0.34,128.92,106.12,-109.27,-0.76,0.73,-2.54,-8.65,-2.34,170.4,13.14,3
-6.89,-4.66,-23.19,-2.58,149.13,112.06,-117.06,-3.63,0.07,8.17,25.49,-4.56,159.29,16.62,4
-0.46,-4.01,-6.72,-0.53,112.67,102.87,-106.52,-1.95,0.5,2.47,2.81,-5.44,183.1,17.54,3
-6.75,-4.57,-22.37,-2.71,146.32,109.91,-117.38,-3.99,0.06,7.52,24.39,-4.53,166.46,16.14,4
1.9,-3.8,-22.85,-1.3,77.4,85.69,-82.2,7.5,2.8,-0.6,0.2,-0.8,95.8,10.7,2
4.9,3.3,8.69,-2.0,21.0,114.88,53.8,7.9,0.2,-0.5,-3.1,-0.5,306.5,5.8,1
-0.7,-2.6,24.74,7.0,37.3,105.17,-49.1,9.5,0.7,-0.2,-3.1,0.6,53.7,6.5,1
-2.4,2.5,3.2,8.9,49.4,117.31,-68.1,11.3,1.5,-3.6,-11.6,2.0,91.0,8.1,1
0.72,-2.23,-19.31,-6.18,63.17,108.53,-41.26,0.1,-1.17,2.21,6.94,-3.32,109.28,8.68,3
-1.2,-3.8,-10.57,1.9,119.9,78.19,-133.4,-0.7,0.2,1.1,-1.4,-1.4,267.5,14.9,2
0.1,-4.2,-4.32,6.2,80.8,99.03,-104.2,3.8,1.2,1.6,6.5,-4.3,114.8,10.7,2
-1.49,-1.23,21.02,1.78,37.83,99.53,-55.74,7.37,1.67,-0.43,-0.98,-1.67,65.73,6.98,2
-5.5,-0.82,5.07,-1.35,66.54,103.07,-78.61,-3.12,-0.11,1.48,6.12,-1.17,118.72,8.58,4
3.87,-0.53,-6.04,-2.33,81.92,98.63,-36.98,0.64,1.78,0.18,-4.45,-4.44,87.91,9.6,2
2.3,2.3,77.37,5.1,63.5,127.42,-165.0,-2.8,0.8,-3.2,-6.4,-7.8,223.2,7.0,2
-0.8,-2.2,-14.22,0.5,93.4,103.54,-16.6,4.6,0.9,0.6,1.6,2.1,137.4,9.8,2
-1.4,-3.1,-9.77,11.4,44.9,94.54,-41.4,4.2,2.7,0.0,0.7,4.4,73.7,6.9,1
1.74,0.47,18.65,6.69,53.35,105.53,-59.61,5.18,0.63,-4.35,-13.3,-0.24,100.71,11.03,3
0.22,-1.8,-3.55,-5.23,132.48,100.35,-119.8,-2.18,-0.07,0.61,0.11,-5.3,183.85,14.56,3
4.1,0.3,-4.61,-3.8,82.6,100.0,-31.2,-0.1,1.4,0.4,-4.3,-5.0,87.4,9.6,2
3.1,0.0,10.82,-7.6,72.9,123.6,-55.1,9.1,4.2,-2.0,-9.7,0.7,70.8,5.4,1
2.6,4.1,4.61,-2.3,97.6,114.86,-80.2,0.7,-0.6,-5.0,-14.0,0.4,134.4,17.4,2
0.7,-3.1,0.87,-1.4,131.2,100.0,-118.9,0.2,0.0,-0.5,-5.9,-1.4,179.3,14.4,3
-0.03,-3.68,-3.94,-0.85,119.46,101.82,-111.06,-1.16,0.31,1.38,-0.38,-3.96,181.71,16.39,3
-5.98,-1.14,2.89,-1.87,73.51,103.48,-82.32,-2.74,-0.14,1.64,7.21,-1.12,131.23,8.96,4
-5.84,-2.22,7.41,2.67,54.02,104.63,-75.62,5.2,1.26,1.2,4.39,0.06,101.23,7.92,4
-1.6,-4.5,-15.17,-1.13,96.98,104.88,-96.9,-4.52,0.83,5.67,12.75,-10.19,188.87,20.49,3
1.19,-0.92,-18.43,-9.33,68.66,105.79,-39.68,0.1,-1.03,2.04,6.91,-3.63,107.61,9.02,3
2.2,4.8,3.92,1.7,74.0,113.27,3.7,4.7,1.3,-0.3,-1.2,3.9,121.0,5.5,1
0.17,-1.8,-5.05,-6.05,132.65,99.37,-121.4,-2.47,-0.2,1.24,1.86,-5.9,186.34,14.89,3
-1.9,-5.6,-19.39,-8.5,178.9,103.46,-131.9,-10.4,0.1,10.7,7.7,-3.0,130.8,26.2,4
-0.1,-4.3,-15.53,-5.1,104.8,100.38,40.8,4.9,0.0,-0.1,-2.1,14.7,191.0,7.7,2
-4.49,1.47,15.69,0.69,100.88,103.18,-122.67,-0.83,1.07,-3.8,-11.87,8.24,285.29,11.0,3
-0.3,-3.6,-14.64,19.5,104.4,90.24,-164.7,-3.7,0.6,-2.2,-6.2,2.6,278.4,13.7,2
-4.3,3.4,-2.78,0.6,43.5,99.71,-63.9,5.4,-0.1,2.6,14.4,2.9,69.5,13.3,1
2.0,1.3,-9.15,-0.1,84.9,100.0,2.2,6.4,0.4,0.5,1.2,2.1,124.0,5.6,1
1.55,-0.63,17.38,7.34,47.02,104.25,-60.12,7.34,0.99,-3.62,-11.72,-1.0,102.7,11.07,3
-0.15,-3.76,-11.7,18.95,102.85,90.79,-166.59,-4.53,0.62,-2.3,-6.45,2.33,279.9,13.6,2
1.35,-0.37,-16.21,-9.39,70.23,105.35,-40.2,-0.01,-0.98,1.57,5.66,-3.41,106.56,9.19,3
-0.7,-4.4,-15.44,6.9,87.8,108.38,-8.7,5.4,0.4,1.0,3.7,6.4,135.3,9.2,2
-1.55,-5.49,-21.68,7.08,111.26,114.5,-17.37,3.34,0.88,1.73,7.52,1.97,128.57,9.2,2
1.7,0.7,-18.42,-3.2,81.3,95.34,1.3,6.4,1.1,0.1,0.2,1.0,127.1,5.0,1
1.03,-0.22,-11.54,-3.62,77.66,102.38,-60.25,-3.22,1.14,0.93,3.31,-2.57,109.72,13.28,3
-5.0,-2.0,12.3,4.8,37.0,104.27,-67.6,6.8,1.7,0.8,1.8,0.3,72.1,7.0,4
-2.79,-1.14,-15.05,2.19,105.94,100.13,-162.98,-2.86,0.3,5.28,19.06,-7.79,345.53,12.91,4
8.2,-0.9,-6.74,4.0,64.6,100.0,48.9,-0.4,0.6,1.1,-0.4,0.0,262.8,7.2,2
4.0,-9.2,-7.55,9.1,42.2,107.3,-1.9,3.1,1.0,-0.1,-4.6,8.4,192.5,7.5,2
7.9,-2.1,1.07,4.7,35.8,108.5,55.4,1.6,1.3,-0.5,-1.8,1.4,202.7,6.0,1
0.9,4.2,6.46,7.3,42.6,100.0,-43.6,11.8,2.3,-2.7,-10.4,2.6,55.3,10.5,1
-6.01,-3.26,-3.86,1.91,88.37,110.89,-87.84,2.99,1.03,4.91,13.45,-1.8,97.45,11.78,4
-2.93,-1.4,-17.4,6.58,107.46,99.81,-163.37,-4.56,0.53,5.67,16.51,-4.48,348.92,13.7,4
2.7,-5.2,-2.11,19.5,75.5,113.12,-59.6,5.4,5.4,-2.5,-13.7,-3.1,77.5,6.5,1
2.3,-7.2,-9.31,0.4,76.2,100.0,-67.9,1.0,4.9,-1.9,-10.9,-2.5,84.2,8.2,1
7.5,2.6,-1.5,-4.1,33.9,112.3,64.4,1.6,1.3,-0.6,-1.7,3.5,198.3,5.6,1
2.93,-0.77,-13.74,2.07,79.44,96.07,-48.75,1.6,1.59,0.91,2.01,-3.59,96.37,9.6,2
-0.78,-4.26,-8.84,-0.29,107.48,103.68,-103.05,-2.55,0.63,3.3,5.25,-6.58,184.16,18.42,3
-3.1,-1.7,-20.1,11.6,109.2,99.45,-163.8,-6.5,0.8,6.1,13.6,-0.7,352.8,14.6,4
-2.84,-1.23,-15.93,3.84,106.51,100.01,-163.13,-3.5,0.39,5.43,18.1,-6.55,346.8,13.2,4
6.4,-9.0,-16.75,3.2,81.1,92.35,28.7,2.5,0.9,-1.1,-3.2,1.4,101.9,6.1,1
2.79,-0.07,-4.88,-3.12,73.15,106.23,-33.45,1.94,0.64,0.74,-1.79,-3.56,94.07,8.95,2
1.2,11.0,11.47,7.4,32.6,123.49,-24.8,13.7,2.6,-1.7,-5.9,5.3,70.7,3.0,1
6.1,-2.4,-5.55,15.1,22.0,88.54,58.4,5.9,0.7,0.4,1.6,25.9,303.7,4.8,1
-3.3,-6.4,18.62,-1.7,93.9,103.15,-126.5,-4.1,-0.4,-3.2,-11.3,6.7,304.0,13.0,3
-1.7,2.7,-27.3,9.4,59.8,100.46,-3.1,7.6,0.5,0.2,0.4,1.7,148.8,8.2,2
0.39,-3.09,-3.81,2.62,110.59,100.07,-12.52,1.99,1.13,0.17,-0.66,2.88,130.91,10.99,3
-4.3,10.1,-9.19,4.8,86.2,94.4,-22.8,4.0,1.2,-0.5,-4.3,6.0,163.6,7.2,2
-6.38,-2.36,4.24,1.28,65.08,104.86,-80.84,4.15,0.97,1.45,6.08,-0.1,120.17,8.52,4
0.9,0.2,-15.53,0.5,135.4,104.16,-21.0,2.6,1.8,3.4,13.5,-0.3,118.9,11.9,3
0.2,-2.98,-15.86,0.19,63.75,108.91,-55.37,-1.95,0.05,1.67,4.75,-2.4,112.1,11.01,3
0.9,-0.8,14.27,1.4,126.1,114.08,-110.4,2.8,1.5,-3.9,-10.9,2.3,162.4,10.9,2
0.1,-1.81,-7.27,-7.26,132.89,97.9,-123.77,-2.88,-0.4,2.18,4.44,-6.77,190.03,15.39,3
1.61,-0.29,17.77,7.14,48.98,104.64,-59.96,6.67,0.88,-3.84,-12.21,-0.76,102.08,11.06,3
1.9,-0.8,24.41,-0.2,6.1,74.59,-54.0,-2.2,0.5,5.4,10.4,-0.8,118.9,14.2,1
5.53,-2.5,-13.64,1.67,46.3,93.02,28.23,3.55,-1.48,1.28,6.78,4.39,221.49,7.29,2
-2.77,-1.1,-14.71,1.56,105.72,100.18,-162.93,-2.62,0.26,5.23,19.42,-8.26,345.04,12.79,4
-2.0,-6.2,-4.75,9.8,107.5,100.0,-154.5,-10.8,0.4,3.2,5.1,4.4,347.8,15.7,3
-2.79,-1.14,-15.11,2.32,105.98,100.12,-163.0,-2.91,0.3,5.3,18.98,-7.69,345.62,12.93,4
0.3,-2.47,-14.18,0.49,67.18,107.42,-59.21,-2.64,0.55,1.39,3.99,-2.27,112.07,11.99,3
-3.07,-1.65,-19.63,10.72,108.9,99.51,-163.72,-6.16,0.75,6.02,14.11,-1.36,352.12,14.44,4
-5.63,-0.9,4.48,-1.49,68.42,103.18,-79.62,-3.01,-0.12,1.52,6.42,-1.16,122.11,8.69,4
1.09,-0.29,-13.08,1.05,135.21,103.24,-19.01,2.39,1.76,2.71,10.28,-0.06,117.39,11.86,3
-4.5,-4.4,-26.64,-17.4,177.4,109.02,-130.4,-10.0,-0.3,12.8,25.3,-4.0,132.3,23.3,4
-5.99,-3.24,-3.64,1.95,87.68,110.8,-87.56,3.04,1.04,4.85,13.29,-1.77,97.11,11.71,4
-0.49,-5.26,20.04,1.72,99.49,91.02,-150.35,-8.23,0.51,-1.07,-5.16,-7.73,274.98,12.78,2
-6.45,-4.37,-20.6,-2.98,140.28,105.29,-118.05,-4.76,0.04,6.12,22.02,-4.45,181.85,15.12,4
-5.4,-3.52,-16.51,-3.48,125.25,97.25,-125.78,-5.37,0.0,3.7,18.31,-5.46,230.2,13.0,4
-2.1,-5.3,-17.51,0.7,86.3,106.96,-88.9,-5.0,1.2,6.7,15.2,-11.2,188.5,22.0,3
0.4,-1.5,-7.75,5.4,103.5,100.17,51.4,5.1,-0.4,0.2,0.7,22.2,180.5,7.8,2
7.6,-2.3,-2.96,6.7,61.9,104.44,61.4,-0.3,0.3,0.0,-2.4,3.9,259.3,6.8,2
-1.4,0.4,-15.78,3.9,63.2,100.19,5.2,0.4,0.7,0.6,0.2,1.3,148.0,9.0,1
-6.49,-3.86,-11.56,0.53,112.86,114.04,-97.49,1.17,0.71,6.86,19.0,-2.79,109.54,14.05,4
8.5,4.9,24.47,2.3,45.6,114.74,63.2,4.1,5.9,-0.9,-2.5,7.5,129.0,4.1,1
-0.34,-2.72,-6.79,-3.74,127.62,98.33,-130.19,-4.54,-0.23,2.41,4.62,-4.47,222.91,15.46,3
-4.5,-10.8,-1.18,-1.7,86.2,108.74,-10.0,5.1,0.9,-1.1,-4.9,7.2,167.7,4.8,1
3.2,1.2,-12.73,-0.1,80.3,98.6,-38.4,0.1,0.6,1.7,4.5,-4.7,97.9,9.6,2
-3.4,-4.3,-0.26,7.4,56.0,96.32,-68.9,3.1,1.7,1.4,3.6,3.3,75.4,10.0,1
-7.15,-3.57,-14.13,-4.1,122.73,100.64,-112.77,-3.75,-0.13,3.11,15.88,-2.8,208.02,12.34,4
0.8,0.1,-5.77,2.0,84.3,100.0,-78.4,-6.1,3.0,0.0,0.2,-1.6,111.9,16.9,3
2.23,3.47,16.66,2.27,73.98,109.12,-55.06,-1.76,-0.66,-5.46,-14.71,1.38,96.01,10.63,3
-7.4,-5.0,-26.26,-2.1,159.6,120.06,-115.9,-2.3,0.1,10.6,29.6,-4.7,132.6,18.4,4
0.9,5.8,7.29,8.6,10.0,100.0,-39.9,15.3,1.9,-3.1,-7.8,2.7,112.8,7.4,1
0.5,-1.8,5.22,-0.4,131.5,106.07,-110.5,-0.5,0.7,-3.1,-10.1,-1.8,169.3,12.6,3
1.0,-1.7,-13.57,2.7,105.2,100.0,45.2,0.5,0.7,1.0,2.3,12.1,176.1,8.5,1
-6.02,-3.27,-4.06,1.87,89.01,110.97,-88.09,2.94,1.02,4.96,13.59,-1.82,97.76,11.84,4
-8.61,-3.07,-10.4,-4.81,115.35,105.31,-105.09,-0.87,-0.28,2.66,13.86,-1.03,204.99,11.33,4
-0.47,-2.58,-2.94,-6.35,126.31,98.78,-124.26,-3.1,-0.4,1.29,1.83,-4.52,209.35,14.99,3
-4.98,-1.97,12.33,4.75,37.01,104.23,-67.54,6.64,1.68,0.8,1.8,0.28,72.03,7.0,4
-5.77,-3.87,-17.09,-3.5,128.01,96.82,-121.01,-5.98,0.0,3.55,17.79,-4.6,215.76,13.15,4
4.1,-2.9,22.52,3.9,55.5,104.82,35.4,-1.5,4.3,-1.1,-2.0,15.2,136.1,5.3,1
0.08,-1.83,-7.3,-7.16,132.7,97.91,-124.04,-2.96,-0.39,2.21,4.5,-6.71,191.35,15.4,3
0.12,-1.42,-9.35,1.39,114.63,101.99,-16.77,2.44,1.33,1.83,6.61,2.26,131.37,11.06,3
1.18,-0.44,-15.31,-7.28,73.33,103.93,-48.41,-1.34,-0.07,1.53,5.34,-3.21,108.29,10.92,3
-2.1,-6.2,-25.74,7.2,126.5,118.47,-23.0,2.0,1.2,2.2,10.0,-0.9,124.2,9.2,2
7.0,-0.4,-9.51,4.6,75.7,96.0,40.8,7.4,0.4,-0.6,-0.8,-0.3,98.4,5.2,2
-7.51,-4.85,-25.03,-2.31,156.18,118.99,-115.01,-2.16,0.07,10.0,28.39,-4.41,138.04,17.86,4
-0.5,0.1,25.75,2.8,48.8,109.28,-55.6,7.8,2.0,-2.0,-9.1,3.3,75.8,5.0,1
-1.5,-3.0,-0.36,-13.0,176.2,96.81,-140.7,-1.0,0.9,-3.9,-8.8,-1.0,118.0,23.3,4
0.3,-0.9,-0.15,1.1,17.1,97.38,-73.5,15.3,1.7,2.7,6.5,2.6,130.6,12.2,2
-1.2,-2.6,-4.91,-4.0,61.3,101.04,0.1,-3.6,1.3,0.2,-0.4,7.0,146.0,8.9,1
-4.8,-11.4,15.13,4.8,54.5,108.27,-62.4,4.2,1.9,1.2,8.5,6.6,73.9,9.2,1
2.4,4.2,22.94,4.5,74.7,109.84,-57.9,-2.1,-0.6,-6.8,-18.6,2.3,94.0,10.9,3
-3.35,-2.04,6.33,4.86,103.91,101.73,-137.25,-5.4,0.76,-0.59,-4.1,6.48,313.92,13.15,3
-2.6,-0.8,-12.04,-3.4,104.0,100.54,-162.5,-0.7,0.0,4.8,22.3,-12.0,341.2,11.9,4
-0.0,-2.76,-5.4,1.97,106.92,100.0,-14.73,2.21,0.79,0.66,1.64,2.89,134.9,10.87,3
1.9,-3.2,-3.29,-2.0,99.3,100.0,-88.9,-1.1,0.0,0.4,-4.6,-2.5,155.8,24.2,2
5.4,0.5,16.34,37.8,22.7,94.98,59.3,7.1,2.9,0.2,5.8,28.7,324.9,5.6,1
-4.27,-2.66,-18.93,5.29,117.47,98.29,-145.2,-6.37,0.47,5.01,15.27,-2.2,293.38,14.01,4
2.4,-1.8,-12.5,1.5,82.4,88.31,-1.9,5.8,0.7,0.2,0.4,3.0,129.4,4.9,1
-0.6,-10.0,-6.24,5.2,42.2,96.29,-36.6,4.0,3.0,0.0,-2.2,1.7,71.5,6.7,1
5.0,-2.0,17.79,5.3,74.1,110.33,-24.2,3.7,3.3,-2.2,-9.0,0.9,76.3,7.9,1
-5.6,-5.0,17.63,10.4,70.2,95.07,6.3,11.1,2.7,1.3,1.6,6.8,168.3,6.7,1
5.5,-2.5,-13.78,1.6,46.1,92.87,27.8,3.6,-1.5,1.3,6.9,4.4,221.0,7.3,2
-3.56,0.42,13.56,0.76,39.34,101.62,-63.95,-4.67,0.0,0.94,2.0,-1.45,67.74,7.16,4
-5.45,-4.09,-22.96,-14.65,163.52,108.33,-124.61,-7.91,-0.3,10.55,22.72,-3.29,148.23,20.63,4
-3.12,-1.71,-20.08,11.5,109.33,99.43,-163.52,-6.5,0.79,6.08,13.63,-0.72,351.9,14.59,4
-6.27,-3.59,-8.13,1.14,101.97,112.64,-93.2,1.98,0.85,5.99,16.53,-2.35,104.16,13.04,4
-2.32,-2.59,-7.04,8.99,63.91,97.91,8.55,8.16,2.55,0.56,-0.16,0.88,155.73,7.33,2
-0.0,-3.75,-13.99,-3.03,104.54,100.34,42.89,4.94,-0.08,-0.04,-1.55,16.18,188.93,7.72,2
-7.82,-4.41,-21.41,-2.93,146.19,115.86,-112.4,-1.77,-0.02,8.23,24.85,-3.54,153.97,16.26,4
-2.7,-3.2,-19.21,5.1,119.7,124.71,-18.2,4.9,-0.8,1.3,8.0,3.1,121.8,8.2,2
-4.82,-1.37,0.44,-0.18,78.97,107.7,-81.07,-3.89,0.03,4.12,11.1,-2.52,89.12,10.87,4
-6.41,-3.82,-16.01,-3.75,126.44,98.29,-116.64,-5.2,-0.05,3.34,16.9,-3.69,209.55,12.85,4
6.9,-2.5,-17.81,1.8,44.0,90.99,37.2,1.5,-1.4,0.4,-0.8,-3.0,216.1,7.7,1
2.0,-4.7,-21.72,0.4,81.9,92.57,-3.2,3.8,0.8,0.0,-1.3,1.2,128.2,4.8,1
-7.2,-3.55,-13.98,-4.13,122.43,100.83,-112.46,-3.64,-0.13,3.1,15.8,-2.73,207.9,12.3,4
0.76,-2.11,-19.23,-6.45,63.64,108.3,-41.12,0.1,-1.16,2.19,6.94,-3.35,109.14,8.71,3
0.5,1.7,8.2,6.2,39.3,113.33,-56.2,15.2,2.4,-1.3,-2.6,2.4,76.9,9.4,1
-2.0,2.5,13.52,13.2,37.3,100.0,-64.1,17.2,1.3,-3.3,-12.2,-0.5,80.4,10.9,1
-0.5,2.7,21.45,4.1,37.8,100.0,-54.7,0.6,1.3,0.0,-0.9,0.2,58.0,6.9,1
-2.4,0.5,-4.48,5.2,44.5,95.34,-45.9,3.8,1.5,1.0,2.9,2.9,70.7,7.0,1
8.3,-1.7,-2.87,5.2,37.2,105.09,52.6,1.3,0.9,-0.6,-2.6,3.1,209.0,6.4,1
1.3,-0.6,-18.21,-10.1,70.0,105.12,-39.3,0.1,-1.0,2.0,6.9,-3.7,107.2,9.1,3
0.7,-3.7,2.44,16.3,36.8,106.62,-26.9,2.7,2.1,-1.3,-8.5,4.3,68.7,5.1,1
-1.4,2.1,-23.06,1.4,63.6,100.0,4.8,3.3,0.6,0.7,3.4,6.9,152.1,8.8,2
0.78,-4.32,8.94,8.24,29.42,101.65,-59.59,12.72,1.75,-0.74,-4.83,-3.41,109.66,10.82,3
1.2,5.3,8.56,23.0,34.7,116.3,-25.0,5.9,2.4,-1.7,-8.0,4.2,67.3,4.0,1
-5.74,-3.85,-17.05,-3.5,127.81,96.85,-121.36,-5.94,0.0,3.56,17.82,-4.67,216.82,13.14,4
2.3,-6.4,37.84,9.6,76.7,100.0,-198.4,-18.6,1.0,-3.9,-10.6,-2.3,305.1,11.9,2
-6.63,-3.71,-18.37,-11.22,146.25,107.48,-117.39,-5.3,-0.3,7.76,19.51,-2.42,168.05,17.32,4
1.3,1.2,1.88,9.4,53.5,94.8,-63.5,2.4,1.6,0.1,-3.7,5.0,79.0,13.8,1
-0.7,2.1,-4.08,1.4,54.7,93.4,-62.2,2.6,1.2,0.8,0.1,5.0,75.2,13.9,1
-2.9,0.4,11.98,11.4,41.6,102.42,-67.1,16.0,1.8,-4.2,-11.4,-4.4,82.2,12.6,1
0.98,-3.84,13.69,9.23,28.62,100.53,-61.59,13.61,2.05,-1.5,-7.15,-3.19,108.48,11.18,3
-1.05,-4.48,-10.63,-0.09,103.1,104.36,-100.13,-3.05,0.75,4.01,7.3,-7.53,185.06,19.16,3
-7.55,-3.43,-13.1,-4.3,120.69,101.93,-110.65,-2.96,-0.17,2.99,15.32,-2.31,207.19,12.06,4
-2.8,6.0,-21.25,-3.6,83.2,88.06,-28.1,3.0,0.4,0.8,2.1,1.5,176.1,7.9,2
0.9,-0.4,-5.01,2.4,104.9,101.19,54.5,-0.9,0.1,0.1,-3.6,23.8,194.9,8.3,1
-0.6,4.8,10.22,4.7,40.9,107.36,-59.0,16.7,2.3,-1.7,-5.9,2.3,80.5,10.1,1
2.3,-4.3,2.9,2.4,99.2,104.45,-85.5,-1.2,-0.1,-3.5,-11.1,-0.4,147.4,22.1,2
0.08,-3.57,-17.79,-0.15,59.84,110.61,-50.99,-1.16,-0.51,1.99,5.62,-2.56,112.14,9.89,3
-1.03,-2.06,-14.39,-5.86,98.81,96.99,23.76,4.61,0.29,-0.01,-1.26,12.35,184.95,7.73,2
-2.9,-7.6,12.18,8.6,67.8,95.49,19.6,8.7,4.5,0.9,-0.7,0.1,162.3,6.5,2
2.2,-3.1,0.83,4.2,134.1,98.04,-7.7,1.2,1.5,-1.2,-8.0,1.3,108.8,11.6,3
-0.7,-8.3,-32.36,-1.3,53.6,103.4,10.6,5.8,0.2,0.2,-2.5,7.1,147.7,8.0,2
-3.08,-1.66,-19.74,10.92,108.96,99.5,-163.74,-6.24,0.76,6.04,13.99,-1.21,352.28,14.48,4
8.3,-2.0,5.78,4.0,65.3,111.65,56.3,4.9,0.5,-0.6,-0.9,4.5,100.0,4.2,2
6.6,0.1,-3.82,10.9,19.0,86.69,28.9,8.8,1.1,-0.2,-1.1,21.4,284.3,4.8,1
0.92,-0.85,13.88,1.32,125.51,113.77,-109.92,2.71,1.47,-3.8,-10.76,2.19,162.25,11.19,2
-6.25,-3.88,-16.41,-3.67,127.24,97.78,-117.47,-5.51,-0.04,3.39,17.12,-3.88,209.88,12.96,4
0.85,0.03,-7.01,0.79,82.87,100.51,-74.49,-5.48,2.6,0.2,0.87,-1.81,111.43,16.12,3
-1.9,-1.0,21.09,1.2,39.2,98.15,-57.1,6.7,1.6,-0.1,0.1,-2.3,62.1,6.9,2
2.3,0.9,-2.83,-2.8,82.9,107.03,4.1,5.4,0.7,0.6,1.5,3.4,123.5,5.8,1
-1.0,-5.6,-13.98,6.3,175.9,100.0,-135.4,-9.7,0.3,3.7,-5.5,-3.0,128.0,26.3,4
0.0,5.3,-1.35,15.8,39.7,104.41,-42.9,15.0,3.1,-2.1,-7.4,4.3,56.5,9.2,1
0.56,-2.18,3.94,-0.69,131.41,104.29,-112.97,-0.29,0.49,-2.34,-8.87,-1.68,172.24,13.13,3
-8.8,-3.0,-9.92,-4.9,114.4,105.91,-104.1,-0.5,-0.3,2.6,13.6,-0.8,204.6,11.2,4
-4.98,-4.26,-23.41,-12.59,160.66,104.75,-126.56,-8.69,-0.2,9.58,22.64,-4.1,159.38,19.81,4
-0.9,-1.1,-5.63,-1.2,46.5,123.79,-39.8,7.7,-1.5,1.7,5.3,0.5,112.9,7.1,2
2.1,-6.8,-16.82,8.7,76.8,88.33,-80.4,6.2,4.6,-1.5,-5.6,-0.2,91.7,9.6,2
-2.9,-1.34,-16.85,5.55,107.1,99.89,-163.28,-4.16,0.48,5.58,17.11,-5.26,348.12,13.51,4
7.0,-2.4,-8.35,10.3,61.7,114.09,20.1,5.3,0.3,0.4,1.4,8.2,247.2,4.8,1
-4.6,1.8,16.57,0.3,100.6,103.32,-121.3,-0.4,1.1,-4.1,-12.6,8.4,282.6,10.8,3
-2.24,-0.01,4.56,-3.52,116.83,100.59,-122.56,-1.66,0.35,-0.93,-4.01,0.76,236.11,13.11,3
2.0,-3.4,-4.02,3.3,134.8,100.19,-11.9,1.5,1.5,-0.2,-2.2,0.1,111.7,12.1,3
-0.5,-3.0,2.4,4.6,98.3,103.04,-16.6,1.6,0.5,-0.3,-2.1,6.8,145.3,9.9,2
-2.8,-0.7,24.04,3.3,34.7,109.99,-43.7,29.6,1.7,-1.2,-5.5,1.9,47.4,5.0,1
-0.08,-4.5,-20.24,-0.52,53.1,113.07,-44.32,0.36,-1.34,2.43,6.76,-2.81,112.15,8.16,3
0.51,-2.8,-19.7,-4.81,60.77,109.73,-41.95,0.1,-1.23,2.28,6.96,-3.19,110.02,8.54,3
9.9,3.2,1.68,-3.3,52.4,118.9,70.7,3.0,0.7,-1.6,-4.1,4.5,241.6,4.9,2
-0.19,-2.8,-4.86,2.04,103.37,100.0,-14.15,2.24,0.82,0.58,1.22,3.43,137.38,10.69,3
-0.6,-2.9,-3.68,2.2,95.6,100.0,-12.9,2.3,0.9,0.4,0.3,4.6,142.8,10.3,3
1.35,-1.74,-11.18,1.17,135.33,101.06,-19.73,2.15,0.83,1.83,7.16,-1.12,116.06,12.2,3
2.08,-3.03,18.13,6.44,24.39,110.59,-46.65,13.7,2.23,-2.81,-8.97,3.93,102.5,8.2,2
0.34,-0.96,-11.09,1.14,120.47,102.6,-17.96,2.49,1.46,2.27,8.55,1.54,127.86,11.3,3
1.5,-2.4,-9.7,1.4,135.3,100.0,-19.3,2.0,0.5,1.3,5.0,-1.4,115.1,12.3,3
-3.82,-1.23,-11.62,-3.7,106.05,101.6,-151.01,-0.66,-0.06,4.37,20.59,-9.8,314.32,11.76,4
-0.8,-1.2,-0.62,0.0,68.4,94.11,27.0,9.5,5.9,-0.6,-0.5,2.3,152.9,6.2,1
5.7,-2.5,23.98,6.5,50.3,109.26,64.0,1.5,4.4,-0.9,-1.1,5.5,132.1,4.7,1
-4.21,-0.5,6.8,0.27,59.78,104.75,-72.78,-4.26,0.02,2.58,6.69,-2.0,78.76,9.07,4
0.1,-1.8,-7.32,-7.3,132.9,97.89,-123.8,-2.9,-0.4,2.2,4.5,-6.8,190.1,15.4,3
