PC_CA-avg_3y,REER-pch_3y,X_GS_share_M-pch_5y,FSL-pch,GD-pc_gdp,HPI-pch,NIIP-pc_gdp,ULC-pch_3y,ACT-pch_3y,LTU-pch_3y,YUR-pch_3y,PSCF-pc_gdp,PSD-pc_gdp,UR-avg_3y,label
-2.36,-6.3,-15.08,-2.63,111.67,89.77,-150.58,-5.14,-0.92,5.23,14.58,-6.45,311.23,13.49,4
0.53,-4.37,0.43,5.68,36.33,104.98,-55.14,9.11,0.85,0.18,-1.45,-3.24,110.39,10.04,3
1.8,0.0,9.47,3.5,80.8,102.02,-72.4,-5.6,1.9,-4.4,-18.7,-0.2,104.2,15.5,3
7.5,2.6,-1.5,-4.1,33.9,112.3,64.4,1.6,1.3,-0.6,-1.7,3.5,198.3,5.6,1
0.9,-4.3,13.16,9.5,26.0,100.0,-61.8,14.5,2.2,-1.2,-6.5,-3.5,109.3,11.2,3
2.7,3.9,13.57,6.8,22.3,117.28,-36.8,18.3,2.2,-2.6,-8.9,3.9,95.0,6.3,2
-0.5,-3.0,2.4,4.6,98.3,103.04,-16.6,1.6,0.5,-0.3,-2.1,6.8,145.3,9.9,2
0.6,4.9,8.63,-3.0,37.2,120.83,-49.1,15.1,2.0,-1.4,-4.1,-0.2,70.5,8.6,1
-0.64,-4.15,-7.92,-0.4,109.73,103.33,-104.56,-2.29,0.57,2.94,4.19,-6.09,183.7,18.03,3
9.5,0.7,-11.35,8.0,67.8,96.7,48.0,3.7,0.9,1.3,2.7,4.3,267.2,6.8,2
-6.99,-3.62,-14.52,-4.03,123.5,100.15,-113.57,-4.05,-0.11,3.16,16.09,-2.98,208.34,12.45,4
1.63,-2.09,-6.73,0.79,100.2,99.1,-92.46,-2.81,0.17,1.52,1.01,-4.55,161.25,24.11,2
-0.04,-2.32,-14.29,4.49,98.31,103.35,20.58,4.8,0.73,0.89,4.14,1.8,150.02,8.65,2
0.9,4.2,6.46,7.3,42.6,100.0,-43.6,11.8,2.3,-2.7,-10.4,2.6,55.3,10.5,1
-2.4,2.5,3.2,8.9,49.4,117.31,-68.1,11.3,1.5,-3.6,-11.6,2.0,91.0,8.1,1
2.31,3.98,21.39,4.37,75.22,109.31,-59.0,-2.32,-0.41,-6.43,-17.59,2.09,94.96,11.22,3
7.9,5.3,3.49,2.0,61.9,117.37,62.5,5.6,1.0,-0.6,-1.0,6.5,102.1,3.8,2
0.78,-4.32,9.1,8.28,29.29,101.59,-59.68,12.78,1.77,-0.76,-4.89,-3.42,109.65,10.83,3
4.0,-9.2,-7.55,9.1,42.2,107.3,-1.9,3.1,1.0,-0.1,-4.6,8.4,192.5,7.5,2
-8.36,-3.15,-11.03,-4.69,116.59,104.52,-106.38,-1.36,-0.25,2.74,14.2,-1.33,205.5,11.5,4
-0.5,0.1,25.75,2.8,48.8,109.28,-55.6,7.8,2.0,-2.0,-9.1,3.3,75.8,5.0,1
5.51,-2.57,-13.83,1.61,46.08,92.81,27.91,3.55,-1.5,1.3,6.84,4.45,221.04,7.31,2
-3.3,3.4,-11.62,-7.7,84.2,88.71,-17.8,3.9,1.0,0.2,0.8,6.6,170.2,7.8,2
-2.6,-0.83,-12.06,-3.4,104.04,100.48,-162.43,-0.73,-0.01,4.8,22.26,-11.97,341.03,11.91,4
2.1,7.7,0.75,6.9,8.4,108.14,-27.7,14.3,2.4,-1.1,-1.3,3.7,101.5,6.0,1
-4.3,3.4,-2.78,0.6,43.5,99.71,-63.9,5.4,-0.1,2.6,14.4,2.9,69.5,13.3,1
-8.55,-2.83,-8.77,-4.63,110.74,105.69,-102.15,-0.7,-0.29,2.51,13.03,-0.83,198.04,11.0,4
-6.01,-6.84,-13.43,-3.61,116.69,94.37,-118.15,-4.42,-0.97,3.89,10.56,-0.67,235.66,12.87,4
1.1,0.9,1.08,1.4,101.7,102.86,56.8,0.9,0.3,-0.8,-3.9,0.4,185.4,7.8,1
-3.98,-2.14,-14.24,-3.44,114.48,98.92,-144.4,-3.0,0.0,4.26,20.33,-8.77,286.48,12.44,4
-0.7,-4.4,-15.44,6.9,87.8,108.38,-8.7,5.4,0.4,1.0,3.7,6.4,135.3,9.2,2
5.0,-1.0,21.39,0.4,22.3,109.59,51.8,4.0,-0.6,0.5,-7.2,27.4,322.9,6.2,1
-3.96,-1.28,-11.57,-3.73,106.29,101.72,-149.66,-0.66,-0.07,4.32,20.39,-9.54,311.17,11.75,4
1.87,-3.38,-4.0,3.25,132.9,100.18,-11.95,1.54,1.47,-0.17,-2.08,0.32,113.21,12.01,3
-7.72,-4.55,-22.55,-2.74,149.34,116.85,-113.22,-1.89,0.01,8.78,25.97,-3.81,148.95,16.77,4
0.83,0.17,-5.25,2.04,84.13,100.18,-78.03,-6.03,2.94,-0.12,-0.14,-1.53,111.58,16.79,3
-3.61,0.35,13.04,0.72,40.91,101.86,-64.63,-4.63,0.0,1.07,2.36,-1.49,68.59,7.31,4
1.3,1.2,1.88,9.4,53.5,94.8,-63.5,2.4,1.6,0.1,-3.7,5.0,79.0,13.8,1
8.2,-0.9,-6.74,4.0,64.6,100.0,48.9,-0.4,0.6,1.1,-0.4,0.0,262.8,7.2,2
-0.6,-10.0,-6.24,5.2,42.2,96.29,-36.6,4.0,3.0,0.0,-2.2,1.7,71.5,6.7,1
-5.9,-4.0,-17.3,-3.5,129.0,96.67,-119.3,-6.2,0.0,3.5,17.6,-4.3,210.6,13.2,4
-0.78,-4.26,-8.84,-0.29,107.48,103.68,-103.05,-2.55,0.63,3.3,5.25,-6.58,184.16,18.42,3
1.2,11.0,11.47,7.4,32.6,123.49,-24.8,13.7,2.6,-1.7,-5.9,5.3,70.7,3.0,1
-0.1,-4.3,-15.53,-5.1,104.8,100.38,40.8,4.9,0.0,-0.1,-2.1,14.7,191.0,7.7,2
-0.68,-4.26,-13.69,6.67,88.83,107.86,-9.48,5.03,0.41,0.87,3.13,6.44,136.28,9.27,2
-5.17,-3.29,-16.14,-3.48,123.49,97.52,-128.82,-4.99,0.0,3.79,18.64,-6.0,239.38,12.91,4
-0.76,-1.08,-4.99,-0.93,43.05,120.69,-43.76,8.59,-1.12,1.82,5.44,0.75,114.98,7.7,2
0.9,0.2,-15.53,0.5,135.4,104.16,-21.0,2.6,1.8,3.4,13.5,-0.3,118.9,11.9,3
-0.3,-3.6,-14.64,19.5,104.4,90.24,-164.7,-3.7,0.6,-2.2,-6.2,2.6,278.4,13.7,2
-3.4,-4.3,-0.26,7.4,56.0,96.32,-68.9,3.1,1.7,1.4,3.6,3.3,75.4,10.0,1
1.93,2.99,14.5,3.76,77.52,106.95,-63.93,-3.28,0.46,-4.8,-13.07,1.15,99.26,12.66,3
0.51,-0.44,-6.94,1.87,84.5,100.7,-79.45,-5.99,2.82,0.67,1.7,-2.56,119.56,17.41,3
5.6,10.3,-19.51,5.6,37.6,78.78,-15.5,4.1,1.4,0.4,-1.4,2.4,190.5,8.1,2
-1.9,-5.6,-19.39,-8.5,178.9,103.46,-131.9,-10.4,0.1,10.7,7.7,-3.0,130.8,26.2,4
0.7,-2.8,-23.52,28.7,48.3,103.81,13.9,9.0,-1.1,0.5,3.6,5.3,144.6,8.1,2
-4.8,-11.4,15.13,4.8,54.5,108.27,-62.4,4.2,1.9,1.2,8.5,6.6,73.9,9.2,1
1.68,2.35,9.97,3.37,79.04,105.4,-67.16,-3.91,1.03,-3.73,-10.11,0.54,102.08,13.61,3
-3.37,-9.46,-17.99,-2.37,122.94,84.4,-131.61,-8.66,-1.26,4.96,10.08,-1.77,256.19,14.53,4
-2.39,-5.64,-14.71,-2.72,110.74,91.08,-152.02,-4.6,-0.81,5.18,15.51,-7.12,314.86,13.3,4
1.34,-4.6,10.41,9.35,28.44,104.84,-51.53,10.14,0.8,-2.46,-9.97,1.3,105.76,9.87,3
1.5,-4.7,9.46,9.3,29.28,106.52,-47.99,8.64,0.31,-2.89,-11.17,2.96,104.53,9.41,3
-1.2,-2.6,-4.91,-4.0,61.3,101.04,0.1,-3.6,1.3,0.2,-0.4,7.0,146.0,8.9,1
0.51,-2.64,-6.86,1.78,116.57,100.0,-16.28,2.14,0.69,0.88,2.78,1.43,128.17,11.36,3
2.2,-3.1,0.83,4.2,134.1,98.04,-7.7,1.2,1.5,-1.2,-8.0,1.3,108.8,11.6,3
-0.8,-1.2,-0.62,0.0,68.4,94.11,27.0,9.5,5.9,-0.6,-0.5,2.3,152.9,6.2,1
-2.99,-3.14,3.41,6.17,104.86,101.27,-141.8,-6.82,0.67,0.41,-1.67,5.93,322.86,13.83,3
-2.0,2.5,13.52,13.2,37.3,100.0,-64.1,17.2,1.3,-3.3,-12.2,-0.5,80.4,10.9,1
2.3,0.9,-2.83,-2.8,82.9,107.03,4.1,5.4,0.7,0.6,1.5,3.4,123.5,5.8,1
5.1,-1.5,33.28,5.2,20.1,105.68,54.6,1.2,0.1,0.4,3.4,-9.6,309.0,6.3,1
1.99,3.16,15.65,3.87,77.14,107.34,-63.11,-3.12,0.31,-5.07,-13.83,1.31,98.55,12.42,3
-2.01,-6.02,-24.16,7.05,124.92,117.61,-22.64,1.98,1.16,2.06,9.32,-0.47,125.38,9.24,2
-0.29,-4.24,-1.19,2.7,122.52,100.0,-131.94,-3.83,0.15,0.86,-1.87,0.72,241.02,14.88,3
5.0,-2.0,17.79,5.3,74.1,110.33,-24.2,3.7,3.3,-2.2,-9.0,0.9,76.3,7.9,1
-1.36,-1.27,-13.99,-6.12,96.69,95.78,17.72,4.51,0.39,0.02,-0.96,11.51,182.81,7.74,2
0.8,-0.8,-23.17,-5.8,78.6,89.71,-92.2,7.7,2.5,0.8,1.8,-6.0,102.2,11.1,2
-1.79,-4.72,-16.25,0.84,86.09,106.21,-87.78,-5.12,1.39,5.98,13.59,-10.17,180.29,21.45,3
5.4,5.1,-17.19,9.7,40.4,82.36,-15.9,8.7,2.0,-0.2,-1.3,4.6,193.6,8.0,2
-6.47,-6.2,-12.85,-3.82,116.31,96.28,-115.82,-3.77,-0.86,3.68,11.06,-0.7,230.52,12.59,4
8.1,-2.1,2.13,5.2,69.2,106.77,51.4,4.9,0.3,-0.6,-0.7,3.7,98.2,4.6,2
2.6,4.1,4.61,-2.3,97.6,114.86,-80.2,0.7,-0.6,-5.0,-14.0,0.4,134.4,17.4,2
1.0,3.1,8.95,0.5,122.0,124.17,-106.1,5.1,1.7,-4.1,-11.7,1.0,155.4,9.1,2
1.2,5.3,8.56,23.0,34.7,116.3,-25.0,5.9,2.4,-1.7,-8.0,4.2,67.3,4.0,1
-2.13,-12.13,-18.33,-1.81,119.97,78.38,-137.65,-9.87,-1.88,5.68,6.39,-0.53,278.55,15.18,4
-4.54,-0.19,9.41,-0.32,52.71,102.25,-71.25,-3.87,-0.06,1.15,3.96,-1.28,93.91,7.83,4
-2.8,6.0,-21.25,-3.6,83.2,88.06,-28.1,3.0,0.4,0.8,2.1,1.5,176.1,7.9,2
1.2,1.7,19.36,16.7,40.6,95.53,-46.8,8.7,2.3,-3.2,-13.3,0.2,54.2,12.0,1
3.1,0.0,10.82,-7.6,72.9,123.6,-55.1,9.1,4.2,-2.0,-9.7,0.7,70.8,5.4,1
-1.65,-1.02,14.51,0.61,41.0,104.47,-52.84,6.95,0.84,0.34,1.38,-1.61,74.62,6.95,2
0.78,-4.32,8.94,8.24,29.42,101.65,-59.59,12.72,1.75,-0.74,-4.83,-3.41,109.66,10.82,3
0.8,0.1,-5.77,2.0,84.3,100.0,-78.4,-6.1,3.0,0.0,0.2,-1.6,111.9,16.9,3
-4.14,0.08,11.24,0.11,46.84,101.9,-68.12,-4.19,-0.04,1.02,3.04,-1.33,83.38,7.51,4
0.9,5.8,7.29,8.6,10.0,100.0,-39.9,15.3,1.9,-3.1,-7.8,2.7,112.8,7.4,1
2.48,-2.73,-18.08,-1.95,78.76,89.44,-68.85,5.51,2.43,-0.34,-0.98,-1.9,93.6,10.41,2
0.0,-8.2,-2.16,8.1,40.0,100.0,-32.9,0.1,2.4,-0.6,-6.9,0.3,68.1,6.1,1
-2.6,-0.5,7.39,4.3,39.8,98.89,-45.2,3.4,0.8,0.5,8.2,2.1,68.3,6.9,1
-2.9,0.4,11.98,11.4,41.6,102.42,-67.1,16.0,1.8,-4.2,-11.4,-4.4,82.2,12.6,1
-0.1,-4.5,-20.85,-0.7,53.6,113.31,-44.0,0.1,-1.4,2.5,7.0,-2.8,112.2,8.1,3
0.73,-2.19,-1.02,-0.43,117.82,100.0,-107.35,-1.6,0.86,-0.36,-4.16,-1.46,160.07,15.11,3
-7.4,-5.0,-26.26,-2.1,159.6,120.06,-115.9,-2.3,0.1,10.6,29.6,-4.7,132.6,18.4,4
-2.4,-11.78,-17.96,-1.94,119.65,79.48,-136.28,-9.48,-1.83,5.56,6.63,-0.51,275.73,15.02,4
2.7,-5.2,-2.11,19.5,75.5,113.12,-59.6,5.4,5.4,-2.5,-13.7,-3.1,77.5,6.5,1
0.12,-1.41,-9.37,1.38,114.72,102.0,-16.79,2.44,1.33,1.84,6.64,2.25,131.32,11.07,3
-1.9,-1.0,21.09,1.2,39.2,98.15,-57.1,6.7,1.6,-0.1,0.1,-2.3,62.1,6.9,2
-1.46,-4.8,-13.3,0.22,96.59,105.36,-95.78,-3.81,0.92,5.05,10.36,-8.95,186.39,20.26,3
0.24,-3.62,-0.08,0.49,127.19,100.0,-124.92,-1.66,0.07,0.13,-4.04,-0.42,207.78,14.62,3
1.9,-3.8,-22.85,-1.3,77.4,85.69,-82.2,7.5,2.8,-0.6,0.2,-0.8,95.8,10.7,2
2.67,3.84,13.39,6.73,22.23,117.02,-37.27,18.26,2.19,-2.53,-8.7,3.88,95.46,6.38,2
-4.94,-1.53,-0.75,-0.27,82.56,108.25,-82.62,-3.82,0.04,4.41,11.92,-2.62,91.05,11.2,4
5.5,-2.5,-13.78,1.6,46.1,92.87,27.8,3.6,-1.5,1.3,6.9,4.4,221.0,7.3,2
-6.05,-3.1,-12.29,-1.1,117.41,113.59,-97.68,-3.13,0.07,7.21,19.92,-3.56,109.85,14.46,4
-2.15,-12.08,-18.33,-1.82,120.03,78.49,-137.54,-9.85,-1.87,5.67,6.46,-0.55,278.12,15.17,4
-2.33,-6.87,-15.39,-2.55,112.47,88.66,-149.35,-5.6,-1.01,5.28,13.78,-5.88,308.14,13.66,4
-6.29,-4.26,-19.64,-3.13,136.98,102.77,-118.41,-5.18,0.03,5.35,20.73,-4.4,190.25,14.56,4
-5.21,-5.49,-17.49,-3.19,127.35,93.32,-122.66,-6.87,-0.35,3.9,15.55,-3.61,223.05,13.56,4
4.1,-2.9,22.52,3.9,55.5,104.82,35.4,-1.5,4.3,-1.1,-2.0,15.2,136.1,5.3,1
-2.6,-0.87,-12.08,-3.39,104.1,100.4,-162.34,-0.76,-0.01,4.81,22.2,-11.93,340.81,11.92,4
0.01,-5.15,17.78,11.53,90.85,97.73,-167.8,-9.9,0.73,-2.91,-7.84,-5.5,281.06,12.11,2
-4.61,-8.76,-15.19,-2.96,117.84,88.59,-125.19,-6.38,-1.3,4.54,9.03,-0.61,251.23,13.7,4
-3.96,-2.12,-14.21,-3.44,114.33,98.94,-144.64,-2.97,0.0,4.26,20.36,-8.82,287.22,12.44,4
2.4,4.2,22.94,4.5,74.7,109.84,-57.9,-2.1,-0.6,-6.8,-18.6,2.3,94.0,10.9,3
-3.5,0.5,14.14,0.8,37.6,101.35,-63.2,-4.7,0.0,0.8,1.6,-1.4,66.8,7.0,4
5.4,0.5,16.34,37.8,22.7,94.98,59.3,7.1,2.9,0.2,5.8,28.7,324.9,5.6,1
0.9,-0.4,-5.01,2.4,104.9,101.19,54.5,-0.9,0.1,0.1,-3.6,23.8,194.9,8.3,1
-2.41,-5.05,-14.39,-2.8,109.93,92.22,-153.29,-4.13,-0.71,5.14,16.33,-7.71,318.04,13.13,4
0.3,-0.9,-0.15,1.1,17.1,97.38,-73.5,15.3,1.7,2.7,6.5,2.6,130.6,12.2,2
0.23,-2.67,2.25,-1.25,128.51,100.29,-119.11,0.15,0.1,-0.82,-6.49,-0.54,188.38,14.08,3
6.9,-2.5,-17.81,1.8,44.0,90.99,37.2,1.5,-1.4,0.4,-0.8,-3.0,216.1,7.7,1
-1.4,2.1,-23.06,1.4,63.6,100.0,4.8,3.3,0.6,0.7,3.4,6.9,152.1,8.8,2
1.5,-4.7,9.44,9.3,29.3,106.56,-47.9,8.6,0.3,-2.9,-11.2,3.0,104.5,9.4,3
-5.97,-3.97,-17.11,-3.54,128.63,96.91,-118.91,-6.05,-0.01,3.48,17.5,-4.21,210.45,13.15,4
8.3,-2.0,5.78,4.0,65.3,111.65,56.3,4.9,0.5,-0.6,-0.9,4.5,100.0,4.2,2
0.67,-0.59,-8.03,1.6,79.7,101.99,-73.25,-5.17,2.34,0.37,1.22,-1.78,111.94,15.58,3
8.3,-1.7,-2.87,5.2,37.2,105.09,52.6,1.3,0.9,-0.6,-2.6,3.1,209.0,6.4,1
4.1,0.3,-4.61,-3.8,82.6,100.0,-31.2,-0.1,1.4,0.4,-4.3,-5.0,87.4,9.6,2
-2.6,-0.8,-12.04,-3.4,104.0,100.54,-162.5,-0.7,0.0,4.8,22.3,-12.0,341.2,11.9,4
-4.8,1.4,1.39,10.7,54.1,101.13,-65.3,5.3,1.8,1.6,5.9,4.8,73.4,9.8,1
-2.49,-11.66,-17.85,-1.98,119.58,79.85,-135.83,-9.35,-1.81,5.52,6.73,-0.52,274.75,14.97,4
-6.07,-3.12,-12.43,-1.11,117.85,113.66,-97.86,-3.12,0.07,7.25,20.02,-3.57,110.08,14.5,4
-2.42,-4.94,-14.33,-2.82,109.77,92.45,-153.54,-4.04,-0.69,5.13,16.5,-7.83,318.67,13.1,4
-2.39,-5.56,-14.67,-2.73,110.64,91.22,-152.18,-4.54,-0.79,5.18,15.61,-7.19,315.25,13.28,4
-5.72,-2.63,-8.85,-0.85,107.02,112.0,-93.19,-3.33,0.06,6.38,17.53,-3.28,104.24,13.49,4
-4.6,1.8,16.57,0.3,100.6,103.32,-121.3,-0.4,1.1,-4.1,-12.6,8.4,282.6,10.8,3
-4.56,1.77,16.46,0.29,100.81,103.3,-121.28,-0.4,1.09,-4.08,-12.55,8.33,281.9,10.82,3
-0.02,-4.31,-19.6,-0.53,54.72,112.84,-45.17,-0.13,-1.26,2.22,5.94,-2.69,111.87,8.4,3
-7.14,-3.57,-14.14,-4.1,122.75,100.62,-112.8,-3.76,-0.13,3.11,15.89,-2.8,208.03,12.34,4
-1.4,0.4,-15.78,3.9,63.2,100.19,5.2,0.4,0.7,0.6,0.2,1.3,148.0,9.0,1
1.5,-2.4,-9.7,1.4,135.3,100.0,-19.3,2.0,0.5,1.3,5.0,-1.4,115.1,12.3,3
-7.93,-4.24,-20.08,-3.16,142.52,114.71,-111.44,-1.62,-0.05,7.58,23.55,-3.23,159.81,15.68,4
0.1,-4.2,-4.32,6.2,80.8,99.03,-104.2,3.8,1.2,1.6,6.5,-4.3,114.8,10.7,2
7.0,-0.4,-9.51,4.6,75.7,96.0,40.8,7.4,0.4,-0.6,-0.8,-0.3,98.4,5.2,2
2.6,-2.6,9.87,3.2,98.6,109.18,-85.5,-0.5,-0.3,-5.2,-14.6,0.6,139.6,19.6,2
-2.0,-6.2,-4.75,9.8,107.5,100.0,-154.5,-10.8,0.4,3.2,5.1,4.4,347.8,15.7,3
7.9,-2.1,1.07,4.7,35.8,108.5,55.4,1.6,1.3,-0.5,-1.8,1.4,202.7,6.0,1
0.1,6.9,-1.46,-2.6,99.8,103.87,38.1,3.7,1.0,-1.5,-6.3,3.7,185.1,7.0,1
-3.14,-2.69,4.59,5.64,104.48,101.46,-139.95,-6.24,0.71,0.0,-2.66,6.15,319.22,13.55,3
-1.5,-3.0,-0.36,-13.0,176.2,96.81,-140.7,-1.0,0.9,-3.9,-8.8,-1.0,118.0,23.3,4
-4.33,0.08,17.0,-0.12,99.2,103.28,-122.39,-1.18,0.79,-3.91,-12.33,8.04,287.08,11.26,3
-2.1,-5.3,-17.51,0.7,86.3,106.96,-88.9,-5.0,1.2,6.7,15.2,-11.2,188.5,22.0,3
0.4,-3.6,6.93,10.9,9.8,76.91,-50.7,0.1,0.8,1.8,-6.5,7.6,117.2,13.0,1
-0.2,-2.98,-3.73,2.37,101.58,100.03,-12.75,2.18,0.99,0.31,-0.08,3.91,138.05,10.57,3
0.3,-1.2,4.06,10.4,51.9,100.0,-63.9,2.7,1.5,-1.8,-7.5,5.1,80.6,13.0,1
-2.1,-12.2,-18.34,-1.8,119.9,78.23,-137.8,-9.9,-1.9,5.7,6.3,-0.5,279.1,15.2,4
-8.8,-3.0,-9.92,-4.9,114.4,105.91,-104.1,-0.5,-0.3,2.6,13.6,-0.8,204.6,11.2,4
-3.5,-2.5,-8.31,3.4,69.9,128.08,-93.8,-1.4,1.2,6.9,21.7,-4.2,198.2,19.7,2
2.0,-3.4,-4.02,3.3,134.8,100.19,-11.9,1.5,1.5,-0.2,-2.2,0.1,111.7,12.1,3
-4.45,-7.13,-17.7,-2.85,125.53,89.64,-126.35,-7.61,-0.72,4.34,13.29,-2.85,236.71,13.96,4
-2.29,-7.85,-15.94,-2.41,113.84,86.73,-147.22,-6.39,-1.18,5.36,12.4,-4.88,302.77,13.94,4
-4.8,-8.49,-14.94,-3.05,117.68,89.4,-124.2,-6.11,-1.25,4.45,9.25,-0.62,249.03,13.59,4
0.51,-4.38,-0.03,5.54,36.7,105.16,-54.9,8.91,0.8,0.24,-1.26,-3.23,110.42,10.0,3
4.77,-5.76,-10.75,5.25,44.2,99.9,13.34,3.36,-0.28,0.62,1.3,6.35,207.13,7.4,2
0.35,-1.3,-10.86,0.67,94.62,102.7,-95.49,-3.17,0.48,4.57,9.9,-6.13,174.04,24.03,2
-4.35,-2.5,-14.83,-3.45,117.25,98.49,-139.61,-3.61,0.0,4.11,19.81,-7.92,271.99,12.59,4
2.4,-1.8,-12.5,1.5,82.4,88.31,-1.9,5.8,0.7,0.2,0.4,3.0,129.4,4.9,1
-4.64,-6.71,-17.64,-2.94,125.99,90.57,-125.42,-7.42,-0.63,4.23,13.86,-3.04,233.27,13.86,4
-2.2,3.6,6.85,-4.9,181.2,98.21,-143.6,1.4,0.4,-4.6,-9.9,-0.8,115.5,21.5,4
6.4,-9.0,-16.75,3.2,81.1,92.35,28.7,2.5,0.9,-1.1,-3.2,1.4,101.9,6.1,1
-2.34,-6.75,-15.33,-2.57,112.3,88.9,-149.61,-5.5,-0.99,5.27,13.95,-6.0,308.8,13.62,4
1.18,-4.49,11.43,9.41,27.53,103.04,-55.35,11.76,1.32,-1.99,-8.68,-0.48,107.07,10.36,3
-1.2,-1.6,7.31,8.6,52.0,107.04,-66.8,4.1,2.0,-4.2,-11.5,9.2,88.5,11.5,1
6.5,-7.8,-17.73,2.5,44.9,88.28,36.1,-0.2,-1.5,1.5,2.3,7.9,224.0,7.8,2
-0.9,-1.1,-5.63,-1.2,46.5,123.79,-39.8,7.7,-1.5,1.7,5.3,0.5,112.9,7.1,2
0.7,-3.1,0.87,-1.4,131.2,100.0,-118.9,0.2,0.0,-0.5,-5.9,-1.4,179.3,14.4,3
2.3,-4.3,2.9,2.4,99.2,104.45,-85.5,-1.2,-0.1,-3.5,-11.1,-0.4,147.4,22.1,2
2.3,2.3,77.37,5.1,63.5,127.42,-165.0,-2.8,0.8,-3.2,-6.4,-7.8,223.2,7.0,2
0.9,-0.8,14.27,1.4,126.1,114.08,-110.4,2.8,1.5,-3.9,-10.9,2.3,162.4,10.9,2
5.7,2.0,19.55,4.1,70.4,118.37,-18.9,6.1,3.2,-2.5,-7.5,1.3,72.8,6.6,1
-0.37,-3.94,-6.16,-0.6,114.03,102.66,-107.43,-1.79,0.46,2.25,2.17,-5.15,182.82,17.31,3
-2.8,-7.8,-25.92,10.4,80.1,89.47,-11.6,5.8,-0.3,1.3,6.3,1.6,176.6,7.8,2
-5.17,-1.86,-3.21,-0.45,89.99,109.39,-85.83,-3.67,0.04,5.01,13.62,-2.82,95.06,11.9,4
8.4,-1.8,1.52,-0.1,56.9,110.77,59.4,-0.1,0.7,-1.0,-3.8,3.7,249.1,5.9,2
-2.65,-0.84,-12.11,-3.4,104.34,100.49,-161.91,-0.78,0.0,4.78,22.24,-11.89,339.41,11.92,4
1.3,-1.0,-11.49,0.0,100.7,96.46,-95.9,-3.6,0.3,4.0,7.0,-6.6,168.1,25.1,2
-0.5,1.7,26.02,2.0,37.2,92.5,-53.6,-7.8,3.0,6.7,19.3,-1.8,68.8,15.7,1
0.5,-0.6,-13.33,2.5,107.0,99.19,44.8,4.3,1.0,0.8,4.5,-2.0,162.2,8.2,2
0.76,-1.1,-3.28,0.72,101.89,100.0,-93.59,-3.74,1.87,-0.19,-2.09,-1.52,137.18,15.96,3
1.29,-0.79,-10.61,1.61,135.01,102.32,-17.0,2.18,1.71,2.02,7.04,0.18,115.86,11.81,3
-4.67,-0.27,8.82,-0.46,54.57,102.36,-72.24,-3.77,-0.07,1.2,4.25,-1.27,97.26,7.93,4
2.1,-6.8,-16.82,8.7,76.8,88.33,-80.4,6.2,4.6,-1.5,-5.6,-0.2,91.7,9.6,2
-0.3,4.8,20.52,13.0,10.6,93.21,-46.7,14.7,0.5,-3.8,-7.4,5.6,115.4,8.7,1
7.7,-1.2,-15.87,7.3,44.3,93.85,43.3,2.3,-1.2,-0.1,-2.2,-0.3,214.0,7.4,1
2.0,1.3,-9.15,-0.1,84.9,100.0,2.2,6.4,0.4,0.5,1.2,2.1,124.0,5.6,1
-8.49,-3.44,-13.52,-4.28,124.36,109.03,-106.7,-0.9,-0.21,4.36,17.13,-1.66,188.73,12.79,4
0.24,-1.86,-1.36,2.58,35.62,97.86,-82.43,11.96,1.55,2.38,6.5,0.59,126.01,11.76,2
1.9,-0.8,24.41,-0.2,6.1,74.59,-54.0,-2.2,0.5,5.4,10.4,-0.8,118.9,14.2,1
-1.0,-5.6,-13.98,6.3,175.9,100.0,-135.4,-9.7,0.3,3.7,-5.5,-3.0,128.0,26.3,4
-1.6,-5.6,38.33,8.2,35.1,108.6,-47.4,15.4,1.6,-0.8,-5.7,1.7,50.9,5.9,1
-2.27,-8.33,-16.2,-2.34,114.51,85.8,-146.18,-6.78,-1.26,5.39,11.73,-4.4,300.16,14.08,4
-1.1,-4.0,-9.78,-10.2,178.5,98.32,-137.6,-3.3,0.7,-1.5,-11.0,-2.1,125.1,25.0,4
6.6,0.1,-3.82,10.9,19.0,86.69,28.9,8.8,1.1,-0.2,-1.1,21.4,284.3,4.8,1
0.67,-2.84,-23.34,28.22,49.17,103.91,13.4,8.92,-1.07,0.51,3.6,5.32,144.39,8.12,2
-5.6,-7.39,-13.94,-3.42,117.03,92.69,-120.2,-4.99,-1.06,4.08,10.11,-0.66,240.19,13.11,4
-0.4,-2.13,-10.62,1.46,85.13,102.87,-82.73,-5.65,2.26,2.77,6.39,-5.56,143.51,19.0,3
-2.1,-6.2,-25.74,7.2,126.5,118.47,-23.0,2.0,1.2,2.2,10.0,-0.9,124.2,9.2,2
-4.3,10.1,-9.19,4.8,86.2,94.4,-22.8,4.0,1.2,-0.5,-4.3,6.0,163.6,7.2,2
0.4,-7.1,58.59,1.5,73.8,107.17,-171.7,-17.7,0.9,-3.8,-9.9,-15.7,284.4,10.1,2
-5.6,-5.0,17.63,10.4,70.2,95.07,6.3,11.1,2.7,1.3,1.6,6.8,168.3,6.7,1
1.16,-0.94,-12.98,0.89,135.36,102.34,-20.26,2.34,1.23,2.48,9.79,-0.78,117.24,12.07,3
-0.6,-2.9,-3.68,2.2,95.6,100.0,-12.9,2.3,0.9,0.4,0.3,4.6,142.8,10.3,3
-4.43,-0.11,9.92,-0.2,51.06,102.15,-70.37,-3.96,-0.05,1.12,3.7,-1.29,90.95,7.74,4
4.9,3.3,8.69,-2.0,21.0,114.88,53.8,7.9,0.2,-0.5,-3.1,-0.5,306.5,5.8,1
-4.9,0.2,1.09,11.7,86.8,105.5,0.3,3.7,0.9,-1.4,-7.7,8.8,166.4,5.4,1
-3.63,-8.91,-17.92,-2.48,123.55,85.63,-130.37,-8.41,-1.14,4.82,10.84,-2.03,251.61,14.4,4
0.5,1.7,8.2,6.2,39.3,113.33,-56.2,15.2,2.4,-1.3,-2.6,2.4,76.9,9.4,1
9.9,3.2,1.68,-3.3,52.4,118.9,70.7,3.0,0.7,-1.6,-4.1,4.5,241.6,4.9,2
0.25,-1.14,-10.42,1.23,118.22,102.36,-17.5,2.47,1.41,2.11,7.8,1.81,129.22,11.21,3
1.0,-1.7,-13.57,2.7,105.2,100.0,45.2,0.5,0.7,1.0,2.3,12.1,176.1,8.5,1
-3.3,-6.4,18.62,-1.7,93.9,103.15,-126.5,-4.1,-0.4,-3.2,-11.3,6.7,304.0,13.0,3
2.3,-6.4,37.84,9.6,76.7,100.0,-198.4,-18.6,1.0,-3.9,-10.6,-2.3,305.1,11.9,2
0.15,-3.53,-2.73,-0.99,122.41,101.36,-113.03,-0.82,0.23,0.91,-1.77,-3.32,181.1,15.89,3
1.25,-4.53,10.99,9.38,27.92,103.83,-53.69,11.06,1.09,-2.19,-9.24,0.29,106.5,10.15,3
5.7,-2.5,23.98,6.5,50.3,109.26,64.0,1.5,4.4,-0.9,-1.1,5.5,132.1,4.7,1
2.28,3.33,20.14,4.29,75.97,108.21,-60.92,-2.83,-0.08,-6.3,-18.62,1.78,96.12,11.86,3
-0.6,4.8,10.22,4.7,40.9,107.36,-59.0,16.7,2.3,-1.7,-5.9,2.3,80.5,10.1,1
1.37,-4.68,6.96,8.48,31.29,107.11,-47.58,7.9,0.16,-2.46,-9.71,2.53,105.13,9.29,3
0.47,-2.26,-23.47,25.68,49.99,103.39,12.89,8.37,-0.91,0.52,3.58,5.48,145.43,8.18,2
-2.11,-5.31,-17.22,0.68,86.36,106.93,-89.2,-4.99,1.19,6.62,14.99,-11.06,189.41,21.93,3
-0.7,2.1,-4.08,1.4,54.7,93.4,-62.2,2.6,1.2,0.8,0.1,5.0,75.2,13.9,1
-6.5,-1.48,0.52,-2.43,81.06,103.93,-86.35,-2.32,-0.17,1.82,8.39,-1.06,144.78,9.38,4
0.7,-3.7,2.44,16.3,36.8,106.62,-26.9,2.7,2.1,-1.3,-8.5,4.3,68.7,5.1,1
2.1,-2.4,26.53,-6.2,43.9,92.26,-74.7,-20.6,-1.4,6.9,17.4,-2.4,115.2,17.7,1
-7.34,-4.96,-25.91,-2.16,158.39,119.14,-116.03,-2.45,0.1,10.32,29.13,-4.68,135.68,18.19,4
-1.0,-5.1,17.73,9.1,54.3,102.29,-61.6,2.5,1.8,-2.2,-9.6,5.1,81.6,7.6,1
