PC_CA-avg_3y,REER-pch_3y,X_GS_share_M-pch_5y,FSL-pch,GD-pc_gdp,HPI-pch,NIIP-pc_gdp,ULC-pch_3y,ACT-pch_3y,LTU-pch_3y,YUR-pch_3y,PSCF-pc_gdp,PSD-pc_gdp,UR-avg_3y,label
1.53,-3.31,-3.96,3.1,127.71,100.16,-12.08,1.64,1.39,-0.09,-1.75,0.91,117.32,11.77,3
-0.96,-3.77,-7.55,0.22,106.11,106.57,-98.37,-3.03,0.98,2.4,4.11,-7.08,180.08,17.88,3
-10.3,1.8,-17.17,-4.0,172.1,136.51,-88.8,6.8,0.6,5.1,22.8,-6.5,130.2,13.4,4
8.4,-1.8,1.52,-0.1,56.9,110.77,59.4,-0.1,0.7,-1.0,-3.8,3.7,249.1,5.9,2
-2.1,-5.3,-17.51,0.7,86.3,106.96,-88.9,-5.0,1.2,6.7,15.2,-11.2,188.5,22.0,3
0.1,-4.2,-4.32,6.2,80.8,99.03,-104.2,3.8,1.2,1.6,6.5,-4.3,114.8,10.7,2
2.4,4.2,22.94,4.5,74.7,109.84,-57.9,-2.1,-0.6,-6.8,-18.6,2.3,94.0,10.9,3
-2.9,0.4,11.98,11.4,41.6,102.42,-67.1,16.0,1.8,-4.2,-11.4,-4.4,82.2,12.6,1
-1.05,-4.21,-5.91,2.08,118.97,99.05,-140.63,-7.23,0.04,2.75,4.83,-0.66,276.58,15.56,3
6.4,-9.0,-16.75,3.2,81.1,92.35,28.7,2.5,0.9,-1.1,-3.2,1.4,101.9,6.1,1
-2.65,-6.48,-19.3,5.5,114.07,89.8,-151.97,-8.05,-0.43,5.92,10.28,-0.61,319.28,14.87,4
3.29,1.11,-11.93,-0.46,80.53,98.74,-37.69,0.08,0.68,1.57,3.64,-4.73,96.87,9.6,2
2.84,0.03,0.77,-2.75,73.51,99.61,-36.62,1.32,1.44,0.3,-3.38,-4.43,82.1,9.03,2
-4.9,0.2,1.09,11.7,86.8,105.5,0.3,3.7,0.9,-1.4,-7.7,8.8,166.4,5.4,1
1.5,-4.7,9.44,9.3,29.3,106.56,-47.9,8.6,0.3,-2.9,-11.2,3.0,104.5,9.4,3
1.24,-0.52,-16.72,-8.66,71.71,104.51,-43.97,-0.64,-0.52,1.76,6.1,-3.45,107.76,10.03,3
-1.7,-8.6,7.91,5.6,42.4,92.02,-67.5,-6.5,0.9,3.3,-4.8,-5.4,96.8,16.9,1
0.22,-2.17,2.79,-0.28,126.66,106.17,-108.19,-0.98,0.75,-2.05,-7.39,-2.81,171.36,13.61,3
0.7,-2.8,-23.52,28.7,48.3,103.81,13.9,9.0,-1.1,0.5,3.6,5.3,144.6,8.1,2
-7.54,1.27,-4.44,-2.05,117.41,122.21,-78.39,2.12,0.36,3.35,14.18,-4.43,104.42,10.8,4
6.6,0.1,-3.82,10.9,19.0,86.69,28.9,8.8,1.1,-0.2,-1.1,21.4,284.3,4.8,1
3.75,0.65,-7.81,-2.34,81.69,99.45,-34.04,-0.02,1.08,0.91,-0.83,-4.88,91.53,9.6,2
5.7,0.8,8.2,10.3,23.7,91.43,58.9,7.6,1.7,0.5,1.3,27.8,313.3,5.3,1
-5.7,0.92,4.02,-0.75,81.06,112.71,-71.47,-0.98,0.19,2.19,8.45,-3.05,87.28,9.07,4
3.2,1.2,-12.73,-0.1,80.3,98.6,-38.4,0.1,0.6,1.7,4.5,-4.7,97.9,9.6,2
-0.7,-2.6,24.74,7.0,37.3,105.17,-49.1,9.5,0.7,-0.2,-3.1,0.6,53.7,6.5,1
-6.95,-5.62,-25.58,-2.07,156.2,116.48,-117.77,-2.95,-0.07,10.18,27.61,-4.34,145.14,18.13,4
-7.44,-4.95,-25.84,-2.17,158.45,119.7,-115.6,-2.25,0.09,10.4,29.19,-4.6,134.44,18.22,4
6.9,-2.5,-17.81,1.8,44.0,90.99,37.2,1.5,-1.4,0.4,-0.8,-3.0,216.1,7.7,1
-3.28,-1.74,-19.78,11.09,109.36,99.65,-161.95,-6.31,0.77,5.99,13.6,-0.7,348.2,14.49,4
0.9,-0.8,14.27,1.4,126.1,114.08,-110.4,2.8,1.5,-3.9,-10.9,2.3,162.4,10.9,2
-3.5,0.5,14.14,0.8,37.6,101.35,-63.2,-4.7,0.0,0.8,1.6,-1.4,66.8,7.0,4
-5.14,-3.27,-23.03,5.08,133.17,109.25,-141.02,-4.5,0.47,8.24,21.21,-2.6,248.08,16.41,4
1.14,-3.23,-3.91,2.94,121.84,100.13,-12.23,1.76,1.3,-0.0,-1.37,1.59,121.98,11.5,3
-6.57,-6.06,-12.72,-3.87,116.23,96.69,-115.32,-3.63,-0.83,3.63,11.17,-0.7,229.41,12.53,4
1.01,-0.19,-10.9,-2.99,78.4,102.11,-62.26,-3.54,1.35,0.83,2.97,-2.47,109.96,13.68,3
-2.55,-7.46,-19.13,4.25,115.07,87.81,-149.53,-8.37,-0.68,5.88,9.59,-0.59,312.36,14.93,4
1.2,11.0,11.47,7.4,32.6,123.49,-24.8,13.7,2.6,-1.7,-5.9,5.3,70.7,3.0,1
-2.7,-3.2,-19.21,5.1,119.7,124.71,-18.2,4.9,-0.8,1.3,8.0,3.1,121.8,8.2,2
2.3,-6.4,37.84,9.6,76.7,100.0,-198.4,-18.6,1.0,-3.9,-10.6,-2.3,305.1,11.9,2
0.9,5.8,7.29,8.6,10.0,100.0,-39.9,15.3,1.9,-3.1,-7.8,2.7,112.8,7.4,1
0.83,-4.62,-3.18,5.13,39.43,109.37,-46.27,5.06,-0.41,-0.65,-3.62,0.58,107.71,8.86,3
1.8,0.1,-12.48,5.9,63.4,96.09,43.0,2.4,6.0,-1.0,-1.6,7.4,143.6,6.0,1
-1.0,-5.1,17.73,9.1,54.3,102.29,-61.6,2.5,1.8,-2.2,-9.6,5.1,81.6,7.6,1
5.94,-4.85,-15.53,2.0,45.57,90.84,31.47,1.92,-1.5,1.39,4.86,5.95,222.33,7.52,2
-3.17,-10.75,-19.94,-1.86,127.91,86.67,-133.38,-8.37,-1.5,6.69,11.0,-1.35,249.54,15.85,4
-1.93,0.34,-13.04,-3.21,89.23,96.83,-17.14,4.28,0.95,0.42,1.24,4.14,152.25,8.89,2
-1.9,-1.0,21.09,1.2,39.2,98.15,-57.1,6.7,1.6,-0.1,0.1,-2.3,62.1,6.9,2
-1.7,2.7,-27.3,9.4,59.8,100.46,-3.1,7.6,0.5,0.2,0.4,1.7,148.8,8.2,2
-1.0,-5.6,-13.98,6.3,175.9,100.0,-135.4,-9.7,0.3,3.7,-5.5,-3.0,128.0,26.3,4
-3.88,1.25,12.93,-0.86,105.53,102.49,-121.68,-0.78,0.87,-3.14,-9.99,6.08,268.49,11.5,3
1.89,-3.26,13.59,7.68,43.88,106.09,-53.22,4.84,0.3,-3.68,-13.27,2.55,102.52,10.63,3
-2.8,-7.8,-25.92,10.4,80.1,89.47,-11.6,5.8,-0.3,1.3,6.3,1.6,176.6,7.8,2
5.7,-2.5,23.98,6.5,50.3,109.26,64.0,1.5,4.4,-0.9,-1.1,5.5,132.1,4.7,1
-0.1,-4.5,-20.85,-0.7,53.6,113.31,-44.0,0.1,-1.4,2.5,7.0,-2.8,112.2,8.1,3
7.9,5.3,3.49,2.0,61.9,117.37,62.5,5.6,1.0,-0.6,-1.0,6.5,102.1,3.8,2
0.27,-3.48,-20.16,-3.16,57.89,111.17,-42.77,0.1,-1.3,2.37,6.97,-3.04,110.89,8.36,3
-3.09,-1.77,-20.09,11.51,109.27,99.31,-163.63,-6.52,0.78,6.1,13.55,-0.7,352.33,14.6,4
-7.95,-2.44,-6.08,-3.99,102.15,105.18,-97.58,-1.17,-0.25,2.31,11.69,-0.9,182.63,10.53,4
0.41,-1.8,2.35,-1.98,131.82,104.19,-113.55,-1.05,0.45,-1.89,-6.75,-2.95,174.07,13.24,3
1.19,-0.92,-18.43,-9.33,68.66,105.79,-39.68,0.1,-1.03,2.04,6.91,-3.63,107.61,9.02,3
0.5,-0.6,-13.33,2.5,107.0,99.19,44.8,4.3,1.0,0.8,4.5,-2.0,162.2,8.2,2
-0.45,-2.93,-3.7,2.26,97.84,100.01,-12.84,2.25,0.93,0.37,0.16,4.34,141.02,10.4,3
-1.2,-2.6,-4.91,-4.0,61.3,101.04,0.1,-3.6,1.3,0.2,-0.4,7.0,146.0,8.9,1
1.3,-1.0,-11.49,0.0,100.7,96.46,-95.9,-3.6,0.3,4.0,7.0,-6.6,168.1,25.1,2
-1.87,-2.76,-17.04,3.1,108.25,115.49,-17.5,4.77,-0.06,1.0,5.21,2.66,128.59,8.9,2
0.5,-1.8,5.22,-0.4,131.5,106.07,-110.5,-0.5,0.7,-3.1,-10.1,-1.8,169.3,12.6,3
-3.5,-2.5,-8.31,3.4,69.9,128.08,-93.8,-1.4,1.2,6.9,21.7,-4.2,198.2,19.7,2
-0.3,-3.6,-14.64,19.5,104.4,90.24,-164.7,-3.7,0.6,-2.2,-6.2,2.6,278.4,13.7,2
-3.23,-2.43,5.31,5.32,104.24,101.57,-138.84,-5.89,0.73,-0.24,-3.25,6.29,317.04,13.39,3
2.62,3.79,13.14,6.62,22.84,117.42,-36.87,18.07,2.12,-2.5,-8.59,3.82,95.4,6.32,2
1.63,2.23,9.15,3.3,79.31,105.11,-67.75,-4.02,1.13,-3.53,-9.57,0.43,102.6,13.78,3
2.2,4.8,3.92,1.7,74.0,113.27,3.7,4.7,1.3,-0.3,-1.2,3.9,121.0,5.5,1
-0.38,-3.47,-2.28,2.86,85.67,115.36,-89.33,-1.29,0.5,1.3,4.05,-2.16,170.86,20.99,2
-0.6,-2.9,-3.68,2.2,95.6,100.0,-12.9,2.3,0.9,0.4,0.3,4.6,142.8,10.3,3
0.64,-4.59,-6.79,3.94,42.32,110.18,-45.81,4.05,-0.61,-0.01,-1.45,-0.11,108.63,8.7,3
-4.8,-11.4,15.13,4.8,54.5,108.27,-62.4,4.2,1.9,1.2,8.5,6.6,73.9,9.2,1
-5.99,0.98,2.68,-0.96,86.84,114.22,-72.57,-0.49,0.22,2.37,9.36,-3.27,90.01,9.34,4
-0.5,0.1,25.75,2.8,48.8,109.28,-55.6,7.8,2.0,-2.0,-9.1,3.3,75.8,5.0,1
2.1,7.7,0.75,6.9,8.4,108.14,-27.7,14.3,2.4,-1.1,-1.3,3.7,101.5,6.0,1
-0.8,-1.2,-0.62,0.0,68.4,94.11,27.0,9.5,5.9,-0.6,-0.5,2.3,152.9,6.2,1
-3.3,3.4,-11.62,-7.7,84.2,88.71,-17.8,3.9,1.0,0.2,0.8,6.6,170.2,7.8,2
-6.12,-1.23,2.26,-2.01,75.51,103.6,-83.39,-2.63,-0.15,1.69,7.52,-1.1,134.83,9.07,4
-6.51,-6.14,-12.79,-3.84,116.28,96.46,-115.6,-3.71,-0.85,3.66,11.11,-0.7,230.03,12.57,4
-2.9,-7.6,12.18,8.6,67.8,95.49,19.6,8.7,4.5,0.9,-0.7,0.1,162.3,6.5,2
-2.1,-12.2,-18.34,-1.8,119.9,78.23,-137.8,-9.9,-1.9,5.7,6.3,-0.5,279.1,15.2,4
6.1,-2.4,-5.55,15.1,22.0,88.54,58.4,5.9,0.7,0.4,1.6,25.9,303.7,4.8,1
-3.13,-2.26,-8.53,1.88,72.77,124.56,-93.69,-1.81,1.16,6.77,20.85,-4.84,195.98,20.19,2
0.31,-1.8,-0.69,-3.65,132.16,102.21,-116.77,-1.63,0.18,-0.6,-3.21,-4.16,179.11,13.92,3
-0.3,4.8,20.52,13.0,10.6,93.21,-46.7,14.7,0.5,-3.8,-7.4,5.6,115.4,8.7,1
-2.37,-9.37,-18.81,1.81,117.02,83.94,-144.8,-8.98,-1.17,5.81,8.27,-0.55,298.95,15.04,4
-0.5,1.7,26.02,2.0,37.2,92.5,-53.6,-7.8,3.0,6.7,19.3,-1.8,68.8,15.7,1
-2.67,-3.2,-18.93,5.09,119.42,124.43,-18.18,4.86,-0.78,1.28,7.87,3.15,122.1,8.22,2
8.3,-1.7,-2.87,5.2,37.2,105.09,52.6,1.3,0.9,-0.6,-2.6,3.1,209.0,6.4,1
2.6,-2.6,9.87,3.2,98.6,109.18,-85.5,-0.5,-0.3,-5.2,-14.6,0.6,139.6,19.6,2
2.8,0.1,23.24,3.9,77.8,105.0,-65.6,-3.9,0.3,-5.5,-18.1,1.5,97.9,13.5,3
0.3,-1.2,4.06,10.4,51.9,100.0,-63.9,2.7,1.5,-1.8,-7.5,5.1,80.6,13.0,1
-2.99,-3.14,3.4,6.17,104.86,101.27,-141.81,-6.82,0.67,0.41,-1.67,5.93,322.87,13.83,3
0.9,4.2,6.46,7.3,42.6,100.0,-43.6,11.8,2.3,-2.7,-10.4,2.6,55.3,10.5,1
-4.93,-1.51,-0.63,-0.26,82.21,108.19,-82.47,-3.82,0.04,4.38,11.84,-2.61,90.86,11.17,4
0.9,-0.4,-5.01,2.4,104.9,101.19,54.5,-0.9,0.1,0.1,-3.6,23.8,194.9,8.3,1
1.01,-2.52,-8.3,1.59,126.05,100.0,-17.81,2.07,0.59,1.09,3.91,-0.0,121.55,11.83,3
0.4,-3.6,6.93,10.9,9.8,76.91,-50.7,0.1,0.8,1.8,-6.5,7.6,117.2,13.0,1
1.49,-4.7,9.25,9.24,29.45,106.6,-47.88,8.55,0.29,-2.87,-11.09,2.96,104.55,9.39,3
1.83,0.2,10.12,3.55,80.5,102.4,-71.7,-5.43,1.78,-4.52,-18.7,-0.08,103.7,15.28,3
2.3,0.9,-2.83,-2.8,82.9,107.03,4.1,5.4,0.7,0.6,1.5,3.4,123.5,5.8,1
2.63,-2.44,-16.81,-2.13,79.12,90.43,-65.32,4.98,2.34,-0.27,-1.29,-2.19,93.02,10.34,2
-5.86,-3.81,-24.05,2.82,141.5,112.66,-133.1,-3.81,0.35,8.98,23.85,-3.26,211.68,17.04,4
1.2,5.3,8.56,23.0,34.7,116.3,-25.0,5.9,2.4,-1.7,-8.0,4.2,67.3,4.0,1
-2.88,-3.98,-19.72,8.69,111.53,94.83,-158.14,-7.24,0.21,6.01,12.01,-0.66,336.77,14.73,4
-5.91,-6.97,-13.55,-3.56,116.77,93.96,-118.65,-4.56,-0.99,3.94,10.45,-0.67,236.76,12.93,4
-7.3,-4.85,-25.18,-2.02,156.34,119.56,-114.49,-2.36,0.1,10.34,28.85,-4.61,130.84,18.1,4
-8.06,-4.01,-10.85,-4.56,115.01,102.86,-107.81,-1.53,-0.48,2.94,12.8,-0.77,212.8,11.64,4
-1.67,-4.49,-15.75,0.89,86.0,105.92,-87.33,-5.16,1.47,5.7,12.95,-9.76,177.02,21.24,3
9.5,0.7,-11.35,8.0,67.8,96.7,48.0,3.7,0.9,1.3,2.7,4.3,267.2,6.8,2
-6.8,-1.68,-0.84,-2.75,85.43,104.19,-88.67,-2.08,-0.19,1.92,9.07,-1.03,152.62,9.62,4
-2.55,-4.61,0.7,8.83,65.47,96.93,13.0,8.38,3.34,0.7,-0.38,0.57,158.38,6.99,2
1.92,0.1,10.41,3.06,80.67,102.79,-71.26,-4.87,1.49,-3.07,-10.01,0.13,104.09,15.0,3
-8.07,-4.0,-10.83,-4.56,115.0,102.91,-107.75,-1.52,-0.47,2.94,12.81,-0.77,212.67,11.63,4
-7.4,-5.0,-26.26,-2.1,159.6,120.06,-115.9,-2.3,0.1,10.6,29.6,-4.7,132.6,18.4,4
2.3,-4.3,2.9,2.4,99.2,104.45,-85.5,-1.2,-0.1,-3.5,-11.1,-0.4,147.4,22.1,2
-1.2,-1.6,7.31,8.6,52.0,107.04,-66.8,4.1,2.0,-4.2,-11.5,9.2,88.5,11.5,1
-1.1,-4.0,-9.78,-10.2,178.5,98.32,-137.6,-3.3,0.7,-1.5,-11.0,-2.1,125.1,25.0,4
-8.95,1.54,-10.96,-3.05,145.42,129.53,-83.72,4.52,0.48,4.25,18.59,-5.49,117.62,12.13,4
-5.6,-5.0,17.63,10.4,70.2,95.07,6.3,11.1,2.7,1.3,1.6,6.8,168.3,6.7,1
2.53,0.8,16.51,6.93,23.59,115.11,-39.6,16.23,2.24,-2.99,-9.76,3.99,96.72,6.9,2
8.2,-0.9,-6.74,4.0,64.6,100.0,48.9,-0.4,0.6,1.1,-0.4,0.0,262.8,7.2,2
4.1,0.3,-4.61,-3.8,82.6,100.0,-31.2,-0.1,1.4,0.4,-4.3,-5.0,87.4,9.6,2
1.5,-2.4,-9.7,1.4,135.3,100.0,-19.3,2.0,0.5,1.3,5.0,-1.4,115.1,12.3,3
-8.02,-4.11,-19.02,-3.34,139.57,113.79,-110.67,-1.5,-0.08,7.06,22.51,-2.97,164.5,15.21,4
9.9,3.2,1.68,-3.3,52.4,118.9,70.7,3.0,0.7,-1.6,-4.1,4.5,241.6,4.9,2
-3.18,-2.24,-2.8,0.53,92.47,105.39,-102.88,-3.01,1.16,2.04,3.2,-2.74,229.11,17.17,3
5.5,-2.5,-13.78,1.6,46.1,92.87,27.8,3.6,-1.5,1.3,6.9,4.4,221.0,7.3,2
-2.0,2.5,13.52,13.2,37.3,100.0,-64.1,17.2,1.3,-3.3,-12.2,-0.5,80.4,10.9,1
-0.1,6.4,3.49,8.2,33.8,114.86,-31.0,16.5,3.2,-1.9,-5.2,4.3,56.4,7.1,1
0.9,0.2,-15.53,0.5,135.4,104.16,-21.0,2.6,1.8,3.4,13.5,-0.3,118.9,11.9,3
-8.5,1.46,-8.87,-2.73,136.45,127.19,-82.01,3.75,0.44,3.96,17.18,-5.15,113.4,11.7,4
-7.09,-5.35,-12.07,-4.11,115.81,98.83,-112.72,-2.9,-0.71,3.39,11.73,-0.72,223.65,12.22,4
-0.26,-1.88,-10.07,1.52,85.03,102.55,-82.25,-5.7,2.34,2.45,5.69,-5.12,139.96,18.77,3
-8.27,1.41,-7.82,-2.57,131.93,126.01,-81.15,3.37,0.42,3.82,16.47,-4.98,111.27,11.49,4
-7.71,-4.55,-22.6,-2.73,149.48,116.89,-113.26,-1.9,0.01,8.81,26.02,-3.83,148.71,16.79,4
-0.6,-10.0,-6.24,5.2,42.2,96.29,-36.6,4.0,3.0,0.0,-2.2,1.7,71.5,6.7,1
6.03,-5.33,-15.89,2.08,45.46,90.42,32.23,1.57,-1.5,1.41,4.44,6.27,222.6,7.57,2
0.29,-1.8,-1.32,-4.0,132.23,101.8,-117.44,-1.75,0.13,-0.33,-2.48,-4.41,180.16,14.06,3
0.89,-2.55,-7.94,1.63,123.71,100.0,-17.43,2.09,0.62,1.04,3.63,0.35,123.19,11.72,3
8.3,-2.0,5.78,4.0,65.3,111.65,56.3,4.9,0.5,-0.6,-0.9,4.5,100.0,4.2,2
0.0,-8.2,-2.16,8.1,40.0,100.0,-32.9,0.1,2.4,-0.6,-6.9,0.3,68.1,6.1,1
-2.77,-11.29,-17.5,-2.11,119.35,80.98,-134.45,-8.97,-1.74,5.39,7.03,-0.53,271.7,14.8,4
-1.4,2.1,-23.06,1.4,63.6,100.0,4.8,3.3,0.6,0.7,3.4,6.9,152.1,8.8,2
1.8,0.0,9.47,3.5,80.8,102.02,-72.4,-5.6,1.9,-4.4,-18.7,-0.2,104.2,15.5,3
-3.4,-4.3,-0.26,7.4,56.0,96.32,-68.9,3.1,1.7,1.4,3.6,3.3,75.4,10.0,1
1.0,-1.7,-13.57,2.7,105.2,100.0,45.2,0.5,0.7,1.0,2.3,12.1,176.1,8.5,1
-2.8,-0.7,24.04,3.3,34.7,109.99,-43.7,29.6,1.7,-1.2,-5.5,1.9,47.4,5.0,1
-0.7,-8.3,-32.36,-1.3,53.6,103.4,10.6,5.8,0.2,0.2,-2.5,7.1,147.7,8.0,2
-8.12,-2.55,-6.83,-4.17,104.53,105.32,-98.84,-1.04,-0.26,2.37,12.06,-0.88,186.88,10.66,4
-0.6,0.1,-20.41,-2.7,132.5,109.54,-23.3,2.9,1.4,2.9,12.1,-2.9,121.2,10.4,3
0.18,-6.22,68.69,4.77,68.83,116.77,-167.12,-15.04,0.89,-3.56,-8.91,0.27,251.36,8.56,2
-2.4,0.5,-4.48,5.2,44.5,95.34,-45.9,3.8,1.5,1.0,2.9,2.9,70.7,7.0,1
4.0,-9.2,-7.55,9.1,42.2,107.3,-1.9,3.1,1.0,-0.1,-4.6,8.4,192.5,7.5,2
2.59,2.3,23.08,4.22,76.14,107.6,-61.47,-2.93,-0.18,-6.2,-18.37,1.93,95.81,12.1,3
-1.5,-3.0,-0.36,-13.0,176.2,96.81,-140.7,-1.0,0.9,-3.9,-8.8,-1.0,118.0,23.3,4
2.3,-7.2,-9.31,0.4,76.2,100.0,-67.9,1.0,4.9,-1.9,-10.9,-2.5,84.2,8.2,1
-2.0,-6.2,-4.75,9.8,107.5,100.0,-154.5,-10.8,0.4,3.2,5.1,4.4,347.8,15.7,3
4.1,-2.9,22.52,3.9,55.5,104.82,35.4,-1.5,4.3,-1.1,-2.0,15.2,136.1,5.3,1
8.5,4.9,24.47,2.3,45.6,114.74,63.2,4.1,5.9,-0.9,-2.5,7.5,129.0,4.1,1
-5.8,-7.17,-23.87,-2.01,147.62,107.44,-122.51,-4.59,-0.5,9.12,22.57,-3.43,176.8,17.43,4
-5.01,-3.16,-22.83,5.52,131.57,108.6,-142.54,-4.64,0.49,8.1,20.7,-2.48,255.05,16.29,4
-4.97,0.78,7.39,-0.24,66.6,108.93,-68.72,-2.22,0.13,1.73,6.17,-2.5,80.47,8.38,4
0.31,-0.81,-7.75,1.78,84.64,101.18,-80.17,-5.91,2.7,1.13,2.73,-3.22,124.84,17.76,3
2.11,-2.92,7.07,3.79,95.09,107.18,-89.19,0.35,-0.0,-3.86,-10.44,-0.37,134.71,17.84,2
0.41,-1.45,-8.06,5.24,103.7,100.12,51.03,5.06,-0.32,0.23,0.91,20.84,179.48,7.82,2
-2.76,-5.32,-19.49,6.98,112.89,92.14,-154.85,-7.67,-0.13,5.96,11.09,-0.63,327.42,14.81,4
0.0,5.3,-1.35,15.8,39.7,104.41,-42.9,15.0,3.1,-2.1,-7.4,4.3,56.5,9.2,1
-7.15,-5.34,-25.88,-2.09,157.7,118.06,-116.95,-2.66,0.0,10.37,28.49,-4.5,139.6,18.25,4
-2.25,-11.99,-18.15,-1.87,119.77,78.86,-137.03,-9.69,-1.86,5.63,6.47,-0.51,277.4,15.11,4
0.1,6.9,-1.46,-2.6,99.8,103.87,38.1,3.7,1.0,-1.5,-6.3,3.7,185.1,7.0,1
-0.9,-1.1,-5.63,-1.2,46.5,123.79,-39.8,7.7,-1.5,1.7,5.3,0.5,112.9,7.1,2
-2.39,-9.18,-18.85,2.06,116.82,84.34,-145.29,-8.92,-1.12,5.82,8.4,-0.56,300.32,15.03,4
-3.82,-1.86,-18.82,9.52,109.86,100.27,-156.27,-5.74,0.66,5.66,13.6,-0.71,334.1,14.17,4
0.45,-1.68,-11.62,0.95,72.39,105.16,-65.06,-3.7,1.29,0.97,2.84,-2.07,112.02,13.49,3
-8.8,-3.0,-9.92,-4.9,114.4,105.91,-104.1,-0.5,-0.3,2.6,13.6,-0.8,204.6,11.2,4
1.2,1.7,19.36,16.7,40.6,95.53,-46.8,8.7,2.3,-3.2,-13.3,0.2,54.2,12.0,1
-1.4,0.4,-15.78,3.9,63.2,100.19,5.2,0.4,0.7,0.6,0.2,1.3,148.0,9.0,1
2.0,1.3,-9.15,-0.1,84.9,100.0,2.2,6.4,0.4,0.5,1.2,2.1,124.0,5.6,1
2.7,3.9,13.57,6.8,22.3,117.28,-36.8,18.3,2.2,-2.6,-8.9,3.9,95.0,6.3,2
-0.2,-0.3,-10.28,-10.3,95.8,96.28,-92.8,-5.1,0.8,5.7,14.0,-10.0,178.2,24.1,2
8.1,-2.1,2.13,5.2,69.2,106.77,51.4,4.9,0.3,-0.6,-0.7,3.7,98.2,4.6,2
-0.8,-2.2,-14.22,0.5,93.4,103.54,-16.6,4.6,0.9,0.6,1.6,2.1,137.4,9.8,2
-1.74,-5.65,-5.07,7.68,110.65,99.74,-150.69,-9.82,0.3,3.08,5.03,3.01,328.25,15.66,3
5.6,10.3,-19.51,5.6,37.6,78.78,-15.5,4.1,1.4,0.4,-1.4,2.4,190.5,8.1,2
-7.87,-4.34,-20.83,-3.03,144.58,115.36,-111.98,-1.7,-0.03,7.94,24.28,-3.4,156.52,16.01,4
1.0,3.1,8.95,0.5,122.0,124.17,-106.1,5.1,1.7,-4.1,-11.7,1.0,155.4,9.1,2
-5.17,-2.17,-16.4,5.61,111.09,101.8,-142.11,-4.32,0.4,4.83,13.6,-0.74,298.97,13.36,4
0.4,-1.5,-7.75,5.4,103.5,100.17,51.4,5.1,-0.4,0.2,0.7,22.2,180.5,7.8,2
4.9,3.3,8.69,-2.0,21.0,114.88,53.8,7.9,0.2,-0.5,-3.1,-0.5,306.5,5.8,1
7.0,-2.4,-8.35,10.3,61.7,114.09,20.1,5.3,0.3,0.4,1.4,8.2,247.2,4.8,1
-1.89,-5.96,-4.89,8.88,108.87,99.89,-152.85,-10.37,0.36,3.15,5.07,3.8,339.3,15.68,3
1.03,-2.09,-10.15,1.05,133.94,103.69,-16.17,2.02,1.46,0.96,3.15,-1.02,115.26,11.46,3
-8.6,-3.28,-12.25,-4.5,120.84,107.93,-105.78,-0.76,-0.24,3.74,15.88,-1.36,194.34,12.23,4
7.7,-1.2,-15.87,7.3,44.3,93.85,43.3,2.3,-1.2,-0.1,-2.2,-0.3,214.0,7.4,1
-8.68,-3.17,-11.31,-4.66,118.23,107.11,-105.1,-0.65,-0.27,3.28,14.96,-1.13,198.5,11.81,4
5.1,-1.5,33.28,5.2,20.1,105.68,54.6,1.2,0.1,0.4,3.4,-9.6,309.0,6.3,1
5.4,5.1,-17.19,9.7,40.4,82.36,-15.9,8.7,2.0,-0.2,-1.3,4.6,193.6,8.0,2
-3.1,-1.7,-20.1,11.6,109.2,99.45,-163.8,-6.5,0.8,6.1,13.6,-0.7,352.8,14.6,4
-8.03,-4.1,-18.95,-3.35,139.37,113.73,-110.62,-1.49,-0.08,7.02,22.44,-2.95,164.82,15.18,4
1.2,-0.46,-15.68,-7.64,72.9,104.08,-47.24,-1.16,-0.19,1.59,5.54,-3.27,108.15,10.68,3
-1.45,-0.73,-13.54,-1.65,90.99,99.66,-16.91,4.42,0.93,0.5,1.39,3.28,145.98,9.28,2
1.3,-0.6,-18.21,-10.1,70.0,105.12,-39.3,0.1,-1.0,2.0,6.9,-3.7,107.2,9.1,3
1.9,-3.8,-22.85,-1.3,77.4,85.69,-82.2,7.5,2.8,-0.6,0.2,-0.8,95.8,10.7,2
0.1,-1.8,-7.32,-7.3,132.9,97.89,-123.8,-2.9,-0.4,2.2,4.5,-6.8,190.1,15.4,3
-2.99,-2.85,-19.91,10.13,110.37,97.13,-160.95,-6.87,0.5,6.06,12.8,-0.68,344.73,14.67,4
-4.6,1.8,16.57,0.3,100.6,103.32,-121.3,-0.4,1.1,-4.1,-12.6,8.4,282.6,10.8,3
-4.5,-4.4,-26.64,-17.4,177.4,109.02,-130.4,-10.0,-0.3,12.8,25.3,-4.0,132.3,23.3,4
-0.11,-1.64,0.79,0.85,41.28,120.94,-40.66,9.13,-0.56,0.42,1.31,1.39,109.48,7.25,2
1.28,-0.58,-17.79,-9.69,70.49,104.95,-40.64,-0.11,-0.86,1.93,6.67,-3.63,107.36,9.37,3
2.31,3.31,21.59,4.98,70.16,109.51,-56.9,-1.03,-0.51,-6.41,-17.86,2.37,95.05,10.75,3
-2.2,3.6,6.85,-4.9,181.2,98.21,-143.6,1.4,0.4,-4.6,-9.9,-0.8,115.5,21.5,4
-1.4,-3.1,-9.77,11.4,44.9,94.54,-41.4,4.2,2.7,0.0,0.7,4.4,73.7,6.9,1
-2.4,2.5,3.2,8.9,49.4,117.31,-68.1,11.3,1.5,-3.6,-11.6,2.0,91.0,8.1,1
2.1,-2.4,26.53,-6.2,43.9,92.26,-74.7,-20.6,-1.4,6.9,17.4,-2.4,115.2,17.7,1
0.88,-1.66,-12.85,0.19,134.48,102.8,-20.48,2.26,0.76,1.77,7.09,-1.84,116.89,11.74,3
2.3,-3.3,20.41,7.1,25.3,112.23,-43.3,13.5,2.3,-3.5,-10.9,4.1,99.0,7.7,2
-9.89,0.5,-15.2,-4.24,156.43,128.2,-92.96,4.82,0.36,4.42,20.3,-4.95,150.4,12.8,4
-0.7,2.1,-4.08,1.4,54.7,93.4,-62.2,2.6,1.2,0.8,0.1,5.0,75.2,13.9,1
2.0,-3.4,-4.02,3.3,134.8,100.19,-11.9,1.5,1.5,-0.2,-2.2,0.1,111.7,12.1,3
-2.92,-3.6,-19.78,9.17,111.14,95.6,-159.09,-7.12,0.31,6.03,12.28,-0.66,339.44,14.71,4
-0.5,2.7,21.45,4.1,37.8,100.0,-54.7,0.6,1.3,0.0,-0.9,0.2,58.0,6.9,1
1.1,0.9,1.08,1.4,101.7,102.86,56.8,0.9,0.3,-0.8,-3.9,0.4,185.4,7.8,1
1.79,0.1,8.66,2.95,81.07,102.49,-72.03,-5.01,1.66,-2.74,-8.9,-0.06,104.94,15.21,3
6.5,-7.8,-17.73,2.5,44.9,88.28,36.1,-0.2,-1.5,1.5,2.3,7.9,224.0,7.8,2
-2.6,-0.5,7.39,4.3,39.8,98.89,-45.2,3.4,0.8,0.5,8.2,2.1,68.3,6.9,1
5.9,-4.9,-9.35,3.1,79.8,90.5,23.3,5.6,1.4,-1.1,-2.1,2.0,102.4,6.9,1
0.06,-1.88,-7.27,-6.99,132.44,97.93,-124.35,-3.04,-0.39,2.22,4.51,-6.6,192.94,15.41,3
0.51,-2.8,-19.7,-4.81,60.77,109.73,-41.95,0.1,-1.23,2.28,6.96,-3.19,110.02,8.54,3
-4.5,-10.8,-1.18,-1.7,86.2,108.74,-10.0,5.1,0.9,-1.1,-4.9,7.2,167.7,4.8,1
0.18,-1.8,-4.87,-5.95,132.63,99.49,-121.2,-2.43,-0.18,1.16,1.64,-5.82,186.03,14.85,3
-7.65,-2.24,-4.69,-3.66,97.71,104.92,-95.21,-1.41,-0.23,2.21,10.99,-0.93,174.66,10.29,4
2.3,2.3,77.37,5.1,63.5,127.42,-165.0,-2.8,0.8,-3.2,-6.4,-7.8,223.2,7.0,2
-0.16,-2.69,-0.55,-0.12,120.02,106.3,-105.01,-1.64,0.83,-0.61,-3.68,-4.19,174.18,14.99,3
0.49,-0.71,-12.67,2.84,106.59,99.31,45.58,4.39,0.84,0.73,4.05,0.84,164.35,8.15,2
-1.27,-3.99,-13.69,-2.3,103.78,103.56,-101.99,-4.21,0.6,5.01,11.19,-9.55,189.1,19.52,3
0.8,0.1,-5.77,2.0,84.3,100.0,-78.4,-6.1,3.0,0.0,0.2,-1.6,111.9,16.9,3
-9.21,-1.69,-11.9,-4.65,130.15,114.27,-99.92,1.49,-0.05,3.28,16.11,-2.36,184.29,11.8,4
-0.5,-3.0,2.4,4.6,98.3,103.04,-16.6,1.6,0.5,-0.3,-2.1,6.8,145.3,9.9,2
0.2,-6.3,71.33,4.3,67.7,117.61,-167.2,-15.4,0.9,-3.6,-9.0,0.2,250.5,8.4,2
-7.2,-5.19,-11.93,-4.16,115.71,99.31,-112.13,-2.74,-0.68,3.34,11.86,-0.73,222.36,12.15,4
5.0,-1.0,21.39,0.4,22.3,109.59,51.8,4.0,-0.6,0.5,-7.2,27.4,322.9,6.2,1
