PC_CA-avg_3y,REER-pch_3y,X_GS_share_M-pch_5y,FSL-pch,GD-pc_gdp,HPI-pch,NIIP-pc_gdp,ULC-pch_3y,ACT-pch_3y,LTU-pch_3y,YUR-pch_3y,PSCF-pc_gdp,PSD-pc_gdp,UR-avg_3y,label
-0.96,-3.48,-12.21,-3.46,110.52,102.25,-107.04,-3.91,0.37,4.36,9.64,-8.91,189.33,18.57,3
0.97,-2.53,-8.17,1.6,125.22,100.0,-17.67,2.08,0.6,1.07,3.81,0.12,122.13,11.79,3
-2.1,-5.3,-17.51,0.7,86.3,106.96,-88.9,-5.0,1.2,6.7,15.2,-11.2,188.5,22.0,3
8.2,-0.9,-6.74,4.0,64.6,100.0,48.9,-0.4,0.6,1.1,-0.4,0.0,262.8,7.2,2
-5.6,-5.0,17.63,10.4,70.2,95.07,6.3,11.1,2.7,1.3,1.6,6.8,168.3,6.7,1
0.7,-3.1,0.87,-1.4,131.2,100.0,-118.9,0.2,0.0,-0.5,-5.9,-1.4,179.3,14.4,3
-2.1,-12.2,-18.34,-1.8,119.9,78.23,-137.8,-9.9,-1.9,5.7,6.3,-0.5,279.1,15.2,4
2.6,-2.6,9.87,3.2,98.6,109.18,-85.5,-0.5,-0.3,-5.2,-14.6,0.6,139.6,19.6,2
-3.61,-1.26,8.42,3.93,103.24,102.05,-133.99,-4.38,0.83,-1.31,-5.83,6.87,307.53,12.67,3
-0.2,-0.3,-10.28,-10.3,95.8,96.28,-92.8,-5.1,0.8,5.7,14.0,-10.0,178.2,24.1,2
-7.93,1.35,-6.28,-2.33,125.31,124.28,-79.89,2.8,0.39,3.6,15.42,-4.73,108.14,11.17,4
3.77,0.63,-7.62,-2.43,81.75,99.48,-33.87,-0.03,1.1,0.88,-1.04,-4.89,91.29,9.6,2
1.56,-5.85,27.61,7.97,85.83,95.39,-184.67,-14.82,0.83,-2.84,-8.66,-2.11,297.16,12.53,2
-2.0,2.5,13.52,13.2,37.3,100.0,-64.1,17.2,1.3,-3.3,-12.2,-0.5,80.4,10.9,1
-2.8,-7.8,-25.92,10.4,80.1,89.47,-11.6,5.8,-0.3,1.3,6.3,1.6,176.6,7.8,2
0.8,0.02,-5.43,2.13,83.25,100.0,-78.1,-5.73,2.99,-0.02,0.08,-1.63,111.85,16.8,3
1.1,0.9,1.08,1.4,101.7,102.86,56.8,0.9,0.3,-0.8,-3.9,0.4,185.4,7.8,1
-0.46,-4.01,-6.72,-0.53,112.67,102.87,-106.52,-1.95,0.5,2.47,2.81,-5.44,183.1,17.54,3
-0.5,-3.0,2.4,4.6,98.3,103.04,-16.6,1.6,0.5,-0.3,-2.1,6.8,145.3,9.9,2
-6.68,1.11,-0.5,-1.44,100.49,117.79,-75.17,0.68,0.28,2.81,11.51,-3.78,96.44,9.99,4
8.4,-1.8,1.52,-0.1,56.9,110.77,59.4,-0.1,0.7,-1.0,-3.8,3.7,249.1,5.9,2
-0.52,-2.95,1.29,4.33,97.97,103.07,-16.6,1.8,0.53,-0.24,-1.85,6.49,144.77,9.89,2
1.9,-3.2,-3.29,-2.0,99.3,100.0,-88.9,-1.1,0.0,0.4,-4.6,-2.5,155.8,24.2,2
-2.41,-5.05,-14.39,-2.8,109.93,92.22,-153.29,-4.13,-0.71,5.14,16.33,-7.71,318.04,13.13,4
-8.8,-3.0,-9.92,-4.9,114.4,105.91,-104.1,-0.5,-0.3,2.6,13.6,-0.8,204.6,11.2,4
0.1,-1.8,-7.32,-7.3,132.9,97.89,-123.8,-2.9,-0.4,2.2,4.5,-6.8,190.1,15.4,3
-2.43,-4.57,-14.12,-2.87,109.26,93.16,-154.33,-3.74,-0.63,5.1,17.01,-8.19,320.65,12.99,4
-0.27,-0.84,-11.63,4.41,91.4,101.19,-36.36,0.93,1.73,0.4,1.07,1.61,131.71,12.35,3
-2.7,-3.2,-19.21,5.1,119.7,124.71,-18.2,4.9,-0.8,1.3,8.0,3.1,121.8,8.2,2
-7.77,-0.02,-3.08,0.21,107.49,121.09,-78.66,6.8,1.13,3.04,12.76,-3.25,102.41,10.34,4
-2.9,0.4,11.98,11.4,41.6,102.42,-67.1,16.0,1.8,-4.2,-11.4,-4.4,82.2,12.6,1
-2.6,-0.5,7.39,4.3,39.8,98.89,-45.2,3.4,0.8,0.5,8.2,2.1,68.3,6.9,1
-4.39,-0.98,13.05,3.17,37.24,103.08,-65.8,2.11,1.01,0.8,1.72,-0.39,69.94,7.0,4
0.61,-2.5,2.88,-0.94,131.34,102.81,-115.01,-0.12,0.32,-1.7,-7.85,-1.59,174.67,13.57,3
-7.63,-4.61,-11.4,-4.36,115.36,101.06,-110.01,-2.15,-0.58,3.14,12.32,-0.75,217.66,11.9,4
0.89,-3.77,10.9,8.6,32.96,100.0,-63.78,12.04,2.3,-1.06,-5.7,-3.27,109.61,11.88,3
-4.39,-9.05,-15.46,-2.86,118.02,87.7,-126.27,-6.68,-1.35,4.64,8.8,-0.6,253.6,13.83,4
-7.4,-5.0,-26.26,-2.1,159.6,120.06,-115.9,-2.3,0.1,10.6,29.6,-4.7,132.6,18.4,4
-3.2,1.9,11.12,4.3,15.2,102.38,-82.8,17.9,-1.9,3.4,12.3,3.5,129.1,9.5,2
2.3,-6.4,37.84,9.6,76.7,100.0,-198.4,-18.6,1.0,-3.9,-10.6,-2.3,305.1,11.9,2
5.7,0.8,8.2,10.3,23.7,91.43,58.9,7.6,1.7,0.5,1.3,27.8,313.3,5.3,1
-1.6,-4.5,-15.17,-1.13,96.98,104.88,-96.9,-4.52,0.83,5.67,12.75,-10.19,188.87,20.49,3
6.6,0.1,-3.82,10.9,19.0,86.69,28.9,8.8,1.1,-0.2,-1.1,21.4,284.3,4.8,1
-3.5,0.5,14.14,0.8,37.6,101.35,-63.2,-4.7,0.0,0.8,1.6,-1.4,66.8,7.0,4
-0.65,-2.6,-5.96,2.54,95.83,103.29,-16.6,3.11,0.7,0.15,-0.24,4.44,141.33,9.85,2
-2.51,-2.87,-13.19,-3.11,106.89,96.48,-158.01,-2.37,-0.35,4.96,19.39,-9.91,329.91,12.5,4
-2.02,2.09,-12.47,2.0,90.89,100.35,-18.76,4.39,1.0,0.22,-0.46,3.46,146.53,8.89,2
0.6,4.9,8.63,-3.0,37.2,120.83,-49.1,15.1,2.0,-1.4,-4.1,-0.2,70.5,8.6,1
-2.2,3.6,6.85,-4.9,181.2,98.21,-143.6,1.4,0.4,-4.6,-9.9,-0.8,115.5,21.5,4
-2.8,6.0,-21.25,-3.6,83.2,88.06,-28.1,3.0,0.4,0.8,2.1,1.5,176.1,7.9,2
-0.6,-0.41,-17.58,-1.87,126.26,107.93,-21.54,2.8,1.32,2.48,10.11,-1.63,124.85,10.38,3
1.73,0.1,7.69,2.88,81.28,102.32,-72.46,-5.08,1.75,-2.55,-8.29,-0.16,105.4,15.32,3
2.1,-2.4,26.53,-6.2,43.9,92.26,-74.7,-20.6,-1.4,6.9,17.4,-2.4,115.2,17.7,1
1.0,3.1,8.95,0.5,122.0,124.17,-106.1,5.1,1.7,-4.1,-11.7,1.0,155.4,9.1,2
0.7,-2.8,-23.52,28.7,48.3,103.81,13.9,9.0,-1.1,0.5,3.6,5.3,144.6,8.1,2
0.9,5.8,7.29,8.6,10.0,100.0,-39.9,15.3,1.9,-3.1,-7.8,2.7,112.8,7.4,1
0.89,-3.75,10.81,8.57,33.23,100.0,-63.86,11.95,2.3,-1.05,-5.67,-3.26,109.62,11.91,3
-5.07,-1.71,-2.07,-0.36,86.56,108.86,-84.35,-3.74,0.04,4.73,12.84,-2.72,93.21,11.58,4
-3.57,-10.18,-16.49,-2.48,118.69,84.32,-130.39,-7.83,-1.55,5.02,7.9,-0.57,262.72,14.32,4
-1.06,-3.65,-12.7,-3.07,108.28,102.68,-105.36,-4.01,0.45,4.58,10.15,-9.12,189.25,18.89,3
-3.14,-2.7,4.56,5.65,104.49,101.45,-140.0,-6.26,0.71,0.01,-2.63,6.15,319.31,13.56,3
1.2,5.3,8.56,23.0,34.7,116.3,-25.0,5.9,2.4,-1.7,-8.0,4.2,67.3,4.0,1
-0.81,-3.56,-6.2,0.15,108.78,106.52,-99.64,-2.76,0.95,1.83,2.61,-6.52,178.95,17.32,3
-0.3,4.8,20.52,13.0,10.6,93.21,-46.7,14.7,0.5,-3.8,-7.4,5.6,115.4,8.7,1
5.7,2.0,19.55,4.1,70.4,118.37,-18.9,6.1,3.2,-2.5,-7.5,1.3,72.8,6.6,1
-0.08,-1.05,16.4,5.89,20.94,107.98,-60.36,15.4,0.49,-0.52,-0.88,3.84,112.0,8.48,2
1.2,11.0,11.47,7.4,32.6,123.49,-24.8,13.7,2.6,-1.7,-5.9,5.3,70.7,3.0,1
6.1,-2.4,-5.55,15.1,22.0,88.54,58.4,5.9,0.7,0.4,1.6,25.9,303.7,4.8,1
0.8,-0.8,-23.17,-5.8,78.6,89.71,-92.2,7.7,2.5,0.8,1.8,-6.0,102.2,11.1,2
-0.71,-0.69,-17.11,1.96,111.38,105.18,-18.97,3.74,1.23,1.61,6.15,0.53,132.6,10.23,3
0.49,-0.65,-13.36,2.4,106.97,99.21,44.74,4.31,0.99,0.79,4.41,-1.77,162.6,8.19,2
0.88,-1.89,-11.09,0.71,133.81,104.23,-16.82,2.1,1.46,1.14,3.97,-1.19,115.8,11.37,3
0.0,-8.2,-2.16,8.1,40.0,100.0,-32.9,0.1,2.4,-0.6,-6.9,0.3,68.1,6.1,1
3.26,2.47,6.35,2.59,46.25,110.42,-34.58,10.99,1.88,-1.41,-7.07,0.36,91.98,7.61,2
-2.8,-0.7,24.04,3.3,34.7,109.99,-43.7,29.6,1.7,-1.2,-5.5,1.9,47.4,5.0,1
1.09,-3.86,14.17,8.94,31.18,100.5,-62.18,12.66,2.01,-1.63,-7.66,-3.0,108.16,11.43,3
5.0,-1.0,21.39,0.4,22.3,109.59,51.8,4.0,-0.6,0.5,-7.2,27.4,322.9,6.2,1
-2.12,-11.68,-18.06,-1.87,119.18,79.24,-138.92,-9.48,-1.81,5.66,7.02,-1.02,281.91,15.05,4
6.9,-2.5,-17.81,1.8,44.0,90.99,37.2,1.5,-1.4,0.4,-0.8,-3.0,216.1,7.7,1
-2.9,-7.6,12.18,8.6,67.8,95.49,19.6,8.7,4.5,0.9,-0.7,0.1,162.3,6.5,2
-0.6,-2.9,-3.68,2.2,95.6,100.0,-12.9,2.3,0.9,0.4,0.3,4.6,142.8,10.3,3
1.9,-3.8,-22.85,-1.3,77.4,85.69,-82.2,7.5,2.8,-0.6,0.2,-0.8,95.8,10.7,2
-5.38,-7.74,-23.24,-1.99,144.47,104.11,-124.25,-5.2,-0.66,8.73,20.72,-3.1,188.45,17.18,4
-7.22,-4.77,-23.35,-1.58,150.34,118.87,-112.25,-1.61,0.22,9.86,27.5,-4.32,128.03,17.54,4
-10.3,1.8,-17.17,-4.0,172.1,136.51,-88.8,6.8,0.6,5.1,22.8,-6.5,130.2,13.4,4
2.3,-7.2,-9.31,0.4,76.2,100.0,-67.9,1.0,4.9,-1.9,-10.9,-2.5,84.2,8.2,1
0.0,5.3,-1.35,15.8,39.7,104.41,-42.9,15.0,3.1,-2.1,-7.4,4.3,56.5,9.2,1
1.98,3.72,6.28,-1.22,106.98,118.44,-90.16,2.39,0.28,-4.65,-13.12,0.63,142.48,14.21,2
-0.48,-2.72,-9.98,-5.21,120.72,100.26,-114.67,-3.45,0.02,3.38,7.3,-7.95,189.68,17.13,3
-4.3,10.1,-9.19,4.8,86.2,94.4,-22.8,4.0,1.2,-0.5,-4.3,6.0,163.6,7.2,2
-8.0,-4.14,-19.22,-3.31,140.12,113.96,-110.81,-1.52,-0.07,7.15,22.7,-3.02,163.63,15.3,4
2.3,0.9,-2.83,-2.8,82.9,107.03,4.1,5.4,0.7,0.6,1.5,3.4,123.5,5.8,1
2.44,-3.03,18.52,6.28,29.62,111.31,-42.39,12.47,2.23,-3.21,-10.4,3.41,98.13,7.84,2
-4.9,0.2,1.09,11.7,86.8,105.5,0.3,3.7,0.9,-1.4,-7.7,8.8,166.4,5.4,1
2.0,1.3,-9.15,-0.1,84.9,100.0,2.2,6.4,0.4,0.5,1.2,2.1,124.0,5.6,1
-0.8,-2.2,-14.22,0.5,93.4,103.54,-16.6,4.6,0.9,0.6,1.6,2.1,137.4,9.8,2
0.9,0.2,-15.53,0.5,135.4,104.16,-21.0,2.6,1.8,3.4,13.5,-0.3,118.9,11.9,3
-3.36,-2.02,6.38,4.84,103.9,101.73,-137.17,-5.37,0.77,-0.61,-4.14,6.49,313.77,13.14,3
-0.5,0.1,25.75,2.8,48.8,109.28,-55.6,7.8,2.0,-2.0,-9.1,3.3,75.8,5.0,1
-4.94,-8.3,-14.77,-3.12,117.57,89.97,-123.5,-5.91,-1.22,4.38,9.4,-0.63,247.5,13.5,4
2.0,-3.4,-4.02,3.3,134.8,100.19,-11.9,1.5,1.5,-0.2,-2.2,0.1,111.7,12.1,3
-0.51,-1.05,-12.95,4.95,92.98,101.46,-26.95,2.5,1.44,0.49,1.26,2.33,136.15,11.33,3
-0.8,-1.3,-14.53,5.6,94.9,101.78,-15.6,4.4,1.1,0.6,1.5,3.2,141.5,10.1,3
1.97,0.1,11.15,3.11,80.51,102.92,-70.93,-4.82,1.43,-3.21,-10.47,0.21,103.73,14.92,3
-0.77,-1.09,-15.43,4.33,100.64,102.96,-16.77,4.17,1.15,0.95,3.12,2.27,138.4,10.15,3
-0.7,-8.3,-32.36,-1.3,53.6,103.4,10.6,5.8,0.2,0.2,-2.5,7.1,147.7,8.0,2
2.31,-2.22,-19.65,-0.92,78.32,89.78,-68.34,5.16,2.1,0.13,1.56,-2.03,96.46,10.35,2
-4.96,-1.64,-11.23,-3.97,107.96,102.59,-140.24,-0.62,-0.11,3.96,18.98,-7.73,289.14,11.63,4
-4.6,1.8,16.57,0.3,100.6,103.32,-121.3,-0.4,1.1,-4.1,-12.6,8.4,282.6,10.8,3
-8.55,-2.91,-10.0,-4.84,113.99,105.7,-106.41,-0.51,-0.29,2.69,13.94,-1.24,210.0,11.23,4
2.22,0.1,14.77,3.35,79.7,103.54,-69.34,-4.54,1.09,-3.89,-12.76,0.6,101.99,14.49,3
-4.11,-0.51,13.4,2.41,37.36,102.53,-64.98,-0.06,0.69,0.8,1.68,-0.71,68.94,7.0,4
-4.82,-1.37,0.44,-0.18,78.97,107.7,-81.07,-3.89,0.03,4.12,11.1,-2.52,89.12,10.87,4
-0.31,-4.26,-1.23,2.79,122.33,100.0,-132.22,-3.92,0.15,0.88,-1.78,0.77,242.36,14.89,3
-0.5,1.7,26.02,2.0,37.2,92.5,-53.6,-7.8,3.0,6.7,19.3,-1.8,68.8,15.7,1
-2.31,-7.49,-15.74,-2.46,113.33,87.45,-148.01,-6.1,-1.11,5.33,12.91,-5.25,304.77,13.84,4
2.34,-0.96,-17.38,22.63,51.39,106.89,24.94,8.23,-0.62,0.25,2.56,5.57,134.95,7.12,2
-4.42,-9.02,-15.43,-2.87,118.0,87.8,-126.15,-6.65,-1.35,4.63,8.82,-0.6,253.34,13.82,4
-8.52,-3.39,-13.14,-4.35,123.29,108.69,-106.42,-0.85,-0.22,4.17,16.75,-1.57,190.43,12.62,4
0.5,-0.6,-13.33,2.5,107.0,99.19,44.8,4.3,1.0,0.8,4.5,-2.0,162.2,8.2,2
-4.5,-4.4,-26.64,-17.4,177.4,109.02,-130.4,-10.0,-0.3,12.8,25.3,-4.0,132.3,23.3,4
2.4,-1.8,-12.5,1.5,82.4,88.31,-1.9,5.8,0.7,0.2,0.4,3.0,129.4,4.9,1
2.8,0.1,23.24,3.9,77.8,105.0,-65.6,-3.9,0.3,-5.5,-18.1,1.5,97.9,13.5,3
-4.53,-8.86,-15.29,-2.92,117.9,88.27,-125.57,-6.49,-1.32,4.58,8.95,-0.61,252.07,13.75,4
7.0,-2.4,-8.35,10.3,61.7,114.09,20.1,5.3,0.3,0.4,1.4,8.2,247.2,4.8,1
-1.05,-2.33,-14.87,1.1,96.84,106.31,-16.81,4.64,0.68,0.69,2.44,2.23,135.36,9.59,2
-0.6,4.8,10.22,4.7,40.9,107.36,-59.0,16.7,2.3,-1.7,-5.9,2.3,80.5,10.1,1
0.9,-0.4,-5.01,2.4,104.9,101.19,54.5,-0.9,0.1,0.1,-3.6,23.8,194.9,8.3,1
-4.8,-11.4,15.13,4.8,54.5,108.27,-62.4,4.2,1.9,1.2,8.5,6.6,73.9,9.2,1
-8.63,-3.24,-11.89,-4.56,119.84,107.61,-105.52,-0.72,-0.25,3.56,15.53,-1.27,195.94,12.07,4
2.6,4.1,4.61,-2.3,97.6,114.86,-80.2,0.7,-0.6,-5.0,-14.0,0.4,134.4,17.4,2
0.28,-0.35,-15.16,2.37,120.57,103.29,-19.02,3.26,1.54,2.37,9.1,0.98,127.18,11.24,3
2.3,2.3,77.37,5.1,63.5,127.42,-165.0,-2.8,0.8,-3.2,-6.4,-7.8,223.2,7.0,2
0.2,-6.3,71.33,4.3,67.7,117.61,-167.2,-15.4,0.9,-3.6,-9.0,0.2,250.5,8.4,2
-1.7,2.7,-27.3,9.4,59.8,100.46,-3.1,7.6,0.5,0.2,0.4,1.7,148.8,8.2,2
2.3,-3.3,20.41,7.1,25.3,112.23,-43.3,13.5,2.3,-3.5,-10.9,4.1,99.0,7.7,2
-2.14,-12.14,-18.29,-1.82,119.87,78.41,-137.59,-9.84,-1.89,5.68,6.35,-0.5,278.63,15.17,4
-7.47,-4.9,-25.48,-2.23,157.45,119.39,-115.34,-2.21,0.08,10.22,28.84,-4.51,136.03,18.06,4
-0.6,-2.45,-6.19,1.47,101.13,101.43,-14.46,2.39,0.97,0.77,2.07,3.48,139.56,10.31,3
-4.91,-8.35,-14.81,-3.1,117.6,89.83,-123.68,-5.96,-1.23,4.4,9.36,-0.63,247.88,13.52,4
-10.07,1.08,-16.08,-4.14,163.44,131.92,-91.1,5.7,0.46,4.72,21.42,-5.64,141.37,13.07,4
3.2,1.2,-12.73,-0.1,80.3,98.6,-38.4,0.1,0.6,1.7,4.5,-4.7,97.9,9.6,2
8.17,0.31,5.05,3.37,64.22,113.46,58.26,5.12,0.66,-0.6,-0.93,5.13,100.67,4.07,2
-3.26,0.77,9.76,-1.87,109.81,101.77,-122.01,-1.11,0.67,-2.3,-7.72,4.06,256.21,12.11,3
0.71,0.02,-6.27,2.21,84.91,100.1,-74.81,-5.5,2.89,0.03,0.27,-1.33,113.59,16.51,3
2.1,-6.8,-16.82,8.7,76.8,88.33,-80.4,6.2,4.6,-1.5,-5.6,-0.2,91.7,9.6,2
0.3,-1.2,4.06,10.4,51.9,100.0,-63.9,2.7,1.5,-1.8,-7.5,5.1,80.6,13.0,1
-6.73,-2.26,-10.63,-4.4,110.92,104.11,-123.64,-0.57,-0.2,3.34,16.51,-4.55,250.29,11.43,4
4.1,-2.9,22.52,3.9,55.5,104.82,35.4,-1.5,4.3,-1.1,-2.0,15.2,136.1,5.3,1
7.6,-2.3,-2.96,6.7,61.9,104.44,61.4,-0.3,0.3,0.0,-2.4,3.9,259.3,6.8,2
1.3,-1.0,-11.49,0.0,100.7,96.46,-95.9,-3.6,0.3,4.0,7.0,-6.6,168.1,25.1,2
0.7,-3.7,2.44,16.3,36.8,106.62,-26.9,2.7,2.1,-1.3,-8.5,4.3,68.7,5.1,1
-1.2,-2.6,-4.91,-4.0,61.3,101.04,0.1,-3.6,1.3,0.2,-0.4,7.0,146.0,8.9,1
2.3,-4.3,2.9,2.4,99.2,104.45,-85.5,-1.2,-0.1,-3.5,-11.1,-0.4,147.4,22.1,2
0.19,0.15,-17.83,-1.01,134.03,106.7,-22.09,2.74,1.61,3.16,12.84,-1.53,119.99,11.19,3
5.4,0.5,16.34,37.8,22.7,94.98,59.3,7.1,2.9,0.2,5.8,28.7,324.9,5.6,1
-1.98,-5.21,-16.75,0.61,88.15,106.67,-90.14,-4.79,1.15,6.4,14.33,-10.8,188.12,21.69,3
1.3,1.2,1.88,9.4,53.5,94.8,-63.5,2.4,1.6,0.1,-3.7,5.0,79.0,13.8,1
-2.0,-6.2,-4.75,9.8,107.5,100.0,-154.5,-10.8,0.4,3.2,5.1,4.4,347.8,15.7,3
-2.1,-12.11,-18.29,-1.81,119.77,78.41,-138.0,-9.83,-1.88,5.69,6.43,-0.59,279.6,15.17,4
2.7,3.9,13.57,6.8,22.3,117.28,-36.8,18.3,2.2,-2.6,-8.9,3.9,95.0,6.3,2
4.0,-9.2,-7.55,9.1,42.2,107.3,-1.9,3.1,1.0,-0.1,-4.6,8.4,192.5,7.5,2
2.2,-3.1,0.83,4.2,134.1,98.04,-7.7,1.2,1.5,-1.2,-8.0,1.3,108.8,11.6,3
1.8,0.1,-12.48,5.9,63.4,96.09,43.0,2.4,6.0,-1.0,-1.6,7.4,143.6,6.0,1
-2.6,-0.8,-12.04,-3.4,104.0,100.54,-162.5,-0.7,0.0,4.8,22.3,-12.0,341.2,11.9,4
-4.94,-1.63,-11.24,-3.97,107.92,102.56,-140.49,-0.62,-0.11,3.97,19.02,-7.78,289.73,11.64,4
-6.87,-4.34,-17.76,-0.58,132.59,116.58,-105.26,-0.29,0.45,8.44,23.47,-3.6,119.27,15.89,4
-2.31,-7.44,-15.71,-2.47,113.26,87.55,-148.12,-6.06,-1.11,5.32,12.99,-5.31,305.05,13.82,4
-4.91,-8.38,-22.54,-1.96,140.94,100.4,-126.19,-5.87,-0.84,8.3,18.65,-2.73,201.46,16.9,4
0.47,-0.86,-11.73,3.33,105.99,99.47,46.7,4.53,0.6,0.63,3.41,4.95,167.46,8.09,2
-2.23,-1.82,-9.98,9.05,63.31,98.28,6.86,8.08,2.26,0.51,-0.08,1.0,154.72,7.45,2
-8.73,0.67,-8.42,-1.39,132.01,126.94,-82.51,6.8,0.93,3.82,16.57,-4.48,112.96,11.5,4
0.4,-7.1,58.59,1.5,73.8,107.17,-171.7,-17.7,0.9,-3.8,-9.9,-15.7,284.4,10.1,2
-2.67,-0.86,-12.24,-3.38,104.79,100.82,-161.84,-0.72,0.0,4.88,22.4,-11.9,338.23,11.99,4
-7.32,-5.03,-11.78,-4.21,115.62,99.79,-111.55,-2.58,-0.65,3.29,11.99,-0.73,221.07,12.08,4
1.5,-2.4,-9.7,1.4,135.3,100.0,-19.3,2.0,0.5,1.3,5.0,-1.4,115.1,12.3,3
0.9,4.2,6.46,7.3,42.6,100.0,-43.6,11.8,2.3,-2.7,-10.4,2.6,55.3,10.5,1
-6.32,-3.65,-8.91,1.0,104.44,112.96,-94.17,1.79,0.82,6.19,17.09,-2.45,105.38,13.27,4
1.78,-0.8,15.15,3.39,83.15,103.5,-49.76,-2.04,0.48,-3.73,-12.57,2.43,111.4,12.54,3
8.3,-1.7,-2.87,5.2,37.2,105.09,52.6,1.3,0.9,-0.6,-2.6,3.1,209.0,6.4,1
-1.4,-3.1,-9.77,11.4,44.9,94.54,-41.4,4.2,2.7,0.0,0.7,4.4,73.7,6.9,1
-0.1,-4.3,-15.53,-5.1,104.8,100.38,40.8,4.9,0.0,-0.1,-2.1,14.7,191.0,7.7,2
-0.8,-1.2,-0.62,0.0,68.4,94.11,27.0,9.5,5.9,-0.6,-0.5,2.3,152.9,6.2,1
-1.1,-4.0,-9.78,-10.2,178.5,98.32,-137.6,-3.3,0.7,-1.5,-11.0,-2.1,125.1,25.0,4
9.9,3.2,1.68,-3.3,52.4,118.9,70.7,3.0,0.7,-1.6,-4.1,4.5,241.6,4.9,2
-3.4,-4.3,-0.26,7.4,56.0,96.32,-68.9,3.1,1.7,1.4,3.6,3.3,75.4,10.0,1
5.1,-1.5,33.28,5.2,20.1,105.68,54.6,1.2,0.1,0.4,3.4,-9.6,309.0,6.3,1
0.85,-2.31,4.61,6.11,52.33,100.0,-69.3,5.2,2.56,-0.66,-3.47,-2.64,110.47,13.77,3
-5.0,-2.0,12.3,4.8,37.0,104.27,-67.6,6.8,1.7,0.8,1.8,0.3,72.1,7.0,4
-5.35,-1.75,10.38,4.23,45.81,106.37,-68.98,6.8,1.63,1.08,3.17,-0.14,75.89,7.42,4
1.0,-1.7,-13.57,2.7,105.2,100.0,45.2,0.5,0.7,1.0,2.3,12.1,176.1,8.5,1
-7.68,-0.08,-2.6,0.35,105.29,120.57,-78.32,6.8,1.14,2.97,12.42,-3.14,101.47,10.24,4
0.9,-4.3,13.16,9.5,26.0,100.0,-61.8,14.5,2.2,-1.2,-6.5,-3.5,109.3,11.2,3
5.6,10.3,-19.51,5.6,37.6,78.78,-15.5,4.1,1.4,0.4,-1.4,2.4,190.5,8.1,2
5.4,5.1,-17.19,9.7,40.4,82.36,-15.9,8.7,2.0,-0.2,-1.3,4.6,193.6,8.0,2
-4.09,0.23,12.4,2.16,101.95,102.67,-127.8,-2.44,0.96,-2.67,-9.14,7.62,295.36,11.76,3
-0.35,-4.3,-1.31,2.94,122.01,100.0,-132.71,-4.07,0.16,0.94,-1.63,0.85,244.65,14.9,3
-3.59,0.35,14.03,1.03,37.56,101.52,-63.46,-4.03,0.1,0.8,1.61,-1.3,67.11,7.0,4
-0.3,-3.6,-14.64,19.5,104.4,90.24,-164.7,-3.7,0.6,-2.2,-6.2,2.6,278.4,13.7,2
-5.92,-6.95,-13.54,-3.57,116.76,94.02,-118.57,-4.54,-0.99,3.93,10.46,-0.67,236.59,12.92,4
0.4,-1.5,-7.75,5.4,103.5,100.17,51.4,5.1,-0.4,0.2,0.7,22.2,180.5,7.8,2
7.7,-1.2,-15.87,7.3,44.3,93.85,43.3,2.3,-1.2,-0.1,-2.2,-0.3,214.0,7.4,1
-0.7,2.1,-4.08,1.4,54.7,93.4,-62.2,2.6,1.2,0.8,0.1,5.0,75.2,13.9,1
2.33,0.1,16.48,3.46,79.31,103.84,-68.58,-4.41,0.93,-4.22,-13.84,0.78,101.16,14.29,3
-0.04,-4.88,12.08,12.93,93.23,96.42,-167.25,-8.81,0.71,-2.78,-7.55,-4.08,280.59,12.39,2
-2.9,-3.2,-10.3,1.1,51.8,93.79,-60.6,-0.3,1.0,2.9,6.7,1.9,71.1,14.0,1
5.0,-2.0,17.79,5.3,74.1,110.33,-24.2,3.7,3.3,-2.2,-9.0,0.9,76.3,7.9,1
-1.0,-5.6,-13.98,6.3,175.9,100.0,-135.4,-9.7,0.3,3.7,-5.5,-3.0,128.0,26.3,4
-5.52,-2.35,-6.77,-0.7,100.73,111.03,-90.47,-3.46,0.05,5.87,16.09,-3.11,100.85,12.9,4
-0.6,0.1,-20.41,-2.7,132.5,109.54,-23.3,2.9,1.4,2.9,12.1,-2.9,121.2,10.4,3
7.9,-2.1,1.07,4.7,35.8,108.5,55.4,1.6,1.3,-0.5,-1.8,1.4,202.7,6.0,1
0.74,-1.18,-11.12,0.4,97.09,100.17,-95.65,-3.34,0.41,4.34,8.73,-6.32,171.63,24.47,2
-8.62,-3.25,-10.15,-4.82,114.55,105.16,-105.01,-0.76,-0.34,2.68,13.4,-0.79,206.62,11.31,4
-1.8,-5.06,-15.54,0.48,91.11,106.21,-92.11,-4.44,1.07,5.93,12.94,-10.15,187.51,21.19,3
-4.5,-10.8,-1.18,-1.7,86.2,108.74,-10.0,5.1,0.9,-1.1,-4.9,7.2,167.7,4.8,1
5.7,-2.5,23.98,6.5,50.3,109.26,64.0,1.5,4.4,-0.9,-1.1,5.5,132.1,4.7,1
-1.6,-5.6,38.33,8.2,35.1,108.6,-47.4,15.4,1.6,-0.8,-5.7,1.7,50.9,5.9,1
7.9,5.3,3.49,2.0,61.9,117.37,62.5,5.6,1.0,-0.6,-1.0,6.5,102.1,3.8,2
-4.39,1.15,14.83,1.08,101.16,103.05,-124.02,-1.25,1.04,-3.5,-11.15,8.07,287.93,11.2,3
0.8,0.1,-5.77,2.0,84.3,100.0,-78.4,-6.1,3.0,0.0,0.2,-1.6,111.9,16.9,3
-8.01,-4.13,-19.17,-3.32,139.98,113.92,-110.78,-1.52,-0.07,7.13,22.65,-3.01,163.86,15.27,4
-0.7,-2.6,24.74,7.0,37.3,105.17,-49.1,9.5,0.7,-0.2,-3.1,0.6,53.7,6.5,1
-1.7,-8.6,7.91,5.6,42.4,92.02,-67.5,-6.5,0.9,3.3,-4.8,-5.4,96.8,16.9,1
-10.28,1.8,-17.08,-3.99,171.72,136.41,-88.73,6.77,0.6,5.09,22.74,-6.49,130.02,13.38,4
-1.2,-3.8,-10.57,1.9,119.9,78.19,-133.4,-0.7,0.2,1.1,-1.4,-1.4,267.5,14.9,2
8.3,-2.0,5.78,4.0,65.3,111.65,56.3,4.9,0.5,-0.6,-0.9,4.5,100.0,4.2,2
0.48,-1.8,4.61,-0.74,131.57,105.67,-111.15,-0.62,0.65,-2.84,-9.39,-2.04,170.31,12.74,3
0.5,-1.8,5.22,-0.4,131.5,106.07,-110.5,-0.5,0.7,-3.1,-10.1,-1.8,169.3,12.6,3
-2.4,2.5,3.2,8.9,49.4,117.31,-68.1,11.3,1.5,-3.6,-11.6,2.0,91.0,8.1,1
-4.8,1.4,1.39,10.7,54.1,101.13,-65.3,5.3,1.8,1.6,5.9,4.8,73.4,9.8,1
0.89,-4.06,12.14,9.1,29.14,100.0,-62.69,13.39,2.24,-1.14,-6.14,-3.4,109.44,11.51,3
2.79,0.1,23.06,3.89,77.84,104.97,-65.68,-3.91,0.32,-5.47,-17.99,1.48,97.99,13.52,3
2.7,-5.2,-2.11,19.5,75.5,113.12,-59.6,5.4,5.4,-2.5,-13.7,-3.1,77.5,6.5,1
-1.66,-0.45,1.64,-4.45,120.78,99.93,-122.86,-1.96,0.16,-0.16,-1.91,-1.1,224.8,13.67,3
-2.19,-12.07,-18.22,-1.84,119.82,78.61,-137.34,-9.77,-1.88,5.66,6.4,-0.5,278.08,15.15,4
4.1,0.3,-4.61,-3.8,82.6,100.0,-31.2,-0.1,1.4,0.4,-4.3,-5.0,87.4,9.6,2
-0.52,-3.09,-6.56,-2.27,125.43,98.51,-132.83,-5.22,-0.16,2.49,4.68,-3.51,236.46,15.49,3
0.08,-3.27,-12.66,-1.23,104.32,100.3,44.71,4.97,-0.15,0.01,-1.07,17.47,187.13,7.74,2
0.54,-2.07,4.32,-0.61,131.44,104.81,-112.25,-0.35,0.55,-2.56,-9.23,-1.72,171.38,12.97,3
-1.2,-1.6,7.31,8.6,52.0,107.04,-66.8,4.1,2.0,-4.2,-11.5,9.2,88.5,11.5,1
-9.35,-1.23,-12.59,-4.57,135.67,117.19,-98.46,2.19,0.03,3.52,16.99,-2.9,177.18,12.01,4
-3.5,-2.5,-8.31,3.4,69.9,128.08,-93.8,-1.4,1.2,6.9,21.7,-4.2,198.2,19.7,2
0.5,1.7,8.2,6.2,39.3,113.33,-56.2,15.2,2.4,-1.3,-2.6,2.4,76.9,9.4,1
-2.47,-3.77,-13.68,-2.98,108.15,94.72,-156.06,-3.1,-0.5,5.03,18.13,-9.0,325.0,12.76,4
6.4,-9.0,-16.75,3.2,81.1,92.35,28.7,2.5,0.9,-1.1,-3.2,1.4,101.9,6.1,1
