PC_CA-avg_3y,REER-pch_3y,X_GS_share_M-pch_5y,FSL-pch,GD-pc_gdp,HPI-pch,NIIP-pc_gdp,ULC-pch_3y,ACT-pch_3y,LTU-pch_3y,YUR-pch_3y,PSCF-pc_gdp,PSD-pc_gdp,UR-avg_3y,label
-3.7,-10.01,-16.33,-2.54,118.59,84.83,-129.77,-7.66,-1.52,4.96,8.04,-0.57,261.34,14.25,4
-2.4,2.5,3.2,8.9,49.4,117.31,-68.1,11.3,1.5,-3.6,-11.6,2.0,91.0,8.1,1
1.9,-3.2,-3.29,-2.0,99.3,100.0,-88.9,-1.1,0.0,0.4,-4.6,-2.5,155.8,24.2,2
-3.5,-9.17,-17.96,-2.43,123.26,85.05,-130.96,-8.53,-1.2,4.89,10.48,-1.9,253.78,14.46,4
-8.78,-3.01,-9.97,-4.89,114.49,105.85,-104.2,-0.54,-0.3,2.61,13.63,-0.82,204.64,11.21,4
-1.9,-5.6,-19.39,-8.5,178.9,103.46,-131.9,-10.4,0.1,10.7,7.7,-3.0,130.8,26.2,4
5.9,-4.9,-9.35,3.1,79.8,90.5,23.3,5.6,1.4,-1.1,-2.1,2.0,102.4,6.9,1
5.1,-1.5,33.28,5.2,20.1,105.68,54.6,1.2,0.1,0.4,3.4,-9.6,309.0,6.3,1
-10.3,1.8,-17.17,-4.0,172.1,136.51,-88.8,6.8,0.6,5.1,22.8,-6.5,130.2,13.4,4
2.6,4.1,4.61,-2.3,97.6,114.86,-80.2,0.7,-0.6,-5.0,-14.0,0.4,134.4,17.4,2
-2.46,-4.78,1.93,6.51,66.58,96.8,15.3,7.13,3.37,0.84,0.49,2.08,159.33,7.17,2
0.7,-3.1,0.87,-1.4,131.2,100.0,-118.9,0.2,0.0,-0.5,-5.9,-1.4,179.3,14.4,3
1.36,-4.61,10.29,9.35,28.54,105.06,-51.09,9.95,0.74,-2.51,-10.12,1.51,105.6,9.81,3
7.0,-2.4,-8.35,10.3,61.7,114.09,20.1,5.3,0.3,0.4,1.4,8.2,247.2,4.8,1
0.1,-1.8,-7.32,-7.3,132.9,97.89,-123.8,-2.9,-0.4,2.2,4.5,-6.8,190.1,15.4,3
2.4,-1.8,-12.5,1.5,82.4,88.31,-1.9,5.8,0.7,0.2,0.4,3.0,129.4,4.9,1
-4.8,-11.4,15.13,4.8,54.5,108.27,-62.4,4.2,1.9,1.2,8.5,6.6,73.9,9.2,1
0.95,-0.11,-9.51,-1.64,80.0,101.54,-66.64,-4.24,1.8,0.6,2.21,-2.23,110.49,14.55,3
8.2,-0.9,-6.74,4.0,64.6,100.0,48.9,-0.4,0.6,1.1,-0.4,0.0,262.8,7.2,2
5.0,-2.0,17.79,5.3,74.1,110.33,-24.2,3.7,3.3,-2.2,-9.0,0.9,76.3,7.9,1
-2.97,-2.57,-7.82,2.87,72.79,125.32,-93.32,-1.37,1.08,6.26,19.12,-4.03,194.03,20.14,2
1.8,0.0,9.47,3.5,80.8,102.02,-72.4,-5.6,1.9,-4.4,-18.7,-0.2,104.2,15.5,3
5.0,-1.0,21.39,0.4,22.3,109.59,51.8,4.0,-0.6,0.5,-7.2,27.4,322.9,6.2,1
2.6,-2.6,9.87,3.2,98.6,109.18,-85.5,-0.5,-0.3,-5.2,-14.6,0.6,139.6,19.6,2
-1.5,-3.0,-0.36,-13.0,176.2,96.81,-140.7,-1.0,0.9,-3.9,-8.8,-1.0,118.0,23.3,4
-1.12,0.1,-18.94,0.98,77.48,101.65,-5.17,3.91,0.74,0.65,2.56,4.66,145.25,9.27,2
-4.6,1.8,16.57,0.3,100.6,103.32,-121.3,-0.4,1.1,-4.1,-12.6,8.4,282.6,10.8,3
1.42,-4.69,7.95,8.81,30.5,106.89,-47.71,8.18,0.22,-2.63,-10.3,2.71,104.88,9.34,3
-0.5,-3.0,2.4,4.6,98.3,103.04,-16.6,1.6,0.5,-0.3,-2.1,6.8,145.3,9.9,2
-0.08,-4.5,-20.24,-0.52,53.1,113.07,-44.32,0.36,-1.34,2.43,6.76,-2.81,112.15,8.16,3
0.7,-3.7,2.44,16.3,36.8,106.62,-26.9,2.7,2.1,-1.3,-8.5,4.3,68.7,5.1,1
1.3,-0.6,-18.21,-10.1,70.0,105.12,-39.3,0.1,-1.0,2.0,6.9,-3.7,107.2,9.1,3
-0.5,1.7,26.02,2.0,37.2,92.5,-53.6,-7.8,3.0,6.7,19.3,-1.8,68.8,15.7,1
-0.02,-1.7,-8.28,1.54,111.04,101.61,-16.04,2.42,1.25,1.56,5.42,2.7,133.53,10.92,3
-2.19,-10.25,-17.26,-2.07,117.17,82.06,-142.04,-8.32,-1.57,5.55,9.04,-2.47,289.75,14.63,4
1.07,-0.28,-12.44,-4.48,76.64,102.74,-57.45,-2.78,0.86,1.07,3.79,-2.73,109.38,12.72,3
-8.07,-4.0,-10.83,-4.56,115.0,102.91,-107.75,-1.52,-0.47,2.94,12.81,-0.77,212.67,11.63,4
-1.9,-1.0,21.09,1.2,39.2,98.15,-57.1,6.7,1.6,-0.1,0.1,-2.3,62.1,6.9,2
7.0,-0.4,-9.51,4.6,75.7,96.0,40.8,7.4,0.4,-0.6,-0.8,-0.3,98.4,5.2,2
-0.18,-2.93,-3.0,2.5,101.37,99.71,-12.12,2.14,0.99,0.16,-0.94,4.11,137.71,10.49,3
0.3,-1.2,4.06,10.4,51.9,100.0,-63.9,2.7,1.5,-1.8,-7.5,5.1,80.6,13.0,1
7.74,-1.31,-0.8,4.26,69.78,104.91,49.63,5.98,0.46,-0.6,-0.86,2.43,99.31,4.63,2
-0.64,-2.59,-11.61,1.35,85.29,103.46,-83.62,-5.55,2.1,3.33,7.66,-6.38,150.0,19.44,3
0.1,-4.2,-4.32,6.2,80.8,99.03,-104.2,3.8,1.2,1.6,6.5,-4.3,114.8,10.7,2
6.1,-2.4,-5.55,15.1,22.0,88.54,58.4,5.9,0.7,0.4,1.6,25.9,303.7,4.8,1
6.43,-2.2,-1.44,10.09,61.11,109.72,45.85,5.91,0.11,-0.33,0.21,4.7,110.99,5.16,2
3.1,0.0,10.82,-7.6,72.9,123.6,-55.1,9.1,4.2,-2.0,-9.7,0.7,70.8,5.4,1
-2.55,-2.7,3.42,-7.68,134.63,99.04,-118.87,1.33,1.14,-2.5,-5.63,-0.61,104.29,18.43,4
-1.4,2.1,-23.06,1.4,63.6,100.0,4.8,3.3,0.6,0.7,3.4,6.9,152.1,8.8,2
0.7,-2.8,-23.52,28.7,48.3,103.81,13.9,9.0,-1.1,0.5,3.6,5.3,144.6,8.1,2
-1.1,-4.0,-9.78,-10.2,178.5,98.32,-137.6,-3.3,0.7,-1.5,-11.0,-2.1,125.1,25.0,4
1.2,1.7,19.36,16.7,40.6,95.53,-46.8,8.7,2.3,-3.2,-13.3,0.2,54.2,12.0,1
-2.26,-2.78,2.39,-9.13,145.96,98.43,-124.82,0.69,1.07,-2.88,-6.5,-0.72,108.03,19.76,4
-0.22,-2.81,-4.77,2.06,102.78,100.0,-14.06,2.25,0.83,0.56,1.15,3.52,137.79,10.66,3
2.2,-3.1,0.83,4.2,134.1,98.04,-7.7,1.2,1.5,-1.2,-8.0,1.3,108.8,11.6,3
2.1,-2.4,26.53,-6.2,43.9,92.26,-74.7,-20.6,-1.4,6.9,17.4,-2.4,115.2,17.7,1
3.2,1.2,-12.73,-0.1,80.3,98.6,-38.4,0.1,0.6,1.7,4.5,-4.7,97.9,9.6,2
-0.3,4.8,20.52,13.0,10.6,93.21,-46.7,14.7,0.5,-3.8,-7.4,5.6,115.4,8.7,1
-3.81,-1.97,-13.97,-3.44,113.15,99.12,-146.69,-2.71,0.0,4.32,20.58,-9.18,293.39,12.38,4
-3.79,-2.34,7.94,-1.33,84.94,101.7,-92.78,4.11,1.42,-0.82,-1.85,-0.15,87.91,12.61,4
1.16,-0.94,-12.98,0.89,135.36,102.34,-20.26,2.34,1.23,2.48,9.79,-0.78,117.24,12.07,3
-1.29,-4.02,-13.78,-2.23,103.37,103.64,-101.68,-4.23,0.61,5.05,11.28,-9.59,189.09,19.58,3
-1.4,-3.1,-9.77,11.4,44.9,94.54,-41.4,4.2,2.7,0.0,0.7,4.4,73.7,6.9,1
-2.29,-3.32,1.35,4.7,71.32,122.2,-115.7,-5.0,1.16,4.64,14.94,-3.8,220.58,18.07,2
-0.6,-10.0,-6.24,5.2,42.2,96.29,-36.6,4.0,3.0,0.0,-2.2,1.7,71.5,6.7,1
0.0,5.3,-1.35,15.8,39.7,104.41,-42.9,15.0,3.1,-2.1,-7.4,4.3,56.5,9.2,1
2.09,-2.99,-0.78,3.77,134.28,98.34,-9.47,1.32,1.35,-0.82,-6.02,0.89,109.76,11.71,3
-2.9,-7.6,12.18,8.6,67.8,95.49,19.6,8.7,4.5,0.9,-0.7,0.1,162.3,6.5,2
-0.8,-1.2,-0.62,0.0,68.4,94.11,27.0,9.5,5.9,-0.6,-0.5,2.3,152.9,6.2,1
2.59,2.27,23.08,4.22,76.16,107.56,-61.53,-2.95,-0.18,-6.19,-18.36,1.92,95.84,12.13,3
-1.45,-0.61,0.58,-4.79,122.22,99.69,-122.97,-2.07,0.1,0.12,-1.15,-1.78,220.68,13.88,3
-3.38,6.88,-10.51,3.67,88.08,96.79,-21.18,4.16,1.12,-0.21,-2.76,4.98,156.74,7.88,2
-0.85,-1.67,5.45,-0.9,122.27,100.97,-119.6,0.02,0.32,-1.55,-7.86,1.46,209.45,13.35,3
2.1,-6.8,-16.82,8.7,76.8,88.33,-80.4,6.2,4.6,-1.5,-5.6,-0.2,91.7,9.6,2
6.47,-7.64,-17.61,2.47,44.94,88.42,35.84,-0.08,-1.5,1.49,2.44,7.79,223.91,7.78,2
1.25,-4.53,10.99,9.38,27.92,103.83,-53.69,11.06,1.09,-2.19,-9.24,0.29,106.5,10.15,3
-4.89,-2.03,11.91,4.25,41.32,104.04,-69.87,6.56,1.68,0.65,1.47,0.26,73.52,7.51,4
8.3,-1.7,-2.87,5.2,37.2,105.09,52.6,1.3,0.9,-0.6,-2.6,3.1,209.0,6.4,1
-10.17,1.39,-16.55,-4.08,167.16,133.89,-90.11,6.18,0.52,4.89,22.01,-6.01,136.57,13.21,4
1.3,-1.0,-11.49,0.0,100.7,96.46,-95.9,-3.6,0.3,4.0,7.0,-6.6,168.1,25.1,2
-0.5,0.1,25.75,2.8,48.8,109.28,-55.6,7.8,2.0,-2.0,-9.1,3.3,75.8,5.0,1
-4.9,0.2,1.09,11.7,86.8,105.5,0.3,3.7,0.9,-1.4,-7.7,8.8,166.4,5.4,1
2.7,-5.2,-2.11,19.5,75.5,113.12,-59.6,5.4,5.4,-2.5,-13.7,-3.1,77.5,6.5,1
-0.57,-2.45,-11.31,1.39,85.24,103.28,-83.35,-5.58,2.15,3.16,7.28,-6.13,148.04,19.31,3
-2.01,-2.68,-18.45,4.49,115.07,121.64,-20.57,4.34,-0.64,1.35,7.59,2.18,118.99,8.36,2
0.1,6.9,-1.46,-2.6,99.8,103.87,38.1,3.7,1.0,-1.5,-6.3,3.7,185.1,7.0,1
-2.16,-10.73,-17.53,-2.01,117.86,81.1,-140.98,-8.72,-1.66,5.58,8.36,-1.98,287.08,14.78,4
-3.5,-2.5,-8.31,3.4,69.9,128.08,-93.8,-1.4,1.2,6.9,21.7,-4.2,198.2,19.7,2
1.38,-2.19,10.91,4.33,21.51,105.37,-57.25,14.33,2.02,-0.64,-2.86,3.41,113.59,9.78,2
-4.09,-2.24,-14.41,-3.45,115.28,98.79,-143.01,-3.18,0.0,4.21,20.18,-8.53,282.27,12.49,4
0.96,-4.34,12.79,9.48,26.33,100.66,-60.41,13.91,2.01,-1.37,-6.97,-2.85,108.82,11.02,3
0.71,-0.43,9.9,-0.98,58.09,98.96,-45.82,3.74,1.51,0.12,-1.82,-3.48,73.11,8.08,2
-7.71,-2.71,-3.52,-2.11,92.12,105.44,-93.59,1.6,0.28,2.08,10.2,-0.48,166.45,9.99,4
-3.56,-10.2,-16.51,-2.47,118.7,84.25,-130.47,-7.86,-1.55,5.03,7.89,-0.57,262.89,14.33,4
0.78,-0.05,-14.56,0.64,132.14,103.82,-20.34,2.58,1.73,3.15,12.42,0.1,120.86,11.77,3
0.8,0.1,-5.77,2.0,84.3,100.0,-78.4,-6.1,3.0,0.0,0.2,-1.6,111.9,16.9,3
7.6,-2.3,-2.96,6.7,61.9,104.44,61.4,-0.3,0.3,0.0,-2.4,3.9,259.3,6.8,2
5.5,-2.5,-13.78,1.6,46.1,92.87,27.8,3.6,-1.5,1.3,6.9,4.4,221.0,7.3,2
-7.35,-0.31,-0.78,0.89,96.97,118.58,-77.01,6.8,1.21,2.71,11.12,-2.72,97.89,9.84,4
7.9,-2.1,1.07,4.7,35.8,108.5,55.4,1.6,1.3,-0.5,-1.8,1.4,202.7,6.0,1
1.2,11.0,11.47,7.4,32.6,123.49,-24.8,13.7,2.6,-1.7,-5.9,5.3,70.7,3.0,1
-4.3,10.1,-9.19,4.8,86.2,94.4,-22.8,4.0,1.2,-0.5,-4.3,6.0,163.6,7.2,2
-7.48,-3.45,-13.28,-4.26,121.04,101.71,-111.01,-3.09,-0.16,3.01,15.42,-2.39,207.33,12.11,4
2.3,-4.3,2.9,2.4,99.2,104.45,-85.5,-1.2,-0.1,-3.5,-11.1,-0.4,147.4,22.1,2
2.48,-0.11,17.38,6.97,23.97,114.47,-40.42,15.62,2.26,-3.1,-10.01,4.01,97.23,7.08,2
-2.68,-3.65,-9.57,0.61,89.63,106.11,-96.45,-3.93,1.18,4.18,8.73,-6.64,210.41,19.39,3
2.4,4.2,22.94,4.5,74.7,109.84,-57.9,-2.1,-0.6,-6.8,-18.6,2.3,94.0,10.9,3
-1.04,-3.62,-12.62,-3.14,108.68,102.6,-105.66,-3.99,0.43,4.54,10.06,-9.09,189.27,18.83,3
-8.48,-3.11,-10.73,-4.75,116.01,104.89,-105.77,-1.13,-0.27,2.7,14.04,-1.19,205.26,11.42,4
0.9,-4.3,13.16,9.5,26.0,100.0,-61.8,14.5,2.2,-1.2,-6.5,-3.5,109.3,11.2,3
-8.66,-3.05,-10.27,-4.83,115.1,105.47,-104.83,-0.77,-0.29,2.64,13.79,-0.97,204.89,11.3,4
-2.58,-11.16,-18.21,-2.02,121.06,80.57,-135.45,-9.43,-1.66,5.42,7.74,-0.98,270.4,14.95,4
-6.39,-2.37,4.18,1.25,65.3,104.87,-80.95,4.13,0.97,1.46,6.11,-0.1,120.54,8.54,4
-6.28,-2.11,-10.78,-4.29,110.17,103.73,-127.84,-0.58,-0.18,3.49,17.14,-5.35,260.14,11.48,4
1.46,-1.22,-8.47,2.1,134.84,101.52,-15.26,2.0,1.67,1.41,4.22,0.39,114.54,11.77,3
4.9,3.3,8.69,-2.0,21.0,114.88,53.8,7.9,0.2,-0.5,-3.1,-0.5,306.5,5.8,1
0.78,-4.32,9.1,8.28,29.29,101.59,-59.68,12.78,1.77,-0.76,-4.89,-3.42,109.65,10.83,3
-8.27,-3.18,-11.26,-4.65,117.05,104.23,-106.86,-1.53,-0.25,2.76,14.33,-1.43,205.69,11.56,4
1.46,-0.4,-9.19,-5.67,73.52,104.11,-50.08,-1.76,-0.06,-0.08,-1.44,-2.56,106.22,11.18,3
-5.13,-5.65,-17.51,-3.16,127.16,92.95,-123.03,-6.95,-0.38,3.94,15.32,-3.53,224.42,13.6,4
0.9,0.2,-15.53,0.5,135.4,104.16,-21.0,2.6,1.8,3.4,13.5,-0.3,118.9,11.9,3
-1.14,-3.93,-7.77,1.88,118.03,79.37,-134.95,-1.39,0.23,0.9,-1.74,-1.98,268.19,14.71,2
0.8,-0.8,-23.17,-5.8,78.6,89.71,-92.2,7.7,2.5,0.8,1.8,-6.0,102.2,11.1,2
2.3,-6.4,37.84,9.6,76.7,100.0,-198.4,-18.6,1.0,-3.9,-10.6,-2.3,305.1,11.9,2
-0.6,4.8,10.22,4.7,40.9,107.36,-59.0,16.7,2.3,-1.7,-5.9,2.3,80.5,10.1,1
2.34,3.75,21.5,4.39,75.35,109.0,-59.45,-2.47,-0.33,-6.54,-18.61,2.03,95.09,11.39,3
-0.5,2.7,21.45,4.1,37.8,100.0,-54.7,0.6,1.3,0.0,-0.9,0.2,58.0,6.9,1
1.34,2.02,6.34,3.79,31.41,119.73,-37.93,14.31,0.81,-0.98,-3.55,2.62,101.74,6.6,2
-2.6,-0.8,-12.04,-3.4,104.0,100.54,-162.5,-0.7,0.0,4.8,22.3,-12.0,341.2,11.9,4
4.1,-2.9,22.52,3.9,55.5,104.82,35.4,-1.5,4.3,-1.1,-2.0,15.2,136.1,5.3,1
-5.97,-3.97,-17.11,-3.54,128.63,96.91,-118.91,-6.05,-0.01,3.48,17.5,-4.21,210.45,13.15,4
1.9,-3.8,-22.85,-1.3,77.4,85.69,-82.2,7.5,2.8,-0.6,0.2,-0.8,95.8,10.7,2
-8.3,0.37,-6.05,-0.68,121.14,124.35,-80.8,6.8,1.01,3.48,14.88,-3.93,108.28,10.99,4
-1.7,-8.6,7.91,5.6,42.4,92.02,-67.5,-6.5,0.9,3.3,-4.8,-5.4,96.8,16.9,1
0.9,-0.8,14.27,1.4,126.1,114.08,-110.4,2.8,1.5,-3.9,-10.9,2.3,162.4,10.9,2
8.5,4.9,24.47,2.3,45.6,114.74,63.2,4.1,5.9,-0.9,-2.5,7.5,129.0,4.1,1
0.5,1.7,8.2,6.2,39.3,113.33,-56.2,15.2,2.4,-1.3,-2.6,2.4,76.9,9.4,1
-8.19,-2.84,-6.38,-3.35,102.06,105.65,-98.28,0.66,0.02,2.31,11.72,-0.62,183.47,10.53,4
-2.15,-11.02,-17.69,-1.96,118.26,80.53,-140.35,-8.95,-1.7,5.61,7.95,-1.69,285.5,14.86,4
-3.67,-1.83,-13.74,-3.43,112.08,99.29,-148.54,-2.48,0.0,4.38,20.78,-9.51,299.0,12.32,4
0.68,-3.06,0.63,-1.57,131.25,99.94,-119.05,0.11,-0.01,-0.42,-5.59,-1.56,179.62,14.43,3
-6.93,-0.62,1.6,1.6,86.07,115.98,-75.3,6.8,1.3,2.36,9.43,-2.17,93.2,9.32,4
-7.93,-3.3,-12.15,-4.48,118.8,103.12,-108.69,-2.22,-0.21,2.87,14.81,-1.86,206.41,11.8,4
2.77,-1.95,-14.34,3.37,78.92,94.56,-54.94,2.5,2.18,0.44,0.52,-2.93,95.46,9.6,2
-2.4,0.5,-4.48,5.2,44.5,95.34,-45.9,3.8,1.5,1.0,2.9,2.9,70.7,7.0,1
-2.0,-5.22,-16.88,0.63,87.83,106.72,-89.92,-4.82,1.16,6.45,14.48,-10.87,188.19,21.74,3
1.53,-0.33,-5.54,-3.87,74.94,103.7,-54.45,-2.51,0.33,-0.93,-4.82,-2.1,105.83,12.03,3
0.06,-4.06,-20.55,-1.77,55.47,112.38,-43.46,0.1,-1.35,2.44,6.99,-2.9,111.63,8.21,3
-4.5,-10.8,-1.18,-1.7,86.2,108.74,-10.0,5.1,0.9,-1.1,-4.9,7.2,167.7,4.8,1
2.3,-3.3,20.41,7.1,25.3,112.23,-43.3,13.5,2.3,-3.5,-10.9,4.1,99.0,7.7,2
-2.44,-2.73,3.05,-8.21,138.72,98.82,-121.02,1.1,1.12,-2.63,-5.95,-0.65,105.64,18.91,4
-0.9,-1.1,-5.63,-1.2,46.5,123.79,-39.8,7.7,-1.5,1.7,5.3,0.5,112.9,7.1,2
6.6,0.1,-3.82,10.9,19.0,86.69,28.9,8.8,1.1,-0.2,-1.1,21.4,284.3,4.8,1
-0.7,2.1,-4.08,1.4,54.7,93.4,-62.2,2.6,1.2,0.8,0.1,5.0,75.2,13.9,1
2.7,3.9,13.57,6.8,22.3,117.28,-36.8,18.3,2.2,-2.6,-8.9,3.9,95.0,6.3,2
-0.2,-0.3,-10.28,-10.3,95.8,96.28,-92.8,-5.1,0.8,5.7,14.0,-10.0,178.2,24.1,2
-4.8,1.4,1.39,10.7,54.1,101.13,-65.3,5.3,1.8,1.6,5.9,4.8,73.4,9.8,1
-2.61,-3.86,-10.59,0.62,89.2,106.22,-95.48,-4.07,1.18,4.51,9.55,-7.22,207.61,19.72,3
9.5,0.7,-11.35,8.0,67.8,96.7,48.0,3.7,0.9,1.3,2.7,4.3,267.2,6.8,2
0.85,-2.31,8.64,3.35,34.88,117.45,-41.72,10.88,0.58,-1.15,-3.58,2.47,105.28,7.43,2
1.7,0.7,-18.42,-3.2,81.3,95.34,1.3,6.4,1.1,0.1,0.2,1.0,127.1,5.0,1
-2.6,-0.5,7.39,4.3,39.8,98.89,-45.2,3.4,0.8,0.5,8.2,2.1,68.3,6.9,1
-3.21,-2.16,-2.44,0.52,92.62,105.35,-103.23,-2.97,1.16,1.92,2.91,-2.53,230.11,17.05,3
-1.2,-3.8,-10.57,1.9,119.9,78.19,-133.4,-0.7,0.2,1.1,-1.4,-1.4,267.5,14.9,2
-2.8,6.0,-21.25,-3.6,83.2,88.06,-28.1,3.0,0.4,0.8,2.1,1.5,176.1,7.9,2
0.0,-8.2,-2.16,8.1,40.0,100.0,-32.9,0.1,2.4,-0.6,-6.9,0.3,68.1,6.1,1
4.1,0.3,-4.61,-3.8,82.6,100.0,-31.2,-0.1,1.4,0.4,-4.3,-5.0,87.4,9.6,2
7.7,-1.2,-15.87,7.3,44.3,93.85,43.3,2.3,-1.2,-0.1,-2.2,-0.3,214.0,7.4,1
-2.19,-2.8,2.15,-9.47,148.58,98.29,-126.2,0.55,1.06,-2.97,-6.7,-0.74,108.89,20.07,4
-2.16,-10.76,-17.54,-2.0,117.89,81.05,-140.92,-8.74,-1.66,5.59,8.32,-1.95,286.94,14.78,4
-6.81,-2.48,1.73,0.19,73.81,105.05,-84.96,3.33,0.75,1.66,7.41,-0.22,135.11,9.0,4
0.66,-0.16,-6.34,1.94,84.4,100.34,-78.91,-6.05,2.91,0.33,0.93,-2.07,115.62,17.15,3
6.61,-7.46,-16.65,2.35,45.57,89.54,37.4,-0.19,-1.38,1.36,1.96,7.66,225.41,7.69,2
4.08,0.32,-4.79,-3.72,82.55,99.97,-31.36,-0.1,1.38,0.43,-4.11,-4.99,87.63,9.6,2
-6.15,-6.64,-13.25,-3.67,116.58,94.96,-117.43,-4.22,-0.93,3.83,10.71,-0.68,234.08,12.78,4
-2.1,-12.2,-18.34,-1.8,119.9,78.23,-137.8,-9.9,-1.9,5.7,6.3,-0.5,279.1,15.2,4
-5.81,-3.91,-17.16,-3.5,128.33,96.77,-120.45,-6.05,0.0,3.53,17.73,-4.51,214.09,13.17,4
-3.31,-1.49,-13.17,-3.42,109.39,99.71,-153.18,-1.89,0.0,4.52,21.29,-10.34,313.04,12.18,4
0.3,-0.9,-0.15,1.1,17.1,97.38,-73.5,15.3,1.7,2.7,6.5,2.6,130.6,12.2,2
6.5,-7.8,-17.73,2.5,44.9,88.28,36.1,-0.2,-1.5,1.5,2.3,7.9,224.0,7.8,2
-4.54,-6.94,-17.67,-2.89,125.73,90.05,-125.94,-7.53,-0.68,4.29,13.54,-2.94,235.2,13.92,4
-2.5,-3.05,-13.29,-3.08,107.14,96.13,-157.62,-2.52,-0.38,4.98,19.14,-9.73,328.93,12.55,4
0.46,-0.71,-12.05,1.0,123.7,102.94,-18.62,2.51,1.54,2.52,9.62,1.14,125.93,11.43,3
-2.9,-3.2,-10.3,1.1,51.8,93.79,-60.6,-0.3,1.0,2.9,6.7,1.9,71.1,14.0,1
0.9,4.2,6.46,7.3,42.6,100.0,-43.6,11.8,2.3,-2.7,-10.4,2.6,55.3,10.5,1
-0.54,-2.4,-11.21,1.4,85.23,103.22,-83.26,-5.59,2.17,3.1,7.15,-6.05,147.38,19.26,3
-5.0,-2.0,12.3,4.8,37.0,104.27,-67.6,6.8,1.7,0.8,1.8,0.3,72.1,7.0,4
-2.0,2.5,13.52,13.2,37.3,100.0,-64.1,17.2,1.3,-3.3,-12.2,-0.5,80.4,10.9,1
2.8,0.1,23.24,3.9,77.8,105.0,-65.6,-3.9,0.3,-5.5,-18.1,1.5,97.9,13.5,3
8.3,-2.0,5.78,4.0,65.3,111.65,56.3,4.9,0.5,-0.6,-0.9,4.5,100.0,4.2,2
9.9,3.2,1.68,-3.3,52.4,118.9,70.7,3.0,0.7,-1.6,-4.1,4.5,241.6,4.9,2
1.5,-2.4,-9.7,1.4,135.3,100.0,-19.3,2.0,0.5,1.3,5.0,-1.4,115.1,12.3,3
2.21,0.04,15.15,3.67,79.56,103.25,-69.59,-4.9,1.24,-4.85,-18.45,0.5,101.6,14.67,3
-1.2,-1.6,7.31,8.6,52.0,107.04,-66.8,4.1,2.0,-4.2,-11.5,9.2,88.5,11.5,1
-4.98,-4.26,-23.45,-12.65,160.88,104.8,-126.61,-8.7,-0.2,9.63,22.67,-4.1,159.03,19.85,4
5.7,-2.5,23.98,6.5,50.3,109.26,64.0,1.5,4.4,-0.9,-1.1,5.5,132.1,4.7,1
-7.04,-5.42,-12.13,-4.08,115.85,98.63,-112.96,-2.97,-0.72,3.42,11.68,-0.72,224.19,12.25,4
7.5,2.6,-1.5,-4.1,33.9,112.3,64.4,1.6,1.3,-0.6,-1.7,3.5,198.3,5.6,1
2.0,1.3,-9.15,-0.1,84.9,100.0,2.2,6.4,0.4,0.5,1.2,2.1,124.0,5.6,1
-1.6,-5.6,38.33,8.2,35.1,108.6,-47.4,15.4,1.6,-0.8,-5.7,1.7,50.9,5.9,1
0.97,-4.35,12.7,9.48,26.41,100.81,-60.08,13.77,1.96,-1.41,-7.08,-2.69,108.71,10.98,3
1.49,-3.05,-0.32,3.69,124.32,98.54,-9.02,1.48,1.35,-0.79,-5.89,2.14,117.43,11.27,3
-9.96,0.73,-15.55,-4.2,159.19,129.66,-92.22,5.17,0.4,4.54,20.74,-5.22,146.85,12.91,4
0.4,-1.5,-7.75,5.4,103.5,100.17,51.4,5.1,-0.4,0.2,0.7,22.2,180.5,7.8,2
1.2,-0.46,-15.8,-7.76,72.77,104.13,-46.87,-1.1,-0.23,1.61,5.6,-3.29,108.11,10.61,3
-4.5,-4.4,-26.64,-17.4,177.4,109.02,-130.4,-10.0,-0.3,12.8,25.3,-4.0,132.3,23.3,4
-3.4,-4.3,-0.26,7.4,56.0,96.32,-68.9,3.1,1.7,1.4,3.6,3.3,75.4,10.0,1
0.4,-3.6,6.93,10.9,9.8,76.91,-50.7,0.1,0.8,1.8,-6.5,7.6,117.2,13.0,1
-4.33,-9.14,-15.54,-2.83,118.07,87.43,-126.6,-6.78,-1.37,4.67,8.73,-0.6,254.35,13.87,4
0.71,-2.63,-0.11,-0.9,124.3,100.0,-112.94,-0.73,0.44,-0.43,-5.0,-1.43,169.38,14.77,3
-2.86,-7.52,11.92,8.56,68.26,95.55,20.01,8.65,4.44,0.89,-0.68,0.38,162.53,6.52,2
-5.9,-4.0,-17.3,-3.5,129.0,96.67,-119.3,-6.2,0.0,3.5,17.6,-4.3,210.6,13.2,4
2.2,4.8,3.92,1.7,74.0,113.27,3.7,4.7,1.3,-0.3,-1.2,3.9,121.0,5.5,1
-8.8,-3.0,-9.92,-4.9,114.4,105.91,-104.1,-0.5,-0.3,2.6,13.6,-0.8,204.6,11.2,4
-7.16,-2.42,-10.48,-4.5,111.64,104.49,-119.58,-0.55,-0.22,3.18,15.91,-3.77,240.81,11.39,4
-2.7,-3.2,-19.21,5.1,119.7,124.71,-18.2,4.9,-0.8,1.3,8.0,3.1,121.8,8.2,2
0.5,-0.6,-13.33,2.5,107.0,99.19,44.8,4.3,1.0,0.8,4.5,-2.0,162.2,8.2,2
-3.88,8.65,-7.91,4.78,87.54,95.36,-22.11,3.73,1.12,-0.48,-4.06,6.09,161.57,7.5,2
0.85,-4.62,-2.86,5.24,39.17,109.3,-46.32,5.15,-0.39,-0.71,-3.81,0.64,107.63,8.87,3
0.81,0.1,-5.68,2.01,84.28,100.01,-78.36,-6.1,2.99,-0.03,0.08,-1.59,111.85,16.89,3
0.4,-7.1,58.59,1.5,73.8,107.17,-171.7,-17.7,0.9,-3.8,-9.9,-15.7,284.4,10.1,2
8.4,-1.8,1.52,-0.1,56.9,110.77,59.4,-0.1,0.7,-1.0,-3.8,3.7,249.1,5.9,2
1.1,0.9,1.08,1.4,101.7,102.86,56.8,0.9,0.3,-0.8,-3.9,0.4,185.4,7.8,1
-0.8,-2.2,-14.22,0.5,93.4,103.54,-16.6,4.6,0.9,0.6,1.6,2.1,137.4,9.8,2
-1.73,-4.71,-15.79,-0.65,94.18,105.43,-94.8,-4.65,0.93,5.94,13.39,-10.46,188.77,20.88,3
2.0,-4.7,-21.72,0.4,81.9,92.57,-3.2,3.8,0.8,0.0,-1.3,1.2,128.2,4.8,1
-8.01,-3.27,-11.94,-4.52,118.39,103.39,-108.25,-2.06,-0.22,2.85,14.69,-1.76,206.24,11.75,4
6.4,-9.0,-16.75,3.2,81.1,92.35,28.7,2.5,0.9,-1.1,-3.2,1.4,101.9,6.1,1
-2.1,-5.3,-17.51,0.7,86.3,106.96,-88.9,-5.0,1.2,6.7,15.2,-11.2,188.5,22.0,3
-5.54,-3.65,-16.72,-3.49,126.26,97.09,-124.03,-5.6,0.0,3.64,18.11,-5.14,224.89,13.06,4
1.0,-1.7,-13.57,2.7,105.2,100.0,45.2,0.5,0.7,1.0,2.3,12.1,176.1,8.5,1
-0.1,-4.5,-20.85,-0.7,53.6,113.31,-44.0,0.1,-1.4,2.5,7.0,-2.8,112.2,8.1,3
1.47,-2.25,-10.03,1.35,135.31,100.24,-19.4,2.03,0.57,1.42,5.49,-1.34,115.32,12.28,3
0.9,5.8,7.29,8.6,10.0,100.0,-39.9,15.3,1.9,-3.1,-7.8,2.7,112.8,7.4,1
1.5,-4.7,9.44,9.3,29.3,106.56,-47.9,8.6,0.3,-2.9,-11.2,3.0,104.5,9.4,3
-0.7,-8.3,-32.36,-1.3,53.6,103.4,10.6,5.8,0.2,0.2,-2.5,7.1,147.7,8.0,2
2.5,3.13,23.02,4.34,75.51,108.57,-59.91,-2.57,-0.36,-6.46,-18.47,2.09,95.02,11.58,3
1.15,-3.03,-0.86,3.45,119.69,98.77,-9.65,1.61,1.28,-0.6,-4.89,2.54,121.52,11.11,3
1.2,5.3,8.56,23.0,34.7,116.3,-25.0,5.9,2.4,-1.7,-8.0,4.2,67.3,4.0,1
-0.61,-2.9,-4.96,4.5,94.15,97.98,36.54,5.74,2.15,0.83,2.79,-1.31,162.23,7.64,2
-3.27,-2.49,6.05,-3.99,105.72,100.59,-103.69,2.95,1.31,-1.52,-3.43,-0.34,94.76,15.05,4
4.0,-9.2,-7.55,9.1,42.2,107.3,-1.9,3.1,1.0,-0.1,-4.6,8.4,192.5,7.5,2
0.41,-0.97,-6.64,-3.22,111.6,98.81,-103.9,-4.3,1.09,1.24,2.62,-4.52,155.82,16.06,3
-3.48,7.86,-15.79,0.2,84.56,90.93,-25.7,3.45,0.76,0.21,-0.8,3.54,170.44,7.58,2
0.13,-3.0,-11.93,-0.24,104.2,100.28,45.7,4.99,-0.19,0.04,-0.8,18.17,186.14,7.75,2
-0.1,-4.3,-15.53,-5.1,104.8,100.38,40.8,4.9,0.0,-0.1,-2.1,14.7,191.0,7.7,2
-8.06,-3.26,-11.81,-4.54,118.13,103.55,-107.99,-1.96,-0.22,2.83,14.62,-1.69,206.13,11.71,4
5.7,0.8,8.2,10.3,23.7,91.43,58.9,7.6,1.7,0.5,1.3,27.8,313.3,5.3,1
-2.2,3.6,6.85,-4.9,181.2,98.21,-143.6,1.4,0.4,-4.6,-9.9,-0.8,115.5,21.5,4
-5.1,-4.23,-22.61,-11.4,156.51,103.69,-125.61,-8.36,-0.17,8.79,21.98,-4.13,166.1,18.94,4
-0.6,-2.9,-3.68,2.2,95.6,100.0,-12.9,2.3,0.9,0.4,0.3,4.6,142.8,10.3,3
