PC_CA-avg_3y,REER-pch_3y,X_GS_share_M-pch_5y,FSL-pch,GD-pc_gdp,HPI-pch,NIIP-pc_gdp,ULC-pch_3y,ACT-pch_3y,LTU-pch_3y,YUR-pch_3y,PSCF-pc_gdp,PSD-pc_gdp,UR-avg_3y,label
-3.31,-10.53,-16.81,-2.36,118.9,83.25,-131.69,-8.2,-1.61,5.14,7.62,-0.55,265.59,14.47,4
1.64,-3.29,11.58,8.54,36.51,107.08,-49.49,6.9,0.16,-3.52,-12.38,2.89,102.83,9.64,3
2.4,4.2,22.94,4.5,74.7,109.84,-57.9,-2.1,-0.6,-6.8,-18.6,2.3,94.0,10.9,3
-0.7,2.1,-4.08,1.4,54.7,93.4,-62.2,2.6,1.2,0.8,0.1,5.0,75.2,13.9,1
0.8,0.1,-5.77,2.0,84.3,100.0,-78.4,-6.1,3.0,0.0,0.2,-1.6,111.9,16.9,3
-7.4,-5.0,-26.26,-2.1,159.6,120.06,-115.9,-2.3,0.1,10.6,29.6,-4.7,132.6,18.4,4
0.9,5.8,7.29,8.6,10.0,100.0,-39.9,15.3,1.9,-3.1,-7.8,2.7,112.8,7.4,1
5.5,-2.5,-13.78,1.6,46.1,92.87,27.8,3.6,-1.5,1.3,6.9,4.4,221.0,7.3,2
2.76,0.48,23.21,3.96,77.51,105.45,-64.88,-3.73,0.22,-5.62,-18.15,1.57,97.54,13.26,3
5.4,5.1,-17.19,9.7,40.4,82.36,-15.9,8.7,2.0,-0.2,-1.3,4.6,193.6,8.0,2
-6.07,-3.12,-12.47,-1.11,117.95,113.67,-97.91,-3.12,0.07,7.25,20.04,-3.57,110.14,14.51,4
0.29,0.56,0.73,1.45,38.49,121.64,-38.81,11.21,-0.28,0.28,0.6,1.63,106.97,6.84,2
6.81,-2.18,-6.85,0.83,50.99,100.97,42.11,1.92,-0.5,0.26,2.06,4.08,233.72,6.67,2
-1.9,-5.6,-19.39,-8.5,178.9,103.46,-131.9,-10.4,0.1,10.7,7.7,-3.0,130.8,26.2,4
-3.3,-6.4,18.62,-1.7,93.9,103.15,-126.5,-4.1,-0.4,-3.2,-11.3,6.7,304.0,13.0,3
0.69,-4.34,5.96,7.34,31.84,102.82,-58.03,11.45,1.44,-0.42,-3.64,-3.35,109.91,10.54,3
-10.3,1.8,-17.17,-4.0,172.1,136.51,-88.8,6.8,0.6,5.1,22.8,-6.5,130.2,13.4,4
1.87,2.85,13.5,3.68,77.86,106.6,-64.64,-3.42,0.58,-4.56,-12.42,1.02,99.89,12.87,3
-0.1,6.4,3.49,8.2,33.8,114.86,-31.0,16.5,3.2,-1.9,-5.2,4.3,56.4,7.1,1
-8.04,1.37,-6.77,-2.41,127.42,124.83,-80.3,2.98,0.4,3.67,15.76,-4.81,109.14,11.27,4
-0.5,0.1,25.75,2.8,48.8,109.28,-55.6,7.8,2.0,-2.0,-9.1,3.3,75.8,5.0,1
-2.69,-3.24,-19.29,5.13,119.79,124.63,-18.26,4.86,-0.77,1.31,8.03,3.05,121.83,8.21,2
9.9,3.2,1.68,-3.3,52.4,118.9,70.7,3.0,0.7,-1.6,-4.1,4.5,241.6,4.9,2
-7.41,-4.99,-26.15,-2.12,159.31,119.97,-115.82,-2.29,0.1,10.55,29.5,-4.67,133.06,18.35,4
8.2,-0.9,-6.74,4.0,64.6,100.0,48.9,-0.4,0.6,1.1,-0.4,0.0,262.8,7.2,2
9.5,0.7,-11.35,8.0,67.8,96.7,48.0,3.7,0.9,1.3,2.7,4.3,267.2,6.8,2
-4.86,-6.24,-17.58,-3.04,126.52,91.64,-124.35,-7.21,-0.52,4.1,14.51,-3.26,229.3,13.75,4
2.71,0.98,23.18,4.03,77.14,106.04,-63.95,-3.51,0.11,-5.78,-18.21,1.67,97.06,12.94,3
3.1,0.0,10.82,-7.6,72.9,123.6,-55.1,9.1,4.2,-2.0,-9.7,0.7,70.8,5.4,1
-5.88,-3.1,-1.8,2.28,81.82,110.04,-85.26,3.47,1.12,4.38,11.96,-1.53,94.22,11.17,4
0.0,5.3,-1.35,15.8,39.7,104.41,-42.9,15.0,3.1,-2.1,-7.4,4.3,56.5,9.2,1
-1.6,-5.6,38.33,8.2,35.1,108.6,-47.4,15.4,1.6,-0.8,-5.7,1.7,50.9,5.9,1
-6.68,-4.1,-14.74,-0.04,122.99,115.34,-101.48,0.42,0.58,7.67,21.3,-3.21,114.53,15.0,4
0.76,-1.3,-2.87,0.52,104.77,100.0,-96.08,-3.35,1.69,-0.22,-2.46,-1.51,141.32,15.81,3
-3.65,-1.82,-13.71,-3.43,111.94,99.31,-148.78,-2.45,0.0,4.39,20.81,-9.55,299.73,12.31,4
-2.51,-5.67,-5.28,-0.11,88.87,105.67,-101.63,-4.7,0.66,3.35,6.23,-5.14,227.59,18.95,3
-2.32,-7.28,-15.62,-2.49,113.04,87.86,-148.46,-5.93,-1.08,5.31,13.21,-5.46,305.91,13.78,4
-0.1,-4.5,-20.85,-0.7,53.6,113.31,-44.0,0.1,-1.4,2.5,7.0,-2.8,112.2,8.1,3
5.9,-4.9,-9.35,3.1,79.8,90.5,23.3,5.6,1.4,-1.1,-2.1,2.0,102.4,6.9,1
4.1,-2.9,22.52,3.9,55.5,104.82,35.4,-1.5,4.3,-1.1,-2.0,15.2,136.1,5.3,1
8.3,-1.7,-2.87,5.2,37.2,105.09,52.6,1.3,0.9,-0.6,-2.6,3.1,209.0,6.4,1
0.82,0.1,-5.43,2.02,84.22,100.06,-78.25,-6.07,2.97,-0.06,-0.01,-1.56,111.74,16.86,3
7.0,-0.4,-9.51,4.6,75.7,96.0,40.8,7.4,0.4,-0.6,-0.8,-0.3,98.4,5.2,2
-3.5,0.5,14.14,0.8,37.6,101.35,-63.2,-4.7,0.0,0.8,1.6,-1.4,66.8,7.0,4
0.49,-0.69,-12.78,2.78,106.66,99.29,45.45,4.38,0.86,0.74,4.13,0.38,164.0,8.16,2
-6.18,-3.48,-6.74,1.39,97.53,112.07,-91.44,2.31,0.91,5.64,15.52,-2.17,101.97,12.63,4
-0.03,-0.92,-8.2,3.86,101.23,98.82,43.27,4.96,-0.24,0.2,0.71,20.37,179.29,7.8,2
-0.6,-2.9,-3.68,2.2,95.6,100.0,-12.9,2.3,0.9,0.4,0.3,4.6,142.8,10.3,3
2.3,-6.4,37.84,9.6,76.7,100.0,-198.4,-18.6,1.0,-3.9,-10.6,-2.3,305.1,11.9,2
1.9,-3.2,-3.29,-2.0,99.3,100.0,-88.9,-1.1,0.0,0.4,-4.6,-2.5,155.8,24.2,2
1.84,-3.18,-5.04,2.93,134.66,100.77,-12.61,1.59,1.49,-0.01,-1.31,-0.09,112.29,11.99,3
-0.6,0.04,-20.07,-2.6,131.76,109.35,-23.09,2.89,1.39,2.85,11.86,-2.75,121.64,10.4,3
1.2,5.3,8.56,23.0,34.7,116.3,-25.0,5.9,2.4,-1.7,-8.0,4.2,67.3,4.0,1
-0.6,4.8,10.22,4.7,40.9,107.36,-59.0,16.7,2.3,-1.7,-5.9,2.3,80.5,10.1,1
-5.9,-4.0,-17.3,-3.5,129.0,96.67,-119.3,-6.2,0.0,3.5,17.6,-4.3,210.6,13.2,4
-8.8,-3.0,-9.92,-4.9,114.4,105.91,-104.1,-0.5,-0.3,2.6,13.6,-0.8,204.6,11.2,4
-2.95,-6.08,8.06,-1.0,91.68,104.26,-115.51,-4.36,0.07,-0.31,-3.55,1.47,270.24,15.63,3
-6.47,-3.69,-16.63,-1.41,130.52,115.6,-103.34,-2.87,0.08,8.26,22.92,-3.91,116.91,15.68,4
-2.54,-2.27,-12.85,-3.19,106.04,97.67,-159.32,-1.88,-0.24,4.92,20.24,-10.52,333.22,12.32,4
1.46,0.1,3.79,2.63,82.16,101.65,-74.18,-5.37,2.11,-1.81,-5.83,-0.58,107.28,15.78,3
1.0,-4.64,0.07,6.21,36.82,108.65,-46.69,5.97,-0.23,-1.23,-5.57,1.21,106.88,9.0,3
-1.2,-1.6,7.31,8.6,52.0,107.04,-66.8,4.1,2.0,-4.2,-11.5,9.2,88.5,11.5,1
0.63,-3.15,0.41,-1.35,130.08,100.17,-118.15,0.07,0.03,-0.32,-5.38,-1.64,179.53,14.59,3
0.1,-4.2,-4.32,6.2,80.8,99.03,-104.2,3.8,1.2,1.6,6.5,-4.3,114.8,10.7,2
0.1,6.9,-1.46,-2.6,99.8,103.87,38.1,3.7,1.0,-1.5,-6.3,3.7,185.1,7.0,1
-0.73,-2.74,-11.95,1.32,85.35,103.66,-83.92,-5.52,2.05,3.53,8.09,-6.65,152.2,19.58,3
0.9,-4.3,13.16,9.5,26.0,100.0,-61.8,14.5,2.2,-1.2,-6.5,-3.5,109.3,11.2,3
5.7,0.8,8.2,10.3,23.7,91.43,58.9,7.6,1.7,0.5,1.3,27.8,313.3,5.3,1
-4.9,0.2,1.09,11.7,86.8,105.5,0.3,3.7,0.9,-1.4,-7.7,8.8,166.4,5.4,1
0.64,-1.57,-12.6,0.16,133.6,105.08,-17.87,2.23,1.45,1.42,5.29,-1.47,116.67,11.21,3
2.44,3.63,13.99,6.49,23.25,116.21,-37.94,17.65,2.17,-2.46,-8.4,3.55,93.16,6.33,2
-0.11,-0.69,-14.93,3.54,111.27,102.74,-17.78,3.67,1.38,1.73,6.35,1.79,132.37,10.83,3
-0.5,2.7,21.45,4.1,37.8,100.0,-54.7,0.6,1.3,0.0,-0.9,0.2,58.0,6.9,1
2.69,-0.77,-16.72,-0.57,79.16,93.52,-55.65,3.01,1.47,0.79,2.81,-3.16,97.07,10.03,2
0.7,-2.8,-23.52,28.7,48.3,103.81,13.9,9.0,-1.1,0.5,3.6,5.3,144.6,8.1,2
0.98,-0.06,-14.71,0.7,135.36,103.88,-20.35,2.52,1.78,3.14,12.38,-0.27,118.38,11.91,3
-5.0,-2.0,12.3,4.8,37.0,104.27,-67.6,6.8,1.7,0.8,1.8,0.3,72.1,7.0,4
-7.55,-4.78,-24.46,-2.41,154.63,118.5,-114.6,-2.1,0.06,9.72,27.84,-4.27,140.52,17.61,4
-2.6,-0.8,-12.04,-3.4,104.0,100.54,-162.5,-0.7,0.0,4.8,22.3,-12.0,341.2,11.9,4
-2.0,-6.2,-4.75,9.8,107.5,100.0,-154.5,-10.8,0.4,3.2,5.1,4.4,347.8,15.7,3
-1.0,-5.6,-13.98,6.3,175.9,100.0,-135.4,-9.7,0.3,3.7,-5.5,-3.0,128.0,26.3,4
-0.5,1.7,26.02,2.0,37.2,92.5,-53.6,-7.8,3.0,6.7,19.3,-1.8,68.8,15.7,1
-4.35,-7.33,-17.72,-2.81,125.3,89.17,-126.82,-7.7,-0.77,4.39,13.01,-2.75,238.45,14.01,4
-2.2,-11.99,-18.31,-1.84,120.13,78.7,-137.33,-9.81,-1.85,5.64,6.59,-0.6,277.35,15.15,4
6.5,-7.8,-17.73,2.5,44.9,88.28,36.1,-0.2,-1.5,1.5,2.3,7.9,224.0,7.8,2
-2.9,0.4,11.98,11.4,41.6,102.42,-67.1,16.0,1.8,-4.2,-11.4,-4.4,82.2,12.6,1
2.3,0.9,-2.83,-2.8,82.9,107.03,4.1,5.4,0.7,0.6,1.5,3.4,123.5,5.8,1
5.1,-1.39,-10.97,5.17,78.68,99.05,28.6,6.91,0.4,-0.21,0.31,1.35,107.49,6.19,2
-2.24,-5.43,-13.4,0.43,87.16,106.53,-93.18,-4.9,1.02,5.57,12.19,-9.16,201.64,20.98,3
1.5,-4.7,9.44,9.3,29.3,106.56,-47.9,8.6,0.3,-2.9,-11.2,3.0,104.5,9.4,3
-5.57,-3.68,-16.78,-3.49,126.52,97.05,-123.59,-5.65,0.0,3.63,18.07,-5.07,223.58,13.07,4
2.1,7.7,0.75,6.9,8.4,108.14,-27.7,14.3,2.4,-1.1,-1.3,3.7,101.5,6.0,1
2.91,-0.89,-13.8,2.2,79.38,95.91,-49.39,1.7,1.65,0.86,1.86,-3.52,96.28,9.6,2
8.3,-2.0,5.78,4.0,65.3,111.65,56.3,4.9,0.5,-0.6,-0.9,4.5,100.0,4.2,2
-4.3,10.1,-9.19,4.8,86.2,94.4,-22.8,4.0,1.2,-0.5,-4.3,6.0,163.6,7.2,2
1.1,0.9,1.08,1.4,101.7,102.86,56.8,0.9,0.3,-0.8,-3.9,0.4,185.4,7.8,1
-3.4,-4.3,-0.26,7.4,56.0,96.32,-68.9,3.1,1.7,1.4,3.6,3.3,75.4,10.0,1
1.8,2.66,12.16,3.56,78.3,106.15,-65.6,-3.6,0.75,-4.25,-11.54,0.84,100.72,13.15,3
1.7,0.7,-18.42,-3.2,81.3,95.34,1.3,6.4,1.1,0.1,0.2,1.0,127.1,5.0,1
-6.22,-3.89,-16.49,-3.65,127.4,97.68,-117.64,-5.58,-0.03,3.4,17.16,-3.92,209.94,12.98,4
-2.1,-12.2,-18.34,-1.8,119.9,78.23,-137.8,-9.9,-1.9,5.7,6.3,-0.5,279.1,15.2,4
1.78,-3.65,12.45,8.12,39.88,106.22,-51.76,5.87,0.3,-3.47,-12.71,2.67,103.06,10.29,3
6.6,0.1,-3.82,10.9,19.0,86.69,28.9,8.8,1.1,-0.2,-1.1,21.4,284.3,4.8,1
-0.2,0.13,-19.09,-1.84,133.28,108.09,-22.68,2.82,1.51,3.03,12.48,-2.2,120.58,10.8,3
0.7,0.03,-15.41,1.09,130.69,103.88,-20.37,2.81,1.72,3.07,12.1,0.11,121.53,11.69,3
-2.4,0.5,-4.48,5.2,44.5,95.34,-45.9,3.8,1.5,1.0,2.9,2.9,70.7,7.0,1
0.33,-0.84,0.03,1.17,17.17,97.64,-73.03,15.34,1.71,2.63,6.3,2.62,130.14,12.12,2
-6.73,-4.55,-22.25,-2.73,145.91,109.59,-117.42,-4.05,0.06,7.42,24.23,-4.52,167.51,16.07,4
-0.1,-4.3,-15.53,-5.1,104.8,100.38,40.8,4.9,0.0,-0.1,-2.1,14.7,191.0,7.7,2
-6.31,-3.86,-16.25,-3.7,126.92,97.99,-117.13,-5.39,-0.04,3.37,17.03,-3.8,209.75,12.92,4
-7.36,1.24,-3.66,-1.93,114.05,121.33,-77.75,1.84,0.34,3.24,13.65,-4.3,102.83,10.64,4
-7.47,-4.9,-25.48,-2.23,157.44,119.38,-115.34,-2.21,0.08,10.22,28.84,-4.51,136.04,18.06,4
-4.67,-1.46,12.7,3.93,37.13,103.63,-66.64,4.3,1.33,0.8,1.76,-0.07,70.95,7.0,4
-4.87,-1.79,12.46,4.46,37.05,104.02,-67.22,5.82,1.55,0.8,1.78,0.15,71.65,7.0,4
1.3,1.2,1.88,9.4,53.5,94.8,-63.5,2.4,1.6,0.1,-3.7,5.0,79.0,13.8,1
-2.26,-8.52,-16.3,-2.32,114.76,85.44,-145.78,-6.93,-1.29,5.41,11.47,-4.22,299.16,14.13,4
-1.46,-1.04,9.26,0.14,42.43,109.5,-49.44,7.14,0.23,0.7,2.4,-1.06,84.59,6.99,2
-2.46,-4.07,-13.85,-2.94,108.56,94.14,-155.41,-3.34,-0.55,5.06,17.71,-8.7,323.37,12.85,4
-3.83,-0.04,13.74,1.67,37.47,101.98,-64.16,-2.2,0.37,0.8,1.64,-1.03,67.95,7.0,4
5.7,2.0,19.55,4.1,70.4,118.37,-18.9,6.1,3.2,-2.5,-7.5,1.3,72.8,6.6,1
4.0,-9.2,-7.55,9.1,42.2,107.3,-1.9,3.1,1.0,-0.1,-4.6,8.4,192.5,7.5,2
-0.3,4.8,20.52,13.0,10.6,93.21,-46.7,14.7,0.5,-3.8,-7.4,5.6,115.4,8.7,1
2.6,-2.6,9.87,3.2,98.6,109.18,-85.5,-0.5,-0.3,-5.2,-14.6,0.6,139.6,19.6,2
-5.8,-4.22,-17.33,-3.45,128.76,96.18,-119.79,-6.3,-0.05,3.56,17.3,-4.2,212.43,13.25,4
-2.4,2.5,3.2,8.9,49.4,117.31,-68.1,11.3,1.5,-3.6,-11.6,2.0,91.0,8.1,1
-2.01,-5.03,-17.31,1.03,86.89,106.61,-83.91,-4.36,1.19,6.28,14.27,-10.22,185.3,21.19,3
2.3,-4.3,2.9,2.4,99.2,104.45,-85.5,-1.2,-0.1,-3.5,-11.1,-0.4,147.4,22.1,2
7.6,-2.3,-2.96,6.7,61.9,104.44,61.4,-0.3,0.3,0.0,-2.4,3.9,259.3,6.8,2
2.0,-4.7,-21.72,0.4,81.9,92.57,-3.2,3.8,0.8,0.0,-1.3,1.2,128.2,4.8,1
-3.19,-1.37,-12.98,-3.42,108.49,99.85,-154.75,-1.69,0.0,4.57,21.46,-10.62,317.76,12.13,4
3.2,1.2,-12.73,-0.1,80.3,98.6,-38.4,0.1,0.6,1.7,4.5,-4.7,97.9,9.6,2
1.41,-2.2,-5.15,2.26,133.65,101.28,-12.1,1.68,1.47,-0.04,-2.34,0.12,112.29,11.26,3
-2.1,-5.3,-17.51,0.7,86.3,106.96,-88.9,-5.0,1.2,6.7,15.2,-11.2,188.5,22.0,3
2.6,4.1,4.61,-2.3,97.6,114.86,-80.2,0.7,-0.6,-5.0,-14.0,0.4,134.4,17.4,2
0.7,-3.1,0.87,-1.4,131.2,100.0,-118.9,0.2,0.0,-0.5,-5.9,-1.4,179.3,14.4,3
2.3,2.3,77.37,5.1,63.5,127.42,-165.0,-2.8,0.8,-3.2,-6.4,-7.8,223.2,7.0,2
-7.49,-3.45,-13.25,-4.27,120.99,101.74,-110.96,-3.07,-0.16,3.01,15.41,-2.38,207.31,12.1,4
-6.15,-3.92,-16.67,-3.62,127.76,97.45,-118.01,-5.72,-0.03,3.42,17.26,-4.0,210.09,13.03,4
-5.52,-2.65,3.99,3.31,63.44,107.67,-78.02,4.84,1.35,2.91,7.79,-0.78,85.15,9.46,4
-3.49,-9.2,-17.96,-2.42,123.23,84.98,-131.03,-8.55,-1.2,4.89,10.44,-1.89,254.02,14.47,4
-3.13,-9.97,-18.06,-2.26,122.37,83.24,-132.78,-8.9,-1.38,5.1,9.37,-1.53,260.5,14.66,4
-0.6,-10.0,-6.24,5.2,42.2,96.29,-36.6,4.0,3.0,0.0,-2.2,1.7,71.5,6.7,1
-1.67,-3.99,-16.53,2.31,89.12,105.26,-64.85,-1.92,1.17,4.7,10.7,-6.47,173.08,18.1,3
-2.09,-5.39,-16.19,1.64,88.5,106.24,-95.7,-5.6,1.12,6.34,14.15,-9.58,205.01,21.35,3
2.45,-1.18,19.55,5.34,64.85,105.42,-60.87,-0.56,0.3,-4.81,-16.26,1.9,99.66,12.41,3
0.4,-7.1,58.59,1.5,73.8,107.17,-171.7,-17.7,0.9,-3.8,-9.9,-15.7,284.4,10.1,2
1.0,-1.7,-13.57,2.7,105.2,100.0,45.2,0.5,0.7,1.0,2.3,12.1,176.1,8.5,1
-2.53,-2.33,-12.88,-3.19,106.13,97.55,-159.19,-1.93,-0.25,4.92,20.16,-10.46,332.88,12.34,4
-1.7,-8.6,7.91,5.6,42.4,92.02,-67.5,-6.5,0.9,3.3,-4.8,-5.4,96.8,16.9,1
-1.0,-5.1,17.73,9.1,54.3,102.29,-61.6,2.5,1.8,-2.2,-9.6,5.1,81.6,7.6,1
2.0,-3.4,-4.02,3.3,134.8,100.19,-11.9,1.5,1.5,-0.2,-2.2,0.1,111.7,12.1,3
-5.6,-5.0,17.63,10.4,70.2,95.07,6.3,11.1,2.7,1.3,1.6,6.8,168.3,6.7,1
5.7,-2.5,23.98,6.5,50.3,109.26,64.0,1.5,4.4,-0.9,-1.1,5.5,132.1,4.7,1
2.0,1.3,-9.15,-0.1,84.9,100.0,2.2,6.4,0.4,0.5,1.2,2.1,124.0,5.6,1
-0.77,-1.06,-15.54,4.18,101.35,103.11,-16.92,4.14,1.15,0.99,3.32,2.15,138.02,10.15,3
0.9,-0.4,-5.01,2.4,104.9,101.19,54.5,-0.9,0.1,0.1,-3.6,23.8,194.9,8.3,1
-1.03,-4.46,-10.48,-0.1,103.48,104.3,-100.38,-3.01,0.74,3.94,7.12,-7.45,184.98,19.09,3
-4.3,3.4,-2.78,0.6,43.5,99.71,-63.9,5.4,-0.1,2.6,14.4,2.9,69.5,13.3,1
-3.2,1.9,11.12,4.3,15.2,102.38,-82.8,17.9,-1.9,3.4,12.3,3.5,129.1,9.5,2
0.71,-2.68,-0.01,-0.95,125.02,100.0,-113.56,-0.63,0.4,-0.43,-5.1,-1.43,170.41,14.73,3
0.6,4.9,8.63,-3.0,37.2,120.83,-49.1,15.1,2.0,-1.4,-4.1,-0.2,70.5,8.6,1
0.9,-0.8,14.27,1.4,126.1,114.08,-110.4,2.8,1.5,-3.9,-10.9,2.3,162.4,10.9,2
-2.6,-0.5,7.39,4.3,39.8,98.89,-45.2,3.4,0.8,0.5,8.2,2.1,68.3,6.9,1
0.5,-0.6,-13.33,2.5,107.0,99.19,44.8,4.3,1.0,0.8,4.5,-2.0,162.2,8.2,2
-2.8,-0.7,24.04,3.3,34.7,109.99,-43.7,29.6,1.7,-1.2,-5.5,1.9,47.4,5.0,1
-3.92,-0.1,9.76,0.49,50.81,103.38,-68.91,-4.44,0.01,1.86,4.63,-1.76,73.93,8.23,4
-8.9,0.79,-9.36,-1.67,136.29,127.96,-83.18,6.8,0.89,3.96,17.23,-4.7,114.8,11.7,4
-7.22,-3.55,-13.94,-4.14,122.36,100.87,-112.39,-3.61,-0.14,3.09,15.78,-2.71,207.87,12.29,4
1.98,0.03,16.62,6.75,53.43,108.3,-53.22,2.91,-0.18,-4.97,-15.13,2.63,98.92,10.2,3
0.19,-2.5,-14.46,-1.4,105.87,99.8,42.75,4.61,0.49,0.34,1.11,6.57,176.98,7.94,2
5.7,-3.55,-14.56,1.78,45.86,91.96,29.44,2.85,-1.5,1.34,5.99,5.09,221.59,7.4,2
-8.3,0.37,-6.05,-0.68,121.14,124.35,-80.8,6.8,1.01,3.48,14.88,-3.93,108.28,10.99,4
-0.6,0.1,-20.41,-2.7,132.5,109.54,-23.3,2.9,1.4,2.9,12.1,-2.9,121.2,10.4,3
-4.66,-1.44,12.71,3.9,37.13,103.62,-66.62,4.23,1.32,0.8,1.76,-0.08,70.91,7.0,4
2.2,-3.1,0.83,4.2,134.1,98.04,-7.7,1.2,1.5,-1.2,-8.0,1.3,108.8,11.6,3
1.9,-0.8,24.41,-0.2,6.1,74.59,-54.0,-2.2,0.5,5.4,10.4,-0.8,118.9,14.2,1
-9.45,1.19,-12.47,-2.6,150.56,131.37,-85.42,6.8,0.78,4.41,19.45,-5.42,120.94,12.38,4
-0.8,-1.32,-14.43,5.57,94.91,101.76,-15.57,4.38,1.1,0.6,1.49,3.21,141.51,10.1,3
-2.8,6.0,-21.25,-3.6,83.2,88.06,-28.1,3.0,0.4,0.8,2.1,1.5,176.1,7.9,2
7.0,-2.4,-8.35,10.3,61.7,114.09,20.1,5.3,0.3,0.4,1.4,8.2,247.2,4.8,1
2.1,-6.8,-16.82,8.7,76.8,88.33,-80.4,6.2,4.6,-1.5,-5.6,-0.2,91.7,9.6,2
7.7,-1.2,-15.87,7.3,44.3,93.85,43.3,2.3,-1.2,-0.1,-2.2,-0.3,214.0,7.4,1
-0.9,-1.1,-5.63,-1.2,46.5,123.79,-39.8,7.7,-1.5,1.7,5.3,0.5,112.9,7.1,2
-1.9,-1.0,21.09,1.2,39.2,98.15,-57.1,6.7,1.6,-0.1,0.1,-2.3,62.1,6.9,2
-0.7,-4.4,-15.44,6.9,87.8,108.38,-8.7,5.4,0.4,1.0,3.7,6.4,135.3,9.2,2
-2.0,2.5,13.52,13.2,37.3,100.0,-64.1,17.2,1.3,-3.3,-12.2,-0.5,80.4,10.9,1
1.27,-4.55,10.86,9.38,28.04,104.06,-53.19,10.85,1.02,-2.25,-9.41,0.53,106.33,10.09,3
5.6,10.3,-19.51,5.6,37.6,78.78,-15.5,4.1,1.4,0.4,-1.4,2.4,190.5,8.1,2
-7.51,-3.44,-13.19,-4.28,120.87,101.82,-110.84,-3.03,-0.17,3.0,15.37,-2.35,207.26,12.09,4
-2.1,-6.2,-25.74,7.2,126.5,118.47,-23.0,2.0,1.2,2.2,10.0,-0.9,124.2,9.2,2
-6.92,-4.4,-18.61,-0.73,135.28,116.93,-106.32,-0.49,0.42,8.66,24.08,-3.71,120.6,16.14,4
1.3,-1.0,-11.49,0.0,100.7,96.46,-95.9,-3.6,0.3,4.0,7.0,-6.6,168.1,25.1,2
5.4,0.5,16.34,37.8,22.7,94.98,59.3,7.1,2.9,0.2,5.8,28.7,324.9,5.6,1
2.1,-2.4,26.53,-6.2,43.9,92.26,-74.7,-20.6,-1.4,6.9,17.4,-2.4,115.2,17.7,1
2.36,4.09,22.2,4.44,74.95,109.59,-58.43,-2.2,-0.51,-6.62,-18.11,2.2,94.46,11.05,3
0.85,-4.31,11.4,8.97,27.43,100.69,-60.88,13.75,2.01,-1.01,-5.8,-3.46,109.45,11.04,3
-2.6,-0.91,-12.1,-3.39,104.15,100.33,-162.27,-0.79,-0.02,4.81,22.15,-11.89,340.62,11.93,4
-0.7,-8.3,-32.36,-1.3,53.6,103.4,10.6,5.8,0.2,0.2,-2.5,7.1,147.7,8.0,2
8.4,-1.8,1.52,-0.1,56.9,110.77,59.4,-0.1,0.7,-1.0,-3.8,3.7,249.1,5.9,2
-0.7,-2.6,24.74,7.0,37.3,105.17,-49.1,9.5,0.7,-0.2,-3.1,0.6,53.7,6.5,1
-3.3,3.4,-11.62,-7.7,84.2,88.71,-17.8,3.9,1.0,0.2,0.8,6.6,170.2,7.8,2
-3.67,-1.18,-11.67,-3.66,105.8,101.47,-152.39,-0.67,-0.05,4.42,20.79,-10.06,317.56,11.78,4
-1.48,2.48,11.83,5.03,17.26,106.71,-69.43,18.02,-0.71,1.66,6.14,3.62,119.19,8.57,2
6.1,-2.4,-5.55,15.1,22.0,88.54,58.4,5.9,0.7,0.4,1.6,25.9,303.7,4.8,1
2.2,4.8,3.92,1.7,74.0,113.27,3.7,4.7,1.3,-0.3,-1.2,3.9,121.0,5.5,1
0.3,-0.9,-0.15,1.1,17.1,97.38,-73.5,15.3,1.7,2.7,6.5,2.6,130.6,12.2,2
-7.45,-4.86,-11.62,-4.27,115.51,100.33,-110.9,-2.4,-0.62,3.23,12.13,-0.74,219.63,12.01,4
7.9,-2.1,1.07,4.7,35.8,108.5,55.4,1.6,1.3,-0.5,-1.8,1.4,202.7,6.0,1
2.8,0.1,23.24,3.9,77.8,105.0,-65.6,-3.9,0.3,-5.5,-18.1,1.5,97.9,13.5,3
-2.66,-3.23,-19.13,5.14,118.99,124.35,-17.99,4.91,-0.77,1.29,7.9,3.17,122.1,8.22,2
-5.88,-3.98,-17.27,-3.5,128.87,96.69,-119.53,-6.17,0.0,3.51,17.63,-4.34,211.3,13.19,4
1.13,0.95,0.18,2.52,82.31,102.04,-74.15,-5.27,2.25,-1.41,-3.7,-0.79,108.19,15.66,3
2.7,3.9,13.57,6.8,22.3,117.28,-36.8,18.3,2.2,-2.6,-8.9,3.9,95.0,6.3,2
-1.7,2.7,-27.3,9.4,59.8,100.46,-3.1,7.6,0.5,0.2,0.4,1.7,148.8,8.2,2
-1.1,-4.0,-9.78,-10.2,178.5,98.32,-137.6,-3.3,0.7,-1.5,-11.0,-2.1,125.1,25.0,4
-0.8,-1.2,-0.62,0.0,68.4,94.11,27.0,9.5,5.9,-0.6,-0.5,2.3,152.9,6.2,1
0.83,-4.62,-3.17,5.14,39.42,109.37,-46.28,5.06,-0.41,-0.65,-3.62,0.59,107.71,8.86,3
5.0,-1.0,21.39,0.4,22.3,109.59,51.8,4.0,-0.6,0.5,-7.2,27.4,322.9,6.2,1
-8.73,-3.02,-10.09,-4.87,114.73,105.7,-104.45,-0.63,-0.29,2.62,13.69,-0.88,204.74,11.25,4
0.9,0.2,-15.53,0.5,135.4,104.16,-21.0,2.6,1.8,3.4,13.5,-0.3,118.9,11.9,3
0.7,-3.7,2.44,16.3,36.8,106.62,-26.9,2.7,2.1,-1.3,-8.5,4.3,68.7,5.1,1
-4.12,-9.42,-15.8,-2.74,118.24,86.58,-127.63,-7.06,-1.42,4.76,8.5,-0.59,256.62,13.99,4
1.2,1.7,19.36,16.7,40.6,95.53,-46.8,8.7,2.3,-3.2,-13.3,0.2,54.2,12.0,1
-0.8,-1.3,-14.53,5.6,94.9,101.78,-15.6,4.4,1.1,0.6,1.5,3.2,141.5,10.1,3
1.57,-1.78,10.08,0.78,109.2,102.06,-96.95,-1.49,0.12,-2.56,-10.93,-0.21,145.77,14.03,3
2.7,-5.2,-2.11,19.5,75.5,113.12,-59.6,5.4,5.4,-2.5,-13.7,-3.1,77.5,6.5,1
1.9,-3.8,-22.85,-1.3,77.4,85.69,-82.2,7.5,2.8,-0.6,0.2,-0.8,95.8,10.7,2
0.4,-1.5,-7.75,5.4,103.5,100.17,51.4,5.1,-0.4,0.2,0.7,22.2,180.5,7.8,2
1.37,-4.61,10.23,9.34,28.6,105.16,-50.87,9.86,0.71,-2.54,-10.2,1.61,105.53,9.78,3
-0.74,-1.8,-11.17,4.55,95.12,101.23,-14.76,3.75,1.04,0.54,1.13,3.63,141.9,10.16,3
8.5,4.9,24.47,2.3,45.6,114.74,63.2,4.1,5.9,-0.9,-2.5,7.5,129.0,4.1,1
-2.99,-6.35,13.11,1.01,97.11,102.41,-133.1,-5.68,-0.21,-1.69,-7.43,6.16,314.32,13.64,3
8.1,-2.1,2.13,5.2,69.2,106.77,51.4,4.9,0.3,-0.6,-0.7,3.7,98.2,4.6,2
1.4,-4.63,10.07,9.33,28.74,105.45,-50.24,9.6,0.62,-2.61,-10.41,1.9,105.31,9.7,3
-1.59,1.91,-25.99,9.12,62.9,101.34,-3.72,7.36,0.49,0.29,0.77,2.22,147.3,8.31,2
-2.01,-6.09,-6.26,8.72,104.99,100.83,-146.72,-10.11,0.49,3.61,6.3,2.55,328.91,16.45,3
2.4,-1.8,-12.5,1.5,82.4,88.31,-1.9,5.8,0.7,0.2,0.4,3.0,129.4,4.9,1
-4.63,-6.73,-17.65,-2.93,125.97,90.53,-125.46,-7.43,-0.63,4.23,13.84,-3.03,233.41,13.87,4
0.2,-6.3,71.33,4.3,67.7,117.61,-167.2,-15.4,0.9,-3.6,-9.0,0.2,250.5,8.4,2
6.4,-9.0,-16.75,3.2,81.1,92.35,28.7,2.5,0.9,-1.1,-3.2,1.4,101.9,6.1,1
-4.5,-0.91,3.81,0.06,68.79,106.13,-76.67,-4.09,0.03,3.31,8.76,-2.24,83.62,9.91,4
-2.7,-3.2,-19.21,5.1,119.7,124.71,-18.2,4.9,-0.8,1.3,8.0,3.1,121.8,8.2,2
