s_adj,bop_item,sector10,sectpart,stk_flow,partner,unit,geo,date,value
NSA,FA,S1,S1,N_LE,WRL_REST,MIO_NAC,AT,1995-01-01,
NSA,FA,S1,S1,N_LE,WRL_REST,MIO_NAC,AT,1996-01-01,
NSA,FA,S1,S1,N_LE,WRL_REST,MIO_NAC,AT,1997-01-01,
NSA,FA,S1,S1,N_LE,WRL_REST,MIO_NAC,AT,1998-01-01,
NSA,FA,S1,S1,N_LE,WRL_REST,MIO_NAC,AT,1999-01-01,-34090.0
NSA,FA,S1,S1,N_LE,WRL_REST,MIO_NAC,AT,2000-01-01,-34597.0
NSA,FA,S1,S1,N_LE,WRL_REST,MIO_NAC,AT,2001-01-01,-46010.0
NSA,FA,S1,S1,N_LE,WRL_REST,MIO_NAC,AT,2002-01-01,-46594.0
NSA,FA,S1,S1,N_LE,WRL_REST,MIO_NAC,AT,2003-01-01,-29563.0
NSA,FA,S1,S1,N_LE,WRL_REST,MIO_NAC,AT,2004-01-01,-31621.0
NSA,FA,S1,S1,N_LE,WRL_REST,MIO_NAC,AT,2005-01-01,-39287.0
NSA,FA,S1,S1,N_LE,WRL_REST,MIO_NAC,AT,2006-01-01,-34494.0
NSA,FA,S1,S1,N_LE,WRL_REST,MIO_NAC,AT,2007-01-01,-27606.0
NSA,FA,S1,S1,N_LE,WRL_REST,MIO_NAC,AT,2008-01-01,-29364.0
NSA,FA,S1,S1,N_LE,WRL_REST,MIO_NAC,AT,2009-01-01,-14497.0
NSA,FA,S1,S1,N_LE,WRL_REST,MIO_NAC,AT,2010-01-01,-15288.0
NSA,FA,S1,S1,N_LE,WRL_REST,MIO_NAC,AT,2011-01-01,-5936.0
NSA,FA,S1,S1,N_LE,WRL_REST,MIO_NAC,AT,2012-01-01,-10154.0
NSA,FA,S1,S1,N_LE,WRL_REST,MIO_NAC,AT,2013-01-01,4189.0
NSA,FA,S1,S1,N_LE,WRL_REST,MIO_NAC,AT,2014-01-01,11285.0
NSA,FA,S1,S1,N_LE,WRL_REST,MIO_NAC,AT,2015-01-01,7610.0
NSA,FA,S1,S1,N_LE,WRL_REST,MIO_NAC,AT,2016-01-01,14634.0
NSA,FA,S1,S1,N_LE,WRL_REST,MIO_NAC,AT,2017-01-01,10502.0
NSA,FA,S1,S1,N_LE,WRL_REST,MIO_NAC,AT,2018-01-01,14249.0
NSA,FA,S1,S1,N_LE,WRL_REST,MIO_NAC,AT,2019-01-01,38426.0
NSA,FA,S1,S1,N_LE,WRL_REST,MIO_NAC,BE,1995-01-01,
NSA,FA,S1,S1,N_LE,WRL_REST,MIO_NAC,BE,1996-01-01,
NSA,FA,S1,S1,N_LE,WRL_REST,MIO_NAC,BE,1997-01-01,
NSA,FA,S1,S1,N_LE,WRL_REST,MIO_NAC,BE,1998-01-01,
NSA,FA,S1,S1,N_LE,WRL_REST,MIO_NAC,BE,1999-01-01,
NSA,FA,S1,S1,N_LE,WRL_REST,MIO_NAC,BE,2000-01-01,
NSA,FA,S1,S1,N_LE,WRL_REST,MIO_NAC,BE,2001-01-01,
NSA,FA,S1,S1,N_LE,WRL_REST,MIO_NAC,BE,2002-01-01,
NSA,FA,S1,S1,N_LE,WRL_REST,MIO_NAC,BE,2003-01-01,
NSA,FA,S1,S1,N_LE,WRL_REST,MIO_NAC,BE,2004-01-01,
NSA,FA,S1,S1,N_LE,WRL_REST,MIO_NAC,BE,2005-01-01,119694.2
NSA,FA,S1,S1,N_LE,WRL_REST,MIO_NAC,BE,2006-01-01,112221.9
NSA,FA,S1,S1,N_LE,WRL_REST,MIO_NAC,BE,2007-01-01,115871.3
NSA,FA,S1,S1,N_LE,WRL_REST,MIO_NAC,BE,2008-01-01,150754.0
NSA,FA,S1,S1,N_LE,WRL_REST,MIO_NAC,BE,2009-01-01,201523.0
NSA,FA,S1,S1,N_LE,WRL_REST,MIO_NAC,BE,2010-01-01,204267.0
NSA,FA,S1,S1,N_LE,WRL_REST,MIO_NAC,BE,2011-01-01,193191.0
NSA,FA,S1,S1,N_LE,WRL_REST,MIO_NAC,BE,2012-01-01,157657.0
NSA,FA,S1,S1,N_LE,WRL_REST,MIO_NAC,BE,2013-01-01,169583.0
NSA,FA,S1,S1,N_LE,WRL_REST,MIO_NAC,BE,2014-01-01,180562.0
NSA,FA,S1,S1,N_LE,WRL_REST,MIO_NAC,BE,2015-01-01,188511.0
NSA,FA,S1,S1,N_LE,WRL_REST,MIO_NAC,BE,2016-01-01,234552.0
NSA,FA,S1,S1,N_LE,WRL_REST,MIO_NAC,BE,2017-01-01,253250.0
NSA,FA,S1,S1,N_LE,WRL_REST,MIO_NAC,BE,2018-01-01,175052.0
NSA,FA,S1,S1,N_LE,WRL_REST,MIO_NAC,BE,2019-01-01,223505.0
NSA,FA,S1,S1,N_LE,WRL_REST,MIO_NAC,BG,1995-01-01,
NSA,FA,S1,S1,N_LE,WRL_REST,MIO_NAC,BG,1996-01-01,
NSA,FA,S1,S1,N_LE,WRL_REST,MIO_NAC,BG,1997-01-01,
NSA,FA,S1,S1,N_LE,WRL_REST,MIO_NAC,BG,1998-01-01,
NSA,FA,S1,S1,N_LE,WRL_REST,MIO_NAC,BG,1999-01-01,-9448.7
NSA,FA,S1,S1,N_LE,WRL_REST,MIO_NAC,BG,2000-01-01,-9190.8
NSA,FA,S1,S1,N_LE,WRL_REST,MIO_NAC,BG,2001-01-01,-8212.2
NSA,FA,S1,S1,N_LE,WRL_REST,MIO_NAC,BG,2002-01-01,-8405.5
NSA,FA,S1,S1,N_LE,WRL_REST,MIO_NAC,BG,2003-01-01,-9421.3
NSA,FA,S1,S1,N_LE,WRL_REST,MIO_NAC,BG,2004-01-01,-12008.0
NSA,FA,S1,S1,N_LE,WRL_REST,MIO_NAC,BG,2005-01-01,-20084.9
NSA,FA,S1,S1,N_LE,WRL_REST,MIO_NAC,BG,2006-01-01,-30045.1
NSA,FA,S1,S1,N_LE,WRL_REST,MIO_NAC,BG,2007-01-01,-48861.2
NSA,FA,S1,S1,N_LE,WRL_REST,MIO_NAC,BG,2008-01-01,-68316.5
NSA,FA,S1,S1,N_LE,WRL_REST,MIO_NAC,BG,2009-01-01,-70984.7
NSA,FA,S1,S1,N_LE,WRL_REST,MIO_NAC,BG,2010-01-01,-68751.4
NSA,FA,S1,S1,N_LE,WRL_REST,MIO_NAC,BG,2011-01-01,-66836.9
NSA,FA,S1,S1,N_LE,WRL_REST,MIO_NAC,BG,2012-01-01,-63898.6
NSA,FA,S1,S1,N_LE,WRL_REST,MIO_NAC,BG,2013-01-01,-60244.7
NSA,FA,S1,S1,N_LE,WRL_REST,MIO_NAC,BG,2014-01-01,-60544.8
NSA,FA,S1,S1,N_LE,WRL_REST,MIO_NAC,BG,2015-01-01,-55822.8
NSA,FA,S1,S1,N_LE,WRL_REST,MIO_NAC,BG,2016-01-01,-46281.6
NSA,FA,S1,S1,N_LE,WRL_REST,MIO_NAC,BG,2017-01-01,-45176.7
NSA,FA,S1,S1,N_LE,WRL_REST,MIO_NAC,BG,2018-01-01,-40411.8
NSA,FA,S1,S1,N_LE,WRL_REST,MIO_NAC,BG,2019-01-01,-37537.9
NSA,FA,S1,S1,N_LE,WRL_REST,MIO_NAC,CY,1995-01-01,
NSA,FA,S1,S1,N_LE,WRL_REST,MIO_NAC,CY,1996-01-01,
NSA,FA,S1,S1,N_LE,WRL_REST,MIO_NAC,CY,1997-01-01,
NSA,FA,S1,S1,N_LE,WRL_REST,MIO_NAC,CY,1998-01-01,
NSA,FA,S1,S1,N_LE,WRL_REST,MIO_NAC,CY,1999-01-01,
NSA,FA,S1,S1,N_LE,WRL_REST,MIO_NAC,CY,2000-01-01,
NSA,FA,S1,S1,N_LE,WRL_REST,MIO_NAC,CY,2001-01-01,
NSA,FA,S1,S1,N_LE,WRL_REST,MIO_NAC,CY,2002-01-01,
NSA,FA,S1,S1,N_LE,WRL_REST,MIO_NAC,CY,2003-01-01,
NSA,FA,S1,S1,N_LE,WRL_REST,MIO_NAC,CY,2004-01-01,
NSA,FA,S1,S1,N_LE,WRL_REST,MIO_NAC,CY,2005-01-01,
NSA,FA,S1,S1,N_LE,WRL_REST,MIO_NAC,CY,2006-01-01,
NSA,FA,S1,S1,N_LE,WRL_REST,MIO_NAC,CY,2007-01-01,
NSA,FA,S1,S1,N_LE,WRL_REST,MIO_NAC,CY,2008-01-01,-18415.0
NSA,FA,S1,S1,N_LE,WRL_REST,MIO_NAC,CY,2009-01-01,-21663.0
NSA,FA,S1,S1,N_LE,WRL_REST,MIO_NAC,CY,2010-01-01,-23725.0
NSA,FA,S1,S1,N_LE,WRL_REST,MIO_NAC,CY,2011-01-01,-28097.0
NSA,FA,S1,S1,N_LE,WRL_REST,MIO_NAC,CY,2012-01-01,-27422.0
NSA,FA,S1,S1,N_LE,WRL_REST,MIO_NAC,CY,2013-01-01,-29242.0
NSA,FA,S1,S1,N_LE,WRL_REST,MIO_NAC,CY,2014-01-01,-28521.0
NSA,FA,S1,S1,N_LE,WRL_REST,MIO_NAC,CY,2015-01-01,-27544.0
NSA,FA,S1,S1,N_LE,WRL_REST,MIO_NAC,CY,2016-01-01,-25333.0
NSA,FA,S1,S1,N_LE,WRL_REST,MIO_NAC,CY,2017-01-01,-25359.0
NSA,FA,S1,S1,N_LE,WRL_REST,MIO_NAC,CY,2018-01-01,-25631.0
NSA,FA,S1,S1,N_LE,WRL_REST,MIO_NAC,CY,2019-01-01,-25460.0
NSA,FA,S1,S1,N_LE,WRL_REST,MIO_NAC,CZ,1995-01-01,58902.0
NSA,FA,S1,S1,N_LE,WRL_REST,MIO_NAC,CZ,1996-01-01,-68930.0
NSA,FA,S1,S1,N_LE,WRL_REST,MIO_NAC,CZ,1997-01-01,-106837.0
NSA,FA,S1,S1,N_LE,WRL_REST,MIO_NAC,CZ,1998-01-01,-117477.0
NSA,FA,S1,S1,N_LE,WRL_REST,MIO_NAC,CZ,1999-01-01,-110938.0
NSA,FA,S1,S1,N_LE,WRL_REST,MIO_NAC,CZ,2000-01-01,-191869.0
NSA,FA,S1,S1,N_LE,WRL_REST,MIO_NAC,CZ,2001-01-01,-244068.0
NSA,FA,S1,S1,N_LE,WRL_REST,MIO_NAC,CZ,2002-01-01,-397255.0
NSA,FA,S1,S1,N_LE,WRL_REST,MIO_NAC,CZ,2003-01-01,-527484.0
NSA,FA,S1,S1,N_LE,WRL_REST,MIO_NAC,CZ,2004-01-01,-734057.0
NSA,FA,S1,S1,N_LE,WRL_REST,MIO_NAC,CZ,2005-01-01,-753809.0
NSA,FA,S1,S1,N_LE,WRL_REST,MIO_NAC,CZ,2006-01-01,-988554.0
NSA,FA,S1,S1,N_LE,WRL_REST,MIO_NAC,CZ,2007-01-01,-1398170.0
NSA,FA,S1,S1,N_LE,WRL_REST,MIO_NAC,CZ,2008-01-01,-1533853.0
NSA,FA,S1,S1,N_LE,WRL_REST,MIO_NAC,CZ,2009-01-01,-1725525.0
NSA,FA,S1,S1,N_LE,WRL_REST,MIO_NAC,CZ,2010-01-01,-1822768.0
NSA,FA,S1,S1,N_LE,WRL_REST,MIO_NAC,CZ,2011-01-01,-1822751.0
NSA,FA,S1,S1,N_LE,WRL_REST,MIO_NAC,CZ,2012-01-01,-1864093.0
NSA,FA,S1,S1,N_LE,WRL_REST,MIO_NAC,CZ,2013-01-01,-1695149.0
NSA,FA,S1,S1,N_LE,WRL_REST,MIO_NAC,CZ,2014-01-01,-1577079.0
NSA,FA,S1,S1,N_LE,WRL_REST,MIO_NAC,CZ,2015-01-01,-1512936.0
NSA,FA,S1,S1,N_LE,WRL_REST,MIO_NAC,CZ,2016-01-01,-1283097.0
NSA,FA,S1,S1,N_LE,WRL_REST,MIO_NAC,CZ,2017-01-01,-1263684.0
NSA,FA,S1,S1,N_LE,WRL_REST,MIO_NAC,CZ,2018-01-01,-1318288.0
NSA,FA,S1,S1,N_LE,WRL_REST,MIO_NAC,CZ,2019-01-01,-1168363.0
NSA,FA,S1,S1,N_LE,WRL_REST,MIO_NAC,DE,1995-01-01,
NSA,FA,S1,S1,N_LE,WRL_REST,MIO_NAC,DE,1996-01-01,
NSA,FA,S1,S1,N_LE,WRL_REST,MIO_NAC,DE,1997-01-01,
NSA,FA,S1,S1,N_LE,WRL_REST,MIO_NAC,DE,1998-01-01,
NSA,FA,S1,S1,N_LE,WRL_REST,MIO_NAC,DE,1999-01-01,63732.0
NSA,FA,S1,S1,N_LE,WRL_REST,MIO_NAC,DE,2000-01-01,33991.0
NSA,FA,S1,S1,N_LE,WRL_REST,MIO_NAC,DE,2001-01-01,142219.0
NSA,FA,S1,S1,N_LE,WRL_REST,MIO_NAC,DE,2002-01-01,-72.0
NSA,FA,S1,S1,N_LE,WRL_REST,MIO_NAC,DE,2003-01-01,16698.0
NSA,FA,S1,S1,N_LE,WRL_REST,MIO_NAC,DE,2004-01-01,101988.0
NSA,FA,S1,S1,N_LE,WRL_REST,MIO_NAC,DE,2005-01-01,305745.0
NSA,FA,S1,S1,N_LE,WRL_REST,MIO_NAC,DE,2006-01-01,471717.0
NSA,FA,S1,S1,N_LE,WRL_REST,MIO_NAC,DE,2007-01-01,470902.0
NSA,FA,S1,S1,N_LE,WRL_REST,MIO_NAC,DE,2008-01-01,464769.0
NSA,FA,S1,S1,N_LE,WRL_REST,MIO_NAC,DE,2009-01-01,614308.0
NSA,FA,S1,S1,N_LE,WRL_REST,MIO_NAC,DE,2010-01-01,661713.0
NSA,FA,S1,S1,N_LE,WRL_REST,MIO_NAC,DE,2011-01-01,627095.0
NSA,FA,S1,S1,N_LE,WRL_REST,MIO_NAC,DE,2012-01-01,787230.0
NSA,FA,S1,S1,N_LE,WRL_REST,MIO_NAC,DE,2013-01-01,974703.0
NSA,FA,S1,S1,N_LE,WRL_REST,MIO_NAC,DE,2014-01-01,1193735.0
NSA,FA,S1,S1,N_LE,WRL_REST,MIO_NAC,DE,2015-01-01,1409999.0
NSA,FA,S1,S1,N_LE,WRL_REST,MIO_NAC,DE,2016-01-01,1609717.0
NSA,FA,S1,S1,N_LE,WRL_REST,MIO_NAC,DE,2017-01-01,1827009.0
NSA,FA,S1,S1,N_LE,WRL_REST,MIO_NAC,DE,2018-01-01,2091362.0
NSA,FA,S1,S1,N_LE,WRL_REST,MIO_NAC,DE,2019-01-01,2445926.0
NSA,FA,S1,S1,N_LE,WRL_REST,MIO_NAC,DK,1995-01-01,
NSA,FA,S1,S1,N_LE,WRL_REST,MIO_NAC,DK,1996-01-01,
NSA,FA,S1,S1,N_LE,WRL_REST,MIO_NAC,DK,1997-01-01,
NSA,FA,S1,S1,N_LE,WRL_REST,MIO_NAC,DK,1998-01-01,
NSA,FA,S1,S1,N_LE,WRL_REST,MIO_NAC,DK,1999-01-01,
NSA,FA,S1,S1,N_LE,WRL_REST,MIO_NAC,DK,2000-01-01,
NSA,FA,S1,S1,N_LE,WRL_REST,MIO_NAC,DK,2001-01-01,
NSA,FA,S1,S1,N_LE,WRL_REST,MIO_NAC,DK,2002-01-01,
NSA,FA,S1,S1,N_LE,WRL_REST,MIO_NAC,DK,2003-01-01,
NSA,FA,S1,S1,N_LE,WRL_REST,MIO_NAC,DK,2004-01-01,
NSA,FA,S1,S1,N_LE,WRL_REST,MIO_NAC,DK,2005-01-01,59957.0
NSA,FA,S1,S1,N_LE,WRL_REST,MIO_NAC,DK,2006-01-01,-4833.0
NSA,FA,S1,S1,N_LE,WRL_REST,MIO_NAC,DK,2007-01-01,-100406.0
NSA,FA,S1,S1,N_LE,WRL_REST,MIO_NAC,DK,2008-01-01,-91925.0
NSA,FA,S1,S1,N_LE,WRL_REST,MIO_NAC,DK,2009-01-01,14648.0
NSA,FA,S1,S1,N_LE,WRL_REST,MIO_NAC,DK,2010-01-01,232256.0
NSA,FA,S1,S1,N_LE,WRL_REST,MIO_NAC,DK,2011-01-01,512523.0
NSA,FA,S1,S1,N_LE,WRL_REST,MIO_NAC,DK,2012-01-01,684239.0
NSA,FA,S1,S1,N_LE,WRL_REST,MIO_NAC,DK,2013-01-01,718686.0
NSA,FA,S1,S1,N_LE,WRL_REST,MIO_NAC,DK,2014-01-01,858461.0
NSA,FA,S1,S1,N_LE,WRL_REST,MIO_NAC,DK,2015-01-01,680457.0
NSA,FA,S1,S1,N_LE,WRL_REST,MIO_NAC,DK,2016-01-01,1107837.0
NSA,FA,S1,S1,N_LE,WRL_REST,MIO_NAC,DK,2017-01-01,1205933.0
NSA,FA,S1,S1,N_LE,WRL_REST,MIO_NAC,DK,2018-01-01,1446448.0
NSA,FA,S1,S1,N_LE,WRL_REST,MIO_NAC,DK,2019-01-01,1813677.0
NSA,FA,S1,S1,N_LE,WRL_REST,MIO_NAC,EE,1995-01-01,
NSA,FA,S1,S1,N_LE,WRL_REST,MIO_NAC,EE,1996-01-01,-501.6
NSA,FA,S1,S1,N_LE,WRL_REST,MIO_NAC,EE,1997-01-01,-1568.6
NSA,FA,S1,S1,N_LE,WRL_REST,MIO_NAC,EE,1998-01-01,-1843.7
NSA,FA,S1,S1,N_LE,WRL_REST,MIO_NAC,EE,1999-01-01,-2768.9
NSA,FA,S1,S1,N_LE,WRL_REST,MIO_NAC,EE,2000-01-01,-2966.4
NSA,FA,S1,S1,N_LE,WRL_REST,MIO_NAC,EE,2001-01-01,-3368.6
NSA,FA,S1,S1,N_LE,WRL_REST,MIO_NAC,EE,2002-01-01,-4167.8
NSA,FA,S1,S1,N_LE,WRL_REST,MIO_NAC,EE,2003-01-01,-5738.4
NSA,FA,S1,S1,N_LE,WRL_REST,MIO_NAC,EE,2004-01-01,-8381.3
NSA,FA,S1,S1,N_LE,WRL_REST,MIO_NAC,EE,2005-01-01,-9533.3
NSA,FA,S1,S1,N_LE,WRL_REST,MIO_NAC,EE,2006-01-01,-9911.3
NSA,FA,S1,S1,N_LE,WRL_REST,MIO_NAC,EE,2007-01-01,-11579.2
NSA,FA,S1,S1,N_LE,WRL_REST,MIO_NAC,EE,2008-01-01,-12456.7
NSA,FA,S1,S1,N_LE,WRL_REST,MIO_NAC,EE,2009-01-01,-11116.4
NSA,FA,S1,S1,N_LE,WRL_REST,MIO_NAC,EE,2010-01-01,-10318.3
NSA,FA,S1,S1,N_LE,WRL_REST,MIO_NAC,EE,2011-01-01,-9079.6
NSA,FA,S1,S1,N_LE,WRL_REST,MIO_NAC,EE,2012-01-01,-9157.1
NSA,FA,S1,S1,N_LE,WRL_REST,MIO_NAC,EE,2013-01-01,-9463.0
NSA,FA,S1,S1,N_LE,WRL_REST,MIO_NAC,EE,2014-01-01,-9424.3
NSA,FA,S1,S1,N_LE,WRL_REST,MIO_NAC,EE,2015-01-01,-8300.2
NSA,FA,S1,S1,N_LE,WRL_REST,MIO_NAC,EE,2016-01-01,-8505.0
NSA,FA,S1,S1,N_LE,WRL_REST,MIO_NAC,EE,2017-01-01,-7720.1
NSA,FA,S1,S1,N_LE,WRL_REST,MIO_NAC,EE,2018-01-01,-7219.2
NSA,FA,S1,S1,N_LE,WRL_REST,MIO_NAC,EE,2019-01-01,-5536.7
NSA,FA,S1,S1,N_LE,WRL_REST,MIO_NAC,EL,1995-01-01,
NSA,FA,S1,S1,N_LE,WRL_REST,MIO_NAC,EL,1996-01-01,
NSA,FA,S1,S1,N_LE,WRL_REST,MIO_NAC,EL,1997-01-01,
NSA,FA,S1,S1,N_LE,WRL_REST,MIO_NAC,EL,1998-01-01,
NSA,FA,S1,S1,N_LE,WRL_REST,MIO_NAC,EL,1999-01-01,
NSA,FA,S1,S1,N_LE,WRL_REST,MIO_NAC,EL,2000-01-01,
NSA,FA,S1,S1,N_LE,WRL_REST,MIO_NAC,EL,2001-01-01,
NSA,FA,S1,S1,N_LE,WRL_REST,MIO_NAC,EL,2002-01-01,
NSA,FA,S1,S1,N_LE,WRL_REST,MIO_NAC,EL,2003-01-01,-106621.0
NSA,FA,S1,S1,N_LE,WRL_REST,MIO_NAC,EL,2004-01-01,-129680.0
NSA,FA,S1,S1,N_LE,WRL_REST,MIO_NAC,EL,2005-01-01,-150675.0
NSA,FA,S1,S1,N_LE,WRL_REST,MIO_NAC,EL,2006-01-01,-180033.0
NSA,FA,S1,S1,N_LE,WRL_REST,MIO_NAC,EL,2007-01-01,-218018.0
NSA,FA,S1,S1,N_LE,WRL_REST,MIO_NAC,EL,2008-01-01,-183322.0
NSA,FA,S1,S1,N_LE,WRL_REST,MIO_NAC,EL,2009-01-01,-207792.0
NSA,FA,S1,S1,N_LE,WRL_REST,MIO_NAC,EL,2010-01-01,-223693.0
NSA,FA,S1,S1,N_LE,WRL_REST,MIO_NAC,EL,2011-01-01,-183862.0
NSA,FA,S1,S1,N_LE,WRL_REST,MIO_NAC,EL,2012-01-01,-221569.0
NSA,FA,S1,S1,N_LE,WRL_REST,MIO_NAC,EL,2013-01-01,-235606.0
NSA,FA,S1,S1,N_LE,WRL_REST,MIO_NAC,EL,2014-01-01,-235734.0
NSA,FA,S1,S1,N_LE,WRL_REST,MIO_NAC,EL,2015-01-01,-240013.0
NSA,FA,S1,S1,N_LE,WRL_REST,MIO_NAC,EL,2016-01-01,-242777.0
NSA,FA,S1,S1,N_LE,WRL_REST,MIO_NAC,EL,2017-01-01,-253653.0
NSA,FA,S1,S1,N_LE,WRL_REST,MIO_NAC,EL,2018-01-01,-265235.0
NSA,FA,S1,S1,N_LE,WRL_REST,MIO_NAC,EL,2019-01-01,-282354.0
NSA,FA,S1,S1,N_LE,WRL_REST,MIO_NAC,ES,1995-01-01,-96708.0
NSA,FA,S1,S1,N_LE,WRL_REST,MIO_NAC,ES,1996-01-01,-116903.0
NSA,FA,S1,S1,N_LE,WRL_REST,MIO_NAC,ES,1997-01-01,-143770.0
NSA,FA,S1,S1,N_LE,WRL_REST,MIO_NAC,ES,1998-01-01,-199930.0
NSA,FA,S1,S1,N_LE,WRL_REST,MIO_NAC,ES,1999-01-01,-207419.0
NSA,FA,S1,S1,N_LE,WRL_REST,MIO_NAC,ES,2000-01-01,-226291.0
NSA,FA,S1,S1,N_LE,WRL_REST,MIO_NAC,ES,2001-01-01,-270474.0
NSA,FA,S1,S1,N_LE,WRL_REST,MIO_NAC,ES,2002-01-01,-342783.0
NSA,FA,S1,S1,N_LE,WRL_REST,MIO_NAC,ES,2003-01-01,-406330.0
NSA,FA,S1,S1,N_LE,WRL_REST,MIO_NAC,ES,2004-01-01,-512042.0
NSA,FA,S1,S1,N_LE,WRL_REST,MIO_NAC,ES,2005-01-01,-592191.0
NSA,FA,S1,S1,N_LE,WRL_REST,MIO_NAC,ES,2006-01-01,-734206.0
NSA,FA,S1,S1,N_LE,WRL_REST,MIO_NAC,ES,2007-01-01,-917455.0
NSA,FA,S1,S1,N_LE,WRL_REST,MIO_NAC,ES,2008-01-01,-947337.0
NSA,FA,S1,S1,N_LE,WRL_REST,MIO_NAC,ES,2009-01-01,-1043820.0
NSA,FA,S1,S1,N_LE,WRL_REST,MIO_NAC,ES,2010-01-01,-975792.0
NSA,FA,S1,S1,N_LE,WRL_REST,MIO_NAC,ES,2011-01-01,-997356.0
NSA,FA,S1,S1,N_LE,WRL_REST,MIO_NAC,ES,2012-01-01,-916866.0
NSA,FA,S1,S1,N_LE,WRL_REST,MIO_NAC,ES,2013-01-01,-947225.0
NSA,FA,S1,S1,N_LE,WRL_REST,MIO_NAC,ES,2014-01-01,-990305.0
NSA,FA,S1,S1,N_LE,WRL_REST,MIO_NAC,ES,2015-01-01,-958080.0
NSA,FA,S1,S1,N_LE,WRL_REST,MIO_NAC,ES,2016-01-01,-952732.0
NSA,FA,S1,S1,N_LE,WRL_REST,MIO_NAC,ES,2017-01-01,-993519.0
NSA,FA,S1,S1,N_LE,WRL_REST,MIO_NAC,ES,2018-01-01,-964487.0
NSA,FA,S1,S1,N_LE,WRL_REST,MIO_NAC,ES,2019-01-01,-921708.0
NSA,FA,S1,S1,N_LE,WRL_REST,MIO_NAC,FI,1995-01-01,
NSA,FA,S1,S1,N_LE,WRL_REST,MIO_NAC,FI,1996-01-01,
NSA,FA,S1,S1,N_LE,WRL_REST,MIO_NAC,FI,1997-01-01,
NSA,FA,S1,S1,N_LE,WRL_REST,MIO_NAC,FI,1998-01-01,
NSA,FA,S1,S1,N_LE,WRL_REST,MIO_NAC,FI,1999-01-01,-229982.8
NSA,FA,S1,S1,N_LE,WRL_REST,MIO_NAC,FI,2000-01-01,-212535.3
NSA,FA,S1,S1,N_LE,WRL_REST,MIO_NAC,FI,2001-01-01,-132966.6
NSA,FA,S1,S1,N_LE,WRL_REST,MIO_NAC,FI,2002-01-01,-72052.8
NSA,FA,S1,S1,N_LE,WRL_REST,MIO_NAC,FI,2003-01-01,-94851.7
NSA,FA,S1,S1,N_LE,WRL_REST,MIO_NAC,FI,2004-01-01,-14788.0
NSA,FA,S1,S1,N_LE,WRL_REST,MIO_NAC,FI,2005-01-01,-23091.9
NSA,FA,S1,S1,N_LE,WRL_REST,MIO_NAC,FI,2006-01-01,-78046.0
NSA,FA,S1,S1,N_LE,WRL_REST,MIO_NAC,FI,2007-01-01,-52690.0
NSA,FA,S1,S1,N_LE,WRL_REST,MIO_NAC,FI,2008-01-01,-9436.0
NSA,FA,S1,S1,N_LE,WRL_REST,MIO_NAC,FI,2009-01-01,4644.0
NSA,FA,S1,S1,N_LE,WRL_REST,MIO_NAC,FI,2010-01-01,29082.0
NSA,FA,S1,S1,N_LE,WRL_REST,MIO_NAC,FI,2011-01-01,27475.0
NSA,FA,S1,S1,N_LE,WRL_REST,MIO_NAC,FI,2012-01-01,21362.0
NSA,FA,S1,S1,N_LE,WRL_REST,MIO_NAC,FI,2013-01-01,6164.0
NSA,FA,S1,S1,N_LE,WRL_REST,MIO_NAC,FI,2014-01-01,-6492.0
NSA,FA,S1,S1,N_LE,WRL_REST,MIO_NAC,FI,2015-01-01,10082.0
NSA,FA,S1,S1,N_LE,WRL_REST,MIO_NAC,FI,2016-01-01,11367.0
NSA,FA,S1,S1,N_LE,WRL_REST,MIO_NAC,FI,2017-01-01,326.0
NSA,FA,S1,S1,N_LE,WRL_REST,MIO_NAC,FI,2018-01-01,-15513.0
NSA,FA,S1,S1,N_LE,WRL_REST,MIO_NAC,FI,2019-01-01,4145.0
NSA,FA,S1,S1,N_LE,WRL_REST,MIO_NAC,FR,1995-01-01,
NSA,FA,S1,S1,N_LE,WRL_REST,MIO_NAC,FR,1996-01-01,
NSA,FA,S1,S1,N_LE,WRL_REST,MIO_NAC,FR,1997-01-01,
NSA,FA,S1,S1,N_LE,WRL_REST,MIO_NAC,FR,1998-01-01,
NSA,FA,S1,S1,N_LE,WRL_REST,MIO_NAC,FR,1999-01-01,12506.0
NSA,FA,S1,S1,N_LE,WRL_REST,MIO_NAC,FR,2000-01-01,31925.0
NSA,FA,S1,S1,N_LE,WRL_REST,MIO_NAC,FR,2001-01-01,123556.0
NSA,FA,S1,S1,N_LE,WRL_REST,MIO_NAC,FR,2002-01-01,107175.0
NSA,FA,S1,S1,N_LE,WRL_REST,MIO_NAC,FR,2003-01-01,-49832.0
NSA,FA,S1,S1,N_LE,WRL_REST,MIO_NAC,FR,2004-01-01,-58611.0
NSA,FA,S1,S1,N_LE,WRL_REST,MIO_NAC,FR,2005-01-01,-35721.0
NSA,FA,S1,S1,N_LE,WRL_REST,MIO_NAC,FR,2006-01-01,-89231.0
NSA,FA,S1,S1,N_LE,WRL_REST,MIO_NAC,FR,2007-01-01,-172554.0
NSA,FA,S1,S1,N_LE,WRL_REST,MIO_NAC,FR,2008-01-01,-275214.0
NSA,FA,S1,S1,N_LE,WRL_REST,MIO_NAC,FR,2009-01-01,-287289.0
NSA,FA,S1,S1,N_LE,WRL_REST,MIO_NAC,FR,2010-01-01,-185244.0
NSA,FA,S1,S1,N_LE,WRL_REST,MIO_NAC,FR,2011-01-01,-178415.0
NSA,FA,S1,S1,N_LE,WRL_REST,MIO_NAC,FR,2012-01-01,-267763.0
NSA,FA,S1,S1,N_LE,WRL_REST,MIO_NAC,FR,2013-01-01,-350487.0
NSA,FA,S1,S1,N_LE,WRL_REST,MIO_NAC,FR,2014-01-01,-335699.0
NSA,FA,S1,S1,N_LE,WRL_REST,MIO_NAC,FR,2015-01-01,-284191.0
NSA,FA,S1,S1,N_LE,WRL_REST,MIO_NAC,FR,2016-01-01,-290561.0
NSA,FA,S1,S1,N_LE,WRL_REST,MIO_NAC,FR,2017-01-01,-380863.0
NSA,FA,S1,S1,N_LE,WRL_REST,MIO_NAC,FR,2018-01-01,-384950.0
NSA,FA,S1,S1,N_LE,WRL_REST,MIO_NAC,FR,2019-01-01,-563960.0
NSA,FA,S1,S1,N_LE,WRL_REST,MIO_NAC,HR,1995-01-01,
NSA,FA,S1,S1,N_LE,WRL_REST,MIO_NAC,HR,1996-01-01,
NSA,FA,S1,S1,N_LE,WRL_REST,MIO_NAC,HR,1997-01-01,
NSA,FA,S1,S1,N_LE,WRL_REST,MIO_NAC,HR,1998-01-01,
NSA,FA,S1,S1,N_LE,WRL_REST,MIO_NAC,HR,1999-01-01,-35034.0
NSA,FA,S1,S1,N_LE,WRL_REST,MIO_NAC,HR,2000-01-01,-48156.0
NSA,FA,S1,S1,N_LE,WRL_REST,MIO_NAC,HR,2001-01-01,-38420.0
NSA,FA,S1,S1,N_LE,WRL_REST,MIO_NAC,HR,2002-01-01,-62296.0
NSA,FA,S1,S1,N_LE,WRL_REST,MIO_NAC,HR,2003-01-01,-91596.0
NSA,FA,S1,S1,N_LE,WRL_REST,MIO_NAC,HR,2004-01-01,-126549.0
NSA,FA,S1,S1,N_LE,WRL_REST,MIO_NAC,HR,2005-01-01,-159793.0
NSA,FA,S1,S1,N_LE,WRL_REST,MIO_NAC,HR,2006-01-01,-225167.0
NSA,FA,S1,S1,N_LE,WRL_REST,MIO_NAC,HR,2007-01-01,-296372.0
NSA,FA,S1,S1,N_LE,WRL_REST,MIO_NAC,HR,2008-01-01,-266998.0
NSA,FA,S1,S1,N_LE,WRL_REST,MIO_NAC,HR,2009-01-01,-294810.0
NSA,FA,S1,S1,N_LE,WRL_REST,MIO_NAC,HR,2010-01-01,-313705.0
NSA,FA,S1,S1,N_LE,WRL_REST,MIO_NAC,HR,2011-01-01,-310331.0
NSA,FA,S1,S1,N_LE,WRL_REST,MIO_NAC,HR,2012-01-01,-302877.0
NSA,FA,S1,S1,N_LE,WRL_REST,MIO_NAC,HR,2013-01-01,-296467.0
NSA,FA,S1,S1,N_LE,WRL_REST,MIO_NAC,HR,2014-01-01,-287536.0
NSA,FA,S1,S1,N_LE,WRL_REST,MIO_NAC,HR,2015-01-01,-266239.0
NSA,FA,S1,S1,N_LE,WRL_REST,MIO_NAC,HR,2016-01-01,-254383.0
NSA,FA,S1,S1,N_LE,WRL_REST,MIO_NAC,HR,2017-01-01,-240481.0
NSA,FA,S1,S1,N_LE,WRL_REST,MIO_NAC,HR,2018-01-01,-221642.0
NSA,FA,S1,S1,N_LE,WRL_REST,MIO_NAC,HR,2019-01-01,-204242.0
NSA,FA,S1,S1,N_LE,WRL_REST,MIO_NAC,HU,1995-01-01,-3472509.7
NSA,FA,S1,S1,N_LE,WRL_REST,MIO_NAC,HU,1996-01-01,-4046847.6
NSA,FA,S1,S1,N_LE,WRL_REST,MIO_NAC,HU,1997-01-01,-5588715.5
NSA,FA,S1,S1,N_LE,WRL_REST,MIO_NAC,HU,1998-01-01,-6649027.5
NSA,FA,S1,S1,N_LE,WRL_REST,MIO_NAC,HU,1999-01-01,-8622170.6
NSA,FA,S1,S1,N_LE,WRL_REST,MIO_NAC,HU,2000-01-01,-9495040.1
NSA,FA,S1,S1,N_LE,WRL_REST,MIO_NAC,HU,2001-01-01,-10028901.2
NSA,FA,S1,S1,N_LE,WRL_REST,MIO_NAC,HU,2002-01-01,-11146760.0
NSA,FA,S1,S1,N_LE,WRL_REST,MIO_NAC,HU,2003-01-01,-14406914.8
NSA,FA,S1,S1,N_LE,WRL_REST,MIO_NAC,HU,2004-01-01,-18058918.3
NSA,FA,S1,S1,N_LE,WRL_REST,MIO_NAC,HU,2005-01-01,-21375060.5
NSA,FA,S1,S1,N_LE,WRL_REST,MIO_NAC,HU,2006-01-01,-23821518.6
NSA,FA,S1,S1,N_LE,WRL_REST,MIO_NAC,HU,2007-01-01,-23296234.1
NSA,FA,S1,S1,N_LE,WRL_REST,MIO_NAC,HU,2008-01-01,-27336630.6
NSA,FA,S1,S1,N_LE,WRL_REST,MIO_NAC,HU,2009-01-01,-30011457.6
NSA,FA,S1,S1,N_LE,WRL_REST,MIO_NAC,HU,2010-01-01,-29089043.2
NSA,FA,S1,S1,N_LE,WRL_REST,MIO_NAC,HU,2011-01-01,-29564574.4
NSA,FA,S1,S1,N_LE,WRL_REST,MIO_NAC,HU,2012-01-01,-26583702.6
NSA,FA,S1,S1,N_LE,WRL_REST,MIO_NAC,HU,2013-01-01,-24893818.2
NSA,FA,S1,S1,N_LE,WRL_REST,MIO_NAC,HU,2014-01-01,-26270550.8
NSA,FA,S1,S1,N_LE,WRL_REST,MIO_NAC,HU,2015-01-01,-23606702.1
NSA,FA,S1,S1,N_LE,WRL_REST,MIO_NAC,HU,2016-01-01,-21380661.8
NSA,FA,S1,S1,N_LE,WRL_REST,MIO_NAC,HU,2017-01-01,-21402464.6
NSA,FA,S1,S1,N_LE,WRL_REST,MIO_NAC,HU,2018-01-01,-22014027.2
NSA,FA,S1,S1,N_LE,WRL_REST,MIO_NAC,HU,2019-01-01,-22430453.3
NSA,FA,S1,S1,N_LE,WRL_REST,MIO_NAC,IE,1995-01-01,
NSA,FA,S1,S1,N_LE,WRL_REST,MIO_NAC,IE,1996-01-01,
NSA,FA,S1,S1,N_LE,WRL_REST,MIO_NAC,IE,1997-01-01,
NSA,FA,S1,S1,N_LE,WRL_REST,MIO_NAC,IE,1998-01-01,
NSA,FA,S1,S1,N_LE,WRL_REST,MIO_NAC,IE,1999-01-01,
NSA,FA,S1,S1,N_LE,WRL_REST,MIO_NAC,IE,2000-01-01,
NSA,FA,S1,S1,N_LE,WRL_REST,MIO_NAC,IE,2001-01-01,
NSA,FA,S1,S1,N_LE,WRL_REST,MIO_NAC,IE,2002-01-01,-28489.0
NSA,FA,S1,S1,N_LE,WRL_REST,MIO_NAC,IE,2003-01-01,-34240.9
NSA,FA,S1,S1,N_LE,WRL_REST,MIO_NAC,IE,2004-01-01,-34764.4
NSA,FA,S1,S1,N_LE,WRL_REST,MIO_NAC,IE,2005-01-01,-78686.1
NSA,FA,S1,S1,N_LE,WRL_REST,MIO_NAC,IE,2006-01-01,-47655.5
NSA,FA,S1,S1,N_LE,WRL_REST,MIO_NAC,IE,2007-01-01,-61892.0
NSA,FA,S1,S1,N_LE,WRL_REST,MIO_NAC,IE,2008-01-01,-178967.5
NSA,FA,S1,S1,N_LE,WRL_REST,MIO_NAC,IE,2009-01-01,-196732.2
NSA,FA,S1,S1,N_LE,WRL_REST,MIO_NAC,IE,2010-01-01,-190410.2
NSA,FA,S1,S1,N_LE,WRL_REST,MIO_NAC,IE,2011-01-01,-237975.9
NSA,FA,S1,S1,N_LE,WRL_REST,MIO_NAC,IE,2012-01-01,-241241.0
NSA,FA,S1,S1,N_LE,WRL_REST,MIO_NAC,IE,2013-01-01,-239757.0
NSA,FA,S1,S1,N_LE,WRL_REST,MIO_NAC,IE,2014-01-01,-320867.0
NSA,FA,S1,S1,N_LE,WRL_REST,MIO_NAC,IE,2015-01-01,-521499.0
NSA,FA,S1,S1,N_LE,WRL_REST,MIO_NAC,IE,2016-01-01,-466388.0
NSA,FA,S1,S1,N_LE,WRL_REST,MIO_NAC,IE,2017-01-01,-496850.0
NSA,FA,S1,S1,N_LE,WRL_REST,MIO_NAC,IE,2018-01-01,-534781.0
NSA,FA,S1,S1,N_LE,WRL_REST,MIO_NAC,IE,2019-01-01,-597267.0
NSA,FA,S1,S1,N_LE,WRL_REST,MIO_NAC,IT,1995-01-01,
NSA,FA,S1,S1,N_LE,WRL_REST,MIO_NAC,IT,1996-01-01,
NSA,FA,S1,S1,N_LE,WRL_REST,MIO_NAC,IT,1997-01-01,
NSA,FA,S1,S1,N_LE,WRL_REST,MIO_NAC,IT,1998-01-01,-102732.0
NSA,FA,S1,S1,N_LE,WRL_REST,MIO_NAC,IT,1999-01-01,-54015.0
NSA,FA,S1,S1,N_LE,WRL_REST,MIO_NAC,IT,2000-01-01,-79138.0
NSA,FA,S1,S1,N_LE,WRL_REST,MIO_NAC,IT,2001-01-01,-64082.0
NSA,FA,S1,S1,N_LE,WRL_REST,MIO_NAC,IT,2002-01-01,-149490.0
NSA,FA,S1,S1,N_LE,WRL_REST,MIO_NAC,IT,2003-01-01,-167137.0
NSA,FA,S1,S1,N_LE,WRL_REST,MIO_NAC,IT,2004-01-01,-218056.0
NSA,FA,S1,S1,N_LE,WRL_REST,MIO_NAC,IT,2005-01-01,-230078.0
NSA,FA,S1,S1,N_LE,WRL_REST,MIO_NAC,IT,2006-01-01,-311083.0
NSA,FA,S1,S1,N_LE,WRL_REST,MIO_NAC,IT,2007-01-01,-340772.0
NSA,FA,S1,S1,N_LE,WRL_REST,MIO_NAC,IT,2008-01-01,-354405.0
NSA,FA,S1,S1,N_LE,WRL_REST,MIO_NAC,IT,2009-01-01,-351592.0
NSA,FA,S1,S1,N_LE,WRL_REST,MIO_NAC,IT,2010-01-01,-324347.0
NSA,FA,S1,S1,N_LE,WRL_REST,MIO_NAC,IT,2011-01-01,-300093.0
NSA,FA,S1,S1,N_LE,WRL_REST,MIO_NAC,IT,2012-01-01,-373339.0
NSA,FA,S1,S1,N_LE,WRL_REST,MIO_NAC,IT,2013-01-01,-375326.0
NSA,FA,S1,S1,N_LE,WRL_REST,MIO_NAC,IT,2014-01-01,-341629.0
NSA,FA,S1,S1,N_LE,WRL_REST,MIO_NAC,IT,2015-01-01,-319802.0
NSA,FA,S1,S1,N_LE,WRL_REST,MIO_NAC,IT,2016-01-01,-202232.0
NSA,FA,S1,S1,N_LE,WRL_REST,MIO_NAC,IT,2017-01-01,-133845.0
NSA,FA,S1,S1,N_LE,WRL_REST,MIO_NAC,IT,2018-01-01,-87729.0
NSA,FA,S1,S1,N_LE,WRL_REST,MIO_NAC,IT,2019-01-01,-29714.0
NSA,FA,S1,S1,N_LE,WRL_REST,MIO_NAC,LT,1995-01-01,0.0
NSA,FA,S1,S1,N_LE,WRL_REST,MIO_NAC,LT,1996-01-01,0.0
NSA,FA,S1,S1,N_LE,WRL_REST,MIO_NAC,LT,1997-01-01,-2112.9
NSA,FA,S1,S1,N_LE,WRL_REST,MIO_NAC,LT,1998-01-01,-2891.8
NSA,FA,S1,S1,N_LE,WRL_REST,MIO_NAC,LT,1999-01-01,-4302.6
NSA,FA,S1,S1,N_LE,WRL_REST,MIO_NAC,LT,2000-01-01,-4652.4
NSA,FA,S1,S1,N_LE,WRL_REST,MIO_NAC,LT,2001-01-01,-4871.3
NSA,FA,S1,S1,N_LE,WRL_REST,MIO_NAC,LT,2002-01-01,-4943.2
NSA,FA,S1,S1,N_LE,WRL_REST,MIO_NAC,LT,2003-01-01,-5486.7
NSA,FA,S1,S1,N_LE,WRL_REST,MIO_NAC,LT,2004-01-01,-6570.4
NSA,FA,S1,S1,N_LE,WRL_REST,MIO_NAC,LT,2005-01-01,-9364.7
NSA,FA,S1,S1,N_LE,WRL_REST,MIO_NAC,LT,2006-01-01,-12188.6
NSA,FA,S1,S1,N_LE,WRL_REST,MIO_NAC,LT,2007-01-01,-16387.5
NSA,FA,S1,S1,N_LE,WRL_REST,MIO_NAC,LT,2008-01-01,-17215.9
NSA,FA,S1,S1,N_LE,WRL_REST,MIO_NAC,LT,2009-01-01,-16444.0
NSA,FA,S1,S1,N_LE,WRL_REST,MIO_NAC,LT,2010-01-01,-16777.8
NSA,FA,S1,S1,N_LE,WRL_REST,MIO_NAC,LT,2011-01-01,-16727.8
NSA,FA,S1,S1,N_LE,WRL_REST,MIO_NAC,LT,2012-01-01,-18111.0
NSA,FA,S1,S1,N_LE,WRL_REST,MIO_NAC,LT,2013-01-01,-17697.9
NSA,FA,S1,S1,N_LE,WRL_REST,MIO_NAC,LT,2014-01-01,-17101.2
NSA,FA,S1,S1,N_LE,WRL_REST,MIO_NAC,LT,2015-01-01,-16287.4
NSA,FA,S1,S1,N_LE,WRL_REST,MIO_NAC,LT,2016-01-01,-16670.1
NSA,FA,S1,S1,N_LE,WRL_REST,MIO_NAC,LT,2017-01-01,-16024.9
NSA,FA,S1,S1,N_LE,WRL_REST,MIO_NAC,LT,2018-01-01,-14048.1
NSA,FA,S1,S1,N_LE,WRL_REST,MIO_NAC,LT,2019-01-01,-11478.0
NSA,FA,S1,S1,N_LE,WRL_REST,MIO_NAC,LU,1995-01-01,
NSA,FA,S1,S1,N_LE,WRL_REST,MIO_NAC,LU,1996-01-01,
NSA,FA,S1,S1,N_LE,WRL_REST,MIO_NAC,LU,1997-01-01,
NSA,FA,S1,S1,N_LE,WRL_REST,MIO_NAC,LU,1998-01-01,
NSA,FA,S1,S1,N_LE,WRL_REST,MIO_NAC,LU,1999-01-01,
NSA,FA,S1,S1,N_LE,WRL_REST,MIO_NAC,LU,2000-01-01,
NSA,FA,S1,S1,N_LE,WRL_REST,MIO_NAC,LU,2001-01-01,
NSA,FA,S1,S1,N_LE,WRL_REST,MIO_NAC,LU,2002-01-01,16137.0
NSA,FA,S1,S1,N_LE,WRL_REST,MIO_NAC,LU,2003-01-01,19208.0
NSA,FA,S1,S1,N_LE,WRL_REST,MIO_NAC,LU,2004-01-01,4998.0
NSA,FA,S1,S1,N_LE,WRL_REST,MIO_NAC,LU,2005-01-01,5904.0
NSA,FA,S1,S1,N_LE,WRL_REST,MIO_NAC,LU,2006-01-01,7212.0
NSA,FA,S1,S1,N_LE,WRL_REST,MIO_NAC,LU,2007-01-01,-6752.0
NSA,FA,S1,S1,N_LE,WRL_REST,MIO_NAC,LU,2008-01-01,6220.0
NSA,FA,S1,S1,N_LE,WRL_REST,MIO_NAC,LU,2009-01-01,-10693.0
NSA,FA,S1,S1,N_LE,WRL_REST,MIO_NAC,LU,2010-01-01,-8200.0
NSA,FA,S1,S1,N_LE,WRL_REST,MIO_NAC,LU,2011-01-01,12477.0
NSA,FA,S1,S1,N_LE,WRL_REST,MIO_NAC,LU,2012-01-01,25750.0
NSA,FA,S1,S1,N_LE,WRL_REST,MIO_NAC,LU,2013-01-01,27382.0
NSA,FA,S1,S1,N_LE,WRL_REST,MIO_NAC,LU,2014-01-01,29528.0
NSA,FA,S1,S1,N_LE,WRL_REST,MIO_NAC,LU,2015-01-01,26008.0
NSA,FA,S1,S1,N_LE,WRL_REST,MIO_NAC,LU,2016-01-01,29932.0
NSA,FA,S1,S1,N_LE,WRL_REST,MIO_NAC,LU,2017-01-01,29448.0
NSA,FA,S1,S1,N_LE,WRL_REST,MIO_NAC,LU,2018-01-01,32330.0
NSA,FA,S1,S1,N_LE,WRL_REST,MIO_NAC,LU,2019-01-01,32335.0
NSA,FA,S1,S1,N_LE,WRL_REST,MIO_NAC,LV,1995-01-01,
NSA,FA,S1,S1,N_LE,WRL_REST,MIO_NAC,LV,1996-01-01,
NSA,FA,S1,S1,N_LE,WRL_REST,MIO_NAC,LV,1997-01-01,
NSA,FA,S1,S1,N_LE,WRL_REST,MIO_NAC,LV,1998-01-01,
NSA,FA,S1,S1,N_LE,WRL_REST,MIO_NAC,LV,1999-01-01,
NSA,FA,S1,S1,N_LE,WRL_REST,MIO_NAC,LV,2000-01-01,-2028.0
NSA,FA,S1,S1,N_LE,WRL_REST,MIO_NAC,LV,2001-01-01,-2759.0
NSA,FA,S1,S1,N_LE,WRL_REST,MIO_NAC,LV,2002-01-01,-3355.0
NSA,FA,S1,S1,N_LE,WRL_REST,MIO_NAC,LV,2003-01-01,-3973.0
NSA,FA,S1,S1,N_LE,WRL_REST,MIO_NAC,LV,2004-01-01,-5521.0
NSA,FA,S1,S1,N_LE,WRL_REST,MIO_NAC,LV,2005-01-01,-7637.0
NSA,FA,S1,S1,N_LE,WRL_REST,MIO_NAC,LV,2006-01-01,-11073.0
NSA,FA,S1,S1,N_LE,WRL_REST,MIO_NAC,LV,2007-01-01,-15654.0
NSA,FA,S1,S1,N_LE,WRL_REST,MIO_NAC,LV,2008-01-01,-18083.0
NSA,FA,S1,S1,N_LE,WRL_REST,MIO_NAC,LV,2009-01-01,-15522.0
NSA,FA,S1,S1,N_LE,WRL_REST,MIO_NAC,LV,2010-01-01,-14794.0
NSA,FA,S1,S1,N_LE,WRL_REST,MIO_NAC,LV,2011-01-01,-15107.0
NSA,FA,S1,S1,N_LE,WRL_REST,MIO_NAC,LV,2012-01-01,-14913.0
NSA,FA,S1,S1,N_LE,WRL_REST,MIO_NAC,LV,2013-01-01,-15236.0
NSA,FA,S1,S1,N_LE,WRL_REST,MIO_NAC,LV,2014-01-01,-15874.0
NSA,FA,S1,S1,N_LE,WRL_REST,MIO_NAC,LV,2015-01-01,-15654.0
NSA,FA,S1,S1,N_LE,WRL_REST,MIO_NAC,LV,2016-01-01,-14791.0
NSA,FA,S1,S1,N_LE,WRL_REST,MIO_NAC,LV,2017-01-01,-15071.0
NSA,FA,S1,S1,N_LE,WRL_REST,MIO_NAC,LV,2018-01-01,-14277.0
NSA,FA,S1,S1,N_LE,WRL_REST,MIO_NAC,LV,2019-01-01,-13433.0
NSA,FA,S1,S1,N_LE,WRL_REST,MIO_NAC,MT,1995-01-01,
NSA,FA,S1,S1,N_LE,WRL_REST,MIO_NAC,MT,1996-01-01,
NSA,FA,S1,S1,N_LE,WRL_REST,MIO_NAC,MT,1997-01-01,
NSA,FA,S1,S1,N_LE,WRL_REST,MIO_NAC,MT,1998-01-01,
NSA,FA,S1,S1,N_LE,WRL_REST,MIO_NAC,MT,1999-01-01,
NSA,FA,S1,S1,N_LE,WRL_REST,MIO_NAC,MT,2000-01-01,
NSA,FA,S1,S1,N_LE,WRL_REST,MIO_NAC,MT,2001-01-01,
NSA,FA,S1,S1,N_LE,WRL_REST,MIO_NAC,MT,2002-01-01,
NSA,FA,S1,S1,N_LE,WRL_REST,MIO_NAC,MT,2003-01-01,
NSA,FA,S1,S1,N_LE,WRL_REST,MIO_NAC,MT,2004-01-01,1835.9
NSA,FA,S1,S1,N_LE,WRL_REST,MIO_NAC,MT,2005-01-01,1846.2
NSA,FA,S1,S1,N_LE,WRL_REST,MIO_NAC,MT,2006-01-01,1497.0
NSA,FA,S1,S1,N_LE,WRL_REST,MIO_NAC,MT,2007-01-01,1234.6
NSA,FA,S1,S1,N_LE,WRL_REST,MIO_NAC,MT,2008-01-01,256.7
NSA,FA,S1,S1,N_LE,WRL_REST,MIO_NAC,MT,2009-01-01,774.8
NSA,FA,S1,S1,N_LE,WRL_REST,MIO_NAC,MT,2010-01-01,800.2
NSA,FA,S1,S1,N_LE,WRL_REST,MIO_NAC,MT,2011-01-01,428.4
NSA,FA,S1,S1,N_LE,WRL_REST,MIO_NAC,MT,2012-01-01,1404.6
NSA,FA,S1,S1,N_LE,WRL_REST,MIO_NAC,MT,2013-01-01,2060.3
NSA,FA,S1,S1,N_LE,WRL_REST,MIO_NAC,MT,2014-01-01,3659.9
NSA,FA,S1,S1,N_LE,WRL_REST,MIO_NAC,MT,2015-01-01,3607.4
NSA,FA,S1,S1,N_LE,WRL_REST,MIO_NAC,MT,2016-01-01,3661.5
NSA,FA,S1,S1,N_LE,WRL_REST,MIO_NAC,MT,2017-01-01,7221.6
NSA,FA,S1,S1,N_LE,WRL_REST,MIO_NAC,MT,2018-01-01,7820.0
NSA,FA,S1,S1,N_LE,WRL_REST,MIO_NAC,MT,2019-01-01,8279.7
NSA,FA,S1,S1,N_LE,WRL_REST,MIO_NAC,NL,1995-01-01,
NSA,FA,S1,S1,N_LE,WRL_REST,MIO_NAC,NL,1996-01-01,
NSA,FA,S1,S1,N_LE,WRL_REST,MIO_NAC,NL,1997-01-01,
NSA,FA,S1,S1,N_LE,WRL_REST,MIO_NAC,NL,1998-01-01,
NSA,FA,S1,S1,N_LE,WRL_REST,MIO_NAC,NL,1999-01-01,
NSA,FA,S1,S1,N_LE,WRL_REST,MIO_NAC,NL,2000-01-01,
NSA,FA,S1,S1,N_LE,WRL_REST,MIO_NAC,NL,2001-01-01,
NSA,FA,S1,S1,N_LE,WRL_REST,MIO_NAC,NL,2002-01-01,
NSA,FA,S1,S1,N_LE,WRL_REST,MIO_NAC,NL,2003-01-01,-19768.0
NSA,FA,S1,S1,N_LE,WRL_REST,MIO_NAC,NL,2004-01-01,-1098.0
NSA,FA,S1,S1,N_LE,WRL_REST,MIO_NAC,NL,2005-01-01,-27400.0
NSA,FA,S1,S1,N_LE,WRL_REST,MIO_NAC,NL,2006-01-01,-11292.0
NSA,FA,S1,S1,N_LE,WRL_REST,MIO_NAC,NL,2007-01-01,-92075.0
NSA,FA,S1,S1,N_LE,WRL_REST,MIO_NAC,NL,2008-01-01,-51505.0
NSA,FA,S1,S1,N_LE,WRL_REST,MIO_NAC,NL,2009-01-01,8865.0
NSA,FA,S1,S1,N_LE,WRL_REST,MIO_NAC,NL,2010-01-01,70506.0
NSA,FA,S1,S1,N_LE,WRL_REST,MIO_NAC,NL,2011-01-01,130891.0
NSA,FA,S1,S1,N_LE,WRL_REST,MIO_NAC,NL,2012-01-01,174288.0
NSA,FA,S1,S1,N_LE,WRL_REST,MIO_NAC,NL,2013-01-01,202572.0
NSA,FA,S1,S1,N_LE,WRL_REST,MIO_NAC,NL,2014-01-01,322619.0
NSA,FA,S1,S1,N_LE,WRL_REST,MIO_NAC,NL,2015-01-01,337602.0
NSA,FA,S1,S1,N_LE,WRL_REST,MIO_NAC,NL,2016-01-01,434580.0
NSA,FA,S1,S1,N_LE,WRL_REST,MIO_NAC,NL,2017-01-01,438408.0
NSA,FA,S1,S1,N_LE,WRL_REST,MIO_NAC,NL,2018-01-01,547313.0
NSA,FA,S1,S1,N_LE,WRL_REST,MIO_NAC,NL,2019-01-01,724107.0
NSA,FA,S1,S1,N_LE,WRL_REST,MIO_NAC,PL,1995-01-01,
NSA,FA,S1,S1,N_LE,WRL_REST,MIO_NAC,PL,1996-01-01,
NSA,FA,S1,S1,N_LE,WRL_REST,MIO_NAC,PL,1997-01-01,
NSA,FA,S1,S1,N_LE,WRL_REST,MIO_NAC,PL,1998-01-01,
NSA,FA,S1,S1,N_LE,WRL_REST,MIO_NAC,PL,1999-01-01,
NSA,FA,S1,S1,N_LE,WRL_REST,MIO_NAC,PL,2000-01-01,
NSA,FA,S1,S1,N_LE,WRL_REST,MIO_NAC,PL,2001-01-01,
NSA,FA,S1,S1,N_LE,WRL_REST,MIO_NAC,PL,2002-01-01,
NSA,FA,S1,S1,N_LE,WRL_REST,MIO_NAC,PL,2003-01-01,
NSA,FA,S1,S1,N_LE,WRL_REST,MIO_NAC,PL,2004-01-01,-381178.0
NSA,FA,S1,S1,N_LE,WRL_REST,MIO_NAC,PL,2005-01-01,-413725.0
NSA,FA,S1,S1,N_LE,WRL_REST,MIO_NAC,PL,2006-01-01,-480786.0
NSA,FA,S1,S1,N_LE,WRL_REST,MIO_NAC,PL,2007-01-01,-584533.0
NSA,FA,S1,S1,N_LE,WRL_REST,MIO_NAC,PL,2008-01-01,-714757.0
NSA,FA,S1,S1,N_LE,WRL_REST,MIO_NAC,PL,2009-01-01,-786779.0
NSA,FA,S1,S1,N_LE,WRL_REST,MIO_NAC,PL,2010-01-01,-940600.0
NSA,FA,S1,S1,N_LE,WRL_REST,MIO_NAC,PL,2011-01-01,-977907.0
NSA,FA,S1,S1,N_LE,WRL_REST,MIO_NAC,PL,2012-01-01,-1064732.0
NSA,FA,S1,S1,N_LE,WRL_REST,MIO_NAC,PL,2013-01-01,-1142247.0
NSA,FA,S1,S1,N_LE,WRL_REST,MIO_NAC,PL,2014-01-01,-1188192.0
NSA,FA,S1,S1,N_LE,WRL_REST,MIO_NAC,PL,2015-01-01,-1117822.0
NSA,FA,S1,S1,N_LE,WRL_REST,MIO_NAC,PL,2016-01-01,-1145969.0
NSA,FA,S1,S1,N_LE,WRL_REST,MIO_NAC,PL,2017-01-01,-1217345.0
NSA,FA,S1,S1,N_LE,WRL_REST,MIO_NAC,PL,2018-01-01,-1179297.0
NSA,FA,S1,S1,N_LE,WRL_REST,MIO_NAC,PL,2019-01-01,-1132463.0
NSA,FA,S1,S1,N_LE,WRL_REST,MIO_NAC,PT,1995-01-01,
NSA,FA,S1,S1,N_LE,WRL_REST,MIO_NAC,PT,1996-01-01,-10898.0
NSA,FA,S1,S1,N_LE,WRL_REST,MIO_NAC,PT,1997-01-01,-17263.0
NSA,FA,S1,S1,N_LE,WRL_REST,MIO_NAC,PT,1998-01-01,-28613.0
NSA,FA,S1,S1,N_LE,WRL_REST,MIO_NAC,PT,1999-01-01,-42736.0
NSA,FA,S1,S1,N_LE,WRL_REST,MIO_NAC,PT,2000-01-01,-55157.0
NSA,FA,S1,S1,N_LE,WRL_REST,MIO_NAC,PT,2001-01-01,-68581.0
NSA,FA,S1,S1,N_LE,WRL_REST,MIO_NAC,PT,2002-01-01,-79762.0
NSA,FA,S1,S1,N_LE,WRL_REST,MIO_NAC,PT,2003-01-01,-88369.0
NSA,FA,S1,S1,N_LE,WRL_REST,MIO_NAC,PT,2004-01-01,-100207.0
NSA,FA,S1,S1,N_LE,WRL_REST,MIO_NAC,PT,2005-01-01,-112024.0
NSA,FA,S1,S1,N_LE,WRL_REST,MIO_NAC,PT,2006-01-01,-135790.0
NSA,FA,S1,S1,N_LE,WRL_REST,MIO_NAC,PT,2007-01-01,-158113.0
NSA,FA,S1,S1,N_LE,WRL_REST,MIO_NAC,PT,2008-01-01,-175124.0
NSA,FA,S1,S1,N_LE,WRL_REST,MIO_NAC,PT,2009-01-01,-194140.0
NSA,FA,S1,S1,N_LE,WRL_REST,MIO_NAC,PT,2010-01-01,-192479.0
NSA,FA,S1,S1,N_LE,WRL_REST,MIO_NAC,PT,2011-01-01,-183310.0
NSA,FA,S1,S1,N_LE,WRL_REST,MIO_NAC,PT,2012-01-01,-200714.0
NSA,FA,S1,S1,N_LE,WRL_REST,MIO_NAC,PT,2013-01-01,-204984.0
NSA,FA,S1,S1,N_LE,WRL_REST,MIO_NAC,PT,2014-01-01,-214208.0
NSA,FA,S1,S1,N_LE,WRL_REST,MIO_NAC,PT,2015-01-01,-213744.0
NSA,FA,S1,S1,N_LE,WRL_REST,MIO_NAC,PT,2016-01-01,-205980.0
NSA,FA,S1,S1,N_LE,WRL_REST,MIO_NAC,PT,2017-01-01,-216319.0
NSA,FA,S1,S1,N_LE,WRL_REST,MIO_NAC,PT,2018-01-01,-216765.0
NSA,FA,S1,S1,N_LE,WRL_REST,MIO_NAC,PT,2019-01-01,-213925.0
NSA,FA,S1,S1,N_LE,WRL_REST,MIO_NAC,RO,1995-01-01,
NSA,FA,S1,S1,N_LE,WRL_REST,MIO_NAC,RO,1996-01-01,
NSA,FA,S1,S1,N_LE,WRL_REST,MIO_NAC,RO,1997-01-01,
NSA,FA,S1,S1,N_LE,WRL_REST,MIO_NAC,RO,1998-01-01,
NSA,FA,S1,S1,N_LE,WRL_REST,MIO_NAC,RO,1999-01-01,
NSA,FA,S1,S1,N_LE,WRL_REST,MIO_NAC,RO,2000-01-01,
NSA,FA,S1,S1,N_LE,WRL_REST,MIO_NAC,RO,2001-01-01,
NSA,FA,S1,S1,N_LE,WRL_REST,MIO_NAC,RO,2002-01-01,
NSA,FA,S1,S1,N_LE,WRL_REST,MIO_NAC,RO,2003-01-01,
NSA,FA,S1,S1,N_LE,WRL_REST,MIO_NAC,RO,2004-01-01,
NSA,FA,S1,S1,N_LE,WRL_REST,MIO_NAC,RO,2005-01-01,-85463.0
NSA,FA,S1,S1,N_LE,WRL_REST,MIO_NAC,RO,2006-01-01,-125055.0
NSA,FA,S1,S1,N_LE,WRL_REST,MIO_NAC,RO,2007-01-01,-196051.0
NSA,FA,S1,S1,N_LE,WRL_REST,MIO_NAC,RO,2008-01-01,-275337.0
NSA,FA,S1,S1,N_LE,WRL_REST,MIO_NAC,RO,2009-01-01,-316329.0
NSA,FA,S1,S1,N_LE,WRL_REST,MIO_NAC,RO,2010-01-01,-338476.0
NSA,FA,S1,S1,N_LE,WRL_REST,MIO_NAC,RO,2011-01-01,-369585.0
NSA,FA,S1,S1,N_LE,WRL_REST,MIO_NAC,RO,2012-01-01,-401364.0
NSA,FA,S1,S1,N_LE,WRL_REST,MIO_NAC,RO,2013-01-01,-401775.0
NSA,FA,S1,S1,N_LE,WRL_REST,MIO_NAC,RO,2014-01-01,-381529.0
NSA,FA,S1,S1,N_LE,WRL_REST,MIO_NAC,RO,2015-01-01,-389619.0
NSA,FA,S1,S1,N_LE,WRL_REST,MIO_NAC,RO,2016-01-01,-376014.0
NSA,FA,S1,S1,N_LE,WRL_REST,MIO_NAC,RO,2017-01-01,-407020.0
NSA,FA,S1,S1,N_LE,WRL_REST,MIO_NAC,RO,2018-01-01,-416488.0
NSA,FA,S1,S1,N_LE,WRL_REST,MIO_NAC,RO,2019-01-01,-456958.0
NSA,FA,S1,S1,N_LE,WRL_REST,MIO_NAC,SE,1995-01-01,
NSA,FA,S1,S1,N_LE,WRL_REST,MIO_NAC,SE,1996-01-01,
NSA,FA,S1,S1,N_LE,WRL_REST,MIO_NAC,SE,1997-01-01,
NSA,FA,S1,S1,N_LE,WRL_REST,MIO_NAC,SE,1998-01-01,-745132.0
NSA,FA,S1,S1,N_LE,WRL_REST,MIO_NAC,SE,1999-01-01,-731938.0
NSA,FA,S1,S1,N_LE,WRL_REST,MIO_NAC,SE,2000-01-01,-790553.0
NSA,FA,S1,S1,N_LE,WRL_REST,MIO_NAC,SE,2001-01-01,-575255.0
NSA,FA,S1,S1,N_LE,WRL_REST,MIO_NAC,SE,2002-01-01,-536705.0
NSA,FA,S1,S1,N_LE,WRL_REST,MIO_NAC,SE,2003-01-01,-465914.0
NSA,FA,S1,S1,N_LE,WRL_REST,MIO_NAC,SE,2004-01-01,-607085.0
NSA,FA,S1,S1,N_LE,WRL_REST,MIO_NAC,SE,2005-01-01,-504742.0
NSA,FA,S1,S1,N_LE,WRL_REST,MIO_NAC,SE,2006-01-01,-304253.0
NSA,FA,S1,S1,N_LE,WRL_REST,MIO_NAC,SE,2007-01-01,39226.0
NSA,FA,S1,S1,N_LE,WRL_REST,MIO_NAC,SE,2008-01-01,-268691.0
NSA,FA,S1,S1,N_LE,WRL_REST,MIO_NAC,SE,2009-01-01,-237940.0
NSA,FA,S1,S1,N_LE,WRL_REST,MIO_NAC,SE,2010-01-01,-195903.0
NSA,FA,S1,S1,N_LE,WRL_REST,MIO_NAC,SE,2011-01-01,-310017.0
NSA,FA,S1,S1,N_LE,WRL_REST,MIO_NAC,SE,2012-01-01,-580404.0
NSA,FA,S1,S1,N_LE,WRL_REST,MIO_NAC,SE,2013-01-01,-605549.0
NSA,FA,S1,S1,N_LE,WRL_REST,MIO_NAC,SE,2014-01-01,-90607.0
NSA,FA,S1,S1,N_LE,WRL_REST,MIO_NAC,SE,2015-01-01,-219928.0
NSA,FA,S1,S1,N_LE,WRL_REST,MIO_NAC,SE,2016-01-01,-83009.0
NSA,FA,S1,S1,N_LE,WRL_REST,MIO_NAC,SE,2017-01-01,62860.0
NSA,FA,S1,S1,N_LE,WRL_REST,MIO_NAC,SE,2018-01-01,388799.0
NSA,FA,S1,S1,N_LE,WRL_REST,MIO_NAC,SE,2019-01-01,1050329.0
NSA,FA,S1,S1,N_LE,WRL_REST,MIO_NAC,SI,1995-01-01,330.9
NSA,FA,S1,S1,N_LE,WRL_REST,MIO_NAC,SI,1996-01-01,-448.4
NSA,FA,S1,S1,N_LE,WRL_REST,MIO_NAC,SI,1997-01-01,-392.5
NSA,FA,S1,S1,N_LE,WRL_REST,MIO_NAC,SI,1998-01-01,-872.8
NSA,FA,S1,S1,N_LE,WRL_REST,MIO_NAC,SI,1999-01-01,-2005.3
NSA,FA,S1,S1,N_LE,WRL_REST,MIO_NAC,SI,2000-01-01,-2581.2
NSA,FA,S1,S1,N_LE,WRL_REST,MIO_NAC,SI,2001-01-01,-485.0
NSA,FA,S1,S1,N_LE,WRL_REST,MIO_NAC,SI,2002-01-01,27.0
NSA,FA,S1,S1,N_LE,WRL_REST,MIO_NAC,SI,2003-01-01,-1481.0
NSA,FA,S1,S1,N_LE,WRL_REST,MIO_NAC,SI,2004-01-01,-2130.0
NSA,FA,S1,S1,N_LE,WRL_REST,MIO_NAC,SI,2005-01-01,-3160.0
NSA,FA,S1,S1,N_LE,WRL_REST,MIO_NAC,SI,2006-01-01,-5289.0
NSA,FA,S1,S1,N_LE,WRL_REST,MIO_NAC,SI,2007-01-01,-8950.0
NSA,FA,S1,S1,N_LE,WRL_REST,MIO_NAC,SI,2008-01-01,-14935.0
NSA,FA,S1,S1,N_LE,WRL_REST,MIO_NAC,SI,2009-01-01,-14712.1
NSA,FA,S1,S1,N_LE,WRL_REST,MIO_NAC,SI,2010-01-01,-15664.8
NSA,FA,S1,S1,N_LE,WRL_REST,MIO_NAC,SI,2011-01-01,-14736.5
NSA,FA,S1,S1,N_LE,WRL_REST,MIO_NAC,SI,2012-01-01,-15958.3
NSA,FA,S1,S1,N_LE,WRL_REST,MIO_NAC,SI,2013-01-01,-14344.1
NSA,FA,S1,S1,N_LE,WRL_REST,MIO_NAC,SI,2014-01-01,-14448.8
NSA,FA,S1,S1,N_LE,WRL_REST,MIO_NAC,SI,2015-01-01,-12115.4
NSA,FA,S1,S1,N_LE,WRL_REST,MIO_NAC,SI,2016-01-01,-11646.3
NSA,FA,S1,S1,N_LE,WRL_REST,MIO_NAC,SI,2017-01-01,-10421.4
NSA,FA,S1,S1,N_LE,WRL_REST,MIO_NAC,SI,2018-01-01,-8669.6
NSA,FA,S1,S1,N_LE,WRL_REST,MIO_NAC,SI,2019-01-01,-9288.9
NSA,FA,S1,S1,N_LE,WRL_REST,MIO_NAC,SK,1995-01-01,
NSA,FA,S1,S1,N_LE,WRL_REST,MIO_NAC,SK,1996-01-01,
NSA,FA,S1,S1,N_LE,WRL_REST,MIO_NAC,SK,1997-01-01,
NSA,FA,S1,S1,N_LE,WRL_REST,MIO_NAC,SK,1998-01-01,
NSA,FA,S1,S1,N_LE,WRL_REST,MIO_NAC,SK,1999-01-01,
NSA,FA,S1,S1,N_LE,WRL_REST,MIO_NAC,SK,2000-01-01,
NSA,FA,S1,S1,N_LE,WRL_REST,MIO_NAC,SK,2001-01-01,
NSA,FA,S1,S1,N_LE,WRL_REST,MIO_NAC,SK,2002-01-01,
NSA,FA,S1,S1,N_LE,WRL_REST,MIO_NAC,SK,2003-01-01,
NSA,FA,S1,S1,N_LE,WRL_REST,MIO_NAC,SK,2004-01-01,-17934.0
NSA,FA,S1,S1,N_LE,WRL_REST,MIO_NAC,SK,2005-01-01,-23940.2
NSA,FA,S1,S1,N_LE,WRL_REST,MIO_NAC,SK,2006-01-01,-29525.1
NSA,FA,S1,S1,N_LE,WRL_REST,MIO_NAC,SK,2007-01-01,-31717.9
NSA,FA,S1,S1,N_LE,WRL_REST,MIO_NAC,SK,2008-01-01,-38346.1
NSA,FA,S1,S1,N_LE,WRL_REST,MIO_NAC,SK,2009-01-01,-42555.1
NSA,FA,S1,S1,N_LE,WRL_REST,MIO_NAC,SK,2010-01-01,-41863.4
NSA,FA,S1,S1,N_LE,WRL_REST,MIO_NAC,SK,2011-01-01,-45512.3
NSA,FA,S1,S1,N_LE,WRL_REST,MIO_NAC,SK,2012-01-01,-44508.9
NSA,FA,S1,S1,N_LE,WRL_REST,MIO_NAC,SK,2013-01-01,-46212.1
NSA,FA,S1,S1,N_LE,WRL_REST,MIO_NAC,SK,2014-01-01,-48385.8
NSA,FA,S1,S1,N_LE,WRL_REST,MIO_NAC,SK,2015-01-01,-50984.0
NSA,FA,S1,S1,N_LE,WRL_REST,MIO_NAC,SK,2016-01-01,-54112.4
NSA,FA,S1,S1,N_LE,WRL_REST,MIO_NAC,SK,2017-01-01,-57704.5
NSA,FA,S1,S1,N_LE,WRL_REST,MIO_NAC,SK,2018-01-01,-61065.5
NSA,FA,S1,S1,N_LE,WRL_REST,MIO_NAC,SK,2019-01-01,-61711.4
NSA,FA,S1,S1,N_LE,WRL_REST,MIO_NAC,UK,1995-01-01,
NSA,FA,S1,S1,N_LE,WRL_REST,MIO_NAC,UK,1996-01-01,
NSA,FA,S1,S1,N_LE,WRL_REST,MIO_NAC,UK,1997-01-01,
NSA,FA,S1,S1,N_LE,WRL_REST,MIO_NAC,UK,1998-01-01,
NSA,FA,S1,S1,N_LE,WRL_REST,MIO_NAC,UK,1999-01-01,-64513.0
NSA,FA,S1,S1,N_LE,WRL_REST,MIO_NAC,UK,2000-01-01,23682.0
NSA,FA,S1,S1,N_LE,WRL_REST,MIO_NAC,UK,2001-01-01,-23494.0
NSA,FA,S1,S1,N_LE,WRL_REST,MIO_NAC,UK,2002-01-01,41228.0
NSA,FA,S1,S1,N_LE,WRL_REST,MIO_NAC,UK,2003-01-01,31699.0
NSA,FA,S1,S1,N_LE,WRL_REST,MIO_NAC,UK,2004-01-01,-49896.0
NSA,FA,S1,S1,N_LE,WRL_REST,MIO_NAC,UK,2005-01-01,-40429.0
NSA,FA,S1,S1,N_LE,WRL_REST,MIO_NAC,UK,2006-01-01,-125228.0
NSA,FA,S1,S1,N_LE,WRL_REST,MIO_NAC,UK,2007-01-01,-135970.0
NSA,FA,S1,S1,N_LE,WRL_REST,MIO_NAC,UK,2008-01-01,141752.0
NSA,FA,S1,S1,N_LE,WRL_REST,MIO_NAC,UK,2009-01-01,-250271.0
NSA,FA,S1,S1,N_LE,WRL_REST,MIO_NAC,UK,2010-01-01,-126763.0
NSA,FA,S1,S1,N_LE,WRL_REST,MIO_NAC,UK,2011-01-01,-191804.0
NSA,FA,S1,S1,N_LE,WRL_REST,MIO_NAC,UK,2012-01-01,-481319.0
NSA,FA,S1,S1,N_LE,WRL_REST,MIO_NAC,UK,2013-01-01,-316763.0
NSA,FA,S1,S1,N_LE,WRL_REST,MIO_NAC,UK,2014-01-01,-424815.0
NSA,FA,S1,S1,N_LE,WRL_REST,MIO_NAC,UK,2015-01-01,-434649.0
NSA,FA,S1,S1,N_LE,WRL_REST,MIO_NAC,UK,2016-01-01,6288.0
NSA,FA,S1,S1,N_LE,WRL_REST,MIO_NAC,UK,2017-01-01,-208133.0
NSA,FA,S1,S1,N_LE,WRL_REST,MIO_NAC,UK,2018-01-01,-275139.0
NSA,FA,S1,S1,N_LE,WRL_REST,MIO_NAC,UK,2019-01-01,-558118.0
NSA,FA,S1,S1,N_LE,WRL_REST,PC_GDP,AT,1995-01-01,
NSA,FA,S1,S1,N_LE,WRL_REST,PC_GDP,AT,1996-01-01,
NSA,FA,S1,S1,N_LE,WRL_REST,PC_GDP,AT,1997-01-01,
NSA,FA,S1,S1,N_LE,WRL_REST,PC_GDP,AT,1998-01-01,
NSA,FA,S1,S1,N_LE,WRL_REST,PC_GDP,AT,1999-01-01,-16.7
NSA,FA,S1,S1,N_LE,WRL_REST,PC_GDP,AT,2000-01-01,-16.2
NSA,FA,S1,S1,N_LE,WRL_REST,PC_GDP,AT,2001-01-01,-20.9
NSA,FA,S1,S1,N_LE,WRL_REST,PC_GDP,AT,2002-01-01,-20.5
NSA,FA,S1,S1,N_LE,WRL_REST,PC_GDP,AT,2003-01-01,-12.8
NSA,FA,S1,S1,N_LE,WRL_REST,PC_GDP,AT,2004-01-01,-13.0
NSA,FA,S1,S1,N_LE,WRL_REST,PC_GDP,AT,2005-01-01,-15.5
NSA,FA,S1,S1,N_LE,WRL_REST,PC_GDP,AT,2006-01-01,-12.9
NSA,FA,S1,S1,N_LE,WRL_REST,PC_GDP,AT,2007-01-01,-9.7
NSA,FA,S1,S1,N_LE,WRL_REST,PC_GDP,AT,2008-01-01,-10.0
NSA,FA,S1,S1,N_LE,WRL_REST,PC_GDP,AT,2009-01-01,-5.0
NSA,FA,S1,S1,N_LE,WRL_REST,PC_GDP,AT,2010-01-01,-5.2
NSA,FA,S1,S1,N_LE,WRL_REST,PC_GDP,AT,2011-01-01,-1.9
NSA,FA,S1,S1,N_LE,WRL_REST,PC_GDP,AT,2012-01-01,-3.2
NSA,FA,S1,S1,N_LE,WRL_REST,PC_GDP,AT,2013-01-01,1.3
NSA,FA,S1,S1,N_LE,WRL_REST,PC_GDP,AT,2014-01-01,3.4
NSA,FA,S1,S1,N_LE,WRL_REST,PC_GDP,AT,2015-01-01,2.2
NSA,FA,S1,S1,N_LE,WRL_REST,PC_GDP,AT,2016-01-01,4.1
NSA,FA,S1,S1,N_LE,WRL_REST,PC_GDP,AT,2017-01-01,2.8
NSA,FA,S1,S1,N_LE,WRL_REST,PC_GDP,AT,2018-01-01,3.7
NSA,FA,S1,S1,N_LE,WRL_REST,PC_GDP,AT,2019-01-01,9.6
NSA,FA,S1,S1,N_LE,WRL_REST,PC_GDP,BE,1995-01-01,
NSA,FA,S1,S1,N_LE,WRL_REST,PC_GDP,BE,1996-01-01,
NSA,FA,S1,S1,N_LE,WRL_REST,PC_GDP,BE,1997-01-01,
NSA,FA,S1,S1,N_LE,WRL_REST,PC_GDP,BE,1998-01-01,
NSA,FA,S1,S1,N_LE,WRL_REST,PC_GDP,BE,1999-01-01,
NSA,FA,S1,S1,N_LE,WRL_REST,PC_GDP,BE,2000-01-01,
NSA,FA,S1,S1,N_LE,WRL_REST,PC_GDP,BE,2001-01-01,
NSA,FA,S1,S1,N_LE,WRL_REST,PC_GDP,BE,2002-01-01,
NSA,FA,S1,S1,N_LE,WRL_REST,PC_GDP,BE,2003-01-01,
NSA,FA,S1,S1,N_LE,WRL_REST,PC_GDP,BE,2004-01-01,
NSA,FA,S1,S1,N_LE,WRL_REST,PC_GDP,BE,2005-01-01,38.6
NSA,FA,S1,S1,N_LE,WRL_REST,PC_GDP,BE,2006-01-01,34.5
NSA,FA,S1,S1,N_LE,WRL_REST,PC_GDP,BE,2007-01-01,33.7
NSA,FA,S1,S1,N_LE,WRL_REST,PC_GDP,BE,2008-01-01,42.9
NSA,FA,S1,S1,N_LE,WRL_REST,PC_GDP,BE,2009-01-01,58.2
NSA,FA,S1,S1,N_LE,WRL_REST,PC_GDP,BE,2010-01-01,56.3
NSA,FA,S1,S1,N_LE,WRL_REST,PC_GDP,BE,2011-01-01,51.4
NSA,FA,S1,S1,N_LE,WRL_REST,PC_GDP,BE,2012-01-01,40.8
NSA,FA,S1,S1,N_LE,WRL_REST,PC_GDP,BE,2013-01-01,43.2
NSA,FA,S1,S1,N_LE,WRL_REST,PC_GDP,BE,2014-01-01,44.8
NSA,FA,S1,S1,N_LE,WRL_REST,PC_GDP,BE,2015-01-01,45.2
NSA,FA,S1,S1,N_LE,WRL_REST,PC_GDP,BE,2016-01-01,54.5
NSA,FA,S1,S1,N_LE,WRL_REST,PC_GDP,BE,2017-01-01,56.8
NSA,FA,S1,S1,N_LE,WRL_REST,PC_GDP,BE,2018-01-01,38.1
NSA,FA,S1,S1,N_LE,WRL_REST,PC_GDP,BE,2019-01-01,47.2
NSA,FA,S1,S1,N_LE,WRL_REST,PC_GDP,BG,1995-01-01,
NSA,FA,S1,S1,N_LE,WRL_REST,PC_GDP,BG,1996-01-01,
NSA,FA,S1,S1,N_LE,WRL_REST,PC_GDP,BG,1997-01-01,
NSA,FA,S1,S1,N_LE,WRL_REST,PC_GDP,BG,1998-01-01,
NSA,FA,S1,S1,N_LE,WRL_REST,PC_GDP,BG,1999-01-01,-37.7
NSA,FA,S1,S1,N_LE,WRL_REST,PC_GDP,BG,2000-01-01,-32.7
NSA,FA,S1,S1,N_LE,WRL_REST,PC_GDP,BG,2001-01-01,-26.5
NSA,FA,S1,S1,N_LE,WRL_REST,PC_GDP,BG,2002-01-01,-24.7
NSA,FA,S1,S1,N_LE,WRL_REST,PC_GDP,BG,2003-01-01,-25.7
NSA,FA,S1,S1,N_LE,WRL_REST,PC_GDP,BG,2004-01-01,-29.1
NSA,FA,S1,S1,N_LE,WRL_REST,PC_GDP,BG,2005-01-01,-42.7
NSA,FA,S1,S1,N_LE,WRL_REST,PC_GDP,BG,2006-01-01,-56.0
NSA,FA,S1,S1,N_LE,WRL_REST,PC_GDP,BG,2007-01-01,-77.0
NSA,FA,S1,S1,N_LE,WRL_REST,PC_GDP,BG,2008-01-01,-93.9
NSA,FA,S1,S1,N_LE,WRL_REST,PC_GDP,BG,2009-01-01,-97.0
NSA,FA,S1,S1,N_LE,WRL_REST,PC_GDP,BG,2010-01-01,-92.4
NSA,FA,S1,S1,N_LE,WRL_REST,PC_GDP,BG,2011-01-01,-82.8
NSA,FA,S1,S1,N_LE,WRL_REST,PC_GDP,BG,2012-01-01,-77.7
NSA,FA,S1,S1,N_LE,WRL_REST,PC_GDP,BG,2013-01-01,-73.5
NSA,FA,S1,S1,N_LE,WRL_REST,PC_GDP,BG,2014-01-01,-72.2
NSA,FA,S1,S1,N_LE,WRL_REST,PC_GDP,BG,2015-01-01,-61.8
NSA,FA,S1,S1,N_LE,WRL_REST,PC_GDP,BG,2016-01-01,-47.9
NSA,FA,S1,S1,N_LE,WRL_REST,PC_GDP,BG,2017-01-01,-43.3
NSA,FA,S1,S1,N_LE,WRL_REST,PC_GDP,BG,2018-01-01,-36.8
NSA,FA,S1,S1,N_LE,WRL_REST,PC_GDP,BG,2019-01-01,-31.6
NSA,FA,S1,S1,N_LE,WRL_REST,PC_GDP,CY,1995-01-01,
NSA,FA,S1,S1,N_LE,WRL_REST,PC_GDP,CY,1996-01-01,
NSA,FA,S1,S1,N_LE,WRL_REST,PC_GDP,CY,1997-01-01,
NSA,FA,S1,S1,N_LE,WRL_REST,PC_GDP,CY,1998-01-01,
NSA,FA,S1,S1,N_LE,WRL_REST,PC_GDP,CY,1999-01-01,
NSA,FA,S1,S1,N_LE,WRL_REST,PC_GDP,CY,2000-01-01,
NSA,FA,S1,S1,N_LE,WRL_REST,PC_GDP,CY,2001-01-01,
NSA,FA,S1,S1,N_LE,WRL_REST,PC_GDP,CY,2002-01-01,
NSA,FA,S1,S1,N_LE,WRL_REST,PC_GDP,CY,2003-01-01,
NSA,FA,S1,S1,N_LE,WRL_REST,PC_GDP,CY,2004-01-01,
NSA,FA,S1,S1,N_LE,WRL_REST,PC_GDP,CY,2005-01-01,
NSA,FA,S1,S1,N_LE,WRL_REST,PC_GDP,CY,2006-01-01,-45.4
NSA,FA,S1,S1,N_LE,WRL_REST,PC_GDP,CY,2007-01-01,-56.5
NSA,FA,S1,S1,N_LE,WRL_REST,PC_GDP,CY,2008-01-01,-96.9
NSA,FA,S1,S1,N_LE,WRL_REST,PC_GDP,CY,2009-01-01,-116.0
NSA,FA,S1,S1,N_LE,WRL_REST,PC_GDP,CY,2010-01-01,-122.2
NSA,FA,S1,S1,N_LE,WRL_REST,PC_GDP,CY,2011-01-01,-141.9
NSA,FA,S1,S1,N_LE,WRL_REST,PC_GDP,CY,2012-01-01,-141.1
NSA,FA,S1,S1,N_LE,WRL_REST,PC_GDP,CY,2013-01-01,-162.5
NSA,FA,S1,S1,N_LE,WRL_REST,PC_GDP,CY,2014-01-01,-163.8
NSA,FA,S1,S1,N_LE,WRL_REST,PC_GDP,CY,2015-01-01,-154.5
NSA,FA,S1,S1,N_LE,WRL_REST,PC_GDP,CY,2016-01-01,-134.2
NSA,FA,S1,S1,N_LE,WRL_REST,PC_GDP,CY,2017-01-01,-126.5
NSA,FA,S1,S1,N_LE,WRL_REST,PC_GDP,CY,2018-01-01,-121.3
NSA,FA,S1,S1,N_LE,WRL_REST,PC_GDP,CY,2019-01-01,-116.0
NSA,FA,S1,S1,N_LE,WRL_REST,PC_GDP,CZ,1995-01-01,3.7
NSA,FA,S1,S1,N_LE,WRL_REST,PC_GDP,CZ,1996-01-01,-3.8
NSA,FA,S1,S1,N_LE,WRL_REST,PC_GDP,CZ,1997-01-01,-5.5
NSA,FA,S1,S1,N_LE,WRL_REST,PC_GDP,CZ,1998-01-01,-5.5
NSA,FA,S1,S1,N_LE,WRL_REST,PC_GDP,CZ,1999-01-01,-4.9
NSA,FA,S1,S1,N_LE,WRL_REST,PC_GDP,CZ,2000-01-01,-8.1
NSA,FA,S1,S1,N_LE,WRL_REST,PC_GDP,CZ,2001-01-01,-9.5
NSA,FA,S1,S1,N_LE,WRL_REST,PC_GDP,CZ,2002-01-01,-14.8
NSA,FA,S1,S1,N_LE,WRL_REST,PC_GDP,CZ,2003-01-01,-18.8
NSA,FA,S1,S1,N_LE,WRL_REST,PC_GDP,CZ,2004-01-01,-24.0
NSA,FA,S1,S1,N_LE,WRL_REST,PC_GDP,CZ,2005-01-01,-23.1
NSA,FA,S1,S1,N_LE,WRL_REST,PC_GDP,CZ,2006-01-01,-28.1
NSA,FA,S1,S1,N_LE,WRL_REST,PC_GDP,CZ,2007-01-01,-36.4
NSA,FA,S1,S1,N_LE,WRL_REST,PC_GDP,CZ,2008-01-01,-38.1
NSA,FA,S1,S1,N_LE,WRL_REST,PC_GDP,CZ,2009-01-01,-43.9
NSA,FA,S1,S1,N_LE,WRL_REST,PC_GDP,CZ,2010-01-01,-46.0
NSA,FA,S1,S1,N_LE,WRL_REST,PC_GDP,CZ,2011-01-01,-45.2
NSA,FA,S1,S1,N_LE,WRL_REST,PC_GDP,CZ,2012-01-01,-45.9
NSA,FA,S1,S1,N_LE,WRL_REST,PC_GDP,CZ,2013-01-01,-41.4
NSA,FA,S1,S1,N_LE,WRL_REST,PC_GDP,CZ,2014-01-01,-36.6
NSA,FA,S1,S1,N_LE,WRL_REST,PC_GDP,CZ,2015-01-01,-32.9
NSA,FA,S1,S1,N_LE,WRL_REST,PC_GDP,CZ,2016-01-01,-26.9
NSA,FA,S1,S1,N_LE,WRL_REST,PC_GDP,CZ,2017-01-01,-25.0
NSA,FA,S1,S1,N_LE,WRL_REST,PC_GDP,CZ,2018-01-01,-24.8
NSA,FA,S1,S1,N_LE,WRL_REST,PC_GDP,CZ,2019-01-01,-20.7
NSA,FA,S1,S1,N_LE,WRL_REST,PC_GDP,DE,1995-01-01,
NSA,FA,S1,S1,N_LE,WRL_REST,PC_GDP,DE,1996-01-01,
NSA,FA,S1,S1,N_LE,WRL_REST,PC_GDP,DE,1997-01-01,
NSA,FA,S1,S1,N_LE,WRL_REST,PC_GDP,DE,1998-01-01,
NSA,FA,S1,S1,N_LE,WRL_REST,PC_GDP,DE,1999-01-01,3.1
NSA,FA,S1,S1,N_LE,WRL_REST,PC_GDP,DE,2000-01-01,1.6
NSA,FA,S1,S1,N_LE,WRL_REST,PC_GDP,DE,2001-01-01,6.5
NSA,FA,S1,S1,N_LE,WRL_REST,PC_GDP,DE,2002-01-01,0.0
NSA,FA,S1,S1,N_LE,WRL_REST,PC_GDP,DE,2003-01-01,0.8
NSA,FA,S1,S1,N_LE,WRL_REST,PC_GDP,DE,2004-01-01,4.5
NSA,FA,S1,S1,N_LE,WRL_REST,PC_GDP,DE,2005-01-01,13.4
NSA,FA,S1,S1,N_LE,WRL_REST,PC_GDP,DE,2006-01-01,19.8
NSA,FA,S1,S1,N_LE,WRL_REST,PC_GDP,DE,2007-01-01,18.8
NSA,FA,S1,S1,N_LE,WRL_REST,PC_GDP,DE,2008-01-01,18.3
NSA,FA,S1,S1,N_LE,WRL_REST,PC_GDP,DE,2009-01-01,25.1
NSA,FA,S1,S1,N_LE,WRL_REST,PC_GDP,DE,2010-01-01,25.8
NSA,FA,S1,S1,N_LE,WRL_REST,PC_GDP,DE,2011-01-01,23.3
NSA,FA,S1,S1,N_LE,WRL_REST,PC_GDP,DE,2012-01-01,28.7
NSA,FA,S1,S1,N_LE,WRL_REST,PC_GDP,DE,2013-01-01,34.7
NSA,FA,S1,S1,N_LE,WRL_REST,PC_GDP,DE,2014-01-01,40.8
NSA,FA,S1,S1,N_LE,WRL_REST,PC_GDP,DE,2015-01-01,46.5
NSA,FA,S1,S1,N_LE,WRL_REST,PC_GDP,DE,2016-01-01,51.4
NSA,FA,S1,S1,N_LE,WRL_REST,PC_GDP,DE,2017-01-01,56.3
NSA,FA,S1,S1,N_LE,WRL_REST,PC_GDP,DE,2018-01-01,62.5
NSA,FA,S1,S1,N_LE,WRL_REST,PC_GDP,DE,2019-01-01,71.2
NSA,FA,S1,S1,N_LE,WRL_REST,PC_GDP,DK,1995-01-01,
NSA,FA,S1,S1,N_LE,WRL_REST,PC_GDP,DK,1996-01-01,
NSA,FA,S1,S1,N_LE,WRL_REST,PC_GDP,DK,1997-01-01,
NSA,FA,S1,S1,N_LE,WRL_REST,PC_GDP,DK,1998-01-01,
NSA,FA,S1,S1,N_LE,WRL_REST,PC_GDP,DK,1999-01-01,
NSA,FA,S1,S1,N_LE,WRL_REST,PC_GDP,DK,2000-01-01,
NSA,FA,S1,S1,N_LE,WRL_REST,PC_GDP,DK,2001-01-01,
NSA,FA,S1,S1,N_LE,WRL_REST,PC_GDP,DK,2002-01-01,
NSA,FA,S1,S1,N_LE,WRL_REST,PC_GDP,DK,2003-01-01,
NSA,FA,S1,S1,N_LE,WRL_REST,PC_GDP,DK,2004-01-01,
NSA,FA,S1,S1,N_LE,WRL_REST,PC_GDP,DK,2005-01-01,3.8
NSA,FA,S1,S1,N_LE,WRL_REST,PC_GDP,DK,2006-01-01,-0.3
NSA,FA,S1,S1,N_LE,WRL_REST,PC_GDP,DK,2007-01-01,-5.8
NSA,FA,S1,S1,N_LE,WRL_REST,PC_GDP,DK,2008-01-01,-5.1
NSA,FA,S1,S1,N_LE,WRL_REST,PC_GDP,DK,2009-01-01,0.9
NSA,FA,S1,S1,N_LE,WRL_REST,PC_GDP,DK,2010-01-01,12.8
NSA,FA,S1,S1,N_LE,WRL_REST,PC_GDP,DK,2011-01-01,27.8
NSA,FA,S1,S1,N_LE,WRL_REST,PC_GDP,DK,2012-01-01,36.1
NSA,FA,S1,S1,N_LE,WRL_REST,PC_GDP,DK,2013-01-01,37.2
NSA,FA,S1,S1,N_LE,WRL_REST,PC_GDP,DK,2014-01-01,43.3
NSA,FA,S1,S1,N_LE,WRL_REST,PC_GDP,DK,2015-01-01,33.4
NSA,FA,S1,S1,N_LE,WRL_REST,PC_GDP,DK,2016-01-01,52.6
NSA,FA,S1,S1,N_LE,WRL_REST,PC_GDP,DK,2017-01-01,55.4
NSA,FA,S1,S1,N_LE,WRL_REST,PC_GDP,DK,2018-01-01,64.4
NSA,FA,S1,S1,N_LE,WRL_REST,PC_GDP,DK,2019-01-01,78.1
NSA,FA,S1,S1,N_LE,WRL_REST,PC_GDP,EE,1995-01-01,
NSA,FA,S1,S1,N_LE,WRL_REST,PC_GDP,EE,1996-01-01,-13.3
NSA,FA,S1,S1,N_LE,WRL_REST,PC_GDP,EE,1997-01-01,-34.5
NSA,FA,S1,S1,N_LE,WRL_REST,PC_GDP,EE,1998-01-01,-36.4
NSA,FA,S1,S1,N_LE,WRL_REST,PC_GDP,EE,1999-01-01,-51.2
NSA,FA,S1,S1,N_LE,WRL_REST,PC_GDP,EE,2000-01-01,-48.0
NSA,FA,S1,S1,N_LE,WRL_REST,PC_GDP,EE,2001-01-01,-48.2
NSA,FA,S1,S1,N_LE,WRL_REST,PC_GDP,EE,2002-01-01,-53.2
NSA,FA,S1,S1,N_LE,WRL_REST,PC_GDP,EE,2003-01-01,-65.6
NSA,FA,S1,S1,N_LE,WRL_REST,PC_GDP,EE,2004-01-01,-85.7
NSA,FA,S1,S1,N_LE,WRL_REST,PC_GDP,EE,2005-01-01,-84.1
NSA,FA,S1,S1,N_LE,WRL_REST,PC_GDP,EE,2006-01-01,-73.1
NSA,FA,S1,S1,N_LE,WRL_REST,PC_GDP,EE,2007-01-01,-70.6
NSA,FA,S1,S1,N_LE,WRL_REST,PC_GDP,EE,2008-01-01,-74.9
NSA,FA,S1,S1,N_LE,WRL_REST,PC_GDP,EE,2009-01-01,-78.2
NSA,FA,S1,S1,N_LE,WRL_REST,PC_GDP,EE,2010-01-01,-69.4
NSA,FA,S1,S1,N_LE,WRL_REST,PC_GDP,EE,2011-01-01,-54.0
NSA,FA,S1,S1,N_LE,WRL_REST,PC_GDP,EE,2012-01-01,-50.7
NSA,FA,S1,S1,N_LE,WRL_REST,PC_GDP,EE,2013-01-01,-49.7
NSA,FA,S1,S1,N_LE,WRL_REST,PC_GDP,EE,2014-01-01,-46.7
NSA,FA,S1,S1,N_LE,WRL_REST,PC_GDP,EE,2015-01-01,-39.9
NSA,FA,S1,S1,N_LE,WRL_REST,PC_GDP,EE,2016-01-01,-39.2
NSA,FA,S1,S1,N_LE,WRL_REST,PC_GDP,EE,2017-01-01,-32.5
NSA,FA,S1,S1,N_LE,WRL_REST,PC_GDP,EE,2018-01-01,-27.7
NSA,FA,S1,S1,N_LE,WRL_REST,PC_GDP,EE,2019-01-01,-19.7
NSA,FA,S1,S1,N_LE,WRL_REST,PC_GDP,EL,1995-01-01,
NSA,FA,S1,S1,N_LE,WRL_REST,PC_GDP,EL,1996-01-01,
NSA,FA,S1,S1,N_LE,WRL_REST,PC_GDP,EL,1997-01-01,
NSA,FA,S1,S1,N_LE,WRL_REST,PC_GDP,EL,1998-01-01,
NSA,FA,S1,S1,N_LE,WRL_REST,PC_GDP,EL,1999-01-01,
NSA,FA,S1,S1,N_LE,WRL_REST,PC_GDP,EL,2000-01-01,
NSA,FA,S1,S1,N_LE,WRL_REST,PC_GDP,EL,2001-01-01,
NSA,FA,S1,S1,N_LE,WRL_REST,PC_GDP,EL,2002-01-01,
NSA,FA,S1,S1,N_LE,WRL_REST,PC_GDP,EL,2003-01-01,-59.6
NSA,FA,S1,S1,N_LE,WRL_REST,PC_GDP,EL,2004-01-01,-66.9
NSA,FA,S1,S1,N_LE,WRL_REST,PC_GDP,EL,2005-01-01,-75.6
NSA,FA,S1,S1,N_LE,WRL_REST,PC_GDP,EL,2006-01-01,-82.6
NSA,FA,S1,S1,N_LE,WRL_REST,PC_GDP,EL,2007-01-01,-93.7
NSA,FA,S1,S1,N_LE,WRL_REST,PC_GDP,EL,2008-01-01,-75.8
NSA,FA,S1,S1,N_LE,WRL_REST,PC_GDP,EL,2009-01-01,-87.5
NSA,FA,S1,S1,N_LE,WRL_REST,PC_GDP,EL,2010-01-01,-99.0
NSA,FA,S1,S1,N_LE,WRL_REST,PC_GDP,EL,2011-01-01,-88.8
NSA,FA,S1,S1,N_LE,WRL_REST,PC_GDP,EL,2012-01-01,-115.9
NSA,FA,S1,S1,N_LE,WRL_REST,PC_GDP,EL,2013-01-01,-130.4
NSA,FA,S1,S1,N_LE,WRL_REST,PC_GDP,EL,2014-01-01,-131.9
NSA,FA,S1,S1,N_LE,WRL_REST,PC_GDP,EL,2015-01-01,-135.4
NSA,FA,S1,S1,N_LE,WRL_REST,PC_GDP,EL,2016-01-01,-137.6
NSA,FA,S1,S1,N_LE,WRL_REST,PC_GDP,EL,2017-01-01,-140.7
NSA,FA,S1,S1,N_LE,WRL_REST,PC_GDP,EL,2018-01-01,-143.6
NSA,FA,S1,S1,N_LE,WRL_REST,PC_GDP,EL,2019-01-01,-150.6
NSA,FA,S1,S1,N_LE,WRL_REST,PC_GDP,ES,1995-01-01,-20.6
NSA,FA,S1,S1,N_LE,WRL_REST,PC_GDP,ES,1996-01-01,-23.1
NSA,FA,S1,S1,N_LE,WRL_REST,PC_GDP,ES,1997-01-01,-27.6
NSA,FA,S1,S1,N_LE,WRL_REST,PC_GDP,ES,1998-01-01,-36.1
NSA,FA,S1,S1,N_LE,WRL_REST,PC_GDP,ES,1999-01-01,-34.8
NSA,FA,S1,S1,N_LE,WRL_REST,PC_GDP,ES,2000-01-01,-34.9
NSA,FA,S1,S1,N_LE,WRL_REST,PC_GDP,ES,2001-01-01,-38.6
NSA,FA,S1,S1,N_LE,WRL_REST,PC_GDP,ES,2002-01-01,-45.7
NSA,FA,S1,S1,N_LE,WRL_REST,PC_GDP,ES,2003-01-01,-50.6
NSA,FA,S1,S1,N_LE,WRL_REST,PC_GDP,ES,2004-01-01,-59.6
NSA,FA,S1,S1,N_LE,WRL_REST,PC_GDP,ES,2005-01-01,-63.9
NSA,FA,S1,S1,N_LE,WRL_REST,PC_GDP,ES,2006-01-01,-73.1
NSA,FA,S1,S1,N_LE,WRL_REST,PC_GDP,ES,2007-01-01,-85.3
NSA,FA,S1,S1,N_LE,WRL_REST,PC_GDP,ES,2008-01-01,-85.4
NSA,FA,S1,S1,N_LE,WRL_REST,PC_GDP,ES,2009-01-01,-97.6
NSA,FA,S1,S1,N_LE,WRL_REST,PC_GDP,ES,2010-01-01,-91.0
NSA,FA,S1,S1,N_LE,WRL_REST,PC_GDP,ES,2011-01-01,-93.8
NSA,FA,S1,S1,N_LE,WRL_REST,PC_GDP,ES,2012-01-01,-88.9
NSA,FA,S1,S1,N_LE,WRL_REST,PC_GDP,ES,2013-01-01,-92.8
NSA,FA,S1,S1,N_LE,WRL_REST,PC_GDP,ES,2014-01-01,-95.9
NSA,FA,S1,S1,N_LE,WRL_REST,PC_GDP,ES,2015-01-01,-88.9
NSA,FA,S1,S1,N_LE,WRL_REST,PC_GDP,ES,2016-01-01,-85.5
NSA,FA,S1,S1,N_LE,WRL_REST,PC_GDP,ES,2017-01-01,-85.5
NSA,FA,S1,S1,N_LE,WRL_REST,PC_GDP,ES,2018-01-01,-80.2
NSA,FA,S1,S1,N_LE,WRL_REST,PC_GDP,ES,2019-01-01,-74.0
NSA,FA,S1,S1,N_LE,WRL_REST,PC_GDP,FI,1995-01-01,
NSA,FA,S1,S1,N_LE,WRL_REST,PC_GDP,FI,1996-01-01,
NSA,FA,S1,S1,N_LE,WRL_REST,PC_GDP,FI,1997-01-01,
NSA,FA,S1,S1,N_LE,WRL_REST,PC_GDP,FI,1998-01-01,
NSA,FA,S1,S1,N_LE,WRL_REST,PC_GDP,FI,1999-01-01,-181.2
NSA,FA,S1,S1,N_LE,WRL_REST,PC_GDP,FI,2000-01-01,-155.8
NSA,FA,S1,S1,N_LE,WRL_REST,PC_GDP,FI,2001-01-01,-91.9
NSA,FA,S1,S1,N_LE,WRL_REST,PC_GDP,FI,2002-01-01,-48.5
NSA,FA,S1,S1,N_LE,WRL_REST,PC_GDP,FI,2003-01-01,-62.5
NSA,FA,S1,S1,N_LE,WRL_REST,PC_GDP,FI,2004-01-01,-9.3
NSA,FA,S1,S1,N_LE,WRL_REST,PC_GDP,FI,2005-01-01,-14.0
NSA,FA,S1,S1,N_LE,WRL_REST,PC_GDP,FI,2006-01-01,-45.1
NSA,FA,S1,S1,N_LE,WRL_REST,PC_GDP,FI,2007-01-01,-28.2
NSA,FA,S1,S1,N_LE,WRL_REST,PC_GDP,FI,2008-01-01,-4.9
NSA,FA,S1,S1,N_LE,WRL_REST,PC_GDP,FI,2009-01-01,2.6
NSA,FA,S1,S1,N_LE,WRL_REST,PC_GDP,FI,2010-01-01,15.5
NSA,FA,S1,S1,N_LE,WRL_REST,PC_GDP,FI,2011-01-01,13.9
NSA,FA,S1,S1,N_LE,WRL_REST,PC_GDP,FI,2012-01-01,10.6
NSA,FA,S1,S1,N_LE,WRL_REST,PC_GDP,FI,2013-01-01,3.0
NSA,FA,S1,S1,N_LE,WRL_REST,PC_GDP,FI,2014-01-01,-3.1
NSA,FA,S1,S1,N_LE,WRL_REST,PC_GDP,FI,2015-01-01,4.8
NSA,FA,S1,S1,N_LE,WRL_REST,PC_GDP,FI,2016-01-01,5.2
NSA,FA,S1,S1,N_LE,WRL_REST,PC_GDP,FI,2017-01-01,0.1
NSA,FA,S1,S1,N_LE,WRL_REST,PC_GDP,FI,2018-01-01,-6.6
NSA,FA,S1,S1,N_LE,WRL_REST,PC_GDP,FI,2019-01-01,1.7
NSA,FA,S1,S1,N_LE,WRL_REST,PC_GDP,FR,1995-01-01,
NSA,FA,S1,S1,N_LE,WRL_REST,PC_GDP,FR,1996-01-01,
NSA,FA,S1,S1,N_LE,WRL_REST,PC_GDP,FR,1997-01-01,
NSA,FA,S1,S1,N_LE,WRL_REST,PC_GDP,FR,1998-01-01,
NSA,FA,S1,S1,N_LE,WRL_REST,PC_GDP,FR,1999-01-01,0.9
NSA,FA,S1,S1,N_LE,WRL_REST,PC_GDP,FR,2000-01-01,2.2
NSA,FA,S1,S1,N_LE,WRL_REST,PC_GDP,FR,2001-01-01,8.0
NSA,FA,S1,S1,N_LE,WRL_REST,PC_GDP,FR,2002-01-01,6.7
NSA,FA,S1,S1,N_LE,WRL_REST,PC_GDP,FR,2003-01-01,-3.1
NSA,FA,S1,S1,N_LE,WRL_REST,PC_GDP,FR,2004-01-01,-3.4
NSA,FA,S1,S1,N_LE,WRL_REST,PC_GDP,FR,2005-01-01,-2.0
NSA,FA,S1,S1,N_LE,WRL_REST,PC_GDP,FR,2006-01-01,-4.8
NSA,FA,S1,S1,N_LE,WRL_REST,PC_GDP,FR,2007-01-01,-8.9
NSA,FA,S1,S1,N_LE,WRL_REST,PC_GDP,FR,2008-01-01,-13.8
NSA,FA,S1,S1,N_LE,WRL_REST,PC_GDP,FR,2009-01-01,-14.8
NSA,FA,S1,S1,N_LE,WRL_REST,PC_GDP,FR,2010-01-01,-9.3
NSA,FA,S1,S1,N_LE,WRL_REST,PC_GDP,FR,2011-01-01,-8.7
NSA,FA,S1,S1,N_LE,WRL_REST,PC_GDP,FR,2012-01-01,-12.8
NSA,FA,S1,S1,N_LE,WRL_REST,PC_GDP,FR,2013-01-01,-16.6
NSA,FA,S1,S1,N_LE,WRL_REST,PC_GDP,FR,2014-01-01,-15.6
NSA,FA,S1,S1,N_LE,WRL_REST,PC_GDP,FR,2015-01-01,-12.9
NSA,FA,S1,S1,N_LE,WRL_REST,PC_GDP,FR,2016-01-01,-13.0
NSA,FA,S1,S1,N_LE,WRL_REST,PC_GDP,FR,2017-01-01,-16.6
NSA,FA,S1,S1,N_LE,WRL_REST,PC_GDP,FR,2018-01-01,-16.4
NSA,FA,S1,S1,N_LE,WRL_REST,PC_GDP,FR,2019-01-01,-23.3
NSA,FA,S1,S1,N_LE,WRL_REST,PC_GDP,HR,1995-01-01,
NSA,FA,S1,S1,N_LE,WRL_REST,PC_GDP,HR,1996-01-01,
NSA,FA,S1,S1,N_LE,WRL_REST,PC_GDP,HR,1997-01-01,
NSA,FA,S1,S1,N_LE,WRL_REST,PC_GDP,HR,1998-01-01,
NSA,FA,S1,S1,N_LE,WRL_REST,PC_GDP,HR,1999-01-01,-21.1
NSA,FA,S1,S1,N_LE,WRL_REST,PC_GDP,HR,2000-01-01,-26.8
NSA,FA,S1,S1,N_LE,WRL_REST,PC_GDP,HR,2001-01-01,-19.9
NSA,FA,S1,S1,N_LE,WRL_REST,PC_GDP,HR,2002-01-01,-29.5
NSA,FA,S1,S1,N_LE,WRL_REST,PC_GDP,HR,2003-01-01,-39.4
NSA,FA,S1,S1,N_LE,WRL_REST,PC_GDP,HR,2004-01-01,-50.4
NSA,FA,S1,S1,N_LE,WRL_REST,PC_GDP,HR,2005-01-01,-59.2
NSA,FA,S1,S1,N_LE,WRL_REST,PC_GDP,HR,2006-01-01,-76.5
NSA,FA,S1,S1,N_LE,WRL_REST,PC_GDP,HR,2007-01-01,-91.8
NSA,FA,S1,S1,N_LE,WRL_REST,PC_GDP,HR,2008-01-01,-77.0
NSA,FA,S1,S1,N_LE,WRL_REST,PC_GDP,HR,2009-01-01,-89.1
NSA,FA,S1,S1,N_LE,WRL_REST,PC_GDP,HR,2010-01-01,-95.4
NSA,FA,S1,S1,N_LE,WRL_REST,PC_GDP,HR,2011-01-01,-93.1
NSA,FA,S1,S1,N_LE,WRL_REST,PC_GDP,HR,2012-01-01,-91.6
NSA,FA,S1,S1,N_LE,WRL_REST,PC_GDP,HR,2013-01-01,-89.5
NSA,FA,S1,S1,N_LE,WRL_REST,PC_GDP,HR,2014-01-01,-86.8
NSA,FA,S1,S1,N_LE,WRL_REST,PC_GDP,HR,2015-01-01,-78.4
NSA,FA,S1,S1,N_LE,WRL_REST,PC_GDP,HR,2016-01-01,-72.4
NSA,FA,S1,S1,N_LE,WRL_REST,PC_GDP,HR,2017-01-01,-65.6
NSA,FA,S1,S1,N_LE,WRL_REST,PC_GDP,HR,2018-01-01,-57.9
NSA,FA,S1,S1,N_LE,WRL_REST,PC_GDP,HR,2019-01-01,-51.0
NSA,FA,S1,S1,N_LE,WRL_REST,PC_GDP,HU,1995-01-01,-59.5
NSA,FA,S1,S1,N_LE,WRL_REST,PC_GDP,HU,1996-01-01,-56.8
NSA,FA,S1,S1,N_LE,WRL_REST,PC_GDP,HU,1997-01-01,-63.3
NSA,FA,S1,S1,N_LE,WRL_REST,PC_GDP,HU,1998-01-01,-63.7
NSA,FA,S1,S1,N_LE,WRL_REST,PC_GDP,HU,1999-01-01,-74.1
NSA,FA,S1,S1,N_LE,WRL_REST,PC_GDP,HU,2000-01-01,-71.3
NSA,FA,S1,S1,N_LE,WRL_REST,PC_GDP,HU,2001-01-01,-65.1
NSA,FA,S1,S1,N_LE,WRL_REST,PC_GDP,HU,2002-01-01,-63.9
NSA,FA,S1,S1,N_LE,WRL_REST,PC_GDP,HU,2003-01-01,-75.3
NSA,FA,S1,S1,N_LE,WRL_REST,PC_GDP,HU,2004-01-01,-85.7
NSA,FA,S1,S1,N_LE,WRL_REST,PC_GDP,HU,2005-01-01,-94.8
NSA,FA,S1,S1,N_LE,WRL_REST,PC_GDP,HU,2006-01-01,-98.0
NSA,FA,S1,S1,N_LE,WRL_REST,PC_GDP,HU,2007-01-01,-90.6
NSA,FA,S1,S1,N_LE,WRL_REST,PC_GDP,HU,2008-01-01,-100.4
NSA,FA,S1,S1,N_LE,WRL_REST,PC_GDP,HU,2009-01-01,-113.4
NSA,FA,S1,S1,N_LE,WRL_REST,PC_GDP,HU,2010-01-01,-106.7
NSA,FA,S1,S1,N_LE,WRL_REST,PC_GDP,HU,2011-01-01,-104.2
NSA,FA,S1,S1,N_LE,WRL_REST,PC_GDP,HU,2012-01-01,-92.2
NSA,FA,S1,S1,N_LE,WRL_REST,PC_GDP,HU,2013-01-01,-82.2
NSA,FA,S1,S1,N_LE,WRL_REST,PC_GDP,HU,2014-01-01,-80.4
NSA,FA,S1,S1,N_LE,WRL_REST,PC_GDP,HU,2015-01-01,-67.9
NSA,FA,S1,S1,N_LE,WRL_REST,PC_GDP,HU,2016-01-01,-59.6
NSA,FA,S1,S1,N_LE,WRL_REST,PC_GDP,HU,2017-01-01,-55.1
NSA,FA,S1,S1,N_LE,WRL_REST,PC_GDP,HU,2018-01-01,-51.6
NSA,FA,S1,S1,N_LE,WRL_REST,PC_GDP,HU,2019-01-01,-47.9
NSA,FA,S1,S1,N_LE,WRL_REST,PC_GDP,IE,1995-01-01,
NSA,FA,S1,S1,N_LE,WRL_REST,PC_GDP,IE,1996-01-01,
NSA,FA,S1,S1,N_LE,WRL_REST,PC_GDP,IE,1997-01-01,
NSA,FA,S1,S1,N_LE,WRL_REST,PC_GDP,IE,1998-01-01,
NSA,FA,S1,S1,N_LE,WRL_REST,PC_GDP,IE,1999-01-01,
NSA,FA,S1,S1,N_LE,WRL_REST,PC_GDP,IE,2000-01-01,
NSA,FA,S1,S1,N_LE,WRL_REST,PC_GDP,IE,2001-01-01,
NSA,FA,S1,S1,N_LE,WRL_REST,PC_GDP,IE,2002-01-01,-21.0
NSA,FA,S1,S1,N_LE,WRL_REST,PC_GDP,IE,2003-01-01,-23.5
NSA,FA,S1,S1,N_LE,WRL_REST,PC_GDP,IE,2004-01-01,-22.3
NSA,FA,S1,S1,N_LE,WRL_REST,PC_GDP,IE,2005-01-01,-46.2
NSA,FA,S1,S1,N_LE,WRL_REST,PC_GDP,IE,2006-01-01,-25.8
NSA,FA,S1,S1,N_LE,WRL_REST,PC_GDP,IE,2007-01-01,-31.4
NSA,FA,S1,S1,N_LE,WRL_REST,PC_GDP,IE,2008-01-01,-95.3
NSA,FA,S1,S1,N_LE,WRL_REST,PC_GDP,IE,2009-01-01,-115.7
NSA,FA,S1,S1,N_LE,WRL_REST,PC_GDP,IE,2010-01-01,-113.5
NSA,FA,S1,S1,N_LE,WRL_REST,PC_GDP,IE,2011-01-01,-139.3
NSA,FA,S1,S1,N_LE,WRL_REST,PC_GDP,IE,2012-01-01,-137.8
NSA,FA,S1,S1,N_LE,WRL_REST,PC_GDP,IE,2013-01-01,-133.4
NSA,FA,S1,S1,N_LE,WRL_REST,PC_GDP,IE,2014-01-01,-164.7
NSA,FA,S1,S1,N_LE,WRL_REST,PC_GDP,IE,2015-01-01,-198.4
NSA,FA,S1,S1,N_LE,WRL_REST,PC_GDP,IE,2016-01-01,-171.7
NSA,FA,S1,S1,N_LE,WRL_REST,PC_GDP,IE,2017-01-01,-167.2
NSA,FA,S1,S1,N_LE,WRL_REST,PC_GDP,IE,2018-01-01,-165.0
NSA,FA,S1,S1,N_LE,WRL_REST,PC_GDP,IE,2019-01-01,-172.0
NSA,FA,S1,S1,N_LE,WRL_REST,PC_GDP,IT,1995-01-01,
NSA,FA,S1,S1,N_LE,WRL_REST,PC_GDP,IT,1996-01-01,
NSA,FA,S1,S1,N_LE,WRL_REST,PC_GDP,IT,1997-01-01,
NSA,FA,S1,S1,N_LE,WRL_REST,PC_GDP,IT,1998-01-01,-9.1
NSA,FA,S1,S1,N_LE,WRL_REST,PC_GDP,IT,1999-01-01,-4.6
NSA,FA,S1,S1,N_LE,WRL_REST,PC_GDP,IT,2000-01-01,-6.4
NSA,FA,S1,S1,N_LE,WRL_REST,PC_GDP,IT,2001-01-01,-4.9
NSA,FA,S1,S1,N_LE,WRL_REST,PC_GDP,IT,2002-01-01,-11.1
NSA,FA,S1,S1,N_LE,WRL_REST,PC_GDP,IT,2003-01-01,-12.0
NSA,FA,S1,S1,N_LE,WRL_REST,PC_GDP,IT,2004-01-01,-15.0
NSA,FA,S1,S1,N_LE,WRL_REST,PC_GDP,IT,2005-01-01,-15.4
NSA,FA,S1,S1,N_LE,WRL_REST,PC_GDP,IT,2006-01-01,-20.0
NSA,FA,S1,S1,N_LE,WRL_REST,PC_GDP,IT,2007-01-01,-21.1
NSA,FA,S1,S1,N_LE,WRL_REST,PC_GDP,IT,2008-01-01,-21.6
NSA,FA,S1,S1,N_LE,WRL_REST,PC_GDP,IT,2009-01-01,-22.3
NSA,FA,S1,S1,N_LE,WRL_REST,PC_GDP,IT,2010-01-01,-20.1
NSA,FA,S1,S1,N_LE,WRL_REST,PC_GDP,IT,2011-01-01,-18.2
NSA,FA,S1,S1,N_LE,WRL_REST,PC_GDP,IT,2012-01-01,-23.0
NSA,FA,S1,S1,N_LE,WRL_REST,PC_GDP,IT,2013-01-01,-23.3
NSA,FA,S1,S1,N_LE,WRL_REST,PC_GDP,IT,2014-01-01,-21.0
NSA,FA,S1,S1,N_LE,WRL_REST,PC_GDP,IT,2015-01-01,-19.3
NSA,FA,S1,S1,N_LE,WRL_REST,PC_GDP,IT,2016-01-01,-11.9
NSA,FA,S1,S1,N_LE,WRL_REST,PC_GDP,IT,2017-01-01,-7.7
NSA,FA,S1,S1,N_LE,WRL_REST,PC_GDP,IT,2018-01-01,-5.0
NSA,FA,S1,S1,N_LE,WRL_REST,PC_GDP,IT,2019-01-01,-1.7
NSA,FA,S1,S1,N_LE,WRL_REST,PC_GDP,LT,1995-01-01,0.0
NSA,FA,S1,S1,N_LE,WRL_REST,PC_GDP,LT,1996-01-01,0.0
NSA,FA,S1,S1,N_LE,WRL_REST,PC_GDP,LT,1997-01-01,-23.7
NSA,FA,S1,S1,N_LE,WRL_REST,PC_GDP,LT,1998-01-01,-28.8
NSA,FA,S1,S1,N_LE,WRL_REST,PC_GDP,LT,1999-01-01,-41.8
NSA,FA,S1,S1,N_LE,WRL_REST,PC_GDP,LT,2000-01-01,-37.2
NSA,FA,S1,S1,N_LE,WRL_REST,PC_GDP,LT,2001-01-01,-35.6
NSA,FA,S1,S1,N_LE,WRL_REST,PC_GDP,LT,2002-01-01,-32.6
NSA,FA,S1,S1,N_LE,WRL_REST,PC_GDP,LT,2003-01-01,-32.9
NSA,FA,S1,S1,N_LE,WRL_REST,PC_GDP,LT,2004-01-01,-36.0
NSA,FA,S1,S1,N_LE,WRL_REST,PC_GDP,LT,2005-01-01,-44.6
NSA,FA,S1,S1,N_LE,WRL_REST,PC_GDP,LT,2006-01-01,-50.6
NSA,FA,S1,S1,N_LE,WRL_REST,PC_GDP,LT,2007-01-01,-56.4
NSA,FA,S1,S1,N_LE,WRL_REST,PC_GDP,LT,2008-01-01,-52.7
NSA,FA,S1,S1,N_LE,WRL_REST,PC_GDP,LT,2009-01-01,-61.1
NSA,FA,S1,S1,N_LE,WRL_REST,PC_GDP,LT,2010-01-01,-60.0
NSA,FA,S1,S1,N_LE,WRL_REST,PC_GDP,LT,2011-01-01,-53.6
NSA,FA,S1,S1,N_LE,WRL_REST,PC_GDP,LT,2012-01-01,-54.3
NSA,FA,S1,S1,N_LE,WRL_REST,PC_GDP,LT,2013-01-01,-50.6
NSA,FA,S1,S1,N_LE,WRL_REST,PC_GDP,LT,2014-01-01,-46.8
NSA,FA,S1,S1,N_LE,WRL_REST,PC_GDP,LT,2015-01-01,-43.6
NSA,FA,S1,S1,N_LE,WRL_REST,PC_GDP,LT,2016-01-01,-42.9
NSA,FA,S1,S1,N_LE,WRL_REST,PC_GDP,LT,2017-01-01,-37.9
NSA,FA,S1,S1,N_LE,WRL_REST,PC_GDP,LT,2018-01-01,-31.0
NSA,FA,S1,S1,N_LE,WRL_REST,PC_GDP,LT,2019-01-01,-23.7
NSA,FA,S1,S1,N_LE,WRL_REST,PC_GDP,LU,1995-01-01,
NSA,FA,S1,S1,N_LE,WRL_REST,PC_GDP,LU,1996-01-01,
NSA,FA,S1,S1,N_LE,WRL_REST,PC_GDP,LU,1997-01-01,
NSA,FA,S1,S1,N_LE,WRL_REST,PC_GDP,LU,1998-01-01,
NSA,FA,S1,S1,N_LE,WRL_REST,PC_GDP,LU,1999-01-01,
NSA,FA,S1,S1,N_LE,WRL_REST,PC_GDP,LU,2000-01-01,
NSA,FA,S1,S1,N_LE,WRL_REST,PC_GDP,LU,2001-01-01,
NSA,FA,S1,S1,N_LE,WRL_REST,PC_GDP,LU,2002-01-01,64.3
NSA,FA,S1,S1,N_LE,WRL_REST,PC_GDP,LU,2003-01-01,73.3
NSA,FA,S1,S1,N_LE,WRL_REST,PC_GDP,LU,2004-01-01,17.9
NSA,FA,S1,S1,N_LE,WRL_REST,PC_GDP,LU,2005-01-01,19.7
NSA,FA,S1,S1,N_LE,WRL_REST,PC_GDP,LU,2006-01-01,21.3
NSA,FA,S1,S1,N_LE,WRL_REST,PC_GDP,LU,2007-01-01,-18.2
NSA,FA,S1,S1,N_LE,WRL_REST,PC_GDP,LU,2008-01-01,16.3
NSA,FA,S1,S1,N_LE,WRL_REST,PC_GDP,LU,2009-01-01,-28.9
NSA,FA,S1,S1,N_LE,WRL_REST,PC_GDP,LU,2010-01-01,-20.4
NSA,FA,S1,S1,N_LE,WRL_REST,PC_GDP,LU,2011-01-01,28.9
NSA,FA,S1,S1,N_LE,WRL_REST,PC_GDP,LU,2012-01-01,58.4
NSA,FA,S1,S1,N_LE,WRL_REST,PC_GDP,LU,2013-01-01,58.9
NSA,FA,S1,S1,N_LE,WRL_REST,PC_GDP,LU,2014-01-01,59.3
NSA,FA,S1,S1,N_LE,WRL_REST,PC_GDP,LU,2015-01-01,50.0
NSA,FA,S1,S1,N_LE,WRL_REST,PC_GDP,LU,2016-01-01,54.6
NSA,FA,S1,S1,N_LE,WRL_REST,PC_GDP,LU,2017-01-01,51.8
NSA,FA,S1,S1,N_LE,WRL_REST,PC_GDP,LU,2018-01-01,53.8
NSA,FA,S1,S1,N_LE,WRL_REST,PC_GDP,LU,2019-01-01,50.9
NSA,FA,S1,S1,N_LE,WRL_REST,PC_GDP,LV,1995-01-01,
NSA,FA,S1,S1,N_LE,WRL_REST,PC_GDP,LV,1996-01-01,
NSA,FA,S1,S1,N_LE,WRL_REST,PC_GDP,LV,1997-01-01,
NSA,FA,S1,S1,N_LE,WRL_REST,PC_GDP,LV,1998-01-01,
NSA,FA,S1,S1,N_LE,WRL_REST,PC_GDP,LV,1999-01-01,
NSA,FA,S1,S1,N_LE,WRL_REST,PC_GDP,LV,2000-01-01,-23.6
NSA,FA,S1,S1,N_LE,WRL_REST,PC_GDP,LV,2001-01-01,-29.5
NSA,FA,S1,S1,N_LE,WRL_REST,PC_GDP,LV,2002-01-01,-33.1
NSA,FA,S1,S1,N_LE,WRL_REST,PC_GDP,LV,2003-01-01,-38.0
NSA,FA,S1,S1,N_LE,WRL_REST,PC_GDP,LV,2004-01-01,-47.4
NSA,FA,S1,S1,N_LE,WRL_REST,PC_GDP,LV,2005-01-01,-55.7
NSA,FA,S1,S1,N_LE,WRL_REST,PC_GDP,LV,2006-01-01,-64.2
NSA,FA,S1,S1,N_LE,WRL_REST,PC_GDP,LV,2007-01-01,-69.0
NSA,FA,S1,S1,N_LE,WRL_REST,PC_GDP,LV,2008-01-01,-74.1
NSA,FA,S1,S1,N_LE,WRL_REST,PC_GDP,LV,2009-01-01,-82.5
NSA,FA,S1,S1,N_LE,WRL_REST,PC_GDP,LV,2010-01-01,-83.0
NSA,FA,S1,S1,N_LE,WRL_REST,PC_GDP,LV,2011-01-01,-74.7
NSA,FA,S1,S1,N_LE,WRL_REST,PC_GDP,LV,2012-01-01,-67.5
NSA,FA,S1,S1,N_LE,WRL_REST,PC_GDP,LV,2013-01-01,-66.7
NSA,FA,S1,S1,N_LE,WRL_REST,PC_GDP,LV,2014-01-01,-67.1
NSA,FA,S1,S1,N_LE,WRL_REST,PC_GDP,LV,2015-01-01,-64.1
NSA,FA,S1,S1,N_LE,WRL_REST,PC_GDP,LV,2016-01-01,-59.0
NSA,FA,S1,S1,N_LE,WRL_REST,PC_GDP,LV,2017-01-01,-56.2
NSA,FA,S1,S1,N_LE,WRL_REST,PC_GDP,LV,2018-01-01,-49.1
NSA,FA,S1,S1,N_LE,WRL_REST,PC_GDP,LV,2019-01-01,-44.1
NSA,FA,S1,S1,N_LE,WRL_REST,PC_GDP,MT,1995-01-01,
NSA,FA,S1,S1,N_LE,WRL_REST,PC_GDP,MT,1996-01-01,
NSA,FA,S1,S1,N_LE,WRL_REST,PC_GDP,MT,1997-01-01,
NSA,FA,S1,S1,N_LE,WRL_REST,PC_GDP,MT,1998-01-01,
NSA,FA,S1,S1,N_LE,WRL_REST,PC_GDP,MT,1999-01-01,
NSA,FA,S1,S1,N_LE,WRL_REST,PC_GDP,MT,2000-01-01,
NSA,FA,S1,S1,N_LE,WRL_REST,PC_GDP,MT,2001-01-01,
NSA,FA,S1,S1,N_LE,WRL_REST,PC_GDP,MT,2002-01-01,
NSA,FA,S1,S1,N_LE,WRL_REST,PC_GDP,MT,2003-01-01,
NSA,FA,S1,S1,N_LE,WRL_REST,PC_GDP,MT,2004-01-01,37.7
NSA,FA,S1,S1,N_LE,WRL_REST,PC_GDP,MT,2005-01-01,35.9
NSA,FA,S1,S1,N_LE,WRL_REST,PC_GDP,MT,2006-01-01,27.8
NSA,FA,S1,S1,N_LE,WRL_REST,PC_GDP,MT,2007-01-01,21.4
NSA,FA,S1,S1,N_LE,WRL_REST,PC_GDP,MT,2008-01-01,4.2
NSA,FA,S1,S1,N_LE,WRL_REST,PC_GDP,MT,2009-01-01,12.6
NSA,FA,S1,S1,N_LE,WRL_REST,PC_GDP,MT,2010-01-01,12.1
NSA,FA,S1,S1,N_LE,WRL_REST,PC_GDP,MT,2011-01-01,6.3
NSA,FA,S1,S1,N_LE,WRL_REST,PC_GDP,MT,2012-01-01,19.6
NSA,FA,S1,S1,N_LE,WRL_REST,PC_GDP,MT,2013-01-01,27.0
NSA,FA,S1,S1,N_LE,WRL_REST,PC_GDP,MT,2014-01-01,43.0
NSA,FA,S1,S1,N_LE,WRL_REST,PC_GDP,MT,2015-01-01,37.5
NSA,FA,S1,S1,N_LE,WRL_REST,PC_GDP,MT,2016-01-01,35.4
NSA,FA,S1,S1,N_LE,WRL_REST,PC_GDP,MT,2017-01-01,64.0
NSA,FA,S1,S1,N_LE,WRL_REST,PC_GDP,MT,2018-01-01,63.2
NSA,FA,S1,S1,N_LE,WRL_REST,PC_GDP,MT,2019-01-01,62.7
NSA,FA,S1,S1,N_LE,WRL_REST,PC_GDP,NL,1995-01-01,
NSA,FA,S1,S1,N_LE,WRL_REST,PC_GDP,NL,1996-01-01,
NSA,FA,S1,S1,N_LE,WRL_REST,PC_GDP,NL,1997-01-01,
NSA,FA,S1,S1,N_LE,WRL_REST,PC_GDP,NL,1998-01-01,
NSA,FA,S1,S1,N_LE,WRL_REST,PC_GDP,NL,1999-01-01,
NSA,FA,S1,S1,N_LE,WRL_REST,PC_GDP,NL,2000-01-01,
NSA,FA,S1,S1,N_LE,WRL_REST,PC_GDP,NL,2001-01-01,
NSA,FA,S1,S1,N_LE,WRL_REST,PC_GDP,NL,2002-01-01,
NSA,FA,S1,S1,N_LE,WRL_REST,PC_GDP,NL,2003-01-01,-3.9
NSA,FA,S1,S1,N_LE,WRL_REST,PC_GDP,NL,2004-01-01,-0.2
NSA,FA,S1,S1,N_LE,WRL_REST,PC_GDP,NL,2005-01-01,-5.0
NSA,FA,S1,S1,N_LE,WRL_REST,PC_GDP,NL,2006-01-01,-1.9
NSA,FA,S1,S1,N_LE,WRL_REST,PC_GDP,NL,2007-01-01,-14.9
NSA,FA,S1,S1,N_LE,WRL_REST,PC_GDP,NL,2008-01-01,-8.0
NSA,FA,S1,S1,N_LE,WRL_REST,PC_GDP,NL,2009-01-01,1.4
NSA,FA,S1,S1,N_LE,WRL_REST,PC_GDP,NL,2010-01-01,11.0
NSA,FA,S1,S1,N_LE,WRL_REST,PC_GDP,NL,2011-01-01,20.1
NSA,FA,S1,S1,N_LE,WRL_REST,PC_GDP,NL,2012-01-01,26.7
NSA,FA,S1,S1,N_LE,WRL_REST,PC_GDP,NL,2013-01-01,30.7
NSA,FA,S1,S1,N_LE,WRL_REST,PC_GDP,NL,2014-01-01,48.0
NSA,FA,S1,S1,N_LE,WRL_REST,PC_GDP,NL,2015-01-01,48.9
NSA,FA,S1,S1,N_LE,WRL_REST,PC_GDP,NL,2016-01-01,61.4
NSA,FA,S1,S1,N_LE,WRL_REST,PC_GDP,NL,2017-01-01,59.4
NSA,FA,S1,S1,N_LE,WRL_REST,PC_GDP,NL,2018-01-01,70.7
NSA,FA,S1,S1,N_LE,WRL_REST,PC_GDP,NL,2019-01-01,89.2
NSA,FA,S1,S1,N_LE,WRL_REST,PC_GDP,PL,1995-01-01,
NSA,FA,S1,S1,N_LE,WRL_REST,PC_GDP,PL,1996-01-01,
NSA,FA,S1,S1,N_LE,WRL_REST,PC_GDP,PL,1997-01-01,
NSA,FA,S1,S1,N_LE,WRL_REST,PC_GDP,PL,1998-01-01,
NSA,FA,S1,S1,N_LE,WRL_REST,PC_GDP,PL,1999-01-01,
NSA,FA,S1,S1,N_LE,WRL_REST,PC_GDP,PL,2000-01-01,
NSA,FA,S1,S1,N_LE,WRL_REST,PC_GDP,PL,2001-01-01,
NSA,FA,S1,S1,N_LE,WRL_REST,PC_GDP,PL,2002-01-01,
NSA,FA,S1,S1,N_LE,WRL_REST,PC_GDP,PL,2003-01-01,
NSA,FA,S1,S1,N_LE,WRL_REST,PC_GDP,PL,2004-01-01,-40.9
NSA,FA,S1,S1,N_LE,WRL_REST,PC_GDP,PL,2005-01-01,-41.8
NSA,FA,S1,S1,N_LE,WRL_REST,PC_GDP,PL,2006-01-01,-44.9
NSA,FA,S1,S1,N_LE,WRL_REST,PC_GDP,PL,2007-01-01,-49.2
NSA,FA,S1,S1,N_LE,WRL_REST,PC_GDP,PL,2008-01-01,-55.6
NSA,FA,S1,S1,N_LE,WRL_REST,PC_GDP,PL,2009-01-01,-57.3
NSA,FA,S1,S1,N_LE,WRL_REST,PC_GDP,PL,2010-01-01,-65.1
NSA,FA,S1,S1,N_LE,WRL_REST,PC_GDP,PL,2011-01-01,-62.4
NSA,FA,S1,S1,N_LE,WRL_REST,PC_GDP,PL,2012-01-01,-65.3
NSA,FA,S1,S1,N_LE,WRL_REST,PC_GDP,PL,2013-01-01,-68.9
NSA,FA,S1,S1,N_LE,WRL_REST,PC_GDP,PL,2014-01-01,-69.1
NSA,FA,S1,S1,N_LE,WRL_REST,PC_GDP,PL,2015-01-01,-62.1
NSA,FA,S1,S1,N_LE,WRL_REST,PC_GDP,PL,2016-01-01,-61.6
NSA,FA,S1,S1,N_LE,WRL_REST,PC_GDP,PL,2017-01-01,-61.2
NSA,FA,S1,S1,N_LE,WRL_REST,PC_GDP,PL,2018-01-01,-55.6
NSA,FA,S1,S1,N_LE,WRL_REST,PC_GDP,PL,2019-01-01,-49.8
NSA,FA,S1,S1,N_LE,WRL_REST,PC_GDP,PT,1995-01-01,
NSA,FA,S1,S1,N_LE,WRL_REST,PC_GDP,PT,1996-01-01,-11.3
NSA,FA,S1,S1,N_LE,WRL_REST,PC_GDP,PT,1997-01-01,-16.7
NSA,FA,S1,S1,N_LE,WRL_REST,PC_GDP,PT,1998-01-01,-25.9
NSA,FA,S1,S1,N_LE,WRL_REST,PC_GDP,PT,1999-01-01,-35.7
NSA,FA,S1,S1,N_LE,WRL_REST,PC_GDP,PT,2000-01-01,-43.0
NSA,FA,S1,S1,N_LE,WRL_REST,PC_GDP,PT,2001-01-01,-50.5
NSA,FA,S1,S1,N_LE,WRL_REST,PC_GDP,PT,2002-01-01,-56.0
NSA,FA,S1,S1,N_LE,WRL_REST,PC_GDP,PT,2003-01-01,-60.5
NSA,FA,S1,S1,N_LE,WRL_REST,PC_GDP,PT,2004-01-01,-65.8
NSA,FA,S1,S1,N_LE,WRL_REST,PC_GDP,PT,2005-01-01,-70.7
NSA,FA,S1,S1,N_LE,WRL_REST,PC_GDP,PT,2006-01-01,-81.7
NSA,FA,S1,S1,N_LE,WRL_REST,PC_GDP,PT,2007-01-01,-90.1
NSA,FA,S1,S1,N_LE,WRL_REST,PC_GDP,PT,2008-01-01,-97.8
NSA,FA,S1,S1,N_LE,WRL_REST,PC_GDP,PT,2009-01-01,-110.7
NSA,FA,S1,S1,N_LE,WRL_REST,PC_GDP,PT,2010-01-01,-107.2
NSA,FA,S1,S1,N_LE,WRL_REST,PC_GDP,PT,2011-01-01,-104.1
NSA,FA,S1,S1,N_LE,WRL_REST,PC_GDP,PT,2012-01-01,-119.3
NSA,FA,S1,S1,N_LE,WRL_REST,PC_GDP,PT,2013-01-01,-120.2
NSA,FA,S1,S1,N_LE,WRL_REST,PC_GDP,PT,2014-01-01,-123.8
NSA,FA,S1,S1,N_LE,WRL_REST,PC_GDP,PT,2015-01-01,-118.9
NSA,FA,S1,S1,N_LE,WRL_REST,PC_GDP,PT,2016-01-01,-110.5
NSA,FA,S1,S1,N_LE,WRL_REST,PC_GDP,PT,2017-01-01,-110.4
NSA,FA,S1,S1,N_LE,WRL_REST,PC_GDP,PT,2018-01-01,-106.1
NSA,FA,S1,S1,N_LE,WRL_REST,PC_GDP,PT,2019-01-01,-100.8
NSA,FA,S1,S1,N_LE,WRL_REST,PC_GDP,RO,1995-01-01,
NSA,FA,S1,S1,N_LE,WRL_REST,PC_GDP,RO,1996-01-01,
NSA,FA,S1,S1,N_LE,WRL_REST,PC_GDP,RO,1997-01-01,
NSA,FA,S1,S1,N_LE,WRL_REST,PC_GDP,RO,1998-01-01,
NSA,FA,S1,S1,N_LE,WRL_REST,PC_GDP,RO,1999-01-01,
NSA,FA,S1,S1,N_LE,WRL_REST,PC_GDP,RO,2000-01-01,
NSA,FA,S1,S1,N_LE,WRL_REST,PC_GDP,RO,2001-01-01,
NSA,FA,S1,S1,N_LE,WRL_REST,PC_GDP,RO,2002-01-01,
NSA,FA,S1,S1,N_LE,WRL_REST,PC_GDP,RO,2003-01-01,
NSA,FA,S1,S1,N_LE,WRL_REST,PC_GDP,RO,2004-01-01,
NSA,FA,S1,S1,N_LE,WRL_REST,PC_GDP,RO,2005-01-01,-29.8
NSA,FA,S1,S1,N_LE,WRL_REST,PC_GDP,RO,2006-01-01,-36.5
NSA,FA,S1,S1,N_LE,WRL_REST,PC_GDP,RO,2007-01-01,-46.1
NSA,FA,S1,S1,N_LE,WRL_REST,PC_GDP,RO,2008-01-01,-51.0
NSA,FA,S1,S1,N_LE,WRL_REST,PC_GDP,RO,2009-01-01,-59.6
NSA,FA,S1,S1,N_LE,WRL_REST,PC_GDP,RO,2010-01-01,-64.1
NSA,FA,S1,S1,N_LE,WRL_REST,PC_GDP,RO,2011-01-01,-66.1
NSA,FA,S1,S1,N_LE,WRL_REST,PC_GDP,RO,2012-01-01,-67.6
NSA,FA,S1,S1,N_LE,WRL_REST,PC_GDP,RO,2013-01-01,-63.2
NSA,FA,S1,S1,N_LE,WRL_REST,PC_GDP,RO,2014-01-01,-57.1
NSA,FA,S1,S1,N_LE,WRL_REST,PC_GDP,RO,2015-01-01,-54.7
NSA,FA,S1,S1,N_LE,WRL_REST,PC_GDP,RO,2016-01-01,-49.1
NSA,FA,S1,S1,N_LE,WRL_REST,PC_GDP,RO,2017-01-01,-47.4
NSA,FA,S1,S1,N_LE,WRL_REST,PC_GDP,RO,2018-01-01,-43.7
NSA,FA,S1,S1,N_LE,WRL_REST,PC_GDP,RO,2019-01-01,-43.1
NSA,FA,S1,S1,N_LE,WRL_REST,PC_GDP,SE,1995-01-01,-33.1
NSA,FA,S1,S1,N_LE,WRL_REST,PC_GDP,SE,1996-01-01,-37.0
NSA,FA,S1,S1,N_LE,WRL_REST,PC_GDP,SE,1997-01-01,-38.2
NSA,FA,S1,S1,N_LE,WRL_REST,PC_GDP,SE,1998-01-01,-34.9
NSA,FA,S1,S1,N_LE,WRL_REST,PC_GDP,SE,1999-01-01,-32.5
NSA,FA,S1,S1,N_LE,WRL_REST,PC_GDP,SE,2000-01-01,-33.0
NSA,FA,S1,S1,N_LE,WRL_REST,PC_GDP,SE,2001-01-01,-23.1
NSA,FA,S1,S1,N_LE,WRL_REST,PC_GDP,SE,2002-01-01,-20.8
NSA,FA,S1,S1,N_LE,WRL_REST,PC_GDP,SE,2003-01-01,-17.3
NSA,FA,S1,S1,N_LE,WRL_REST,PC_GDP,SE,2004-01-01,-21.6
NSA,FA,S1,S1,N_LE,WRL_REST,PC_GDP,SE,2005-01-01,-17.3
NSA,FA,S1,S1,N_LE,WRL_REST,PC_GDP,SE,2006-01-01,-9.8
NSA,FA,S1,S1,N_LE,WRL_REST,PC_GDP,SE,2007-01-01,1.2
NSA,FA,S1,S1,N_LE,WRL_REST,PC_GDP,SE,2008-01-01,-7.9
NSA,FA,S1,S1,N_LE,WRL_REST,PC_GDP,SE,2009-01-01,-7.1
NSA,FA,S1,S1,N_LE,WRL_REST,PC_GDP,SE,2010-01-01,-5.5
NSA,FA,S1,S1,N_LE,WRL_REST,PC_GDP,SE,2011-01-01,-8.3
NSA,FA,S1,S1,N_LE,WRL_REST,PC_GDP,SE,2012-01-01,-15.5
NSA,FA,S1,S1,N_LE,WRL_REST,PC_GDP,SE,2013-01-01,-15.9
NSA,FA,S1,S1,N_LE,WRL_REST,PC_GDP,SE,2014-01-01,-2.3
NSA,FA,S1,S1,N_LE,WRL_REST,PC_GDP,SE,2015-01-01,-5.2
NSA,FA,S1,S1,N_LE,WRL_REST,PC_GDP,SE,2016-01-01,-1.9
NSA,FA,S1,S1,N_LE,WRL_REST,PC_GDP,SE,2017-01-01,1.4
NSA,FA,S1,S1,N_LE,WRL_REST,PC_GDP,SE,2018-01-01,8.0
NSA,FA,S1,S1,N_LE,WRL_REST,PC_GDP,SE,2019-01-01,20.9
NSA,FA,S1,S1,N_LE,WRL_REST,PC_GDP,SI,1995-01-01,2.0
NSA,FA,S1,S1,N_LE,WRL_REST,PC_GDP,SI,1996-01-01,-2.6
NSA,FA,S1,S1,N_LE,WRL_REST,PC_GDP,SI,1997-01-01,-2.1
NSA,FA,S1,S1,N_LE,WRL_REST,PC_GDP,SI,1998-01-01,-4.4
NSA,FA,S1,S1,N_LE,WRL_REST,PC_GDP,SI,1999-01-01,-9.4
NSA,FA,S1,S1,N_LE,WRL_REST,PC_GDP,SI,2000-01-01,-11.8
NSA,FA,S1,S1,N_LE,WRL_REST,PC_GDP,SI,2001-01-01,-2.1
NSA,FA,S1,S1,N_LE,WRL_REST,PC_GDP,SI,2002-01-01,0.1
NSA,FA,S1,S1,N_LE,WRL_REST,PC_GDP,SI,2003-01-01,-5.6
NSA,FA,S1,S1,N_LE,WRL_REST,PC_GDP,SI,2004-01-01,-7.7
NSA,FA,S1,S1,N_LE,WRL_REST,PC_GDP,SI,2005-01-01,-10.9
NSA,FA,S1,S1,N_LE,WRL_REST,PC_GDP,SI,2006-01-01,-16.8
NSA,FA,S1,S1,N_LE,WRL_REST,PC_GDP,SI,2007-01-01,-25.5
NSA,FA,S1,S1,N_LE,WRL_REST,PC_GDP,SI,2008-01-01,-39.4
NSA,FA,S1,S1,N_LE,WRL_REST,PC_GDP,SI,2009-01-01,-40.6
NSA,FA,S1,S1,N_LE,WRL_REST,PC_GDP,SI,2010-01-01,-43.1
NSA,FA,S1,S1,N_LE,WRL_REST,PC_GDP,SI,2011-01-01,-39.8
NSA,FA,S1,S1,N_LE,WRL_REST,PC_GDP,SI,2012-01-01,-44.0
NSA,FA,S1,S1,N_LE,WRL_REST,PC_GDP,SI,2013-01-01,-39.3
NSA,FA,S1,S1,N_LE,WRL_REST,PC_GDP,SI,2014-01-01,-38.4
NSA,FA,S1,S1,N_LE,WRL_REST,PC_GDP,SI,2015-01-01,-31.2
NSA,FA,S1,S1,N_LE,WRL_REST,PC_GDP,SI,2016-01-01,-28.9
NSA,FA,S1,S1,N_LE,WRL_REST,PC_GDP,SI,2017-01-01,-24.2
NSA,FA,S1,S1,N_LE,WRL_REST,PC_GDP,SI,2018-01-01,-18.9
NSA,FA,S1,S1,N_LE,WRL_REST,PC_GDP,SI,2019-01-01,-19.3
NSA,FA,S1,S1,N_LE,WRL_REST,PC_GDP,SK,1995-01-01,
NSA,FA,S1,S1,N_LE,WRL_REST,PC_GDP,SK,1996-01-01,
NSA,FA,S1,S1,N_LE,WRL_REST,PC_GDP,SK,1997-01-01,
NSA,FA,S1,S1,N_LE,WRL_REST,PC_GDP,SK,1998-01-01,
NSA,FA,S1,S1,N_LE,WRL_REST,PC_GDP,SK,1999-01-01,
NSA,FA,S1,S1,N_LE,WRL_REST,PC_GDP,SK,2000-01-01,
NSA,FA,S1,S1,N_LE,WRL_REST,PC_GDP,SK,2001-01-01,
NSA,FA,S1,S1,N_LE,WRL_REST,PC_GDP,SK,2002-01-01,
NSA,FA,S1,S1,N_LE,WRL_REST,PC_GDP,SK,2003-01-01,
NSA,FA,S1,S1,N_LE,WRL_REST,PC_GDP,SK,2004-01-01,-51.6
NSA,FA,S1,S1,N_LE,WRL_REST,PC_GDP,SK,2005-01-01,-60.8
NSA,FA,S1,S1,N_LE,WRL_REST,PC_GDP,SK,2006-01-01,-64.7
NSA,FA,S1,S1,N_LE,WRL_REST,PC_GDP,SK,2007-01-01,-56.3
NSA,FA,S1,S1,N_LE,WRL_REST,PC_GDP,SK,2008-01-01,-58.0
NSA,FA,S1,S1,N_LE,WRL_REST,PC_GDP,SK,2009-01-01,-66.4
NSA,FA,S1,S1,N_LE,WRL_REST,PC_GDP,SK,2010-01-01,-61.5
NSA,FA,S1,S1,N_LE,WRL_REST,PC_GDP,SK,2011-01-01,-63.9
NSA,FA,S1,S1,N_LE,WRL_REST,PC_GDP,SK,2012-01-01,-60.6
NSA,FA,S1,S1,N_LE,WRL_REST,PC_GDP,SK,2013-01-01,-62.2
NSA,FA,S1,S1,N_LE,WRL_REST,PC_GDP,SK,2014-01-01,-63.5
NSA,FA,S1,S1,N_LE,WRL_REST,PC_GDP,SK,2015-01-01,-63.9
NSA,FA,S1,S1,N_LE,WRL_REST,PC_GDP,SK,2016-01-01,-66.8
NSA,FA,S1,S1,N_LE,WRL_REST,PC_GDP,SK,2017-01-01,-68.3
NSA,FA,S1,S1,N_LE,WRL_REST,PC_GDP,SK,2018-01-01,-68.1
NSA,FA,S1,S1,N_LE,WRL_REST,PC_GDP,SK,2019-01-01,-65.5
NSA,FA,S1,S1,N_LE,WRL_REST,PC_GDP,UK,1995-01-01,
NSA,FA,S1,S1,N_LE,WRL_REST,PC_GDP,UK,1996-01-01,
NSA,FA,S1,S1,N_LE,WRL_REST,PC_GDP,UK,1997-01-01,
NSA,FA,S1,S1,N_LE,WRL_REST,PC_GDP,UK,1998-01-01,
NSA,FA,S1,S1,N_LE,WRL_REST,PC_GDP,UK,1999-01-01,-6.2
NSA,FA,S1,S1,N_LE,WRL_REST,PC_GDP,UK,2000-01-01,2.2
NSA,FA,S1,S1,N_LE,WRL_REST,PC_GDP,UK,2001-01-01,-2.1
NSA,FA,S1,S1,N_LE,WRL_REST,PC_GDP,UK,2002-01-01,3.5
NSA,FA,S1,S1,N_LE,WRL_REST,PC_GDP,UK,2003-01-01,2.5
NSA,FA,S1,S1,N_LE,WRL_REST,PC_GDP,UK,2004-01-01,-3.8
NSA,FA,S1,S1,N_LE,WRL_REST,PC_GDP,UK,2005-01-01,-2.9
NSA,FA,S1,S1,N_LE,WRL_REST,PC_GDP,UK,2006-01-01,-8.5
NSA,FA,S1,S1,N_LE,WRL_REST,PC_GDP,UK,2007-01-01,-8.8
NSA,FA,S1,S1,N_LE,WRL_REST,PC_GDP,UK,2008-01-01,8.9
NSA,FA,S1,S1,N_LE,WRL_REST,PC_GDP,UK,2009-01-01,-16.2
NSA,FA,S1,S1,N_LE,WRL_REST,PC_GDP,UK,2010-01-01,-7.9
NSA,FA,S1,S1,N_LE,WRL_REST,PC_GDP,UK,2011-01-01,-11.6
NSA,FA,S1,S1,N_LE,WRL_REST,PC_GDP,UK,2012-01-01,-28.1
NSA,FA,S1,S1,N_LE,WRL_REST,PC_GDP,UK,2013-01-01,-17.8
NSA,FA,S1,S1,N_LE,WRL_REST,PC_GDP,UK,2014-01-01,-22.8
NSA,FA,S1,S1,N_LE,WRL_REST,PC_GDP,UK,2015-01-01,-22.7
NSA,FA,S1,S1,N_LE,WRL_REST,PC_GDP,UK,2016-01-01,0.3
NSA,FA,S1,S1,N_LE,WRL_REST,PC_GDP,UK,2017-01-01,-10.0
NSA,FA,S1,S1,N_LE,WRL_REST,PC_GDP,UK,2018-01-01,-12.8
NSA,FA,S1,S1,N_LE,WRL_REST,PC_GDP,UK,2019-01-01,-25.2
