na_item,co_nco,sector,finpos,unit,geo,date,value
F2_F8,NCO,S12,LIAB,MIO_NAC,AT,1995-01-01,478912.5
F2_F8,NCO,S12,LIAB,MIO_NAC,AT,1996-01-01,516035.7
F2_F8,NCO,S12,LIAB,MIO_NAC,AT,1997-01-01,550324.9
F2_F8,NCO,S12,LIAB,MIO_NAC,AT,1998-01-01,607465.9
F2_F8,NCO,S12,LIAB,MIO_NAC,AT,1999-01-01,690514.5
F2_F8,NCO,S12,LIAB,MIO_NAC,AT,2000-01-01,760112.8
F2_F8,NCO,S12,LIAB,MIO_NAC,AT,2001-01-01,803906.7
F2_F8,NCO,S12,LIAB,MIO_NAC,AT,2002-01-01,807687.8
F2_F8,NCO,S12,LIAB,MIO_NAC,AT,2003-01-01,860299.7
F2_F8,NCO,S12,LIAB,MIO_NAC,AT,2004-01-01,944805.2
F2_F8,NCO,S12,LIAB,MIO_NAC,AT,2005-01-01,1164607.9
F2_F8,NCO,S12,LIAB,MIO_NAC,AT,2006-01-01,1280270.5
F2_F8,NCO,S12,LIAB,MIO_NAC,AT,2007-01-01,1420657.2
F2_F8,NCO,S12,LIAB,MIO_NAC,AT,2008-01-01,1575540.4
F2_F8,NCO,S12,LIAB,MIO_NAC,AT,2009-01-01,1542013.8
F2_F8,NCO,S12,LIAB,MIO_NAC,AT,2010-01-01,1512656.1
F2_F8,NCO,S12,LIAB,MIO_NAC,AT,2011-01-01,1534950.2
F2_F8,NCO,S12,LIAB,MIO_NAC,AT,2012-01-01,1541091.1
F2_F8,NCO,S12,LIAB,MIO_NAC,AT,2013-01-01,1491604.4
F2_F8,NCO,S12,LIAB,MIO_NAC,AT,2014-01-01,1479310.2
F2_F8,NCO,S12,LIAB,MIO_NAC,AT,2015-01-01,1477350.5
F2_F8,NCO,S12,LIAB,MIO_NAC,AT,2016-01-01,1436448.7
F2_F8,NCO,S12,LIAB,MIO_NAC,AT,2017-01-01,1467664.9
F2_F8,NCO,S12,LIAB,MIO_NAC,AT,2018-01-01,1491951.7
F2_F8,NCO,S12,LIAB,MIO_NAC,AT,2019-01-01,
F2_F8,NCO,S12,LIAB,MIO_NAC,BE,1995-01-01,768092.0
F2_F8,NCO,S12,LIAB,MIO_NAC,BE,1996-01-01,841911.5
F2_F8,NCO,S12,LIAB,MIO_NAC,BE,1997-01-01,913569.0
F2_F8,NCO,S12,LIAB,MIO_NAC,BE,1998-01-01,1053970.6
F2_F8,NCO,S12,LIAB,MIO_NAC,BE,1999-01-01,1138013.0
F2_F8,NCO,S12,LIAB,MIO_NAC,BE,2000-01-01,1164836.8
F2_F8,NCO,S12,LIAB,MIO_NAC,BE,2001-01-01,1251546.5
F2_F8,NCO,S12,LIAB,MIO_NAC,BE,2002-01-01,1233251.8
F2_F8,NCO,S12,LIAB,MIO_NAC,BE,2003-01-01,1369802.3
F2_F8,NCO,S12,LIAB,MIO_NAC,BE,2004-01-01,1551509.7
F2_F8,NCO,S12,LIAB,MIO_NAC,BE,2005-01-01,1804553.4
F2_F8,NCO,S12,LIAB,MIO_NAC,BE,2006-01-01,2007497.7
F2_F8,NCO,S12,LIAB,MIO_NAC,BE,2007-01-01,2298378.0
F2_F8,NCO,S12,LIAB,MIO_NAC,BE,2008-01-01,2196172.9
F2_F8,NCO,S12,LIAB,MIO_NAC,BE,2009-01-01,2207408.7
F2_F8,NCO,S12,LIAB,MIO_NAC,BE,2010-01-01,2179911.0
F2_F8,NCO,S12,LIAB,MIO_NAC,BE,2011-01-01,2296785.2
F2_F8,NCO,S12,LIAB,MIO_NAC,BE,2012-01-01,2178691.8
F2_F8,NCO,S12,LIAB,MIO_NAC,BE,2013-01-01,2204713.3
F2_F8,NCO,S12,LIAB,MIO_NAC,BE,2014-01-01,2260066.2
F2_F8,NCO,S12,LIAB,MIO_NAC,BE,2015-01-01,2320968.3
F2_F8,NCO,S12,LIAB,MIO_NAC,BE,2016-01-01,2376255.9
F2_F8,NCO,S12,LIAB,MIO_NAC,BE,2017-01-01,2409694.0
F2_F8,NCO,S12,LIAB,MIO_NAC,BE,2018-01-01,2347071.6
F2_F8,NCO,S12,LIAB,MIO_NAC,BE,2019-01-01,2447732.2
F2_F8,NCO,S12,LIAB,MIO_NAC,BG,1995-01-01,1634.0
F2_F8,NCO,S12,LIAB,MIO_NAC,BG,1996-01-01,4543.0
F2_F8,NCO,S12,LIAB,MIO_NAC,BG,1997-01-01,13987.0
F2_F8,NCO,S12,LIAB,MIO_NAC,BG,1998-01-01,14953.0
F2_F8,NCO,S12,LIAB,MIO_NAC,BG,1999-01-01,17320.0
F2_F8,NCO,S12,LIAB,MIO_NAC,BG,2000-01-01,20179.0
F2_F8,NCO,S12,LIAB,MIO_NAC,BG,2001-01-01,22870.6
F2_F8,NCO,S12,LIAB,MIO_NAC,BG,2002-01-01,26105.6
F2_F8,NCO,S12,LIAB,MIO_NAC,BG,2003-01-01,32809.6
F2_F8,NCO,S12,LIAB,MIO_NAC,BG,2004-01-01,42837.4
F2_F8,NCO,S12,LIAB,MIO_NAC,BG,2005-01-01,56700.0
F2_F8,NCO,S12,LIAB,MIO_NAC,BG,2006-01-01,66357.6
F2_F8,NCO,S12,LIAB,MIO_NAC,BG,2007-01-01,93313.5
F2_F8,NCO,S12,LIAB,MIO_NAC,BG,2008-01-01,106750.9
F2_F8,NCO,S12,LIAB,MIO_NAC,BG,2009-01-01,110843.3
F2_F8,NCO,S12,LIAB,MIO_NAC,BG,2010-01-01,115644.6
F2_F8,NCO,S12,LIAB,MIO_NAC,BG,2011-01-01,120649.8
F2_F8,NCO,S12,LIAB,MIO_NAC,BG,2012-01-01,134824.1
F2_F8,NCO,S12,LIAB,MIO_NAC,BG,2013-01-01,136283.4
F2_F8,NCO,S12,LIAB,MIO_NAC,BG,2014-01-01,147053.6
F2_F8,NCO,S12,LIAB,MIO_NAC,BG,2015-01-01,161019.5
F2_F8,NCO,S12,LIAB,MIO_NAC,BG,2016-01-01,176072.2
F2_F8,NCO,S12,LIAB,MIO_NAC,BG,2017-01-01,188548.3
F2_F8,NCO,S12,LIAB,MIO_NAC,BG,2018-01-01,201295.6
F2_F8,NCO,S12,LIAB,MIO_NAC,BG,2019-01-01,
F2_F8,NCO,S12,LIAB,MIO_NAC,CY,1995-01-01,20960.0
F2_F8,NCO,S12,LIAB,MIO_NAC,CY,1996-01-01,24542.1
F2_F8,NCO,S12,LIAB,MIO_NAC,CY,1997-01-01,26328.3
F2_F8,NCO,S12,LIAB,MIO_NAC,CY,1998-01-01,30212.2
F2_F8,NCO,S12,LIAB,MIO_NAC,CY,1999-01-01,46193.9
F2_F8,NCO,S12,LIAB,MIO_NAC,CY,2000-01-01,39915.8
F2_F8,NCO,S12,LIAB,MIO_NAC,CY,2001-01-01,43112.1
F2_F8,NCO,S12,LIAB,MIO_NAC,CY,2002-01-01,44221.6
F2_F8,NCO,S12,LIAB,MIO_NAC,CY,2003-01-01,49420.1
F2_F8,NCO,S12,LIAB,MIO_NAC,CY,2004-01-01,193440.8
F2_F8,NCO,S12,LIAB,MIO_NAC,CY,2005-01-01,213234.0
F2_F8,NCO,S12,LIAB,MIO_NAC,CY,2006-01-01,235338.6
F2_F8,NCO,S12,LIAB,MIO_NAC,CY,2007-01-01,261489.9
F2_F8,NCO,S12,LIAB,MIO_NAC,CY,2008-01-01,285609.3
F2_F8,NCO,S12,LIAB,MIO_NAC,CY,2009-01-01,354595.9
F2_F8,NCO,S12,LIAB,MIO_NAC,CY,2010-01-01,369425.3
F2_F8,NCO,S12,LIAB,MIO_NAC,CY,2011-01-01,405041.8
F2_F8,NCO,S12,LIAB,MIO_NAC,CY,2012-01-01,454290.2
F2_F8,NCO,S12,LIAB,MIO_NAC,CY,2013-01-01,438728.4
F2_F8,NCO,S12,LIAB,MIO_NAC,CY,2014-01-01,489588.2
F2_F8,NCO,S12,LIAB,MIO_NAC,CY,2015-01-01,537601.8
F2_F8,NCO,S12,LIAB,MIO_NAC,CY,2016-01-01,536447.1
F2_F8,NCO,S12,LIAB,MIO_NAC,CY,2017-01-01,527323.5
F2_F8,NCO,S12,LIAB,MIO_NAC,CY,2018-01-01,528674.3
F2_F8,NCO,S12,LIAB,MIO_NAC,CY,2019-01-01,
F2_F8,NCO,S12,LIAB,MIO_NAC,CZ,1995-01-01,2371865.0
F2_F8,NCO,S12,LIAB,MIO_NAC,CZ,1996-01-01,2604134.0
F2_F8,NCO,S12,LIAB,MIO_NAC,CZ,1997-01-01,3076839.0
F2_F8,NCO,S12,LIAB,MIO_NAC,CZ,1998-01-01,3284825.0
F2_F8,NCO,S12,LIAB,MIO_NAC,CZ,1999-01-01,3475069.0
F2_F8,NCO,S12,LIAB,MIO_NAC,CZ,2000-01-01,3615015.0
F2_F8,NCO,S12,LIAB,MIO_NAC,CZ,2001-01-01,3642886.0
F2_F8,NCO,S12,LIAB,MIO_NAC,CZ,2002-01-01,3968800.0
F2_F8,NCO,S12,LIAB,MIO_NAC,CZ,2003-01-01,4143183.0
F2_F8,NCO,S12,LIAB,MIO_NAC,CZ,2004-01-01,4380564.0
F2_F8,NCO,S12,LIAB,MIO_NAC,CZ,2005-01-01,4860864.0
F2_F8,NCO,S12,LIAB,MIO_NAC,CZ,2006-01-01,5031704.0
F2_F8,NCO,S12,LIAB,MIO_NAC,CZ,2007-01-01,5810385.0
F2_F8,NCO,S12,LIAB,MIO_NAC,CZ,2008-01-01,6157737.0
F2_F8,NCO,S12,LIAB,MIO_NAC,CZ,2009-01-01,6290182.0
F2_F8,NCO,S12,LIAB,MIO_NAC,CZ,2010-01-01,6493564.0
F2_F8,NCO,S12,LIAB,MIO_NAC,CZ,2011-01-01,6770733.0
F2_F8,NCO,S12,LIAB,MIO_NAC,CZ,2012-01-01,7124894.0
F2_F8,NCO,S12,LIAB,MIO_NAC,CZ,2013-01-01,7939104.0
F2_F8,NCO,S12,LIAB,MIO_NAC,CZ,2014-01-01,8348911.0
F2_F8,NCO,S12,LIAB,MIO_NAC,CZ,2015-01-01,9024425.0
F2_F8,NCO,S12,LIAB,MIO_NAC,CZ,2016-01-01,10497980.0
F2_F8,NCO,S12,LIAB,MIO_NAC,CZ,2017-01-01,12910468.0
F2_F8,NCO,S12,LIAB,MIO_NAC,CZ,2018-01-01,13867855.0
F2_F8,NCO,S12,LIAB,MIO_NAC,CZ,2019-01-01,
F2_F8,NCO,S12,LIAB,MIO_NAC,DE,1995-01-01,5584993.0
F2_F8,NCO,S12,LIAB,MIO_NAC,DE,1996-01-01,6151422.0
F2_F8,NCO,S12,LIAB,MIO_NAC,DE,1997-01-01,6945232.0
F2_F8,NCO,S12,LIAB,MIO_NAC,DE,1998-01-01,7836829.0
F2_F8,NCO,S12,LIAB,MIO_NAC,DE,1999-01-01,8787257.0
F2_F8,NCO,S12,LIAB,MIO_NAC,DE,2000-01-01,9488694.0
F2_F8,NCO,S12,LIAB,MIO_NAC,DE,2001-01-01,10001392.0
F2_F8,NCO,S12,LIAB,MIO_NAC,DE,2002-01-01,10099638.0
F2_F8,NCO,S12,LIAB,MIO_NAC,DE,2003-01-01,10412046.0
F2_F8,NCO,S12,LIAB,MIO_NAC,DE,2004-01-01,10817845.0
F2_F8,NCO,S12,LIAB,MIO_NAC,DE,2005-01-01,11513951.0
F2_F8,NCO,S12,LIAB,MIO_NAC,DE,2006-01-01,12067822.0
F2_F8,NCO,S12,LIAB,MIO_NAC,DE,2007-01-01,13071096.0
F2_F8,NCO,S12,LIAB,MIO_NAC,DE,2008-01-01,13665047.0
F2_F8,NCO,S12,LIAB,MIO_NAC,DE,2009-01-01,12808037.0
F2_F8,NCO,S12,LIAB,MIO_NAC,DE,2010-01-01,12702528.0
F2_F8,NCO,S12,LIAB,MIO_NAC,DE,2011-01-01,13091170.0
F2_F8,NCO,S12,LIAB,MIO_NAC,DE,2012-01-01,13510369.0
F2_F8,NCO,S12,LIAB,MIO_NAC,DE,2013-01-01,12651204.0
F2_F8,NCO,S12,LIAB,MIO_NAC,DE,2014-01-01,13230544.0
F2_F8,NCO,S12,LIAB,MIO_NAC,DE,2015-01-01,13579380.0
F2_F8,NCO,S12,LIAB,MIO_NAC,DE,2016-01-01,14283206.0
F2_F8,NCO,S12,LIAB,MIO_NAC,DE,2017-01-01,14855887.0
F2_F8,NCO,S12,LIAB,MIO_NAC,DE,2018-01-01,15150061.0
F2_F8,NCO,S12,LIAB,MIO_NAC,DE,2019-01-01,
F2_F8,NCO,S12,LIAB,MIO_NAC,DK,1995-01-01,3558786.0
F2_F8,NCO,S12,LIAB,MIO_NAC,DK,1996-01-01,4009757.0
F2_F8,NCO,S12,LIAB,MIO_NAC,DK,1997-01-01,4778896.0
F2_F8,NCO,S12,LIAB,MIO_NAC,DK,1998-01-01,5523871.0
F2_F8,NCO,S12,LIAB,MIO_NAC,DK,1999-01-01,6126149.0
F2_F8,NCO,S12,LIAB,MIO_NAC,DK,2000-01-01,6723011.0
F2_F8,NCO,S12,LIAB,MIO_NAC,DK,2001-01-01,6806873.0
F2_F8,NCO,S12,LIAB,MIO_NAC,DK,2002-01-01,6805884.0
F2_F8,NCO,S12,LIAB,MIO_NAC,DK,2003-01-01,7336346.0
F2_F8,NCO,S12,LIAB,MIO_NAC,DK,2004-01-01,7908900.0
F2_F8,NCO,S12,LIAB,MIO_NAC,DK,2005-01-01,9925645.0
F2_F8,NCO,S12,LIAB,MIO_NAC,DK,2006-01-01,11108125.0
F2_F8,NCO,S12,LIAB,MIO_NAC,DK,2007-01-01,12239530.0
F2_F8,NCO,S12,LIAB,MIO_NAC,DK,2008-01-01,12234325.0
F2_F8,NCO,S12,LIAB,MIO_NAC,DK,2009-01-01,12912377.0
F2_F8,NCO,S12,LIAB,MIO_NAC,DK,2010-01-01,14166254.0
F2_F8,NCO,S12,LIAB,MIO_NAC,DK,2011-01-01,14396781.0
F2_F8,NCO,S12,LIAB,MIO_NAC,DK,2012-01-01,14763194.0
F2_F8,NCO,S12,LIAB,MIO_NAC,DK,2013-01-01,15027912.0
F2_F8,NCO,S12,LIAB,MIO_NAC,DK,2014-01-01,16127830.0
F2_F8,NCO,S12,LIAB,MIO_NAC,DK,2015-01-01,15986470.0
F2_F8,NCO,S12,LIAB,MIO_NAC,DK,2016-01-01,16809916.0
F2_F8,NCO,S12,LIAB,MIO_NAC,DK,2017-01-01,17597300.0
F2_F8,NCO,S12,LIAB,MIO_NAC,DK,2018-01-01,16879925.0
F2_F8,NCO,S12,LIAB,MIO_NAC,DK,2019-01-01,
F2_F8,NCO,S12,LIAB,MIO_NAC,EE,1995-01-01,1640.5
F2_F8,NCO,S12,LIAB,MIO_NAC,EE,1996-01-01,2729.3
F2_F8,NCO,S12,LIAB,MIO_NAC,EE,1997-01-01,4941.2
F2_F8,NCO,S12,LIAB,MIO_NAC,EE,1998-01-01,4763.7
F2_F8,NCO,S12,LIAB,MIO_NAC,EE,1999-01-01,5815.3
F2_F8,NCO,S12,LIAB,MIO_NAC,EE,2000-01-01,8237.9
F2_F8,NCO,S12,LIAB,MIO_NAC,EE,2001-01-01,9319.2
F2_F8,NCO,S12,LIAB,MIO_NAC,EE,2002-01-01,11580.7
F2_F8,NCO,S12,LIAB,MIO_NAC,EE,2003-01-01,13137.4
F2_F8,NCO,S12,LIAB,MIO_NAC,EE,2004-01-01,16804.5
F2_F8,NCO,S12,LIAB,MIO_NAC,EE,2005-01-01,20120.6
F2_F8,NCO,S12,LIAB,MIO_NAC,EE,2006-01-01,24396.7
F2_F8,NCO,S12,LIAB,MIO_NAC,EE,2007-01-01,31062.8
F2_F8,NCO,S12,LIAB,MIO_NAC,EE,2008-01-01,32069.4
F2_F8,NCO,S12,LIAB,MIO_NAC,EE,2009-01-01,30603.8
F2_F8,NCO,S12,LIAB,MIO_NAC,EE,2010-01-01,27966.2
F2_F8,NCO,S12,LIAB,MIO_NAC,EE,2011-01-01,27900.6
F2_F8,NCO,S12,LIAB,MIO_NAC,EE,2012-01-01,30935.2
F2_F8,NCO,S12,LIAB,MIO_NAC,EE,2013-01-01,34133.0
F2_F8,NCO,S12,LIAB,MIO_NAC,EE,2014-01-01,38580.5
F2_F8,NCO,S12,LIAB,MIO_NAC,EE,2015-01-01,41915.5
F2_F8,NCO,S12,LIAB,MIO_NAC,EE,2016-01-01,44740.6
F2_F8,NCO,S12,LIAB,MIO_NAC,EE,2017-01-01,51131.3
F2_F8,NCO,S12,LIAB,MIO_NAC,EE,2018-01-01,54644.3
F2_F8,NCO,S12,LIAB,MIO_NAC,EE,2019-01-01,
F2_F8,NCO,S12,LIAB,MIO_NAC,EL,1995-01-01,129973.4
F2_F8,NCO,S12,LIAB,MIO_NAC,EL,1996-01-01,144823.2
F2_F8,NCO,S12,LIAB,MIO_NAC,EL,1997-01-01,161908.3
F2_F8,NCO,S12,LIAB,MIO_NAC,EL,1998-01-01,189116.2
F2_F8,NCO,S12,LIAB,MIO_NAC,EL,1999-01-01,273313.4
F2_F8,NCO,S12,LIAB,MIO_NAC,EL,2000-01-01,268370.6
F2_F8,NCO,S12,LIAB,MIO_NAC,EL,2001-01-01,271609.7
F2_F8,NCO,S12,LIAB,MIO_NAC,EL,2002-01-01,271686.6
F2_F8,NCO,S12,LIAB,MIO_NAC,EL,2003-01-01,299417.9
F2_F8,NCO,S12,LIAB,MIO_NAC,EL,2004-01-01,319199.0
F2_F8,NCO,S12,LIAB,MIO_NAC,EL,2005-01-01,378262.8
F2_F8,NCO,S12,LIAB,MIO_NAC,EL,2006-01-01,432353.7
F2_F8,NCO,S12,LIAB,MIO_NAC,EL,2007-01-01,527088.2
F2_F8,NCO,S12,LIAB,MIO_NAC,EL,2008-01-01,551833.1
F2_F8,NCO,S12,LIAB,MIO_NAC,EL,2009-01-01,605956.4
F2_F8,NCO,S12,LIAB,MIO_NAC,EL,2010-01-01,660033.1
F2_F8,NCO,S12,LIAB,MIO_NAC,EL,2011-01-01,633789.9
F2_F8,NCO,S12,LIAB,MIO_NAC,EL,2012-01-01,620440.9
F2_F8,NCO,S12,LIAB,MIO_NAC,EL,2013-01-01,512478.3
F2_F8,NCO,S12,LIAB,MIO_NAC,EL,2014-01-01,468924.7
F2_F8,NCO,S12,LIAB,MIO_NAC,EL,2015-01-01,498574.9
F2_F8,NCO,S12,LIAB,MIO_NAC,EL,2016-01-01,447498.0
F2_F8,NCO,S12,LIAB,MIO_NAC,EL,2017-01-01,389464.6
F2_F8,NCO,S12,LIAB,MIO_NAC,EL,2018-01-01,370519.8
F2_F8,NCO,S12,LIAB,MIO_NAC,EL,2019-01-01,413052.4
F2_F8,NCO,S12,LIAB,MIO_NAC,ES,1995-01-01,974381.0
F2_F8,NCO,S12,LIAB,MIO_NAC,ES,1996-01-01,1085374.0
F2_F8,NCO,S12,LIAB,MIO_NAC,ES,1997-01-01,1240753.0
F2_F8,NCO,S12,LIAB,MIO_NAC,ES,1998-01-01,1389740.0
F2_F8,NCO,S12,LIAB,MIO_NAC,ES,1999-01-01,1558105.0
F2_F8,NCO,S12,LIAB,MIO_NAC,ES,2000-01-01,1684505.0
F2_F8,NCO,S12,LIAB,MIO_NAC,ES,2001-01-01,1811750.0
F2_F8,NCO,S12,LIAB,MIO_NAC,ES,2002-01-01,1911136.0
F2_F8,NCO,S12,LIAB,MIO_NAC,ES,2003-01-01,2232923.0
F2_F8,NCO,S12,LIAB,MIO_NAC,ES,2004-01-01,2596091.0
F2_F8,NCO,S12,LIAB,MIO_NAC,ES,2005-01-01,3243791.0
F2_F8,NCO,S12,LIAB,MIO_NAC,ES,2006-01-01,3904939.0
F2_F8,NCO,S12,LIAB,MIO_NAC,ES,2007-01-01,4573403.0
F2_F8,NCO,S12,LIAB,MIO_NAC,ES,2008-01-01,4802581.0
F2_F8,NCO,S12,LIAB,MIO_NAC,ES,2009-01-01,4935418.0
F2_F8,NCO,S12,LIAB,MIO_NAC,ES,2010-01-01,4832191.0
F2_F8,NCO,S12,LIAB,MIO_NAC,ES,2011-01-01,4996326.0
F2_F8,NCO,S12,LIAB,MIO_NAC,ES,2012-01-01,5029181.0
F2_F8,NCO,S12,LIAB,MIO_NAC,ES,2013-01-01,4509850.0
F2_F8,NCO,S12,LIAB,MIO_NAC,ES,2014-01-01,4510580.0
F2_F8,NCO,S12,LIAB,MIO_NAC,ES,2015-01-01,4420405.0
F2_F8,NCO,S12,LIAB,MIO_NAC,ES,2016-01-01,4528675.0
F2_F8,NCO,S12,LIAB,MIO_NAC,ES,2017-01-01,4671860.0
F2_F8,NCO,S12,LIAB,MIO_NAC,ES,2018-01-01,4565276.0
F2_F8,NCO,S12,LIAB,MIO_NAC,ES,2019-01-01,4610166.0
F2_F8,NCO,S12,LIAB,MIO_NAC,FI,1995-01-01,152556.0
F2_F8,NCO,S12,LIAB,MIO_NAC,FI,1996-01-01,151578.0
F2_F8,NCO,S12,LIAB,MIO_NAC,FI,1997-01-01,172261.0
F2_F8,NCO,S12,LIAB,MIO_NAC,FI,1998-01-01,180715.0
F2_F8,NCO,S12,LIAB,MIO_NAC,FI,1999-01-01,210400.0
F2_F8,NCO,S12,LIAB,MIO_NAC,FI,2000-01-01,218980.0
F2_F8,NCO,S12,LIAB,MIO_NAC,FI,2001-01-01,240755.0
F2_F8,NCO,S12,LIAB,MIO_NAC,FI,2002-01-01,250686.0
F2_F8,NCO,S12,LIAB,MIO_NAC,FI,2003-01-01,284316.0
F2_F8,NCO,S12,LIAB,MIO_NAC,FI,2004-01-01,322240.0
F2_F8,NCO,S12,LIAB,MIO_NAC,FI,2005-01-01,366531.0
F2_F8,NCO,S12,LIAB,MIO_NAC,FI,2006-01-01,410275.0
F2_F8,NCO,S12,LIAB,MIO_NAC,FI,2007-01-01,451869.0
F2_F8,NCO,S12,LIAB,MIO_NAC,FI,2008-01-01,527516.0
F2_F8,NCO,S12,LIAB,MIO_NAC,FI,2009-01-01,566818.0
F2_F8,NCO,S12,LIAB,MIO_NAC,FI,2010-01-01,679848.0
F2_F8,NCO,S12,LIAB,MIO_NAC,FI,2011-01-01,875092.0
F2_F8,NCO,S12,LIAB,MIO_NAC,FI,2012-01-01,863871.0
F2_F8,NCO,S12,LIAB,MIO_NAC,FI,2013-01-01,764312.0
F2_F8,NCO,S12,LIAB,MIO_NAC,FI,2014-01-01,836122.0
F2_F8,NCO,S12,LIAB,MIO_NAC,FI,2015-01-01,847431.0
F2_F8,NCO,S12,LIAB,MIO_NAC,FI,2016-01-01,880878.0
F2_F8,NCO,S12,LIAB,MIO_NAC,FI,2017-01-01,845254.0
F2_F8,NCO,S12,LIAB,MIO_NAC,FI,2018-01-01,1013017.0
F2_F8,NCO,S12,LIAB,MIO_NAC,FI,2019-01-01,1088747.0
F2_F8,NCO,S12,LIAB,MIO_NAC,FR,1995-01-01,3840755.0
F2_F8,NCO,S12,LIAB,MIO_NAC,FR,1996-01-01,4094824.0
F2_F8,NCO,S12,LIAB,MIO_NAC,FR,1997-01-01,4500762.0
F2_F8,NCO,S12,LIAB,MIO_NAC,FR,1998-01-01,4754064.0
F2_F8,NCO,S12,LIAB,MIO_NAC,FR,1999-01-01,5455298.0
F2_F8,NCO,S12,LIAB,MIO_NAC,FR,2000-01-01,5818645.0
F2_F8,NCO,S12,LIAB,MIO_NAC,FR,2001-01-01,6096248.0
F2_F8,NCO,S12,LIAB,MIO_NAC,FR,2002-01-01,6174088.0
F2_F8,NCO,S12,LIAB,MIO_NAC,FR,2003-01-01,6595710.0
F2_F8,NCO,S12,LIAB,MIO_NAC,FR,2004-01-01,7245557.0
F2_F8,NCO,S12,LIAB,MIO_NAC,FR,2005-01-01,8331704.0
F2_F8,NCO,S12,LIAB,MIO_NAC,FR,2006-01-01,9606078.0
F2_F8,NCO,S12,LIAB,MIO_NAC,FR,2007-01-01,10840092.0
F2_F8,NCO,S12,LIAB,MIO_NAC,FR,2008-01-01,11065312.0
F2_F8,NCO,S12,LIAB,MIO_NAC,FR,2009-01-01,10987855.0
F2_F8,NCO,S12,LIAB,MIO_NAC,FR,2010-01-01,11376850.0
F2_F8,NCO,S12,LIAB,MIO_NAC,FR,2011-01-01,12167107.0
F2_F8,NCO,S12,LIAB,MIO_NAC,FR,2012-01-01,12341703.0
F2_F8,NCO,S12,LIAB,MIO_NAC,FR,2013-01-01,12402374.0
F2_F8,NCO,S12,LIAB,MIO_NAC,FR,2014-01-01,13091478.0
F2_F8,NCO,S12,LIAB,MIO_NAC,FR,2015-01-01,13376008.0
F2_F8,NCO,S12,LIAB,MIO_NAC,FR,2016-01-01,13995228.0
F2_F8,NCO,S12,LIAB,MIO_NAC,FR,2017-01-01,14639923.0
F2_F8,NCO,S12,LIAB,MIO_NAC,FR,2018-01-01,14875925.0
F2_F8,NCO,S12,LIAB,MIO_NAC,FR,2019-01-01,
F2_F8,NCO,S12,LIAB,MIO_NAC,HR,1995-01-01,
F2_F8,NCO,S12,LIAB,MIO_NAC,HR,1996-01-01,
F2_F8,NCO,S12,LIAB,MIO_NAC,HR,1997-01-01,
F2_F8,NCO,S12,LIAB,MIO_NAC,HR,1998-01-01,
F2_F8,NCO,S12,LIAB,MIO_NAC,HR,1999-01-01,
F2_F8,NCO,S12,LIAB,MIO_NAC,HR,2000-01-01,
F2_F8,NCO,S12,LIAB,MIO_NAC,HR,2001-01-01,208790.0
F2_F8,NCO,S12,LIAB,MIO_NAC,HR,2002-01-01,254791.5
F2_F8,NCO,S12,LIAB,MIO_NAC,HR,2003-01-01,304780.8
F2_F8,NCO,S12,LIAB,MIO_NAC,HR,2004-01-01,348954.5
F2_F8,NCO,S12,LIAB,MIO_NAC,HR,2005-01-01,394615.4
F2_F8,NCO,S12,LIAB,MIO_NAC,HR,2006-01-01,498327.3
F2_F8,NCO,S12,LIAB,MIO_NAC,HR,2007-01-01,615644.5
F2_F8,NCO,S12,LIAB,MIO_NAC,HR,2008-01-01,565938.4
F2_F8,NCO,S12,LIAB,MIO_NAC,HR,2009-01-01,588893.9
F2_F8,NCO,S12,LIAB,MIO_NAC,HR,2010-01-01,613079.3
F2_F8,NCO,S12,LIAB,MIO_NAC,HR,2011-01-01,625029.5
F2_F8,NCO,S12,LIAB,MIO_NAC,HR,2012-01-01,630782.4
F2_F8,NCO,S12,LIAB,MIO_NAC,HR,2013-01-01,648188.6
F2_F8,NCO,S12,LIAB,MIO_NAC,HR,2014-01-01,651949.6
F2_F8,NCO,S12,LIAB,MIO_NAC,HR,2015-01-01,664829.2
F2_F8,NCO,S12,LIAB,MIO_NAC,HR,2016-01-01,688044.0
F2_F8,NCO,S12,LIAB,MIO_NAC,HR,2017-01-01,715050.8
F2_F8,NCO,S12,LIAB,MIO_NAC,HR,2018-01-01,747378.8
F2_F8,NCO,S12,LIAB,MIO_NAC,HR,2019-01-01,
F2_F8,NCO,S12,LIAB,MIO_NAC,HU,1995-01-01,9422076.0
F2_F8,NCO,S12,LIAB,MIO_NAC,HU,1996-01-01,10277541.0
F2_F8,NCO,S12,LIAB,MIO_NAC,HU,1997-01-01,11896934.0
F2_F8,NCO,S12,LIAB,MIO_NAC,HU,1998-01-01,13782909.0
F2_F8,NCO,S12,LIAB,MIO_NAC,HU,1999-01-01,17425830.0
F2_F8,NCO,S12,LIAB,MIO_NAC,HU,2000-01-01,23244290.0
F2_F8,NCO,S12,LIAB,MIO_NAC,HU,2001-01-01,28827953.0
F2_F8,NCO,S12,LIAB,MIO_NAC,HU,2002-01-01,29758512.0
F2_F8,NCO,S12,LIAB,MIO_NAC,HU,2003-01-01,33414544.0
F2_F8,NCO,S12,LIAB,MIO_NAC,HU,2004-01-01,36149573.0
F2_F8,NCO,S12,LIAB,MIO_NAC,HU,2005-01-01,48819350.0
F2_F8,NCO,S12,LIAB,MIO_NAC,HU,2006-01-01,57553129.0
F2_F8,NCO,S12,LIAB,MIO_NAC,HU,2007-01-01,71150432.0
F2_F8,NCO,S12,LIAB,MIO_NAC,HU,2008-01-01,89684697.0
F2_F8,NCO,S12,LIAB,MIO_NAC,HU,2009-01-01,91101843.0
F2_F8,NCO,S12,LIAB,MIO_NAC,HU,2010-01-01,90897271.0
F2_F8,NCO,S12,LIAB,MIO_NAC,HU,2011-01-01,96518459.0
F2_F8,NCO,S12,LIAB,MIO_NAC,HU,2012-01-01,90885327.0
F2_F8,NCO,S12,LIAB,MIO_NAC,HU,2013-01-01,89745271.0
F2_F8,NCO,S12,LIAB,MIO_NAC,HU,2014-01-01,97536430.0
F2_F8,NCO,S12,LIAB,MIO_NAC,HU,2015-01-01,97941813.0
F2_F8,NCO,S12,LIAB,MIO_NAC,HU,2016-01-01,117026998.0
F2_F8,NCO,S12,LIAB,MIO_NAC,HU,2017-01-01,108083608.0
F2_F8,NCO,S12,LIAB,MIO_NAC,HU,2018-01-01,98038937.0
F2_F8,NCO,S12,LIAB,MIO_NAC,HU,2019-01-01,108263250.0
F2_F8,NCO,S12,LIAB,MIO_NAC,IE,1995-01-01,
F2_F8,NCO,S12,LIAB,MIO_NAC,IE,1996-01-01,
F2_F8,NCO,S12,LIAB,MIO_NAC,IE,1997-01-01,
F2_F8,NCO,S12,LIAB,MIO_NAC,IE,1998-01-01,
F2_F8,NCO,S12,LIAB,MIO_NAC,IE,1999-01-01,
F2_F8,NCO,S12,LIAB,MIO_NAC,IE,2000-01-01,
F2_F8,NCO,S12,LIAB,MIO_NAC,IE,2001-01-01,1077442.0
F2_F8,NCO,S12,LIAB,MIO_NAC,IE,2002-01-01,1190201.0
F2_F8,NCO,S12,LIAB,MIO_NAC,IE,2003-01-01,1458020.0
F2_F8,NCO,S12,LIAB,MIO_NAC,IE,2004-01-01,1751386.0
F2_F8,NCO,S12,LIAB,MIO_NAC,IE,2005-01-01,2366540.0
F2_F8,NCO,S12,LIAB,MIO_NAC,IE,2006-01-01,2877439.0
F2_F8,NCO,S12,LIAB,MIO_NAC,IE,2007-01-01,3154780.0
F2_F8,NCO,S12,LIAB,MIO_NAC,IE,2008-01-01,3358865.0
F2_F8,NCO,S12,LIAB,MIO_NAC,IE,2009-01-01,3471735.0
F2_F8,NCO,S12,LIAB,MIO_NAC,IE,2010-01-01,3691722.0
F2_F8,NCO,S12,LIAB,MIO_NAC,IE,2011-01-01,3607447.0
F2_F8,NCO,S12,LIAB,MIO_NAC,IE,2012-01-01,3542735.0
F2_F8,NCO,S12,LIAB,MIO_NAC,IE,2013-01-01,3611739.0
F2_F8,NCO,S12,LIAB,MIO_NAC,IE,2014-01-01,4317763.0
F2_F8,NCO,S12,LIAB,MIO_NAC,IE,2015-01-01,4733772.0
F2_F8,NCO,S12,LIAB,MIO_NAC,IE,2016-01-01,4805403.0
F2_F8,NCO,S12,LIAB,MIO_NAC,IE,2017-01-01,5009926.0
F2_F8,NCO,S12,LIAB,MIO_NAC,IE,2018-01-01,5265904.0
F2_F8,NCO,S12,LIAB,MIO_NAC,IE,2019-01-01,
F2_F8,NCO,S12,LIAB,MIO_NAC,IT,1995-01-01,1645259.0
F2_F8,NCO,S12,LIAB,MIO_NAC,IT,1996-01-01,1798449.0
F2_F8,NCO,S12,LIAB,MIO_NAC,IT,1997-01-01,2109797.0
F2_F8,NCO,S12,LIAB,MIO_NAC,IT,1998-01-01,2522187.0
F2_F8,NCO,S12,LIAB,MIO_NAC,IT,1999-01-01,2869029.0
F2_F8,NCO,S12,LIAB,MIO_NAC,IT,2000-01-01,3213779.0
F2_F8,NCO,S12,LIAB,MIO_NAC,IT,2001-01-01,3117858.0
F2_F8,NCO,S12,LIAB,MIO_NAC,IT,2002-01-01,3223975.0
F2_F8,NCO,S12,LIAB,MIO_NAC,IT,2003-01-01,3600369.0
F2_F8,NCO,S12,LIAB,MIO_NAC,IT,2004-01-01,3861461.0
F2_F8,NCO,S12,LIAB,MIO_NAC,IT,2005-01-01,4327479.0
F2_F8,NCO,S12,LIAB,MIO_NAC,IT,2006-01-01,4779540.0
F2_F8,NCO,S12,LIAB,MIO_NAC,IT,2007-01-01,4808198.0
F2_F8,NCO,S12,LIAB,MIO_NAC,IT,2008-01-01,4735164.0
F2_F8,NCO,S12,LIAB,MIO_NAC,IT,2009-01-01,4976521.0
F2_F8,NCO,S12,LIAB,MIO_NAC,IT,2010-01-01,5184154.0
F2_F8,NCO,S12,LIAB,MIO_NAC,IT,2011-01-01,5449906.0
F2_F8,NCO,S12,LIAB,MIO_NAC,IT,2012-01-01,5844124.0
F2_F8,NCO,S12,LIAB,MIO_NAC,IT,2013-01-01,5687717.0
F2_F8,NCO,S12,LIAB,MIO_NAC,IT,2014-01-01,5716080.0
F2_F8,NCO,S12,LIAB,MIO_NAC,IT,2015-01-01,5793393.0
F2_F8,NCO,S12,LIAB,MIO_NAC,IT,2016-01-01,5982574.0
F2_F8,NCO,S12,LIAB,MIO_NAC,IT,2017-01-01,6236451.0
F2_F8,NCO,S12,LIAB,MIO_NAC,IT,2018-01-01,6227351.0
F2_F8,NCO,S12,LIAB,MIO_NAC,IT,2019-01-01,
F2_F8,NCO,S12,LIAB,MIO_NAC,LT,1995-01-01,3104.4
F2_F8,NCO,S12,LIAB,MIO_NAC,LT,1996-01-01,3359.4
F2_F8,NCO,S12,LIAB,MIO_NAC,LT,1997-01-01,4202.4
F2_F8,NCO,S12,LIAB,MIO_NAC,LT,1998-01-01,5363.5
F2_F8,NCO,S12,LIAB,MIO_NAC,LT,1999-01-01,5442.1
F2_F8,NCO,S12,LIAB,MIO_NAC,LT,2000-01-01,6074.0
F2_F8,NCO,S12,LIAB,MIO_NAC,LT,2001-01-01,7158.6
F2_F8,NCO,S12,LIAB,MIO_NAC,LT,2002-01-01,8294.6
F2_F8,NCO,S12,LIAB,MIO_NAC,LT,2003-01-01,10813.8
F2_F8,NCO,S12,LIAB,MIO_NAC,LT,2004-01-01,13567.9
F2_F8,NCO,S12,LIAB,MIO_NAC,LT,2005-01-01,20165.4
F2_F8,NCO,S12,LIAB,MIO_NAC,LT,2006-01-01,26799.1
F2_F8,NCO,S12,LIAB,MIO_NAC,LT,2007-01-01,35946.0
F2_F8,NCO,S12,LIAB,MIO_NAC,LT,2008-01-01,37517.0
F2_F8,NCO,S12,LIAB,MIO_NAC,LT,2009-01-01,35841.6
F2_F8,NCO,S12,LIAB,MIO_NAC,LT,2010-01-01,35802.5
F2_F8,NCO,S12,LIAB,MIO_NAC,LT,2011-01-01,36506.3
F2_F8,NCO,S12,LIAB,MIO_NAC,LT,2012-01-01,36245.3
F2_F8,NCO,S12,LIAB,MIO_NAC,LT,2013-01-01,35822.7
F2_F8,NCO,S12,LIAB,MIO_NAC,LT,2014-01-01,41793.1
F2_F8,NCO,S12,LIAB,MIO_NAC,LT,2015-01-01,44839.7
F2_F8,NCO,S12,LIAB,MIO_NAC,LT,2016-01-01,51940.1
F2_F8,NCO,S12,LIAB,MIO_NAC,LT,2017-01-01,59139.4
F2_F8,NCO,S12,LIAB,MIO_NAC,LT,2018-01-01,63971.5
F2_F8,NCO,S12,LIAB,MIO_NAC,LT,2019-01-01,
F2_F8,NCO,S12,LIAB,MIO_NAC,LU,1995-01-01,
F2_F8,NCO,S12,LIAB,MIO_NAC,LU,1996-01-01,
F2_F8,NCO,S12,LIAB,MIO_NAC,LU,1997-01-01,
F2_F8,NCO,S12,LIAB,MIO_NAC,LU,1998-01-01,
F2_F8,NCO,S12,LIAB,MIO_NAC,LU,1999-01-01,1790541.3
F2_F8,NCO,S12,LIAB,MIO_NAC,LU,2000-01-01,2087048.7
F2_F8,NCO,S12,LIAB,MIO_NAC,LU,2001-01-01,2340493.5
F2_F8,NCO,S12,LIAB,MIO_NAC,LU,2002-01-01,2441121.0
F2_F8,NCO,S12,LIAB,MIO_NAC,LU,2003-01-01,2882040.7
F2_F8,NCO,S12,LIAB,MIO_NAC,LU,2004-01-01,3311923.9
F2_F8,NCO,S12,LIAB,MIO_NAC,LU,2005-01-01,4294019.7
F2_F8,NCO,S12,LIAB,MIO_NAC,LU,2006-01-01,4982178.0
F2_F8,NCO,S12,LIAB,MIO_NAC,LU,2007-01-01,5690148.6
F2_F8,NCO,S12,LIAB,MIO_NAC,LU,2008-01-01,5298371.6
F2_F8,NCO,S12,LIAB,MIO_NAC,LU,2009-01-01,5656422.7
F2_F8,NCO,S12,LIAB,MIO_NAC,LU,2010-01-01,6397261.0
F2_F8,NCO,S12,LIAB,MIO_NAC,LU,2011-01-01,7096252.6
F2_F8,NCO,S12,LIAB,MIO_NAC,LU,2012-01-01,8168959.5
F2_F8,NCO,S12,LIAB,MIO_NAC,LU,2013-01-01,9012052.4
F2_F8,NCO,S12,LIAB,MIO_NAC,LU,2014-01-01,12421369.9
F2_F8,NCO,S12,LIAB,MIO_NAC,LU,2015-01-01,14600430.3
F2_F8,NCO,S12,LIAB,MIO_NAC,LU,2016-01-01,15360402.5
F2_F8,NCO,S12,LIAB,MIO_NAC,LU,2017-01-01,15429521.1
F2_F8,NCO,S12,LIAB,MIO_NAC,LU,2018-01-01,15116486.8
F2_F8,NCO,S12,LIAB,MIO_NAC,LU,2019-01-01,
F2_F8,NCO,S12,LIAB,MIO_NAC,LV,1995-01-01,1887.0
F2_F8,NCO,S12,LIAB,MIO_NAC,LV,1996-01-01,2610.0
F2_F8,NCO,S12,LIAB,MIO_NAC,LV,1997-01-01,3603.0
F2_F8,NCO,S12,LIAB,MIO_NAC,LV,1998-01-01,3707.0
F2_F8,NCO,S12,LIAB,MIO_NAC,LV,1999-01-01,4222.0
F2_F8,NCO,S12,LIAB,MIO_NAC,LV,2000-01-01,5601.0
F2_F8,NCO,S12,LIAB,MIO_NAC,LV,2001-01-01,6743.0
F2_F8,NCO,S12,LIAB,MIO_NAC,LV,2002-01-01,8406.0
F2_F8,NCO,S12,LIAB,MIO_NAC,LV,2003-01-01,10450.0
F2_F8,NCO,S12,LIAB,MIO_NAC,LV,2004-01-01,14102.0
F2_F8,NCO,S12,LIAB,MIO_NAC,LV,2005-01-01,19736.0
F2_F8,NCO,S12,LIAB,MIO_NAC,LV,2006-01-01,29120.0
F2_F8,NCO,S12,LIAB,MIO_NAC,LV,2007-01-01,39827.0
F2_F8,NCO,S12,LIAB,MIO_NAC,LV,2008-01-01,43398.0
F2_F8,NCO,S12,LIAB,MIO_NAC,LV,2009-01-01,39423.0
F2_F8,NCO,S12,LIAB,MIO_NAC,LV,2010-01-01,39616.0
F2_F8,NCO,S12,LIAB,MIO_NAC,LV,2011-01-01,37154.0
F2_F8,NCO,S12,LIAB,MIO_NAC,LV,2012-01-01,39252.0
F2_F8,NCO,S12,LIAB,MIO_NAC,LV,2013-01-01,41500.0
F2_F8,NCO,S12,LIAB,MIO_NAC,LV,2014-01-01,46239.0
F2_F8,NCO,S12,LIAB,MIO_NAC,LV,2015-01-01,52362.0
F2_F8,NCO,S12,LIAB,MIO_NAC,LV,2016-01-01,54834.0
F2_F8,NCO,S12,LIAB,MIO_NAC,LV,2017-01-01,58253.0
F2_F8,NCO,S12,LIAB,MIO_NAC,LV,2018-01-01,56513.0
F2_F8,NCO,S12,LIAB,MIO_NAC,LV,2019-01-01,
F2_F8,NCO,S12,LIAB,MIO_NAC,MT,1995-01-01,7211.5
F2_F8,NCO,S12,LIAB,MIO_NAC,MT,1996-01-01,8411.3
F2_F8,NCO,S12,LIAB,MIO_NAC,MT,1997-01-01,9869.5
F2_F8,NCO,S12,LIAB,MIO_NAC,MT,1998-01-01,12881.9
F2_F8,NCO,S12,LIAB,MIO_NAC,MT,1999-01-01,15843.2
F2_F8,NCO,S12,LIAB,MIO_NAC,MT,2000-01-01,17163.7
F2_F8,NCO,S12,LIAB,MIO_NAC,MT,2001-01-01,17111.7
F2_F8,NCO,S12,LIAB,MIO_NAC,MT,2002-01-01,19828.1
F2_F8,NCO,S12,LIAB,MIO_NAC,MT,2003-01-01,22820.2
F2_F8,NCO,S12,LIAB,MIO_NAC,MT,2004-01-01,45960.2
F2_F8,NCO,S12,LIAB,MIO_NAC,MT,2005-01-01,76330.9
F2_F8,NCO,S12,LIAB,MIO_NAC,MT,2006-01-01,102036.5
F2_F8,NCO,S12,LIAB,MIO_NAC,MT,2007-01-01,147949.6
F2_F8,NCO,S12,LIAB,MIO_NAC,MT,2008-01-01,163213.0
F2_F8,NCO,S12,LIAB,MIO_NAC,MT,2009-01-01,171637.9
F2_F8,NCO,S12,LIAB,MIO_NAC,MT,2010-01-01,196162.1
F2_F8,NCO,S12,LIAB,MIO_NAC,MT,2011-01-01,216579.1
F2_F8,NCO,S12,LIAB,MIO_NAC,MT,2012-01-01,235103.9
F2_F8,NCO,S12,LIAB,MIO_NAC,MT,2013-01-01,235179.5
F2_F8,NCO,S12,LIAB,MIO_NAC,MT,2014-01-01,249132.1
F2_F8,NCO,S12,LIAB,MIO_NAC,MT,2015-01-01,258190.5
F2_F8,NCO,S12,LIAB,MIO_NAC,MT,2016-01-01,268276.6
F2_F8,NCO,S12,LIAB,MIO_NAC,MT,2017-01-01,285839.9
F2_F8,NCO,S12,LIAB,MIO_NAC,MT,2018-01-01,292482.6
F2_F8,NCO,S12,LIAB,MIO_NAC,MT,2019-01-01,
F2_F8,NCO,S12,LIAB,MIO_NAC,NL,1995-01-01,2069035.0
F2_F8,NCO,S12,LIAB,MIO_NAC,NL,1996-01-01,2286048.0
F2_F8,NCO,S12,LIAB,MIO_NAC,NL,1997-01-01,2591671.0
F2_F8,NCO,S12,LIAB,MIO_NAC,NL,1998-01-01,2965897.0
F2_F8,NCO,S12,LIAB,MIO_NAC,NL,1999-01-01,3317508.0
F2_F8,NCO,S12,LIAB,MIO_NAC,NL,2000-01-01,3605487.0
F2_F8,NCO,S12,LIAB,MIO_NAC,NL,2001-01-01,3821964.0
F2_F8,NCO,S12,LIAB,MIO_NAC,NL,2002-01-01,3991646.0
F2_F8,NCO,S12,LIAB,MIO_NAC,NL,2003-01-01,4212178.0
F2_F8,NCO,S12,LIAB,MIO_NAC,NL,2004-01-01,4513846.0
F2_F8,NCO,S12,LIAB,MIO_NAC,NL,2005-01-01,5211213.0
F2_F8,NCO,S12,LIAB,MIO_NAC,NL,2006-01-01,5813272.0
F2_F8,NCO,S12,LIAB,MIO_NAC,NL,2007-01-01,6652539.0
F2_F8,NCO,S12,LIAB,MIO_NAC,NL,2008-01-01,6950124.0
F2_F8,NCO,S12,LIAB,MIO_NAC,NL,2009-01-01,7445757.0
F2_F8,NCO,S12,LIAB,MIO_NAC,NL,2010-01-01,7846047.0
F2_F8,NCO,S12,LIAB,MIO_NAC,NL,2011-01-01,8655748.0
F2_F8,NCO,S12,LIAB,MIO_NAC,NL,2012-01-01,9172174.0
F2_F8,NCO,S12,LIAB,MIO_NAC,NL,2013-01-01,9026088.0
F2_F8,NCO,S12,LIAB,MIO_NAC,NL,2014-01-01,9751166.0
F2_F8,NCO,S12,LIAB,MIO_NAC,NL,2015-01-01,10142778.0
F2_F8,NCO,S12,LIAB,MIO_NAC,NL,2016-01-01,10818145.0
F2_F8,NCO,S12,LIAB,MIO_NAC,NL,2017-01-01,10811215.0
F2_F8,NCO,S12,LIAB,MIO_NAC,NL,2018-01-01,10454748.0
F2_F8,NCO,S12,LIAB,MIO_NAC,NL,2019-01-01,
F2_F8,NCO,S12,LIAB,MIO_NAC,PL,1995-01-01,187259.0
F2_F8,NCO,S12,LIAB,MIO_NAC,PL,1996-01-01,247761.0
F2_F8,NCO,S12,LIAB,MIO_NAC,PL,1997-01-01,327411.6
F2_F8,NCO,S12,LIAB,MIO_NAC,PL,1998-01-01,449288.9
F2_F8,NCO,S12,LIAB,MIO_NAC,PL,1999-01-01,545807.8
F2_F8,NCO,S12,LIAB,MIO_NAC,PL,2000-01-01,596323.9
F2_F8,NCO,S12,LIAB,MIO_NAC,PL,2001-01-01,675327.2
F2_F8,NCO,S12,LIAB,MIO_NAC,PL,2002-01-01,685087.2
F2_F8,NCO,S12,LIAB,MIO_NAC,PL,2003-01-01,793335.0
F2_F8,NCO,S12,LIAB,MIO_NAC,PL,2004-01-01,919577.0
F2_F8,NCO,S12,LIAB,MIO_NAC,PL,2005-01-01,1102801.0
F2_F8,NCO,S12,LIAB,MIO_NAC,PL,2006-01-01,1372840.0
F2_F8,NCO,S12,LIAB,MIO_NAC,PL,2007-01-01,1625229.0
F2_F8,NCO,S12,LIAB,MIO_NAC,PL,2008-01-01,1735191.0
F2_F8,NCO,S12,LIAB,MIO_NAC,PL,2009-01-01,1884796.0
F2_F8,NCO,S12,LIAB,MIO_NAC,PL,2010-01-01,2142309.0
F2_F8,NCO,S12,LIAB,MIO_NAC,PL,2011-01-01,2245082.0
F2_F8,NCO,S12,LIAB,MIO_NAC,PL,2012-01-01,2486260.0
F2_F8,NCO,S12,LIAB,MIO_NAC,PL,2013-01-01,2670712.0
F2_F8,NCO,S12,LIAB,MIO_NAC,PL,2014-01-01,2689393.0
F2_F8,NCO,S12,LIAB,MIO_NAC,PL,2015-01-01,2754264.0
F2_F8,NCO,S12,LIAB,MIO_NAC,PL,2016-01-01,3004126.0
F2_F8,NCO,S12,LIAB,MIO_NAC,PL,2017-01-01,3199868.0
F2_F8,NCO,S12,LIAB,MIO_NAC,PL,2018-01-01,3288065.0
F2_F8,NCO,S12,LIAB,MIO_NAC,PL,2019-01-01,3423113.0
F2_F8,NCO,S12,LIAB,MIO_NAC,PT,1995-01-01,203319.5
F2_F8,NCO,S12,LIAB,MIO_NAC,PT,1996-01-01,234579.4
F2_F8,NCO,S12,LIAB,MIO_NAC,PT,1997-01-01,283029.5
F2_F8,NCO,S12,LIAB,MIO_NAC,PT,1998-01-01,327429.7
F2_F8,NCO,S12,LIAB,MIO_NAC,PT,1999-01-01,384867.5
F2_F8,NCO,S12,LIAB,MIO_NAC,PT,2000-01-01,427830.3
F2_F8,NCO,S12,LIAB,MIO_NAC,PT,2001-01-01,465213.7
F2_F8,NCO,S12,LIAB,MIO_NAC,PT,2002-01-01,478261.9
F2_F8,NCO,S12,LIAB,MIO_NAC,PT,2003-01-01,534133.2
F2_F8,NCO,S12,LIAB,MIO_NAC,PT,2004-01-01,567679.5
F2_F8,NCO,S12,LIAB,MIO_NAC,PT,2005-01-01,632754.5
F2_F8,NCO,S12,LIAB,MIO_NAC,PT,2006-01-01,720435.7
F2_F8,NCO,S12,LIAB,MIO_NAC,PT,2007-01-01,795258.5
F2_F8,NCO,S12,LIAB,MIO_NAC,PT,2008-01-01,830369.1
F2_F8,NCO,S12,LIAB,MIO_NAC,PT,2009-01-01,907255.0
F2_F8,NCO,S12,LIAB,MIO_NAC,PT,2010-01-01,1005916.0
F2_F8,NCO,S12,LIAB,MIO_NAC,PT,2011-01-01,956187.6
F2_F8,NCO,S12,LIAB,MIO_NAC,PT,2012-01-01,922468.2
F2_F8,NCO,S12,LIAB,MIO_NAC,PT,2013-01-01,874227.2
F2_F8,NCO,S12,LIAB,MIO_NAC,PT,2014-01-01,810817.1
F2_F8,NCO,S12,LIAB,MIO_NAC,PT,2015-01-01,799708.3
F2_F8,NCO,S12,LIAB,MIO_NAC,PT,2016-01-01,796549.5
F2_F8,NCO,S12,LIAB,MIO_NAC,PT,2017-01-01,807829.5
F2_F8,NCO,S12,LIAB,MIO_NAC,PT,2018-01-01,812108.6
F2_F8,NCO,S12,LIAB,MIO_NAC,PT,2019-01-01,812661.3
F2_F8,NCO,S12,LIAB,MIO_NAC,RO,1995-01-01,8532.0
F2_F8,NCO,S12,LIAB,MIO_NAC,RO,1996-01-01,10012.5
F2_F8,NCO,S12,LIAB,MIO_NAC,RO,1997-01-01,14394.4
F2_F8,NCO,S12,LIAB,MIO_NAC,RO,1998-01-01,19057.5
F2_F8,NCO,S12,LIAB,MIO_NAC,RO,1999-01-01,26525.1
F2_F8,NCO,S12,LIAB,MIO_NAC,RO,2000-01-01,35901.1
F2_F8,NCO,S12,LIAB,MIO_NAC,RO,2001-01-01,54856.9
F2_F8,NCO,S12,LIAB,MIO_NAC,RO,2002-01-01,78778.1
F2_F8,NCO,S12,LIAB,MIO_NAC,RO,2003-01-01,101226.5
F2_F8,NCO,S12,LIAB,MIO_NAC,RO,2004-01-01,157329.4
F2_F8,NCO,S12,LIAB,MIO_NAC,RO,2005-01-01,229082.4
F2_F8,NCO,S12,LIAB,MIO_NAC,RO,2006-01-01,309312.6
F2_F8,NCO,S12,LIAB,MIO_NAC,RO,2007-01-01,417389.3
F2_F8,NCO,S12,LIAB,MIO_NAC,RO,2008-01-01,475688.9
F2_F8,NCO,S12,LIAB,MIO_NAC,RO,2009-01-01,547464.3
F2_F8,NCO,S12,LIAB,MIO_NAC,RO,2010-01-01,574460.0
F2_F8,NCO,S12,LIAB,MIO_NAC,RO,2011-01-01,600205.0
F2_F8,NCO,S12,LIAB,MIO_NAC,RO,2012-01-01,629203.6
F2_F8,NCO,S12,LIAB,MIO_NAC,RO,2013-01-01,634054.3
F2_F8,NCO,S12,LIAB,MIO_NAC,RO,2014-01-01,641823.0
F2_F8,NCO,S12,LIAB,MIO_NAC,RO,2015-01-01,667914.3
F2_F8,NCO,S12,LIAB,MIO_NAC,RO,2016-01-01,714758.4
F2_F8,NCO,S12,LIAB,MIO_NAC,RO,2017-01-01,773557.9
F2_F8,NCO,S12,LIAB,MIO_NAC,RO,2018-01-01,799456.8
F2_F8,NCO,S12,LIAB,MIO_NAC,RO,2019-01-01,877772.4
F2_F8,NCO,S12,LIAB,MIO_NAC,SE,1995-01-01,4553615.0
F2_F8,NCO,S12,LIAB,MIO_NAC,SE,1996-01-01,4889266.0
F2_F8,NCO,S12,LIAB,MIO_NAC,SE,1997-01-01,5602242.0
F2_F8,NCO,S12,LIAB,MIO_NAC,SE,1998-01-01,6365826.0
F2_F8,NCO,S12,LIAB,MIO_NAC,SE,1999-01-01,7079177.0
F2_F8,NCO,S12,LIAB,MIO_NAC,SE,2000-01-01,8114965.0
F2_F8,NCO,S12,LIAB,MIO_NAC,SE,2001-01-01,8267547.0
F2_F8,NCO,S12,LIAB,MIO_NAC,SE,2002-01-01,8384145.0
F2_F8,NCO,S12,LIAB,MIO_NAC,SE,2003-01-01,9093509.0
F2_F8,NCO,S12,LIAB,MIO_NAC,SE,2004-01-01,10167117.0
F2_F8,NCO,S12,LIAB,MIO_NAC,SE,2005-01-01,11933173.0
F2_F8,NCO,S12,LIAB,MIO_NAC,SE,2006-01-01,13067671.0
F2_F8,NCO,S12,LIAB,MIO_NAC,SE,2007-01-01,14309012.0
F2_F8,NCO,S12,LIAB,MIO_NAC,SE,2008-01-01,16037761.0
F2_F8,NCO,S12,LIAB,MIO_NAC,SE,2009-01-01,16676068.0
F2_F8,NCO,S12,LIAB,MIO_NAC,SE,2010-01-01,17146680.0
F2_F8,NCO,S12,LIAB,MIO_NAC,SE,2011-01-01,17455801.0
F2_F8,NCO,S12,LIAB,MIO_NAC,SE,2012-01-01,18428202.0
F2_F8,NCO,S12,LIAB,MIO_NAC,SE,2013-01-01,20218739.0
F2_F8,NCO,S12,LIAB,MIO_NAC,SE,2014-01-01,22762231.0
F2_F8,NCO,S12,LIAB,MIO_NAC,SE,2015-01-01,23168087.0
F2_F8,NCO,S12,LIAB,MIO_NAC,SE,2016-01-01,25271638.0
F2_F8,NCO,S12,LIAB,MIO_NAC,SE,2017-01-01,27020865.0
F2_F8,NCO,S12,LIAB,MIO_NAC,SE,2018-01-01,26302506.0
F2_F8,NCO,S12,LIAB,MIO_NAC,SE,2019-01-01,29106127.0
F2_F8,NCO,S12,LIAB,MIO_NAC,SI,1995-01-01,8370.0
F2_F8,NCO,S12,LIAB,MIO_NAC,SI,1996-01-01,10301.0
F2_F8,NCO,S12,LIAB,MIO_NAC,SI,1997-01-01,12845.0
F2_F8,NCO,S12,LIAB,MIO_NAC,SI,1998-01-01,14701.0
F2_F8,NCO,S12,LIAB,MIO_NAC,SI,1999-01-01,17067.0
F2_F8,NCO,S12,LIAB,MIO_NAC,SI,2000-01-01,20185.0
F2_F8,NCO,S12,LIAB,MIO_NAC,SI,2001-01-01,25674.0
F2_F8,NCO,S12,LIAB,MIO_NAC,SI,2002-01-01,31852.0
F2_F8,NCO,S12,LIAB,MIO_NAC,SI,2003-01-01,35837.0
F2_F8,NCO,S12,LIAB,MIO_NAC,SI,2004-01-01,39950.0
F2_F8,NCO,S12,LIAB,MIO_NAC,SI,2005-01-01,46961.0
F2_F8,NCO,S12,LIAB,MIO_NAC,SI,2006-01-01,53389.0
F2_F8,NCO,S12,LIAB,MIO_NAC,SI,2007-01-01,68569.0
F2_F8,NCO,S12,LIAB,MIO_NAC,SI,2008-01-01,73098.0
F2_F8,NCO,S12,LIAB,MIO_NAC,SI,2009-01-01,78532.0
F2_F8,NCO,S12,LIAB,MIO_NAC,SI,2010-01-01,75862.0
F2_F8,NCO,S12,LIAB,MIO_NAC,SI,2011-01-01,74916.0
F2_F8,NCO,S12,LIAB,MIO_NAC,SI,2012-01-01,74385.0
F2_F8,NCO,S12,LIAB,MIO_NAC,SI,2013-01-01,66869.0
F2_F8,NCO,S12,LIAB,MIO_NAC,SI,2014-01-01,66769.0
F2_F8,NCO,S12,LIAB,MIO_NAC,SI,2015-01-01,64263.0
F2_F8,NCO,S12,LIAB,MIO_NAC,SI,2016-01-01,66455.0
F2_F8,NCO,S12,LIAB,MIO_NAC,SI,2017-01-01,69978.0
F2_F8,NCO,S12,LIAB,MIO_NAC,SI,2018-01-01,72823.0
F2_F8,NCO,S12,LIAB,MIO_NAC,SI,2019-01-01,79971.0
F2_F8,NCO,S12,LIAB,MIO_NAC,SK,1995-01-01,40292.1
F2_F8,NCO,S12,LIAB,MIO_NAC,SK,1996-01-01,43562.8
F2_F8,NCO,S12,LIAB,MIO_NAC,SK,1997-01-01,45271.4
F2_F8,NCO,S12,LIAB,MIO_NAC,SK,1998-01-01,46439.3
F2_F8,NCO,S12,LIAB,MIO_NAC,SK,1999-01-01,49386.3
F2_F8,NCO,S12,LIAB,MIO_NAC,SK,2000-01-01,52033.7
F2_F8,NCO,S12,LIAB,MIO_NAC,SK,2001-01-01,55926.4
F2_F8,NCO,S12,LIAB,MIO_NAC,SK,2002-01-01,56042.2
F2_F8,NCO,S12,LIAB,MIO_NAC,SK,2003-01-01,59734.8
F2_F8,NCO,S12,LIAB,MIO_NAC,SK,2004-01-01,64024.6
F2_F8,NCO,S12,LIAB,MIO_NAC,SK,2005-01-01,76141.5
F2_F8,NCO,S12,LIAB,MIO_NAC,SK,2006-01-01,70678.9
F2_F8,NCO,S12,LIAB,MIO_NAC,SK,2007-01-01,88601.3
F2_F8,NCO,S12,LIAB,MIO_NAC,SK,2008-01-01,97699.8
F2_F8,NCO,S12,LIAB,MIO_NAC,SK,2009-01-01,92792.4
F2_F8,NCO,S12,LIAB,MIO_NAC,SK,2010-01-01,94883.5
F2_F8,NCO,S12,LIAB,MIO_NAC,SK,2011-01-01,95434.2
F2_F8,NCO,S12,LIAB,MIO_NAC,SK,2012-01-01,96488.1
F2_F8,NCO,S12,LIAB,MIO_NAC,SK,2013-01-01,97880.9
F2_F8,NCO,S12,LIAB,MIO_NAC,SK,2014-01-01,107034.9
F2_F8,NCO,S12,LIAB,MIO_NAC,SK,2015-01-01,118179.9
F2_F8,NCO,S12,LIAB,MIO_NAC,SK,2016-01-01,128315.0
F2_F8,NCO,S12,LIAB,MIO_NAC,SK,2017-01-01,150602.5
F2_F8,NCO,S12,LIAB,MIO_NAC,SK,2018-01-01,163980.5
F2_F8,NCO,S12,LIAB,MIO_NAC,SK,2019-01-01,172900.3
F2_F8,NCO,S12,LIAB,MIO_NAC,UK,1995-01-01,3859055.0
F2_F8,NCO,S12,LIAB,MIO_NAC,UK,1996-01-01,4232315.0
F2_F8,NCO,S12,LIAB,MIO_NAC,UK,1997-01-01,5010886.0
F2_F8,NCO,S12,LIAB,MIO_NAC,UK,1998-01-01,5530797.0
F2_F8,NCO,S12,LIAB,MIO_NAC,UK,1999-01-01,5850470.0
F2_F8,NCO,S12,LIAB,MIO_NAC,UK,2000-01-01,6690943.0
F2_F8,NCO,S12,LIAB,MIO_NAC,UK,2001-01-01,7072872.0
F2_F8,NCO,S12,LIAB,MIO_NAC,UK,2002-01-01,7281454.0
F2_F8,NCO,S12,LIAB,MIO_NAC,UK,2003-01-01,8222851.0
F2_F8,NCO,S12,LIAB,MIO_NAC,UK,2004-01-01,10624916.0
F2_F8,NCO,S12,LIAB,MIO_NAC,UK,2005-01-01,12397159.0
F2_F8,NCO,S12,LIAB,MIO_NAC,UK,2006-01-01,13763028.0
F2_F8,NCO,S12,LIAB,MIO_NAC,UK,2007-01-01,16118131.0
F2_F8,NCO,S12,LIAB,MIO_NAC,UK,2008-01-01,23644898.0
F2_F8,NCO,S12,LIAB,MIO_NAC,UK,2009-01-01,19628317.0
F2_F8,NCO,S12,LIAB,MIO_NAC,UK,2010-01-01,21069328.0
F2_F8,NCO,S12,LIAB,MIO_NAC,UK,2011-01-01,23264086.0
F2_F8,NCO,S12,LIAB,MIO_NAC,UK,2012-01-01,22437862.0
F2_F8,NCO,S12,LIAB,MIO_NAC,UK,2013-01-01,20716067.0
F2_F8,NCO,S12,LIAB,MIO_NAC,UK,2014-01-01,21717330.0
F2_F8,NCO,S12,LIAB,MIO_NAC,UK,2015-01-01,19857634.0
F2_F8,NCO,S12,LIAB,MIO_NAC,UK,2016-01-01,22174074.0
F2_F8,NCO,S12,LIAB,MIO_NAC,UK,2017-01-01,21804006.0
F2_F8,NCO,S12,LIAB,MIO_NAC,UK,2018-01-01,21584867.0
F2_F8,NCO,S12,LIAB,MIO_NAC,UK,2019-01-01,
F2_F8,NCO,S12,LIAB,PCH_PRE,AT,1995-01-01,
F2_F8,NCO,S12,LIAB,PCH_PRE,AT,1996-01-01,7.8
F2_F8,NCO,S12,LIAB,PCH_PRE,AT,1997-01-01,6.6
F2_F8,NCO,S12,LIAB,PCH_PRE,AT,1998-01-01,10.4
F2_F8,NCO,S12,LIAB,PCH_PRE,AT,1999-01-01,13.7
F2_F8,NCO,S12,LIAB,PCH_PRE,AT,2000-01-01,10.1
F2_F8,NCO,S12,LIAB,PCH_PRE,AT,2001-01-01,5.8
F2_F8,NCO,S12,LIAB,PCH_PRE,AT,2002-01-01,0.5
F2_F8,NCO,S12,LIAB,PCH_PRE,AT,2003-01-01,6.5
F2_F8,NCO,S12,LIAB,PCH_PRE,AT,2004-01-01,9.8
F2_F8,NCO,S12,LIAB,PCH_PRE,AT,2005-01-01,23.3
F2_F8,NCO,S12,LIAB,PCH_PRE,AT,2006-01-01,9.9
F2_F8,NCO,S12,LIAB,PCH_PRE,AT,2007-01-01,11.0
F2_F8,NCO,S12,LIAB,PCH_PRE,AT,2008-01-01,10.9
F2_F8,NCO,S12,LIAB,PCH_PRE,AT,2009-01-01,-2.1
F2_F8,NCO,S12,LIAB,PCH_PRE,AT,2010-01-01,-1.9
F2_F8,NCO,S12,LIAB,PCH_PRE,AT,2011-01-01,1.5
F2_F8,NCO,S12,LIAB,PCH_PRE,AT,2012-01-01,0.4
F2_F8,NCO,S12,LIAB,PCH_PRE,AT,2013-01-01,-3.2
F2_F8,NCO,S12,LIAB,PCH_PRE,AT,2014-01-01,-0.8
F2_F8,NCO,S12,LIAB,PCH_PRE,AT,2015-01-01,-0.1
F2_F8,NCO,S12,LIAB,PCH_PRE,AT,2016-01-01,-2.8
F2_F8,NCO,S12,LIAB,PCH_PRE,AT,2017-01-01,2.2
F2_F8,NCO,S12,LIAB,PCH_PRE,AT,2018-01-01,1.7
F2_F8,NCO,S12,LIAB,PCH_PRE,AT,2019-01-01,
F2_F8,NCO,S12,LIAB,PCH_PRE,BE,1995-01-01,
F2_F8,NCO,S12,LIAB,PCH_PRE,BE,1996-01-01,9.6
F2_F8,NCO,S12,LIAB,PCH_PRE,BE,1997-01-01,8.5
F2_F8,NCO,S12,LIAB,PCH_PRE,BE,1998-01-01,15.4
F2_F8,NCO,S12,LIAB,PCH_PRE,BE,1999-01-01,8.0
F2_F8,NCO,S12,LIAB,PCH_PRE,BE,2000-01-01,2.4
F2_F8,NCO,S12,LIAB,PCH_PRE,BE,2001-01-01,7.4
F2_F8,NCO,S12,LIAB,PCH_PRE,BE,2002-01-01,-1.5
F2_F8,NCO,S12,LIAB,PCH_PRE,BE,2003-01-01,11.1
F2_F8,NCO,S12,LIAB,PCH_PRE,BE,2004-01-01,13.3
F2_F8,NCO,S12,LIAB,PCH_PRE,BE,2005-01-01,16.3
F2_F8,NCO,S12,LIAB,PCH_PRE,BE,2006-01-01,11.2
F2_F8,NCO,S12,LIAB,PCH_PRE,BE,2007-01-01,14.5
F2_F8,NCO,S12,LIAB,PCH_PRE,BE,2008-01-01,-4.4
F2_F8,NCO,S12,LIAB,PCH_PRE,BE,2009-01-01,0.5
F2_F8,NCO,S12,LIAB,PCH_PRE,BE,2010-01-01,-1.2
F2_F8,NCO,S12,LIAB,PCH_PRE,BE,2011-01-01,5.4
F2_F8,NCO,S12,LIAB,PCH_PRE,BE,2012-01-01,-5.1
F2_F8,NCO,S12,LIAB,PCH_PRE,BE,2013-01-01,1.2
F2_F8,NCO,S12,LIAB,PCH_PRE,BE,2014-01-01,2.5
F2_F8,NCO,S12,LIAB,PCH_PRE,BE,2015-01-01,2.7
F2_F8,NCO,S12,LIAB,PCH_PRE,BE,2016-01-01,2.4
F2_F8,NCO,S12,LIAB,PCH_PRE,BE,2017-01-01,1.4
F2_F8,NCO,S12,LIAB,PCH_PRE,BE,2018-01-01,-2.6
F2_F8,NCO,S12,LIAB,PCH_PRE,BE,2019-01-01,4.3
F2_F8,NCO,S12,LIAB,PCH_PRE,BG,1995-01-01,
F2_F8,NCO,S12,LIAB,PCH_PRE,BG,1996-01-01,178.0
F2_F8,NCO,S12,LIAB,PCH_PRE,BG,1997-01-01,207.9
F2_F8,NCO,S12,LIAB,PCH_PRE,BG,1998-01-01,6.9
F2_F8,NCO,S12,LIAB,PCH_PRE,BG,1999-01-01,15.8
F2_F8,NCO,S12,LIAB,PCH_PRE,BG,2000-01-01,16.5
F2_F8,NCO,S12,LIAB,PCH_PRE,BG,2001-01-01,13.3
F2_F8,NCO,S12,LIAB,PCH_PRE,BG,2002-01-01,14.1
F2_F8,NCO,S12,LIAB,PCH_PRE,BG,2003-01-01,25.7
F2_F8,NCO,S12,LIAB,PCH_PRE,BG,2004-01-01,30.6
F2_F8,NCO,S12,LIAB,PCH_PRE,BG,2005-01-01,32.4
F2_F8,NCO,S12,LIAB,PCH_PRE,BG,2006-01-01,17.0
F2_F8,NCO,S12,LIAB,PCH_PRE,BG,2007-01-01,40.6
F2_F8,NCO,S12,LIAB,PCH_PRE,BG,2008-01-01,14.4
F2_F8,NCO,S12,LIAB,PCH_PRE,BG,2009-01-01,3.8
F2_F8,NCO,S12,LIAB,PCH_PRE,BG,2010-01-01,4.3
F2_F8,NCO,S12,LIAB,PCH_PRE,BG,2011-01-01,4.3
F2_F8,NCO,S12,LIAB,PCH_PRE,BG,2012-01-01,11.7
F2_F8,NCO,S12,LIAB,PCH_PRE,BG,2013-01-01,1.1
F2_F8,NCO,S12,LIAB,PCH_PRE,BG,2014-01-01,7.9
F2_F8,NCO,S12,LIAB,PCH_PRE,BG,2015-01-01,9.5
F2_F8,NCO,S12,LIAB,PCH_PRE,BG,2016-01-01,9.3
F2_F8,NCO,S12,LIAB,PCH_PRE,BG,2017-01-01,7.1
F2_F8,NCO,S12,LIAB,PCH_PRE,BG,2018-01-01,6.8
F2_F8,NCO,S12,LIAB,PCH_PRE,BG,2019-01-01,
F2_F8,NCO,S12,LIAB,PCH_PRE,CY,1995-01-01,
F2_F8,NCO,S12,LIAB,PCH_PRE,CY,1996-01-01,17.1
F2_F8,NCO,S12,LIAB,PCH_PRE,CY,1997-01-01,7.3
F2_F8,NCO,S12,LIAB,PCH_PRE,CY,1998-01-01,14.8
F2_F8,NCO,S12,LIAB,PCH_PRE,CY,1999-01-01,52.9
F2_F8,NCO,S12,LIAB,PCH_PRE,CY,2000-01-01,-13.6
F2_F8,NCO,S12,LIAB,PCH_PRE,CY,2001-01-01,8.0
F2_F8,NCO,S12,LIAB,PCH_PRE,CY,2002-01-01,2.6
F2_F8,NCO,S12,LIAB,PCH_PRE,CY,2003-01-01,11.8
F2_F8,NCO,S12,LIAB,PCH_PRE,CY,2004-01-01,291.4
F2_F8,NCO,S12,LIAB,PCH_PRE,CY,2005-01-01,10.2
F2_F8,NCO,S12,LIAB,PCH_PRE,CY,2006-01-01,10.4
F2_F8,NCO,S12,LIAB,PCH_PRE,CY,2007-01-01,11.1
F2_F8,NCO,S12,LIAB,PCH_PRE,CY,2008-01-01,9.2
F2_F8,NCO,S12,LIAB,PCH_PRE,CY,2009-01-01,24.2
F2_F8,NCO,S12,LIAB,PCH_PRE,CY,2010-01-01,4.2
F2_F8,NCO,S12,LIAB,PCH_PRE,CY,2011-01-01,9.6
F2_F8,NCO,S12,LIAB,PCH_PRE,CY,2012-01-01,12.2
F2_F8,NCO,S12,LIAB,PCH_PRE,CY,2013-01-01,-3.4
F2_F8,NCO,S12,LIAB,PCH_PRE,CY,2014-01-01,11.6
F2_F8,NCO,S12,LIAB,PCH_PRE,CY,2015-01-01,9.8
F2_F8,NCO,S12,LIAB,PCH_PRE,CY,2016-01-01,-0.2
F2_F8,NCO,S12,LIAB,PCH_PRE,CY,2017-01-01,-1.7
F2_F8,NCO,S12,LIAB,PCH_PRE,CY,2018-01-01,0.3
F2_F8,NCO,S12,LIAB,PCH_PRE,CY,2019-01-01,
F2_F8,NCO,S12,LIAB,PCH_PRE,CZ,1995-01-01,
F2_F8,NCO,S12,LIAB,PCH_PRE,CZ,1996-01-01,9.8
F2_F8,NCO,S12,LIAB,PCH_PRE,CZ,1997-01-01,18.2
F2_F8,NCO,S12,LIAB,PCH_PRE,CZ,1998-01-01,6.8
F2_F8,NCO,S12,LIAB,PCH_PRE,CZ,1999-01-01,5.8
F2_F8,NCO,S12,LIAB,PCH_PRE,CZ,2000-01-01,4.0
F2_F8,NCO,S12,LIAB,PCH_PRE,CZ,2001-01-01,0.8
F2_F8,NCO,S12,LIAB,PCH_PRE,CZ,2002-01-01,8.9
F2_F8,NCO,S12,LIAB,PCH_PRE,CZ,2003-01-01,4.4
F2_F8,NCO,S12,LIAB,PCH_PRE,CZ,2004-01-01,5.7
F2_F8,NCO,S12,LIAB,PCH_PRE,CZ,2005-01-01,11.0
F2_F8,NCO,S12,LIAB,PCH_PRE,CZ,2006-01-01,3.5
F2_F8,NCO,S12,LIAB,PCH_PRE,CZ,2007-01-01,15.5
F2_F8,NCO,S12,LIAB,PCH_PRE,CZ,2008-01-01,6.0
F2_F8,NCO,S12,LIAB,PCH_PRE,CZ,2009-01-01,2.2
F2_F8,NCO,S12,LIAB,PCH_PRE,CZ,2010-01-01,3.2
F2_F8,NCO,S12,LIAB,PCH_PRE,CZ,2011-01-01,4.3
F2_F8,NCO,S12,LIAB,PCH_PRE,CZ,2012-01-01,5.2
F2_F8,NCO,S12,LIAB,PCH_PRE,CZ,2013-01-01,11.4
F2_F8,NCO,S12,LIAB,PCH_PRE,CZ,2014-01-01,5.2
F2_F8,NCO,S12,LIAB,PCH_PRE,CZ,2015-01-01,8.1
F2_F8,NCO,S12,LIAB,PCH_PRE,CZ,2016-01-01,16.3
F2_F8,NCO,S12,LIAB,PCH_PRE,CZ,2017-01-01,23.0
F2_F8,NCO,S12,LIAB,PCH_PRE,CZ,2018-01-01,7.4
F2_F8,NCO,S12,LIAB,PCH_PRE,CZ,2019-01-01,
F2_F8,NCO,S12,LIAB,PCH_PRE,DE,1995-01-01,
F2_F8,NCO,S12,LIAB,PCH_PRE,DE,1996-01-01,10.1
F2_F8,NCO,S12,LIAB,PCH_PRE,DE,1997-01-01,12.9
F2_F8,NCO,S12,LIAB,PCH_PRE,DE,1998-01-01,12.8
F2_F8,NCO,S12,LIAB,PCH_PRE,DE,1999-01-01,12.1
F2_F8,NCO,S12,LIAB,PCH_PRE,DE,2000-01-01,8.0
F2_F8,NCO,S12,LIAB,PCH_PRE,DE,2001-01-01,5.4
F2_F8,NCO,S12,LIAB,PCH_PRE,DE,2002-01-01,1.0
F2_F8,NCO,S12,LIAB,PCH_PRE,DE,2003-01-01,3.1
F2_F8,NCO,S12,LIAB,PCH_PRE,DE,2004-01-01,3.9
F2_F8,NCO,S12,LIAB,PCH_PRE,DE,2005-01-01,6.4
F2_F8,NCO,S12,LIAB,PCH_PRE,DE,2006-01-01,4.8
F2_F8,NCO,S12,LIAB,PCH_PRE,DE,2007-01-01,8.3
F2_F8,NCO,S12,LIAB,PCH_PRE,DE,2008-01-01,4.5
F2_F8,NCO,S12,LIAB,PCH_PRE,DE,2009-01-01,-6.3
F2_F8,NCO,S12,LIAB,PCH_PRE,DE,2010-01-01,-0.8
F2_F8,NCO,S12,LIAB,PCH_PRE,DE,2011-01-01,3.1
F2_F8,NCO,S12,LIAB,PCH_PRE,DE,2012-01-01,3.2
F2_F8,NCO,S12,LIAB,PCH_PRE,DE,2013-01-01,-6.4
F2_F8,NCO,S12,LIAB,PCH_PRE,DE,2014-01-01,4.6
F2_F8,NCO,S12,LIAB,PCH_PRE,DE,2015-01-01,2.6
F2_F8,NCO,S12,LIAB,PCH_PRE,DE,2016-01-01,5.2
F2_F8,NCO,S12,LIAB,PCH_PRE,DE,2017-01-01,4.0
F2_F8,NCO,S12,LIAB,PCH_PRE,DE,2018-01-01,2.0
F2_F8,NCO,S12,LIAB,PCH_PRE,DE,2019-01-01,
F2_F8,NCO,S12,LIAB,PCH_PRE,DK,1995-01-01,8.0
F2_F8,NCO,S12,LIAB,PCH_PRE,DK,1996-01-01,12.7
F2_F8,NCO,S12,LIAB,PCH_PRE,DK,1997-01-01,19.2
F2_F8,NCO,S12,LIAB,PCH_PRE,DK,1998-01-01,15.6
F2_F8,NCO,S12,LIAB,PCH_PRE,DK,1999-01-01,10.9
F2_F8,NCO,S12,LIAB,PCH_PRE,DK,2000-01-01,9.7
F2_F8,NCO,S12,LIAB,PCH_PRE,DK,2001-01-01,1.2
F2_F8,NCO,S12,LIAB,PCH_PRE,DK,2002-01-01,0.0
F2_F8,NCO,S12,LIAB,PCH_PRE,DK,2003-01-01,7.8
F2_F8,NCO,S12,LIAB,PCH_PRE,DK,2004-01-01,7.8
F2_F8,NCO,S12,LIAB,PCH_PRE,DK,2005-01-01,25.5
F2_F8,NCO,S12,LIAB,PCH_PRE,DK,2006-01-01,11.9
F2_F8,NCO,S12,LIAB,PCH_PRE,DK,2007-01-01,10.2
F2_F8,NCO,S12,LIAB,PCH_PRE,DK,2008-01-01,0.0
F2_F8,NCO,S12,LIAB,PCH_PRE,DK,2009-01-01,5.5
F2_F8,NCO,S12,LIAB,PCH_PRE,DK,2010-01-01,9.7
F2_F8,NCO,S12,LIAB,PCH_PRE,DK,2011-01-01,1.6
F2_F8,NCO,S12,LIAB,PCH_PRE,DK,2012-01-01,2.5
F2_F8,NCO,S12,LIAB,PCH_PRE,DK,2013-01-01,1.8
F2_F8,NCO,S12,LIAB,PCH_PRE,DK,2014-01-01,7.3
F2_F8,NCO,S12,LIAB,PCH_PRE,DK,2015-01-01,-0.9
F2_F8,NCO,S12,LIAB,PCH_PRE,DK,2016-01-01,5.2
F2_F8,NCO,S12,LIAB,PCH_PRE,DK,2017-01-01,4.7
F2_F8,NCO,S12,LIAB,PCH_PRE,DK,2018-01-01,-4.1
F2_F8,NCO,S12,LIAB,PCH_PRE,DK,2019-01-01,
F2_F8,NCO,S12,LIAB,PCH_PRE,EE,1995-01-01,
F2_F8,NCO,S12,LIAB,PCH_PRE,EE,1996-01-01,66.4
F2_F8,NCO,S12,LIAB,PCH_PRE,EE,1997-01-01,81.0
F2_F8,NCO,S12,LIAB,PCH_PRE,EE,1998-01-01,-3.6
F2_F8,NCO,S12,LIAB,PCH_PRE,EE,1999-01-01,22.1
F2_F8,NCO,S12,LIAB,PCH_PRE,EE,2000-01-01,41.7
F2_F8,NCO,S12,LIAB,PCH_PRE,EE,2001-01-01,13.1
F2_F8,NCO,S12,LIAB,PCH_PRE,EE,2002-01-01,24.3
F2_F8,NCO,S12,LIAB,PCH_PRE,EE,2003-01-01,13.4
F2_F8,NCO,S12,LIAB,PCH_PRE,EE,2004-01-01,27.9
F2_F8,NCO,S12,LIAB,PCH_PRE,EE,2005-01-01,19.7
F2_F8,NCO,S12,LIAB,PCH_PRE,EE,2006-01-01,21.3
F2_F8,NCO,S12,LIAB,PCH_PRE,EE,2007-01-01,27.3
F2_F8,NCO,S12,LIAB,PCH_PRE,EE,2008-01-01,3.2
F2_F8,NCO,S12,LIAB,PCH_PRE,EE,2009-01-01,-4.6
F2_F8,NCO,S12,LIAB,PCH_PRE,EE,2010-01-01,-8.6
F2_F8,NCO,S12,LIAB,PCH_PRE,EE,2011-01-01,-0.2
F2_F8,NCO,S12,LIAB,PCH_PRE,EE,2012-01-01,10.9
F2_F8,NCO,S12,LIAB,PCH_PRE,EE,2013-01-01,10.3
F2_F8,NCO,S12,LIAB,PCH_PRE,EE,2014-01-01,13.0
F2_F8,NCO,S12,LIAB,PCH_PRE,EE,2015-01-01,8.6
F2_F8,NCO,S12,LIAB,PCH_PRE,EE,2016-01-01,6.7
F2_F8,NCO,S12,LIAB,PCH_PRE,EE,2017-01-01,14.3
F2_F8,NCO,S12,LIAB,PCH_PRE,EE,2018-01-01,6.9
F2_F8,NCO,S12,LIAB,PCH_PRE,EE,2019-01-01,
F2_F8,NCO,S12,LIAB,PCH_PRE,EL,1995-01-01,
F2_F8,NCO,S12,LIAB,PCH_PRE,EL,1996-01-01,11.4
F2_F8,NCO,S12,LIAB,PCH_PRE,EL,1997-01-01,11.8
F2_F8,NCO,S12,LIAB,PCH_PRE,EL,1998-01-01,16.8
F2_F8,NCO,S12,LIAB,PCH_PRE,EL,1999-01-01,44.5
F2_F8,NCO,S12,LIAB,PCH_PRE,EL,2000-01-01,-1.8
F2_F8,NCO,S12,LIAB,PCH_PRE,EL,2001-01-01,1.2
F2_F8,NCO,S12,LIAB,PCH_PRE,EL,2002-01-01,0.0
F2_F8,NCO,S12,LIAB,PCH_PRE,EL,2003-01-01,10.2
F2_F8,NCO,S12,LIAB,PCH_PRE,EL,2004-01-01,6.6
F2_F8,NCO,S12,LIAB,PCH_PRE,EL,2005-01-01,18.5
F2_F8,NCO,S12,LIAB,PCH_PRE,EL,2006-01-01,14.3
F2_F8,NCO,S12,LIAB,PCH_PRE,EL,2007-01-01,21.9
F2_F8,NCO,S12,LIAB,PCH_PRE,EL,2008-01-01,4.7
F2_F8,NCO,S12,LIAB,PCH_PRE,EL,2009-01-01,9.8
F2_F8,NCO,S12,LIAB,PCH_PRE,EL,2010-01-01,8.9
F2_F8,NCO,S12,LIAB,PCH_PRE,EL,2011-01-01,-4.0
F2_F8,NCO,S12,LIAB,PCH_PRE,EL,2012-01-01,-2.1
F2_F8,NCO,S12,LIAB,PCH_PRE,EL,2013-01-01,-17.4
F2_F8,NCO,S12,LIAB,PCH_PRE,EL,2014-01-01,-8.5
F2_F8,NCO,S12,LIAB,PCH_PRE,EL,2015-01-01,6.3
F2_F8,NCO,S12,LIAB,PCH_PRE,EL,2016-01-01,-10.2
F2_F8,NCO,S12,LIAB,PCH_PRE,EL,2017-01-01,-13.0
F2_F8,NCO,S12,LIAB,PCH_PRE,EL,2018-01-01,-4.9
F2_F8,NCO,S12,LIAB,PCH_PRE,EL,2019-01-01,11.5
F2_F8,NCO,S12,LIAB,PCH_PRE,ES,1995-01-01,
F2_F8,NCO,S12,LIAB,PCH_PRE,ES,1996-01-01,11.4
F2_F8,NCO,S12,LIAB,PCH_PRE,ES,1997-01-01,14.3
F2_F8,NCO,S12,LIAB,PCH_PRE,ES,1998-01-01,12.0
F2_F8,NCO,S12,LIAB,PCH_PRE,ES,1999-01-01,12.1
F2_F8,NCO,S12,LIAB,PCH_PRE,ES,2000-01-01,8.1
F2_F8,NCO,S12,LIAB,PCH_PRE,ES,2001-01-01,7.6
F2_F8,NCO,S12,LIAB,PCH_PRE,ES,2002-01-01,5.5
F2_F8,NCO,S12,LIAB,PCH_PRE,ES,2003-01-01,16.8
F2_F8,NCO,S12,LIAB,PCH_PRE,ES,2004-01-01,16.3
F2_F8,NCO,S12,LIAB,PCH_PRE,ES,2005-01-01,24.9
F2_F8,NCO,S12,LIAB,PCH_PRE,ES,2006-01-01,20.4
F2_F8,NCO,S12,LIAB,PCH_PRE,ES,2007-01-01,17.1
F2_F8,NCO,S12,LIAB,PCH_PRE,ES,2008-01-01,5.0
F2_F8,NCO,S12,LIAB,PCH_PRE,ES,2009-01-01,2.8
F2_F8,NCO,S12,LIAB,PCH_PRE,ES,2010-01-01,-2.1
F2_F8,NCO,S12,LIAB,PCH_PRE,ES,2011-01-01,3.4
F2_F8,NCO,S12,LIAB,PCH_PRE,ES,2012-01-01,0.7
F2_F8,NCO,S12,LIAB,PCH_PRE,ES,2013-01-01,-10.3
F2_F8,NCO,S12,LIAB,PCH_PRE,ES,2014-01-01,0.0
F2_F8,NCO,S12,LIAB,PCH_PRE,ES,2015-01-01,-2.0
F2_F8,NCO,S12,LIAB,PCH_PRE,ES,2016-01-01,2.4
F2_F8,NCO,S12,LIAB,PCH_PRE,ES,2017-01-01,3.2
F2_F8,NCO,S12,LIAB,PCH_PRE,ES,2018-01-01,-2.3
F2_F8,NCO,S12,LIAB,PCH_PRE,ES,2019-01-01,1.0
F2_F8,NCO,S12,LIAB,PCH_PRE,FI,1995-01-01,
F2_F8,NCO,S12,LIAB,PCH_PRE,FI,1996-01-01,-0.6
F2_F8,NCO,S12,LIAB,PCH_PRE,FI,1997-01-01,13.6
F2_F8,NCO,S12,LIAB,PCH_PRE,FI,1998-01-01,4.9
F2_F8,NCO,S12,LIAB,PCH_PRE,FI,1999-01-01,16.4
F2_F8,NCO,S12,LIAB,PCH_PRE,FI,2000-01-01,4.1
F2_F8,NCO,S12,LIAB,PCH_PRE,FI,2001-01-01,9.9
F2_F8,NCO,S12,LIAB,PCH_PRE,FI,2002-01-01,4.1
F2_F8,NCO,S12,LIAB,PCH_PRE,FI,2003-01-01,13.4
F2_F8,NCO,S12,LIAB,PCH_PRE,FI,2004-01-01,13.3
F2_F8,NCO,S12,LIAB,PCH_PRE,FI,2005-01-01,13.7
F2_F8,NCO,S12,LIAB,PCH_PRE,FI,2006-01-01,11.9
F2_F8,NCO,S12,LIAB,PCH_PRE,FI,2007-01-01,10.1
F2_F8,NCO,S12,LIAB,PCH_PRE,FI,2008-01-01,16.7
F2_F8,NCO,S12,LIAB,PCH_PRE,FI,2009-01-01,7.5
F2_F8,NCO,S12,LIAB,PCH_PRE,FI,2010-01-01,19.9
F2_F8,NCO,S12,LIAB,PCH_PRE,FI,2011-01-01,28.7
F2_F8,NCO,S12,LIAB,PCH_PRE,FI,2012-01-01,-1.3
F2_F8,NCO,S12,LIAB,PCH_PRE,FI,2013-01-01,-11.5
F2_F8,NCO,S12,LIAB,PCH_PRE,FI,2014-01-01,9.4
F2_F8,NCO,S12,LIAB,PCH_PRE,FI,2015-01-01,1.4
F2_F8,NCO,S12,LIAB,PCH_PRE,FI,2016-01-01,3.9
F2_F8,NCO,S12,LIAB,PCH_PRE,FI,2017-01-01,-4.0
F2_F8,NCO,S12,LIAB,PCH_PRE,FI,2018-01-01,19.8
F2_F8,NCO,S12,LIAB,PCH_PRE,FI,2019-01-01,7.5
F2_F8,NCO,S12,LIAB,PCH_PRE,FR,1995-01-01,
F2_F8,NCO,S12,LIAB,PCH_PRE,FR,1996-01-01,6.6
F2_F8,NCO,S12,LIAB,PCH_PRE,FR,1997-01-01,9.9
F2_F8,NCO,S12,LIAB,PCH_PRE,FR,1998-01-01,5.6
F2_F8,NCO,S12,LIAB,PCH_PRE,FR,1999-01-01,14.8
F2_F8,NCO,S12,LIAB,PCH_PRE,FR,2000-01-01,6.7
F2_F8,NCO,S12,LIAB,PCH_PRE,FR,2001-01-01,4.8
F2_F8,NCO,S12,LIAB,PCH_PRE,FR,2002-01-01,1.3
F2_F8,NCO,S12,LIAB,PCH_PRE,FR,2003-01-01,6.8
F2_F8,NCO,S12,LIAB,PCH_PRE,FR,2004-01-01,9.9
F2_F8,NCO,S12,LIAB,PCH_PRE,FR,2005-01-01,15.0
F2_F8,NCO,S12,LIAB,PCH_PRE,FR,2006-01-01,15.3
F2_F8,NCO,S12,LIAB,PCH_PRE,FR,2007-01-01,12.8
F2_F8,NCO,S12,LIAB,PCH_PRE,FR,2008-01-01,2.1
F2_F8,NCO,S12,LIAB,PCH_PRE,FR,2009-01-01,-0.7
F2_F8,NCO,S12,LIAB,PCH_PRE,FR,2010-01-01,3.5
F2_F8,NCO,S12,LIAB,PCH_PRE,FR,2011-01-01,6.9
F2_F8,NCO,S12,LIAB,PCH_PRE,FR,2012-01-01,1.4
F2_F8,NCO,S12,LIAB,PCH_PRE,FR,2013-01-01,0.5
F2_F8,NCO,S12,LIAB,PCH_PRE,FR,2014-01-01,5.6
F2_F8,NCO,S12,LIAB,PCH_PRE,FR,2015-01-01,2.2
F2_F8,NCO,S12,LIAB,PCH_PRE,FR,2016-01-01,4.6
F2_F8,NCO,S12,LIAB,PCH_PRE,FR,2017-01-01,4.6
F2_F8,NCO,S12,LIAB,PCH_PRE,FR,2018-01-01,1.6
F2_F8,NCO,S12,LIAB,PCH_PRE,FR,2019-01-01,
F2_F8,NCO,S12,LIAB,PCH_PRE,HR,1995-01-01,
F2_F8,NCO,S12,LIAB,PCH_PRE,HR,1996-01-01,
F2_F8,NCO,S12,LIAB,PCH_PRE,HR,1997-01-01,
F2_F8,NCO,S12,LIAB,PCH_PRE,HR,1998-01-01,
F2_F8,NCO,S12,LIAB,PCH_PRE,HR,1999-01-01,
F2_F8,NCO,S12,LIAB,PCH_PRE,HR,2000-01-01,
F2_F8,NCO,S12,LIAB,PCH_PRE,HR,2001-01-01,
F2_F8,NCO,S12,LIAB,PCH_PRE,HR,2002-01-01,22.0
F2_F8,NCO,S12,LIAB,PCH_PRE,HR,2003-01-01,19.6
F2_F8,NCO,S12,LIAB,PCH_PRE,HR,2004-01-01,14.5
F2_F8,NCO,S12,LIAB,PCH_PRE,HR,2005-01-01,13.1
F2_F8,NCO,S12,LIAB,PCH_PRE,HR,2006-01-01,26.3
F2_F8,NCO,S12,LIAB,PCH_PRE,HR,2007-01-01,23.5
F2_F8,NCO,S12,LIAB,PCH_PRE,HR,2008-01-01,-8.1
F2_F8,NCO,S12,LIAB,PCH_PRE,HR,2009-01-01,4.1
F2_F8,NCO,S12,LIAB,PCH_PRE,HR,2010-01-01,4.1
F2_F8,NCO,S12,LIAB,PCH_PRE,HR,2011-01-01,1.9
F2_F8,NCO,S12,LIAB,PCH_PRE,HR,2012-01-01,0.9
F2_F8,NCO,S12,LIAB,PCH_PRE,HR,2013-01-01,2.8
F2_F8,NCO,S12,LIAB,PCH_PRE,HR,2014-01-01,0.6
F2_F8,NCO,S12,LIAB,PCH_PRE,HR,2015-01-01,2.0
F2_F8,NCO,S12,LIAB,PCH_PRE,HR,2016-01-01,3.5
F2_F8,NCO,S12,LIAB,PCH_PRE,HR,2017-01-01,3.9
F2_F8,NCO,S12,LIAB,PCH_PRE,HR,2018-01-01,4.5
F2_F8,NCO,S12,LIAB,PCH_PRE,HR,2019-01-01,
F2_F8,NCO,S12,LIAB,PCH_PRE,HU,1995-01-01,28.0
F2_F8,NCO,S12,LIAB,PCH_PRE,HU,1996-01-01,9.1
F2_F8,NCO,S12,LIAB,PCH_PRE,HU,1997-01-01,15.8
F2_F8,NCO,S12,LIAB,PCH_PRE,HU,1998-01-01,15.9
F2_F8,NCO,S12,LIAB,PCH_PRE,HU,1999-01-01,26.4
F2_F8,NCO,S12,LIAB,PCH_PRE,HU,2000-01-01,33.4
F2_F8,NCO,S12,LIAB,PCH_PRE,HU,2001-01-01,24.0
F2_F8,NCO,S12,LIAB,PCH_PRE,HU,2002-01-01,3.2
F2_F8,NCO,S12,LIAB,PCH_PRE,HU,2003-01-01,12.3
F2_F8,NCO,S12,LIAB,PCH_PRE,HU,2004-01-01,8.2
F2_F8,NCO,S12,LIAB,PCH_PRE,HU,2005-01-01,35.0
F2_F8,NCO,S12,LIAB,PCH_PRE,HU,2006-01-01,17.9
F2_F8,NCO,S12,LIAB,PCH_PRE,HU,2007-01-01,23.6
F2_F8,NCO,S12,LIAB,PCH_PRE,HU,2008-01-01,26.0
F2_F8,NCO,S12,LIAB,PCH_PRE,HU,2009-01-01,1.6
F2_F8,NCO,S12,LIAB,PCH_PRE,HU,2010-01-01,-0.2
F2_F8,NCO,S12,LIAB,PCH_PRE,HU,2011-01-01,6.2
F2_F8,NCO,S12,LIAB,PCH_PRE,HU,2012-01-01,-5.8
F2_F8,NCO,S12,LIAB,PCH_PRE,HU,2013-01-01,-1.3
F2_F8,NCO,S12,LIAB,PCH_PRE,HU,2014-01-01,8.7
F2_F8,NCO,S12,LIAB,PCH_PRE,HU,2015-01-01,0.4
F2_F8,NCO,S12,LIAB,PCH_PRE,HU,2016-01-01,19.5
F2_F8,NCO,S12,LIAB,PCH_PRE,HU,2017-01-01,-7.6
F2_F8,NCO,S12,LIAB,PCH_PRE,HU,2018-01-01,-9.3
F2_F8,NCO,S12,LIAB,PCH_PRE,HU,2019-01-01,10.4
F2_F8,NCO,S12,LIAB,PCH_PRE,IE,1995-01-01,
F2_F8,NCO,S12,LIAB,PCH_PRE,IE,1996-01-01,
F2_F8,NCO,S12,LIAB,PCH_PRE,IE,1997-01-01,
F2_F8,NCO,S12,LIAB,PCH_PRE,IE,1998-01-01,
F2_F8,NCO,S12,LIAB,PCH_PRE,IE,1999-01-01,
F2_F8,NCO,S12,LIAB,PCH_PRE,IE,2000-01-01,
F2_F8,NCO,S12,LIAB,PCH_PRE,IE,2001-01-01,17.8
F2_F8,NCO,S12,LIAB,PCH_PRE,IE,2002-01-01,10.5
F2_F8,NCO,S12,LIAB,PCH_PRE,IE,2003-01-01,22.5
F2_F8,NCO,S12,LIAB,PCH_PRE,IE,2004-01-01,20.1
F2_F8,NCO,S12,LIAB,PCH_PRE,IE,2005-01-01,35.1
F2_F8,NCO,S12,LIAB,PCH_PRE,IE,2006-01-01,21.6
F2_F8,NCO,S12,LIAB,PCH_PRE,IE,2007-01-01,9.6
F2_F8,NCO,S12,LIAB,PCH_PRE,IE,2008-01-01,6.5
F2_F8,NCO,S12,LIAB,PCH_PRE,IE,2009-01-01,3.4
F2_F8,NCO,S12,LIAB,PCH_PRE,IE,2010-01-01,6.3
F2_F8,NCO,S12,LIAB,PCH_PRE,IE,2011-01-01,-2.3
F2_F8,NCO,S12,LIAB,PCH_PRE,IE,2012-01-01,-1.8
F2_F8,NCO,S12,LIAB,PCH_PRE,IE,2013-01-01,1.9
F2_F8,NCO,S12,LIAB,PCH_PRE,IE,2014-01-01,19.5
F2_F8,NCO,S12,LIAB,PCH_PRE,IE,2015-01-01,9.6
F2_F8,NCO,S12,LIAB,PCH_PRE,IE,2016-01-01,1.5
F2_F8,NCO,S12,LIAB,PCH_PRE,IE,2017-01-01,4.3
F2_F8,NCO,S12,LIAB,PCH_PRE,IE,2018-01-01,5.1
F2_F8,NCO,S12,LIAB,PCH_PRE,IE,2019-01-01,
F2_F8,NCO,S12,LIAB,PCH_PRE,IT,1995-01-01,
F2_F8,NCO,S12,LIAB,PCH_PRE,IT,1996-01-01,9.3
F2_F8,NCO,S12,LIAB,PCH_PRE,IT,1997-01-01,17.3
F2_F8,NCO,S12,LIAB,PCH_PRE,IT,1998-01-01,19.5
F2_F8,NCO,S12,LIAB,PCH_PRE,IT,1999-01-01,13.8
F2_F8,NCO,S12,LIAB,PCH_PRE,IT,2000-01-01,12.0
F2_F8,NCO,S12,LIAB,PCH_PRE,IT,2001-01-01,-3.0
F2_F8,NCO,S12,LIAB,PCH_PRE,IT,2002-01-01,3.4
F2_F8,NCO,S12,LIAB,PCH_PRE,IT,2003-01-01,11.7
F2_F8,NCO,S12,LIAB,PCH_PRE,IT,2004-01-01,7.3
F2_F8,NCO,S12,LIAB,PCH_PRE,IT,2005-01-01,12.1
F2_F8,NCO,S12,LIAB,PCH_PRE,IT,2006-01-01,10.4
F2_F8,NCO,S12,LIAB,PCH_PRE,IT,2007-01-01,0.6
F2_F8,NCO,S12,LIAB,PCH_PRE,IT,2008-01-01,-1.5
F2_F8,NCO,S12,LIAB,PCH_PRE,IT,2009-01-01,5.1
F2_F8,NCO,S12,LIAB,PCH_PRE,IT,2010-01-01,4.2
F2_F8,NCO,S12,LIAB,PCH_PRE,IT,2011-01-01,5.1
F2_F8,NCO,S12,LIAB,PCH_PRE,IT,2012-01-01,7.2
F2_F8,NCO,S12,LIAB,PCH_PRE,IT,2013-01-01,-2.7
F2_F8,NCO,S12,LIAB,PCH_PRE,IT,2014-01-01,0.5
F2_F8,NCO,S12,LIAB,PCH_PRE,IT,2015-01-01,1.4
F2_F8,NCO,S12,LIAB,PCH_PRE,IT,2016-01-01,3.3
F2_F8,NCO,S12,LIAB,PCH_PRE,IT,2017-01-01,4.2
F2_F8,NCO,S12,LIAB,PCH_PRE,IT,2018-01-01,-0.1
F2_F8,NCO,S12,LIAB,PCH_PRE,IT,2019-01-01,
F2_F8,NCO,S12,LIAB,PCH_PRE,LT,1995-01-01,
F2_F8,NCO,S12,LIAB,PCH_PRE,LT,1996-01-01,8.2
F2_F8,NCO,S12,LIAB,PCH_PRE,LT,1997-01-01,25.1
F2_F8,NCO,S12,LIAB,PCH_PRE,LT,1998-01-01,27.6
F2_F8,NCO,S12,LIAB,PCH_PRE,LT,1999-01-01,1.5
F2_F8,NCO,S12,LIAB,PCH_PRE,LT,2000-01-01,11.6
F2_F8,NCO,S12,LIAB,PCH_PRE,LT,2001-01-01,17.9
F2_F8,NCO,S12,LIAB,PCH_PRE,LT,2002-01-01,15.9
F2_F8,NCO,S12,LIAB,PCH_PRE,LT,2003-01-01,30.4
F2_F8,NCO,S12,LIAB,PCH_PRE,LT,2004-01-01,25.5
F2_F8,NCO,S12,LIAB,PCH_PRE,LT,2005-01-01,48.6
F2_F8,NCO,S12,LIAB,PCH_PRE,LT,2006-01-01,32.9
F2_F8,NCO,S12,LIAB,PCH_PRE,LT,2007-01-01,34.1
F2_F8,NCO,S12,LIAB,PCH_PRE,LT,2008-01-01,4.4
F2_F8,NCO,S12,LIAB,PCH_PRE,LT,2009-01-01,-4.5
F2_F8,NCO,S12,LIAB,PCH_PRE,LT,2010-01-01,-0.1
F2_F8,NCO,S12,LIAB,PCH_PRE,LT,2011-01-01,2.0
F2_F8,NCO,S12,LIAB,PCH_PRE,LT,2012-01-01,-0.7
F2_F8,NCO,S12,LIAB,PCH_PRE,LT,2013-01-01,-1.2
F2_F8,NCO,S12,LIAB,PCH_PRE,LT,2014-01-01,16.7
F2_F8,NCO,S12,LIAB,PCH_PRE,LT,2015-01-01,7.3
F2_F8,NCO,S12,LIAB,PCH_PRE,LT,2016-01-01,15.8
F2_F8,NCO,S12,LIAB,PCH_PRE,LT,2017-01-01,13.9
F2_F8,NCO,S12,LIAB,PCH_PRE,LT,2018-01-01,8.2
F2_F8,NCO,S12,LIAB,PCH_PRE,LT,2019-01-01,
F2_F8,NCO,S12,LIAB,PCH_PRE,LU,1995-01-01,
F2_F8,NCO,S12,LIAB,PCH_PRE,LU,1996-01-01,
F2_F8,NCO,S12,LIAB,PCH_PRE,LU,1997-01-01,
F2_F8,NCO,S12,LIAB,PCH_PRE,LU,1998-01-01,
F2_F8,NCO,S12,LIAB,PCH_PRE,LU,1999-01-01,
F2_F8,NCO,S12,LIAB,PCH_PRE,LU,2000-01-01,16.6
F2_F8,NCO,S12,LIAB,PCH_PRE,LU,2001-01-01,12.1
F2_F8,NCO,S12,LIAB,PCH_PRE,LU,2002-01-01,4.3
F2_F8,NCO,S12,LIAB,PCH_PRE,LU,2003-01-01,18.1
F2_F8,NCO,S12,LIAB,PCH_PRE,LU,2004-01-01,14.9
F2_F8,NCO,S12,LIAB,PCH_PRE,LU,2005-01-01,29.7
F2_F8,NCO,S12,LIAB,PCH_PRE,LU,2006-01-01,16.0
F2_F8,NCO,S12,LIAB,PCH_PRE,LU,2007-01-01,14.2
F2_F8,NCO,S12,LIAB,PCH_PRE,LU,2008-01-01,-6.9
F2_F8,NCO,S12,LIAB,PCH_PRE,LU,2009-01-01,6.8
F2_F8,NCO,S12,LIAB,PCH_PRE,LU,2010-01-01,13.1
F2_F8,NCO,S12,LIAB,PCH_PRE,LU,2011-01-01,10.9
F2_F8,NCO,S12,LIAB,PCH_PRE,LU,2012-01-01,15.1
F2_F8,NCO,S12,LIAB,PCH_PRE,LU,2013-01-01,10.3
F2_F8,NCO,S12,LIAB,PCH_PRE,LU,2014-01-01,37.8
F2_F8,NCO,S12,LIAB,PCH_PRE,LU,2015-01-01,17.5
F2_F8,NCO,S12,LIAB,PCH_PRE,LU,2016-01-01,5.2
F2_F8,NCO,S12,LIAB,PCH_PRE,LU,2017-01-01,0.4
F2_F8,NCO,S12,LIAB,PCH_PRE,LU,2018-01-01,-2.0
F2_F8,NCO,S12,LIAB,PCH_PRE,LU,2019-01-01,
F2_F8,NCO,S12,LIAB,PCH_PRE,LV,1995-01-01,
F2_F8,NCO,S12,LIAB,PCH_PRE,LV,1996-01-01,38.3
F2_F8,NCO,S12,LIAB,PCH_PRE,LV,1997-01-01,38.0
F2_F8,NCO,S12,LIAB,PCH_PRE,LV,1998-01-01,2.9
F2_F8,NCO,S12,LIAB,PCH_PRE,LV,1999-01-01,13.9
F2_F8,NCO,S12,LIAB,PCH_PRE,LV,2000-01-01,32.7
F2_F8,NCO,S12,LIAB,PCH_PRE,LV,2001-01-01,20.4
F2_F8,NCO,S12,LIAB,PCH_PRE,LV,2002-01-01,24.7
F2_F8,NCO,S12,LIAB,PCH_PRE,LV,2003-01-01,24.3
F2_F8,NCO,S12,LIAB,PCH_PRE,LV,2004-01-01,34.9
F2_F8,NCO,S12,LIAB,PCH_PRE,LV,2005-01-01,40.0
F2_F8,NCO,S12,LIAB,PCH_PRE,LV,2006-01-01,47.5
F2_F8,NCO,S12,LIAB,PCH_PRE,LV,2007-01-01,36.8
F2_F8,NCO,S12,LIAB,PCH_PRE,LV,2008-01-01,9.0
F2_F8,NCO,S12,LIAB,PCH_PRE,LV,2009-01-01,-9.2
F2_F8,NCO,S12,LIAB,PCH_PRE,LV,2010-01-01,0.5
F2_F8,NCO,S12,LIAB,PCH_PRE,LV,2011-01-01,-6.2
F2_F8,NCO,S12,LIAB,PCH_PRE,LV,2012-01-01,5.6
F2_F8,NCO,S12,LIAB,PCH_PRE,LV,2013-01-01,5.7
F2_F8,NCO,S12,LIAB,PCH_PRE,LV,2014-01-01,11.4
F2_F8,NCO,S12,LIAB,PCH_PRE,LV,2015-01-01,13.2
F2_F8,NCO,S12,LIAB,PCH_PRE,LV,2016-01-01,4.7
F2_F8,NCO,S12,LIAB,PCH_PRE,LV,2017-01-01,6.2
F2_F8,NCO,S12,LIAB,PCH_PRE,LV,2018-01-01,-3.0
F2_F8,NCO,S12,LIAB,PCH_PRE,LV,2019-01-01,
F2_F8,NCO,S12,LIAB,PCH_PRE,MT,1995-01-01,
F2_F8,NCO,S12,LIAB,PCH_PRE,MT,1996-01-01,16.6
F2_F8,NCO,S12,LIAB,PCH_PRE,MT,1997-01-01,17.3
F2_F8,NCO,S12,LIAB,PCH_PRE,MT,1998-01-01,30.5
F2_F8,NCO,S12,LIAB,PCH_PRE,MT,1999-01-01,23.0
F2_F8,NCO,S12,LIAB,PCH_PRE,MT,2000-01-01,8.3
F2_F8,NCO,S12,LIAB,PCH_PRE,MT,2001-01-01,-0.3
F2_F8,NCO,S12,LIAB,PCH_PRE,MT,2002-01-01,15.9
F2_F8,NCO,S12,LIAB,PCH_PRE,MT,2003-01-01,15.1
F2_F8,NCO,S12,LIAB,PCH_PRE,MT,2004-01-01,101.4
F2_F8,NCO,S12,LIAB,PCH_PRE,MT,2005-01-01,66.1
F2_F8,NCO,S12,LIAB,PCH_PRE,MT,2006-01-01,33.7
F2_F8,NCO,S12,LIAB,PCH_PRE,MT,2007-01-01,45.0
F2_F8,NCO,S12,LIAB,PCH_PRE,MT,2008-01-01,10.3
F2_F8,NCO,S12,LIAB,PCH_PRE,MT,2009-01-01,5.2
F2_F8,NCO,S12,LIAB,PCH_PRE,MT,2010-01-01,14.3
F2_F8,NCO,S12,LIAB,PCH_PRE,MT,2011-01-01,10.4
F2_F8,NCO,S12,LIAB,PCH_PRE,MT,2012-01-01,8.6
F2_F8,NCO,S12,LIAB,PCH_PRE,MT,2013-01-01,0.0
F2_F8,NCO,S12,LIAB,PCH_PRE,MT,2014-01-01,5.9
F2_F8,NCO,S12,LIAB,PCH_PRE,MT,2015-01-01,3.6
F2_F8,NCO,S12,LIAB,PCH_PRE,MT,2016-01-01,3.9
F2_F8,NCO,S12,LIAB,PCH_PRE,MT,2017-01-01,6.5
F2_F8,NCO,S12,LIAB,PCH_PRE,MT,2018-01-01,2.3
F2_F8,NCO,S12,LIAB,PCH_PRE,MT,2019-01-01,
F2_F8,NCO,S12,LIAB,PCH_PRE,NL,1995-01-01,
F2_F8,NCO,S12,LIAB,PCH_PRE,NL,1996-01-01,10.5
F2_F8,NCO,S12,LIAB,PCH_PRE,NL,1997-01-01,13.4
F2_F8,NCO,S12,LIAB,PCH_PRE,NL,1998-01-01,14.4
F2_F8,NCO,S12,LIAB,PCH_PRE,NL,1999-01-01,11.9
F2_F8,NCO,S12,LIAB,PCH_PRE,NL,2000-01-01,8.7
F2_F8,NCO,S12,LIAB,PCH_PRE,NL,2001-01-01,6.0
F2_F8,NCO,S12,LIAB,PCH_PRE,NL,2002-01-01,4.4
F2_F8,NCO,S12,LIAB,PCH_PRE,NL,2003-01-01,5.5
F2_F8,NCO,S12,LIAB,PCH_PRE,NL,2004-01-01,7.2
F2_F8,NCO,S12,LIAB,PCH_PRE,NL,2005-01-01,15.4
F2_F8,NCO,S12,LIAB,PCH_PRE,NL,2006-01-01,11.6
F2_F8,NCO,S12,LIAB,PCH_PRE,NL,2007-01-01,14.4
F2_F8,NCO,S12,LIAB,PCH_PRE,NL,2008-01-01,4.5
F2_F8,NCO,S12,LIAB,PCH_PRE,NL,2009-01-01,7.1
F2_F8,NCO,S12,LIAB,PCH_PRE,NL,2010-01-01,5.4
F2_F8,NCO,S12,LIAB,PCH_PRE,NL,2011-01-01,10.3
F2_F8,NCO,S12,LIAB,PCH_PRE,NL,2012-01-01,6.0
F2_F8,NCO,S12,LIAB,PCH_PRE,NL,2013-01-01,-1.6
F2_F8,NCO,S12,LIAB,PCH_PRE,NL,2014-01-01,8.0
F2_F8,NCO,S12,LIAB,PCH_PRE,NL,2015-01-01,4.0
F2_F8,NCO,S12,LIAB,PCH_PRE,NL,2016-01-01,6.7
F2_F8,NCO,S12,LIAB,PCH_PRE,NL,2017-01-01,-0.1
F2_F8,NCO,S12,LIAB,PCH_PRE,NL,2018-01-01,-3.3
F2_F8,NCO,S12,LIAB,PCH_PRE,NL,2019-01-01,
F2_F8,NCO,S12,LIAB,PCH_PRE,PL,1995-01-01,
F2_F8,NCO,S12,LIAB,PCH_PRE,PL,1996-01-01,32.3
F2_F8,NCO,S12,LIAB,PCH_PRE,PL,1997-01-01,32.1
F2_F8,NCO,S12,LIAB,PCH_PRE,PL,1998-01-01,37.2
F2_F8,NCO,S12,LIAB,PCH_PRE,PL,1999-01-01,21.5
F2_F8,NCO,S12,LIAB,PCH_PRE,PL,2000-01-01,9.3
F2_F8,NCO,S12,LIAB,PCH_PRE,PL,2001-01-01,13.2
F2_F8,NCO,S12,LIAB,PCH_PRE,PL,2002-01-01,1.4
F2_F8,NCO,S12,LIAB,PCH_PRE,PL,2003-01-01,15.8
F2_F8,NCO,S12,LIAB,PCH_PRE,PL,2004-01-01,15.9
F2_F8,NCO,S12,LIAB,PCH_PRE,PL,2005-01-01,19.9
F2_F8,NCO,S12,LIAB,PCH_PRE,PL,2006-01-01,24.5
F2_F8,NCO,S12,LIAB,PCH_PRE,PL,2007-01-01,18.4
F2_F8,NCO,S12,LIAB,PCH_PRE,PL,2008-01-01,6.8
F2_F8,NCO,S12,LIAB,PCH_PRE,PL,2009-01-01,8.6
F2_F8,NCO,S12,LIAB,PCH_PRE,PL,2010-01-01,13.7
F2_F8,NCO,S12,LIAB,PCH_PRE,PL,2011-01-01,4.8
F2_F8,NCO,S12,LIAB,PCH_PRE,PL,2012-01-01,10.7
F2_F8,NCO,S12,LIAB,PCH_PRE,PL,2013-01-01,7.4
F2_F8,NCO,S12,LIAB,PCH_PRE,PL,2014-01-01,0.7
F2_F8,NCO,S12,LIAB,PCH_PRE,PL,2015-01-01,2.4
F2_F8,NCO,S12,LIAB,PCH_PRE,PL,2016-01-01,9.1
F2_F8,NCO,S12,LIAB,PCH_PRE,PL,2017-01-01,6.5
F2_F8,NCO,S12,LIAB,PCH_PRE,PL,2018-01-01,2.8
F2_F8,NCO,S12,LIAB,PCH_PRE,PL,2019-01-01,4.1
F2_F8,NCO,S12,LIAB,PCH_PRE,PT,1995-01-01,
F2_F8,NCO,S12,LIAB,PCH_PRE,PT,1996-01-01,15.4
F2_F8,NCO,S12,LIAB,PCH_PRE,PT,1997-01-01,20.7
F2_F8,NCO,S12,LIAB,PCH_PRE,PT,1998-01-01,15.7
F2_F8,NCO,S12,LIAB,PCH_PRE,PT,1999-01-01,17.5
F2_F8,NCO,S12,LIAB,PCH_PRE,PT,2000-01-01,11.2
F2_F8,NCO,S12,LIAB,PCH_PRE,PT,2001-01-01,8.7
F2_F8,NCO,S12,LIAB,PCH_PRE,PT,2002-01-01,2.8
F2_F8,NCO,S12,LIAB,PCH_PRE,PT,2003-01-01,11.7
F2_F8,NCO,S12,LIAB,PCH_PRE,PT,2004-01-01,6.3
F2_F8,NCO,S12,LIAB,PCH_PRE,PT,2005-01-01,11.5
F2_F8,NCO,S12,LIAB,PCH_PRE,PT,2006-01-01,13.9
F2_F8,NCO,S12,LIAB,PCH_PRE,PT,2007-01-01,10.4
F2_F8,NCO,S12,LIAB,PCH_PRE,PT,2008-01-01,4.4
F2_F8,NCO,S12,LIAB,PCH_PRE,PT,2009-01-01,9.3
F2_F8,NCO,S12,LIAB,PCH_PRE,PT,2010-01-01,10.9
F2_F8,NCO,S12,LIAB,PCH_PRE,PT,2011-01-01,-4.9
F2_F8,NCO,S12,LIAB,PCH_PRE,PT,2012-01-01,-3.5
F2_F8,NCO,S12,LIAB,PCH_PRE,PT,2013-01-01,-5.2
F2_F8,NCO,S12,LIAB,PCH_PRE,PT,2014-01-01,-7.3
F2_F8,NCO,S12,LIAB,PCH_PRE,PT,2015-01-01,-1.4
F2_F8,NCO,S12,LIAB,PCH_PRE,PT,2016-01-01,-0.4
F2_F8,NCO,S12,LIAB,PCH_PRE,PT,2017-01-01,1.4
F2_F8,NCO,S12,LIAB,PCH_PRE,PT,2018-01-01,0.5
F2_F8,NCO,S12,LIAB,PCH_PRE,PT,2019-01-01,0.1
F2_F8,NCO,S12,LIAB,PCH_PRE,RO,1995-01-01,
F2_F8,NCO,S12,LIAB,PCH_PRE,RO,1996-01-01,17.4
F2_F8,NCO,S12,LIAB,PCH_PRE,RO,1997-01-01,43.8
F2_F8,NCO,S12,LIAB,PCH_PRE,RO,1998-01-01,32.4
F2_F8,NCO,S12,LIAB,PCH_PRE,RO,1999-01-01,39.2
F2_F8,NCO,S12,LIAB,PCH_PRE,RO,2000-01-01,35.3
F2_F8,NCO,S12,LIAB,PCH_PRE,RO,2001-01-01,52.8
F2_F8,NCO,S12,LIAB,PCH_PRE,RO,2002-01-01,43.6
F2_F8,NCO,S12,LIAB,PCH_PRE,RO,2003-01-01,28.5
F2_F8,NCO,S12,LIAB,PCH_PRE,RO,2004-01-01,55.4
F2_F8,NCO,S12,LIAB,PCH_PRE,RO,2005-01-01,45.6
F2_F8,NCO,S12,LIAB,PCH_PRE,RO,2006-01-01,35.0
F2_F8,NCO,S12,LIAB,PCH_PRE,RO,2007-01-01,34.9
F2_F8,NCO,S12,LIAB,PCH_PRE,RO,2008-01-01,14.0
F2_F8,NCO,S12,LIAB,PCH_PRE,RO,2009-01-01,15.1
F2_F8,NCO,S12,LIAB,PCH_PRE,RO,2010-01-01,4.9
F2_F8,NCO,S12,LIAB,PCH_PRE,RO,2011-01-01,4.5
F2_F8,NCO,S12,LIAB,PCH_PRE,RO,2012-01-01,4.8
F2_F8,NCO,S12,LIAB,PCH_PRE,RO,2013-01-01,0.8
F2_F8,NCO,S12,LIAB,PCH_PRE,RO,2014-01-01,1.2
F2_F8,NCO,S12,LIAB,PCH_PRE,RO,2015-01-01,4.1
F2_F8,NCO,S12,LIAB,PCH_PRE,RO,2016-01-01,7.0
F2_F8,NCO,S12,LIAB,PCH_PRE,RO,2017-01-01,8.2
F2_F8,NCO,S12,LIAB,PCH_PRE,RO,2018-01-01,3.3
F2_F8,NCO,S12,LIAB,PCH_PRE,RO,2019-01-01,9.8
F2_F8,NCO,S12,LIAB,PCH_PRE,SE,1995-01-01,
F2_F8,NCO,S12,LIAB,PCH_PRE,SE,1996-01-01,7.4
F2_F8,NCO,S12,LIAB,PCH_PRE,SE,1997-01-01,14.6
F2_F8,NCO,S12,LIAB,PCH_PRE,SE,1998-01-01,13.6
F2_F8,NCO,S12,LIAB,PCH_PRE,SE,1999-01-01,11.2
F2_F8,NCO,S12,LIAB,PCH_PRE,SE,2000-01-01,14.6
F2_F8,NCO,S12,LIAB,PCH_PRE,SE,2001-01-01,1.9
F2_F8,NCO,S12,LIAB,PCH_PRE,SE,2002-01-01,1.4
F2_F8,NCO,S12,LIAB,PCH_PRE,SE,2003-01-01,8.5
F2_F8,NCO,S12,LIAB,PCH_PRE,SE,2004-01-01,11.8
F2_F8,NCO,S12,LIAB,PCH_PRE,SE,2005-01-01,17.4
F2_F8,NCO,S12,LIAB,PCH_PRE,SE,2006-01-01,9.5
F2_F8,NCO,S12,LIAB,PCH_PRE,SE,2007-01-01,9.5
F2_F8,NCO,S12,LIAB,PCH_PRE,SE,2008-01-01,12.1
F2_F8,NCO,S12,LIAB,PCH_PRE,SE,2009-01-01,4.0
F2_F8,NCO,S12,LIAB,PCH_PRE,SE,2010-01-01,2.8
F2_F8,NCO,S12,LIAB,PCH_PRE,SE,2011-01-01,1.8
F2_F8,NCO,S12,LIAB,PCH_PRE,SE,2012-01-01,5.6
F2_F8,NCO,S12,LIAB,PCH_PRE,SE,2013-01-01,9.7
F2_F8,NCO,S12,LIAB,PCH_PRE,SE,2014-01-01,12.6
F2_F8,NCO,S12,LIAB,PCH_PRE,SE,2015-01-01,1.8
F2_F8,NCO,S12,LIAB,PCH_PRE,SE,2016-01-01,9.1
F2_F8,NCO,S12,LIAB,PCH_PRE,SE,2017-01-01,6.9
F2_F8,NCO,S12,LIAB,PCH_PRE,SE,2018-01-01,-2.7
F2_F8,NCO,S12,LIAB,PCH_PRE,SE,2019-01-01,10.7
F2_F8,NCO,S12,LIAB,PCH_PRE,SI,1995-01-01,
F2_F8,NCO,S12,LIAB,PCH_PRE,SI,1996-01-01,23.1
F2_F8,NCO,S12,LIAB,PCH_PRE,SI,1997-01-01,24.7
F2_F8,NCO,S12,LIAB,PCH_PRE,SI,1998-01-01,14.4
F2_F8,NCO,S12,LIAB,PCH_PRE,SI,1999-01-01,16.1
F2_F8,NCO,S12,LIAB,PCH_PRE,SI,2000-01-01,18.3
F2_F8,NCO,S12,LIAB,PCH_PRE,SI,2001-01-01,27.2
F2_F8,NCO,S12,LIAB,PCH_PRE,SI,2002-01-01,24.1
F2_F8,NCO,S12,LIAB,PCH_PRE,SI,2003-01-01,12.5
F2_F8,NCO,S12,LIAB,PCH_PRE,SI,2004-01-01,11.5
F2_F8,NCO,S12,LIAB,PCH_PRE,SI,2005-01-01,17.5
F2_F8,NCO,S12,LIAB,PCH_PRE,SI,2006-01-01,13.7
F2_F8,NCO,S12,LIAB,PCH_PRE,SI,2007-01-01,28.4
F2_F8,NCO,S12,LIAB,PCH_PRE,SI,2008-01-01,6.6
F2_F8,NCO,S12,LIAB,PCH_PRE,SI,2009-01-01,7.4
F2_F8,NCO,S12,LIAB,PCH_PRE,SI,2010-01-01,-3.4
F2_F8,NCO,S12,LIAB,PCH_PRE,SI,2011-01-01,-1.2
F2_F8,NCO,S12,LIAB,PCH_PRE,SI,2012-01-01,-0.7
F2_F8,NCO,S12,LIAB,PCH_PRE,SI,2013-01-01,-10.1
F2_F8,NCO,S12,LIAB,PCH_PRE,SI,2014-01-01,-0.1
F2_F8,NCO,S12,LIAB,PCH_PRE,SI,2015-01-01,-3.8
F2_F8,NCO,S12,LIAB,PCH_PRE,SI,2016-01-01,3.4
F2_F8,NCO,S12,LIAB,PCH_PRE,SI,2017-01-01,5.3
F2_F8,NCO,S12,LIAB,PCH_PRE,SI,2018-01-01,4.1
F2_F8,NCO,S12,LIAB,PCH_PRE,SI,2019-01-01,9.8
F2_F8,NCO,S12,LIAB,PCH_PRE,SK,1995-01-01,
F2_F8,NCO,S12,LIAB,PCH_PRE,SK,1996-01-01,8.1
F2_F8,NCO,S12,LIAB,PCH_PRE,SK,1997-01-01,3.9
F2_F8,NCO,S12,LIAB,PCH_PRE,SK,1998-01-01,2.6
F2_F8,NCO,S12,LIAB,PCH_PRE,SK,1999-01-01,6.3
F2_F8,NCO,S12,LIAB,PCH_PRE,SK,2000-01-01,5.4
F2_F8,NCO,S12,LIAB,PCH_PRE,SK,2001-01-01,7.5
F2_F8,NCO,S12,LIAB,PCH_PRE,SK,2002-01-01,0.2
F2_F8,NCO,S12,LIAB,PCH_PRE,SK,2003-01-01,6.6
F2_F8,NCO,S12,LIAB,PCH_PRE,SK,2004-01-01,7.2
F2_F8,NCO,S12,LIAB,PCH_PRE,SK,2005-01-01,18.9
F2_F8,NCO,S12,LIAB,PCH_PRE,SK,2006-01-01,-7.2
F2_F8,NCO,S12,LIAB,PCH_PRE,SK,2007-01-01,25.4
F2_F8,NCO,S12,LIAB,PCH_PRE,SK,2008-01-01,10.3
F2_F8,NCO,S12,LIAB,PCH_PRE,SK,2009-01-01,-5.0
F2_F8,NCO,S12,LIAB,PCH_PRE,SK,2010-01-01,2.3
F2_F8,NCO,S12,LIAB,PCH_PRE,SK,2011-01-01,0.6
F2_F8,NCO,S12,LIAB,PCH_PRE,SK,2012-01-01,1.1
F2_F8,NCO,S12,LIAB,PCH_PRE,SK,2013-01-01,1.4
F2_F8,NCO,S12,LIAB,PCH_PRE,SK,2014-01-01,9.4
F2_F8,NCO,S12,LIAB,PCH_PRE,SK,2015-01-01,10.4
F2_F8,NCO,S12,LIAB,PCH_PRE,SK,2016-01-01,8.6
F2_F8,NCO,S12,LIAB,PCH_PRE,SK,2017-01-01,17.4
F2_F8,NCO,S12,LIAB,PCH_PRE,SK,2018-01-01,8.9
F2_F8,NCO,S12,LIAB,PCH_PRE,SK,2019-01-01,5.4
F2_F8,NCO,S12,LIAB,PCH_PRE,UK,1995-01-01,
F2_F8,NCO,S12,LIAB,PCH_PRE,UK,1996-01-01,9.7
F2_F8,NCO,S12,LIAB,PCH_PRE,UK,1997-01-01,18.4
F2_F8,NCO,S12,LIAB,PCH_PRE,UK,1998-01-01,10.4
F2_F8,NCO,S12,LIAB,PCH_PRE,UK,1999-01-01,5.8
F2_F8,NCO,S12,LIAB,PCH_PRE,UK,2000-01-01,14.4
F2_F8,NCO,S12,LIAB,PCH_PRE,UK,2001-01-01,5.7
F2_F8,NCO,S12,LIAB,PCH_PRE,UK,2002-01-01,2.9
F2_F8,NCO,S12,LIAB,PCH_PRE,UK,2003-01-01,12.9
F2_F8,NCO,S12,LIAB,PCH_PRE,UK,2004-01-01,29.2
F2_F8,NCO,S12,LIAB,PCH_PRE,UK,2005-01-01,16.7
F2_F8,NCO,S12,LIAB,PCH_PRE,UK,2006-01-01,11.0
F2_F8,NCO,S12,LIAB,PCH_PRE,UK,2007-01-01,17.1
F2_F8,NCO,S12,LIAB,PCH_PRE,UK,2008-01-01,46.7
F2_F8,NCO,S12,LIAB,PCH_PRE,UK,2009-01-01,-17.0
F2_F8,NCO,S12,LIAB,PCH_PRE,UK,2010-01-01,7.3
F2_F8,NCO,S12,LIAB,PCH_PRE,UK,2011-01-01,10.4
F2_F8,NCO,S12,LIAB,PCH_PRE,UK,2012-01-01,-3.6
F2_F8,NCO,S12,LIAB,PCH_PRE,UK,2013-01-01,-7.7
F2_F8,NCO,S12,LIAB,PCH_PRE,UK,2014-01-01,4.8
F2_F8,NCO,S12,LIAB,PCH_PRE,UK,2015-01-01,-8.6
F2_F8,NCO,S12,LIAB,PCH_PRE,UK,2016-01-01,11.7
F2_F8,NCO,S12,LIAB,PCH_PRE,UK,2017-01-01,-1.7
F2_F8,NCO,S12,LIAB,PCH_PRE,UK,2018-01-01,-1.0
F2_F8,NCO,S12,LIAB,PCH_PRE,UK,2019-01-01,
F2_F8,NCO,S12,LIAB,PC_GDP,AT,1995-01-01,271.2
F2_F8,NCO,S12,LIAB,PC_GDP,AT,1996-01-01,282.7
F2_F8,NCO,S12,LIAB,PC_GDP,AT,1997-01-01,291.6
F2_F8,NCO,S12,LIAB,PC_GDP,AT,1998-01-01,309.4
F2_F8,NCO,S12,LIAB,PC_GDP,AT,1999-01-01,338.7
F2_F8,NCO,S12,LIAB,PC_GDP,AT,2000-01-01,355.8
F2_F8,NCO,S12,LIAB,PC_GDP,AT,2001-01-01,364.5
F2_F8,NCO,S12,LIAB,PC_GDP,AT,2002-01-01,356.2
F2_F8,NCO,S12,LIAB,PC_GDP,AT,2003-01-01,371.0
F2_F8,NCO,S12,LIAB,PC_GDP,AT,2004-01-01,389.9
F2_F8,NCO,S12,LIAB,PC_GDP,AT,2005-01-01,458.4
F2_F8,NCO,S12,LIAB,PC_GDP,AT,2006-01-01,478.0
F2_F8,NCO,S12,LIAB,PC_GDP,AT,2007-01-01,500.3
F2_F8,NCO,S12,LIAB,PC_GDP,AT,2008-01-01,536.3
F2_F8,NCO,S12,LIAB,PC_GDP,AT,2009-01-01,535.3
F2_F8,NCO,S12,LIAB,PC_GDP,AT,2010-01-01,511.2
F2_F8,NCO,S12,LIAB,PC_GDP,AT,2011-01-01,494.9
F2_F8,NCO,S12,LIAB,PC_GDP,AT,2012-01-01,483.6
F2_F8,NCO,S12,LIAB,PC_GDP,AT,2013-01-01,460.5
F2_F8,NCO,S12,LIAB,PC_GDP,AT,2014-01-01,444.0
F2_F8,NCO,S12,LIAB,PC_GDP,AT,2015-01-01,429.1
F2_F8,NCO,S12,LIAB,PC_GDP,AT,2016-01-01,402.0
F2_F8,NCO,S12,LIAB,PC_GDP,AT,2017-01-01,396.3
F2_F8,NCO,S12,LIAB,PC_GDP,AT,2018-01-01,386.8
F2_F8,NCO,S12,LIAB,PC_GDP,AT,2019-01-01,
F2_F8,NCO,S12,LIAB,PC_GDP,BE,1995-01-01,364.9
F2_F8,NCO,S12,LIAB,PC_GDP,BE,1996-01-01,392.9
F2_F8,NCO,S12,LIAB,PC_GDP,BE,1997-01-01,407.7
F2_F8,NCO,S12,LIAB,PC_GDP,BE,1998-01-01,453.1
F2_F8,NCO,S12,LIAB,PC_GDP,BE,1999-01-01,469.7
F2_F8,NCO,S12,LIAB,PC_GDP,BE,2000-01-01,454.3
F2_F8,NCO,S12,LIAB,PC_GDP,BE,2001-01-01,473.5
F2_F8,NCO,S12,LIAB,PC_GDP,BE,2002-01-01,451.3
F2_F8,NCO,S12,LIAB,PC_GDP,BE,2003-01-01,487.1
F2_F8,NCO,S12,LIAB,PC_GDP,BE,2004-01-01,522.7
F2_F8,NCO,S12,LIAB,PC_GDP,BE,2005-01-01,582.0
F2_F8,NCO,S12,LIAB,PC_GDP,BE,2006-01-01,617.4
F2_F8,NCO,S12,LIAB,PC_GDP,BE,2007-01-01,668.9
F2_F8,NCO,S12,LIAB,PC_GDP,BE,2008-01-01,624.4
F2_F8,NCO,S12,LIAB,PC_GDP,BE,2009-01-01,637.1
F2_F8,NCO,S12,LIAB,PC_GDP,BE,2010-01-01,600.3
F2_F8,NCO,S12,LIAB,PC_GDP,BE,2011-01-01,610.9
F2_F8,NCO,S12,LIAB,PC_GDP,BE,2012-01-01,564.2
F2_F8,NCO,S12,LIAB,PC_GDP,BE,2013-01-01,561.2
F2_F8,NCO,S12,LIAB,PC_GDP,BE,2014-01-01,560.8
F2_F8,NCO,S12,LIAB,PC_GDP,BE,2015-01-01,557.0
F2_F8,NCO,S12,LIAB,PC_GDP,BE,2016-01-01,552.1
F2_F8,NCO,S12,LIAB,PC_GDP,BE,2017-01-01,539.8
F2_F8,NCO,S12,LIAB,PC_GDP,BE,2018-01-01,510.4
F2_F8,NCO,S12,LIAB,PC_GDP,BE,2019-01-01,516.8
F2_F8,NCO,S12,LIAB,PC_GDP,BG,1995-01-01,128.1
F2_F8,NCO,S12,LIAB,PC_GDP,BG,1996-01-01,207.7
F2_F8,NCO,S12,LIAB,PC_GDP,BG,1997-01-01,73.5
F2_F8,NCO,S12,LIAB,PC_GDP,BG,1998-01-01,56.5
F2_F8,NCO,S12,LIAB,PC_GDP,BG,1999-01-01,69.2
F2_F8,NCO,S12,LIAB,PC_GDP,BG,2000-01-01,71.7
F2_F8,NCO,S12,LIAB,PC_GDP,BG,2001-01-01,73.8
F2_F8,NCO,S12,LIAB,PC_GDP,BG,2002-01-01,76.6
F2_F8,NCO,S12,LIAB,PC_GDP,BG,2003-01-01,89.6
F2_F8,NCO,S12,LIAB,PC_GDP,BG,2004-01-01,104.0
F2_F8,NCO,S12,LIAB,PC_GDP,BG,2005-01-01,120.6
F2_F8,NCO,S12,LIAB,PC_GDP,BG,2006-01-01,123.8
F2_F8,NCO,S12,LIAB,PC_GDP,BG,2007-01-01,147.1
F2_F8,NCO,S12,LIAB,PC_GDP,BG,2008-01-01,146.7
F2_F8,NCO,S12,LIAB,PC_GDP,BG,2009-01-01,151.5
F2_F8,NCO,S12,LIAB,PC_GDP,BG,2010-01-01,155.4
F2_F8,NCO,S12,LIAB,PC_GDP,BG,2011-01-01,149.5
F2_F8,NCO,S12,LIAB,PC_GDP,BG,2012-01-01,164.0
F2_F8,NCO,S12,LIAB,PC_GDP,BG,2013-01-01,166.4
F2_F8,NCO,S12,LIAB,PC_GDP,BG,2014-01-01,175.4
F2_F8,NCO,S12,LIAB,PC_GDP,BG,2015-01-01,180.2
F2_F8,NCO,S12,LIAB,PC_GDP,BG,2016-01-01,185.2
F2_F8,NCO,S12,LIAB,PC_GDP,BG,2017-01-01,184.3
F2_F8,NCO,S12,LIAB,PC_GDP,BG,2018-01-01,183.5
F2_F8,NCO,S12,LIAB,PC_GDP,BG,2019-01-01,
F2_F8,NCO,S12,LIAB,PC_GDP,CY,1995-01-01,273.0
F2_F8,NCO,S12,LIAB,PC_GDP,CY,1996-01-01,307.6
F2_F8,NCO,S12,LIAB,PC_GDP,CY,1997-01-01,314.4
F2_F8,NCO,S12,LIAB,PC_GDP,CY,1998-01-01,333.5
F2_F8,NCO,S12,LIAB,PC_GDP,CY,1999-01-01,474.7
F2_F8,NCO,S12,LIAB,PC_GDP,CY,2000-01-01,376.7
F2_F8,NCO,S12,LIAB,PC_GDP,CY,2001-01-01,377.6
F2_F8,NCO,S12,LIAB,PC_GDP,CY,2002-01-01,372.3
F2_F8,NCO,S12,LIAB,PC_GDP,CY,2003-01-01,384.7
F2_F8,NCO,S12,LIAB,PC_GDP,CY,2004-01-01,1396.0
F2_F8,NCO,S12,LIAB,PC_GDP,CY,2005-01-01,1438.6
F2_F8,NCO,S12,LIAB,PC_GDP,CY,2006-01-01,1470.9
F2_F8,NCO,S12,LIAB,PC_GDP,CY,2007-01-01,1493.2
F2_F8,NCO,S12,LIAB,PC_GDP,CY,2008-01-01,1502.4
F2_F8,NCO,S12,LIAB,PC_GDP,CY,2009-01-01,1898.7
F2_F8,NCO,S12,LIAB,PC_GDP,CY,2010-01-01,1903.3
F2_F8,NCO,S12,LIAB,PC_GDP,CY,2011-01-01,2045.4
F2_F8,NCO,S12,LIAB,PC_GDP,CY,2012-01-01,2336.8
F2_F8,NCO,S12,LIAB,PC_GDP,CY,2013-01-01,2438.1
F2_F8,NCO,S12,LIAB,PC_GDP,CY,2014-01-01,2812.4
F2_F8,NCO,S12,LIAB,PC_GDP,CY,2015-01-01,3015.7
F2_F8,NCO,S12,LIAB,PC_GDP,CY,2016-01-01,2842.4
F2_F8,NCO,S12,LIAB,PC_GDP,CY,2017-01-01,2631.4
F2_F8,NCO,S12,LIAB,PC_GDP,CY,2018-01-01,2501.1
F2_F8,NCO,S12,LIAB,PC_GDP,CY,2019-01-01,
F2_F8,NCO,S12,LIAB,PC_GDP,CZ,1995-01-01,149.5
F2_F8,NCO,S12,LIAB,PC_GDP,CZ,1996-01-01,143.2
F2_F8,NCO,S12,LIAB,PC_GDP,CZ,1997-01-01,157.1
F2_F8,NCO,S12,LIAB,PC_GDP,CZ,1998-01-01,153.0
F2_F8,NCO,S12,LIAB,PC_GDP,CZ,1999-01-01,155.0
F2_F8,NCO,S12,LIAB,PC_GDP,CZ,2000-01-01,151.9
F2_F8,NCO,S12,LIAB,PC_GDP,CZ,2001-01-01,141.8
F2_F8,NCO,S12,LIAB,PC_GDP,CZ,2002-01-01,148.0
F2_F8,NCO,S12,LIAB,PC_GDP,CZ,2003-01-01,147.4
F2_F8,NCO,S12,LIAB,PC_GDP,CZ,2004-01-01,143.0
F2_F8,NCO,S12,LIAB,PC_GDP,CZ,2005-01-01,148.9
F2_F8,NCO,S12,LIAB,PC_GDP,CZ,2006-01-01,143.2
F2_F8,NCO,S12,LIAB,PC_GDP,CZ,2007-01-01,151.3
F2_F8,NCO,S12,LIAB,PC_GDP,CZ,2008-01-01,153.0
F2_F8,NCO,S12,LIAB,PC_GDP,CZ,2009-01-01,160.0
F2_F8,NCO,S12,LIAB,PC_GDP,CZ,2010-01-01,163.9
F2_F8,NCO,S12,LIAB,PC_GDP,CZ,2011-01-01,167.9
F2_F8,NCO,S12,LIAB,PC_GDP,CZ,2012-01-01,175.5
F2_F8,NCO,S12,LIAB,PC_GDP,CZ,2013-01-01,193.7
F2_F8,NCO,S12,LIAB,PC_GDP,CZ,2014-01-01,193.5
F2_F8,NCO,S12,LIAB,PC_GDP,CZ,2015-01-01,196.4
F2_F8,NCO,S12,LIAB,PC_GDP,CZ,2016-01-01,220.2
F2_F8,NCO,S12,LIAB,PC_GDP,CZ,2017-01-01,255.8
F2_F8,NCO,S12,LIAB,PC_GDP,CZ,2018-01-01,260.5
F2_F8,NCO,S12,LIAB,PC_GDP,CZ,2019-01-01,
F2_F8,NCO,S12,LIAB,PC_GDP,DE,1995-01-01,294.8
F2_F8,NCO,S12,LIAB,PC_GDP,DE,1996-01-01,320.2
F2_F8,NCO,S12,LIAB,PC_GDP,DE,1997-01-01,354.1
F2_F8,NCO,S12,LIAB,PC_GDP,DE,1998-01-01,389.0
F2_F8,NCO,S12,LIAB,PC_GDP,DE,1999-01-01,426.7
F2_F8,NCO,S12,LIAB,PC_GDP,DE,2000-01-01,449.9
F2_F8,NCO,S12,LIAB,PC_GDP,DE,2001-01-01,460.4
F2_F8,NCO,S12,LIAB,PC_GDP,DE,2002-01-01,459.5
F2_F8,NCO,S12,LIAB,PC_GDP,DE,2003-01-01,470.8
F2_F8,NCO,S12,LIAB,PC_GDP,DE,2004-01-01,478.1
F2_F8,NCO,S12,LIAB,PC_GDP,DE,2005-01-01,503.2
F2_F8,NCO,S12,LIAB,PC_GDP,DE,2006-01-01,506.0
F2_F8,NCO,S12,LIAB,PC_GDP,DE,2007-01-01,522.9
F2_F8,NCO,S12,LIAB,PC_GDP,DE,2008-01-01,536.6
F2_F8,NCO,S12,LIAB,PC_GDP,DE,2009-01-01,523.7
F2_F8,NCO,S12,LIAB,PC_GDP,DE,2010-01-01,495.3
F2_F8,NCO,S12,LIAB,PC_GDP,DE,2011-01-01,486.0
F2_F8,NCO,S12,LIAB,PC_GDP,DE,2012-01-01,492.1
F2_F8,NCO,S12,LIAB,PC_GDP,DE,2013-01-01,450.0
F2_F8,NCO,S12,LIAB,PC_GDP,DE,2014-01-01,452.0
F2_F8,NCO,S12,LIAB,PC_GDP,DE,2015-01-01,448.2
F2_F8,NCO,S12,LIAB,PC_GDP,DE,2016-01-01,455.7
F2_F8,NCO,S12,LIAB,PC_GDP,DE,2017-01-01,457.8
F2_F8,NCO,S12,LIAB,PC_GDP,DE,2018-01-01,453.0
F2_F8,NCO,S12,LIAB,PC_GDP,DE,2019-01-01,
F2_F8,NCO,S12,LIAB,PC_GDP,DK,1995-01-01,343.4
F2_F8,NCO,S12,LIAB,PC_GDP,DK,1996-01-01,368.5
F2_F8,NCO,S12,LIAB,PC_GDP,DK,1997-01-01,417.0
F2_F8,NCO,S12,LIAB,PC_GDP,DK,1998-01-01,465.8
F2_F8,NCO,S12,LIAB,PC_GDP,DK,1999-01-01,493.4
F2_F8,NCO,S12,LIAB,PC_GDP,DK,2000-01-01,506.7
F2_F8,NCO,S12,LIAB,PC_GDP,DK,2001-01-01,496.3
F2_F8,NCO,S12,LIAB,PC_GDP,DK,2002-01-01,482.6
F2_F8,NCO,S12,LIAB,PC_GDP,DK,2003-01-01,510.6
F2_F8,NCO,S12,LIAB,PC_GDP,DK,2004-01-01,525.2
F2_F8,NCO,S12,LIAB,PC_GDP,DK,2005-01-01,625.8
F2_F8,NCO,S12,LIAB,PC_GDP,DK,2006-01-01,660.3
F2_F8,NCO,S12,LIAB,PC_GDP,DK,2007-01-01,703.9
F2_F8,NCO,S12,LIAB,PC_GDP,DK,2008-01-01,679.1
F2_F8,NCO,S12,LIAB,PC_GDP,DK,2009-01-01,749.8
F2_F8,NCO,S12,LIAB,PC_GDP,DK,2010-01-01,782.3
F2_F8,NCO,S12,LIAB,PC_GDP,DK,2011-01-01,779.5
F2_F8,NCO,S12,LIAB,PC_GDP,DK,2012-01-01,779.1
F2_F8,NCO,S12,LIAB,PC_GDP,DK,2013-01-01,778.8
F2_F8,NCO,S12,LIAB,PC_GDP,DK,2014-01-01,814.1
F2_F8,NCO,S12,LIAB,PC_GDP,DK,2015-01-01,785.1
F2_F8,NCO,S12,LIAB,PC_GDP,DK,2016-01-01,800.4
F2_F8,NCO,S12,LIAB,PC_GDP,DK,2017-01-01,807.9
F2_F8,NCO,S12,LIAB,PC_GDP,DK,2018-01-01,759.3
F2_F8,NCO,S12,LIAB,PC_GDP,DK,2019-01-01,
F2_F8,NCO,S12,LIAB,PC_GDP,EE,1995-01-01,57.4
F2_F8,NCO,S12,LIAB,PC_GDP,EE,1996-01-01,74.3
F2_F8,NCO,S12,LIAB,PC_GDP,EE,1997-01-01,108.2
F2_F8,NCO,S12,LIAB,PC_GDP,EE,1998-01-01,93.5
F2_F8,NCO,S12,LIAB,PC_GDP,EE,1999-01-01,107.5
F2_F8,NCO,S12,LIAB,PC_GDP,EE,2000-01-01,133.3
F2_F8,NCO,S12,LIAB,PC_GDP,EE,2001-01-01,133.3
F2_F8,NCO,S12,LIAB,PC_GDP,EE,2002-01-01,148.0
F2_F8,NCO,S12,LIAB,PC_GDP,EE,2003-01-01,150.2
F2_F8,NCO,S12,LIAB,PC_GDP,EE,2004-01-01,171.9
F2_F8,NCO,S12,LIAB,PC_GDP,EE,2005-01-01,177.5
F2_F8,NCO,S12,LIAB,PC_GDP,EE,2006-01-01,179.9
F2_F8,NCO,S12,LIAB,PC_GDP,EE,2007-01-01,189.4
F2_F8,NCO,S12,LIAB,PC_GDP,EE,2008-01-01,192.7
F2_F8,NCO,S12,LIAB,PC_GDP,EE,2009-01-01,215.3
F2_F8,NCO,S12,LIAB,PC_GDP,EE,2010-01-01,188.2
F2_F8,NCO,S12,LIAB,PC_GDP,EE,2011-01-01,165.8
F2_F8,NCO,S12,LIAB,PC_GDP,EE,2012-01-01,171.4
F2_F8,NCO,S12,LIAB,PC_GDP,EE,2013-01-01,179.3
F2_F8,NCO,S12,LIAB,PC_GDP,EE,2014-01-01,191.2
F2_F8,NCO,S12,LIAB,PC_GDP,EE,2015-01-01,201.7
F2_F8,NCO,S12,LIAB,PC_GDP,EE,2016-01-01,206.2
F2_F8,NCO,S12,LIAB,PC_GDP,EE,2017-01-01,215.1
F2_F8,NCO,S12,LIAB,PC_GDP,EE,2018-01-01,209.9
F2_F8,NCO,S12,LIAB,PC_GDP,EE,2019-01-01,
F2_F8,NCO,S12,LIAB,PC_GDP,EL,1995-01-01,139.7
F2_F8,NCO,S12,LIAB,PC_GDP,EL,1996-01-01,140.6
F2_F8,NCO,S12,LIAB,PC_GDP,EL,1997-01-01,141.1
F2_F8,NCO,S12,LIAB,PC_GDP,EL,1998-01-01,151.0
F2_F8,NCO,S12,LIAB,PC_GDP,EL,1999-01-01,204.3
F2_F8,NCO,S12,LIAB,PC_GDP,EL,2000-01-01,190.0
F2_F8,NCO,S12,LIAB,PC_GDP,EL,2001-01-01,178.5
F2_F8,NCO,S12,LIAB,PC_GDP,EL,2002-01-01,166.2
F2_F8,NCO,S12,LIAB,PC_GDP,EL,2003-01-01,167.4
F2_F8,NCO,S12,LIAB,PC_GDP,EL,2004-01-01,164.8
F2_F8,NCO,S12,LIAB,PC_GDP,EL,2005-01-01,189.9
F2_F8,NCO,S12,LIAB,PC_GDP,EL,2006-01-01,198.5
F2_F8,NCO,S12,LIAB,PC_GDP,EL,2007-01-01,226.5
F2_F8,NCO,S12,LIAB,PC_GDP,EL,2008-01-01,228.0
F2_F8,NCO,S12,LIAB,PC_GDP,EL,2009-01-01,255.1
F2_F8,NCO,S12,LIAB,PC_GDP,EL,2010-01-01,292.0
F2_F8,NCO,S12,LIAB,PC_GDP,EL,2011-01-01,306.1
F2_F8,NCO,S12,LIAB,PC_GDP,EL,2012-01-01,324.5
F2_F8,NCO,S12,LIAB,PC_GDP,EL,2013-01-01,283.7
F2_F8,NCO,S12,LIAB,PC_GDP,EL,2014-01-01,262.5
F2_F8,NCO,S12,LIAB,PC_GDP,EL,2015-01-01,281.3
F2_F8,NCO,S12,LIAB,PC_GDP,EL,2016-01-01,253.6
F2_F8,NCO,S12,LIAB,PC_GDP,EL,2017-01-01,216.1
F2_F8,NCO,S12,LIAB,PC_GDP,EL,2018-01-01,200.6
F2_F8,NCO,S12,LIAB,PC_GDP,EL,2019-01-01,220.3
F2_F8,NCO,S12,LIAB,PC_GDP,ES,1995-01-01,211.6
F2_F8,NCO,S12,LIAB,PC_GDP,ES,1996-01-01,221.9
F2_F8,NCO,S12,LIAB,PC_GDP,ES,1997-01-01,238.9
F2_F8,NCO,S12,LIAB,PC_GDP,ES,1998-01-01,250.0
F2_F8,NCO,S12,LIAB,PC_GDP,ES,1999-01-01,261.5
F2_F8,NCO,S12,LIAB,PC_GDP,ES,2000-01-01,260.0
F2_F8,NCO,S12,LIAB,PC_GDP,ES,2001-01-01,258.5
F2_F8,NCO,S12,LIAB,PC_GDP,ES,2002-01-01,255.0
F2_F8,NCO,S12,LIAB,PC_GDP,ES,2003-01-01,278.3
F2_F8,NCO,S12,LIAB,PC_GDP,ES,2004-01-01,302.1
F2_F8,NCO,S12,LIAB,PC_GDP,ES,2005-01-01,349.8
F2_F8,NCO,S12,LIAB,PC_GDP,ES,2006-01-01,389.0
F2_F8,NCO,S12,LIAB,PC_GDP,ES,2007-01-01,425.2
F2_F8,NCO,S12,LIAB,PC_GDP,ES,2008-01-01,432.8
F2_F8,NCO,S12,LIAB,PC_GDP,ES,2009-01-01,461.5
F2_F8,NCO,S12,LIAB,PC_GDP,ES,2010-01-01,450.5
F2_F8,NCO,S12,LIAB,PC_GDP,ES,2011-01-01,469.7
F2_F8,NCO,S12,LIAB,PC_GDP,ES,2012-01-01,487.7
F2_F8,NCO,S12,LIAB,PC_GDP,ES,2013-01-01,442.0
F2_F8,NCO,S12,LIAB,PC_GDP,ES,2014-01-01,437.0
F2_F8,NCO,S12,LIAB,PC_GDP,ES,2015-01-01,410.2
F2_F8,NCO,S12,LIAB,PC_GDP,ES,2016-01-01,406.6
F2_F8,NCO,S12,LIAB,PC_GDP,ES,2017-01-01,402.1
F2_F8,NCO,S12,LIAB,PC_GDP,ES,2018-01-01,379.7
F2_F8,NCO,S12,LIAB,PC_GDP,ES,2019-01-01,370.2
F2_F8,NCO,S12,LIAB,PC_GDP,FI,1995-01-01,154.8
F2_F8,NCO,S12,LIAB,PC_GDP,FI,1996-01-01,148.5
F2_F8,NCO,S12,LIAB,PC_GDP,FI,1997-01-01,155.5
F2_F8,NCO,S12,LIAB,PC_GDP,FI,1998-01-01,150.0
F2_F8,NCO,S12,LIAB,PC_GDP,FI,1999-01-01,165.8
F2_F8,NCO,S12,LIAB,PC_GDP,FI,2000-01-01,160.5
F2_F8,NCO,S12,LIAB,PC_GDP,FI,2001-01-01,166.5
F2_F8,NCO,S12,LIAB,PC_GDP,FI,2002-01-01,168.8
F2_F8,NCO,S12,LIAB,PC_GDP,FI,2003-01-01,187.4
F2_F8,NCO,S12,LIAB,PC_GDP,FI,2004-01-01,203.0
F2_F8,NCO,S12,LIAB,PC_GDP,FI,2005-01-01,222.6
F2_F8,NCO,S12,LIAB,PC_GDP,FI,2006-01-01,237.3
F2_F8,NCO,S12,LIAB,PC_GDP,FI,2007-01-01,241.5
F2_F8,NCO,S12,LIAB,PC_GDP,FI,2008-01-01,271.5
F2_F8,NCO,S12,LIAB,PC_GDP,FI,2009-01-01,311.9
F2_F8,NCO,S12,LIAB,PC_GDP,FI,2010-01-01,361.3
F2_F8,NCO,S12,LIAB,PC_GDP,FI,2011-01-01,442.0
F2_F8,NCO,S12,LIAB,PC_GDP,FI,2012-01-01,429.7
F2_F8,NCO,S12,LIAB,PC_GDP,FI,2013-01-01,374.1
F2_F8,NCO,S12,LIAB,PC_GDP,FI,2014-01-01,404.1
F2_F8,NCO,S12,LIAB,PC_GDP,FI,2015-01-01,400.9
F2_F8,NCO,S12,LIAB,PC_GDP,FI,2016-01-01,405.0
F2_F8,NCO,S12,LIAB,PC_GDP,FI,2017-01-01,374.3
F2_F8,NCO,S12,LIAB,PC_GDP,FI,2018-01-01,433.6
F2_F8,NCO,S12,LIAB,PC_GDP,FI,2019-01-01,453.5
F2_F8,NCO,S12,LIAB,PC_GDP,FR,1995-01-01,315.3
F2_F8,NCO,S12,LIAB,PC_GDP,FR,1996-01-01,327.0
F2_F8,NCO,S12,LIAB,PC_GDP,FR,1997-01-01,348.1
F2_F8,NCO,S12,LIAB,PC_GDP,FR,1998-01-01,351.7
F2_F8,NCO,S12,LIAB,PC_GDP,FR,1999-01-01,389.4
F2_F8,NCO,S12,LIAB,PC_GDP,FR,2000-01-01,393.5
F2_F8,NCO,S12,LIAB,PC_GDP,FR,2001-01-01,396.3
F2_F8,NCO,S12,LIAB,PC_GDP,FR,2002-01-01,388.8
F2_F8,NCO,S12,LIAB,PC_GDP,FR,2003-01-01,404.5
F2_F8,NCO,S12,LIAB,PC_GDP,FR,2004-01-01,425.2
F2_F8,NCO,S12,LIAB,PC_GDP,FR,2005-01-01,471.8
F2_F8,NCO,S12,LIAB,PC_GDP,FR,2006-01-01,519.8
F2_F8,NCO,S12,LIAB,PC_GDP,FR,2007-01-01,558.4
F2_F8,NCO,S12,LIAB,PC_GDP,FR,2008-01-01,555.4
F2_F8,NCO,S12,LIAB,PC_GDP,FR,2009-01-01,567.4
F2_F8,NCO,S12,LIAB,PC_GDP,FR,2010-01-01,570.2
F2_F8,NCO,S12,LIAB,PC_GDP,FR,2011-01-01,591.1
F2_F8,NCO,S12,LIAB,PC_GDP,FR,2012-01-01,590.9
F2_F8,NCO,S12,LIAB,PC_GDP,FR,2013-01-01,585.8
F2_F8,NCO,S12,LIAB,PC_GDP,FR,2014-01-01,609.0
F2_F8,NCO,S12,LIAB,PC_GDP,FR,2015-01-01,608.4
F2_F8,NCO,S12,LIAB,PC_GDP,FR,2016-01-01,626.4
F2_F8,NCO,S12,LIAB,PC_GDP,FR,2017-01-01,637.9
F2_F8,NCO,S12,LIAB,PC_GDP,FR,2018-01-01,632.2
F2_F8,NCO,S12,LIAB,PC_GDP,FR,2019-01-01,
F2_F8,NCO,S12,LIAB,PC_GDP,HR,1995-01-01,
F2_F8,NCO,S12,LIAB,PC_GDP,HR,1996-01-01,
F2_F8,NCO,S12,LIAB,PC_GDP,HR,1997-01-01,
F2_F8,NCO,S12,LIAB,PC_GDP,HR,1998-01-01,
F2_F8,NCO,S12,LIAB,PC_GDP,HR,1999-01-01,
F2_F8,NCO,S12,LIAB,PC_GDP,HR,2000-01-01,
F2_F8,NCO,S12,LIAB,PC_GDP,HR,2001-01-01,108.0
F2_F8,NCO,S12,LIAB,PC_GDP,HR,2002-01-01,120.7
F2_F8,NCO,S12,LIAB,PC_GDP,HR,2003-01-01,131.0
F2_F8,NCO,S12,LIAB,PC_GDP,HR,2004-01-01,139.0
F2_F8,NCO,S12,LIAB,PC_GDP,HR,2005-01-01,146.1
F2_F8,NCO,S12,LIAB,PC_GDP,HR,2006-01-01,169.2
F2_F8,NCO,S12,LIAB,PC_GDP,HR,2007-01-01,190.7
F2_F8,NCO,S12,LIAB,PC_GDP,HR,2008-01-01,163.2
F2_F8,NCO,S12,LIAB,PC_GDP,HR,2009-01-01,178.0
F2_F8,NCO,S12,LIAB,PC_GDP,HR,2010-01-01,186.4
F2_F8,NCO,S12,LIAB,PC_GDP,HR,2011-01-01,187.6
F2_F8,NCO,S12,LIAB,PC_GDP,HR,2012-01-01,190.9
F2_F8,NCO,S12,LIAB,PC_GDP,HR,2013-01-01,195.7
F2_F8,NCO,S12,LIAB,PC_GDP,HR,2014-01-01,196.8
F2_F8,NCO,S12,LIAB,PC_GDP,HR,2015-01-01,195.7
F2_F8,NCO,S12,LIAB,PC_GDP,HR,2016-01-01,195.9
F2_F8,NCO,S12,LIAB,PC_GDP,HR,2017-01-01,195.1
F2_F8,NCO,S12,LIAB,PC_GDP,HR,2018-01-01,195.2
F2_F8,NCO,S12,LIAB,PC_GDP,HR,2019-01-01,
F2_F8,NCO,S12,LIAB,PC_GDP,HU,1995-01-01,161.4
F2_F8,NCO,S12,LIAB,PC_GDP,HU,1996-01-01,144.3
F2_F8,NCO,S12,LIAB,PC_GDP,HU,1997-01-01,134.7
F2_F8,NCO,S12,LIAB,PC_GDP,HU,1998-01-01,132.0
F2_F8,NCO,S12,LIAB,PC_GDP,HU,1999-01-01,149.7
F2_F8,NCO,S12,LIAB,PC_GDP,HU,2000-01-01,174.5
F2_F8,NCO,S12,LIAB,PC_GDP,HU,2001-01-01,187.2
F2_F8,NCO,S12,LIAB,PC_GDP,HU,2002-01-01,170.7
F2_F8,NCO,S12,LIAB,PC_GDP,HU,2003-01-01,174.6
F2_F8,NCO,S12,LIAB,PC_GDP,HU,2004-01-01,171.5
F2_F8,NCO,S12,LIAB,PC_GDP,HU,2005-01-01,216.5
F2_F8,NCO,S12,LIAB,PC_GDP,HU,2006-01-01,236.7
F2_F8,NCO,S12,LIAB,PC_GDP,HU,2007-01-01,276.8
F2_F8,NCO,S12,LIAB,PC_GDP,HU,2008-01-01,329.5
F2_F8,NCO,S12,LIAB,PC_GDP,HU,2009-01-01,344.3
F2_F8,NCO,S12,LIAB,PC_GDP,HU,2010-01-01,333.3
F2_F8,NCO,S12,LIAB,PC_GDP,HU,2011-01-01,340.2
F2_F8,NCO,S12,LIAB,PC_GDP,HU,2012-01-01,315.0
F2_F8,NCO,S12,LIAB,PC_GDP,HU,2013-01-01,296.3
F2_F8,NCO,S12,LIAB,PC_GDP,HU,2014-01-01,298.3
F2_F8,NCO,S12,LIAB,PC_GDP,HU,2015-01-01,281.6
F2_F8,NCO,S12,LIAB,PC_GDP,HU,2016-01-01,326.0
F2_F8,NCO,S12,LIAB,PC_GDP,HU,2017-01-01,278.3
F2_F8,NCO,S12,LIAB,PC_GDP,HU,2018-01-01,229.8
F2_F8,NCO,S12,LIAB,PC_GDP,HU,2019-01-01,231.4
F2_F8,NCO,S12,LIAB,PC_GDP,IE,1995-01-01,
F2_F8,NCO,S12,LIAB,PC_GDP,IE,1996-01-01,
F2_F8,NCO,S12,LIAB,PC_GDP,IE,1997-01-01,
F2_F8,NCO,S12,LIAB,PC_GDP,IE,1998-01-01,
F2_F8,NCO,S12,LIAB,PC_GDP,IE,1999-01-01,
F2_F8,NCO,S12,LIAB,PC_GDP,IE,2000-01-01,
F2_F8,NCO,S12,LIAB,PC_GDP,IE,2001-01-01,883.4
F2_F8,NCO,S12,LIAB,PC_GDP,IE,2002-01-01,875.4
F2_F8,NCO,S12,LIAB,PC_GDP,IE,2003-01-01,1001.7
F2_F8,NCO,S12,LIAB,PC_GDP,IE,2004-01-01,1121.6
F2_F8,NCO,S12,LIAB,PC_GDP,IE,2005-01-01,1390.6
F2_F8,NCO,S12,LIAB,PC_GDP,IE,2006-01-01,1555.4
F2_F8,NCO,S12,LIAB,PC_GDP,IE,2007-01-01,1599.8
F2_F8,NCO,S12,LIAB,PC_GDP,IE,2008-01-01,1788.8
F2_F8,NCO,S12,LIAB,PC_GDP,IE,2009-01-01,2041.0
F2_F8,NCO,S12,LIAB,PC_GDP,IE,2010-01-01,2201.0
F2_F8,NCO,S12,LIAB,PC_GDP,IE,2011-01-01,2111.8
F2_F8,NCO,S12,LIAB,PC_GDP,IE,2012-01-01,2023.1
F2_F8,NCO,S12,LIAB,PC_GDP,IE,2013-01-01,2010.3
F2_F8,NCO,S12,LIAB,PC_GDP,IE,2014-01-01,2216.3
F2_F8,NCO,S12,LIAB,PC_GDP,IE,2015-01-01,1801.1
F2_F8,NCO,S12,LIAB,PC_GDP,IE,2016-01-01,1768.7
F2_F8,NCO,S12,LIAB,PC_GDP,IE,2017-01-01,1686.1
F2_F8,NCO,S12,LIAB,PC_GDP,IE,2018-01-01,1625.1
F2_F8,NCO,S12,LIAB,PC_GDP,IE,2019-01-01,
F2_F8,NCO,S12,LIAB,PC_GDP,IT,1995-01-01,166.5
F2_F8,NCO,S12,LIAB,PC_GDP,IT,1996-01-01,172.0
F2_F8,NCO,S12,LIAB,PC_GDP,IT,1997-01-01,193.1
F2_F8,NCO,S12,LIAB,PC_GDP,IT,1998-01-01,221.5
F2_F8,NCO,S12,LIAB,PC_GDP,IT,1999-01-01,244.1
F2_F8,NCO,S12,LIAB,PC_GDP,IT,2000-01-01,258.9
F2_F8,NCO,S12,LIAB,PC_GDP,IT,2001-01-01,239.1
F2_F8,NCO,S12,LIAB,PC_GDP,IT,2002-01-01,238.8
F2_F8,NCO,S12,LIAB,PC_GDP,IT,2003-01-01,258.1
F2_F8,NCO,S12,LIAB,PC_GDP,IT,2004-01-01,265.9
F2_F8,NCO,S12,LIAB,PC_GDP,IT,2005-01-01,289.7
F2_F8,NCO,S12,LIAB,PC_GDP,IT,2006-01-01,307.8
F2_F8,NCO,S12,LIAB,PC_GDP,IT,2007-01-01,297.8
F2_F8,NCO,S12,LIAB,PC_GDP,IT,2008-01-01,289.1
F2_F8,NCO,S12,LIAB,PC_GDP,IT,2009-01-01,315.5
F2_F8,NCO,S12,LIAB,PC_GDP,IT,2010-01-01,321.7
F2_F8,NCO,S12,LIAB,PC_GDP,IT,2011-01-01,330.5
F2_F8,NCO,S12,LIAB,PC_GDP,IT,2012-01-01,359.8
F2_F8,NCO,S12,LIAB,PC_GDP,IT,2013-01-01,352.7
F2_F8,NCO,S12,LIAB,PC_GDP,IT,2014-01-01,351.2
F2_F8,NCO,S12,LIAB,PC_GDP,IT,2015-01-01,350.0
F2_F8,NCO,S12,LIAB,PC_GDP,IT,2016-01-01,352.8
F2_F8,NCO,S12,LIAB,PC_GDP,IT,2017-01-01,359.1
F2_F8,NCO,S12,LIAB,PC_GDP,IT,2018-01-01,352.7
F2_F8,NCO,S12,LIAB,PC_GDP,IT,2019-01-01,
F2_F8,NCO,S12,LIAB,PC_GDP,LT,1995-01-01,40.0
F2_F8,NCO,S12,LIAB,PC_GDP,LT,1996-01-01,34.6
F2_F8,NCO,S12,LIAB,PC_GDP,LT,1997-01-01,35.8
F2_F8,NCO,S12,LIAB,PC_GDP,LT,1998-01-01,41.2
F2_F8,NCO,S12,LIAB,PC_GDP,LT,1999-01-01,42.8
F2_F8,NCO,S12,LIAB,PC_GDP,LT,2000-01-01,45.4
F2_F8,NCO,S12,LIAB,PC_GDP,LT,2001-01-01,50.4
F2_F8,NCO,S12,LIAB,PC_GDP,LT,2002-01-01,54.6
F2_F8,NCO,S12,LIAB,PC_GDP,LT,2003-01-01,64.9
F2_F8,NCO,S12,LIAB,PC_GDP,LT,2004-01-01,74.4
F2_F8,NCO,S12,LIAB,PC_GDP,LT,2005-01-01,96.0
F2_F8,NCO,S12,LIAB,PC_GDP,LT,2006-01-01,111.3
F2_F8,NCO,S12,LIAB,PC_GDP,LT,2007-01-01,123.8
F2_F8,NCO,S12,LIAB,PC_GDP,LT,2008-01-01,114.7
F2_F8,NCO,S12,LIAB,PC_GDP,LT,2009-01-01,133.1
F2_F8,NCO,S12,LIAB,PC_GDP,LT,2010-01-01,128.1
F2_F8,NCO,S12,LIAB,PC_GDP,LT,2011-01-01,116.9
F2_F8,NCO,S12,LIAB,PC_GDP,LT,2012-01-01,108.7
F2_F8,NCO,S12,LIAB,PC_GDP,LT,2013-01-01,102.4
F2_F8,NCO,S12,LIAB,PC_GDP,LT,2014-01-01,114.4
F2_F8,NCO,S12,LIAB,PC_GDP,LT,2015-01-01,120.1
F2_F8,NCO,S12,LIAB,PC_GDP,LT,2016-01-01,133.5
F2_F8,NCO,S12,LIAB,PC_GDP,LT,2017-01-01,139.9
F2_F8,NCO,S12,LIAB,PC_GDP,LT,2018-01-01,141.3
F2_F8,NCO,S12,LIAB,PC_GDP,LT,2019-01-01,
F2_F8,NCO,S12,LIAB,PC_GDP,LU,1995-01-01,
F2_F8,NCO,S12,LIAB,PC_GDP,LU,1996-01-01,
F2_F8,NCO,S12,LIAB,PC_GDP,LU,1997-01-01,
F2_F8,NCO,S12,LIAB,PC_GDP,LU,1998-01-01,
F2_F8,NCO,S12,LIAB,PC_GDP,LU,1999-01-01,8579.3
F2_F8,NCO,S12,LIAB,PC_GDP,LU,2000-01-01,9042.9
F2_F8,NCO,S12,LIAB,PC_GDP,LU,2001-01-01,9845.6
F2_F8,NCO,S12,LIAB,PC_GDP,LU,2002-01-01,9727.6
F2_F8,NCO,S12,LIAB,PC_GDP,LU,2003-01-01,11005.3
F2_F8,NCO,S12,LIAB,PC_GDP,LU,2004-01-01,11855.6
F2_F8,NCO,S12,LIAB,PC_GDP,LU,2005-01-01,14298.6
F2_F8,NCO,S12,LIAB,PC_GDP,LU,2006-01-01,14736.5
F2_F8,NCO,S12,LIAB,PC_GDP,LU,2007-01-01,15304.8
F2_F8,NCO,S12,LIAB,PC_GDP,LU,2008-01-01,13896.1
F2_F8,NCO,S12,LIAB,PC_GDP,LU,2009-01-01,15297.3
F2_F8,NCO,S12,LIAB,PC_GDP,LU,2010-01-01,15922.4
F2_F8,NCO,S12,LIAB,PC_GDP,LU,2011-01-01,16440.0
F2_F8,NCO,S12,LIAB,PC_GDP,LU,2012-01-01,18518.6
F2_F8,NCO,S12,LIAB,PC_GDP,LU,2013-01-01,19380.9
F2_F8,NCO,S12,LIAB,PC_GDP,LU,2014-01-01,24930.2
F2_F8,NCO,S12,LIAB,PC_GDP,LU,2015-01-01,28042.3
F2_F8,NCO,S12,LIAB,PC_GDP,LU,2016-01-01,27995.6
F2_F8,NCO,S12,LIAB,PC_GDP,LU,2017-01-01,27157.9
F2_F8,NCO,S12,LIAB,PC_GDP,LU,2018-01-01,25171.9
F2_F8,NCO,S12,LIAB,PC_GDP,LU,2019-01-01,
F2_F8,NCO,S12,LIAB,PC_GDP,LV,1995-01-01,46.6
F2_F8,NCO,S12,LIAB,PC_GDP,LV,1996-01-01,56.0
F2_F8,NCO,S12,LIAB,PC_GDP,LV,1997-01-01,67.0
F2_F8,NCO,S12,LIAB,PC_GDP,LV,1998-01-01,61.8
F2_F8,NCO,S12,LIAB,PC_GDP,LV,1999-01-01,67.4
F2_F8,NCO,S12,LIAB,PC_GDP,LV,2000-01-01,81.8
F2_F8,NCO,S12,LIAB,PC_GDP,LV,2001-01-01,90.6
F2_F8,NCO,S12,LIAB,PC_GDP,LV,2002-01-01,100.3
F2_F8,NCO,S12,LIAB,PC_GDP,LV,2003-01-01,109.6
F2_F8,NCO,S12,LIAB,PC_GDP,LV,2004-01-01,127.8
F2_F8,NCO,S12,LIAB,PC_GDP,LV,2005-01-01,145.3
F2_F8,NCO,S12,LIAB,PC_GDP,LV,2006-01-01,170.4
F2_F8,NCO,S12,LIAB,PC_GDP,LV,2007-01-01,176.3
F2_F8,NCO,S12,LIAB,PC_GDP,LV,2008-01-01,177.9
F2_F8,NCO,S12,LIAB,PC_GDP,LV,2009-01-01,208.8
F2_F8,NCO,S12,LIAB,PC_GDP,LV,2010-01-01,220.5
F2_F8,NCO,S12,LIAB,PC_GDP,LV,2011-01-01,182.9
F2_F8,NCO,S12,LIAB,PC_GDP,LV,2012-01-01,179.0
F2_F8,NCO,S12,LIAB,PC_GDP,LV,2013-01-01,182.0
F2_F8,NCO,S12,LIAB,PC_GDP,LV,2014-01-01,195.5
F2_F8,NCO,S12,LIAB,PC_GDP,LV,2015-01-01,214.4
F2_F8,NCO,S12,LIAB,PC_GDP,LV,2016-01-01,218.7
F2_F8,NCO,S12,LIAB,PC_GDP,LV,2017-01-01,217.4
F2_F8,NCO,S12,LIAB,PC_GDP,LV,2018-01-01,193.9
F2_F8,NCO,S12,LIAB,PC_GDP,LV,2019-01-01,
F2_F8,NCO,S12,LIAB,PC_GDP,MT,1995-01-01,237.2
F2_F8,NCO,S12,LIAB,PC_GDP,MT,1996-01-01,263.2
F2_F8,NCO,S12,LIAB,PC_GDP,MT,1997-01-01,290.7
F2_F8,NCO,S12,LIAB,PC_GDP,MT,1998-01-01,358.1
F2_F8,NCO,S12,LIAB,PC_GDP,MT,1999-01-01,416.5
F2_F8,NCO,S12,LIAB,PC_GDP,MT,2000-01-01,414.9
F2_F8,NCO,S12,LIAB,PC_GDP,MT,2001-01-01,401.4
F2_F8,NCO,S12,LIAB,PC_GDP,MT,2002-01-01,439.4
F2_F8,NCO,S12,LIAB,PC_GDP,MT,2003-01-01,479.5
F2_F8,NCO,S12,LIAB,PC_GDP,MT,2004-01-01,947.2
F2_F8,NCO,S12,LIAB,PC_GDP,MT,2005-01-01,1482.4
F2_F8,NCO,S12,LIAB,PC_GDP,MT,2006-01-01,1894.4
F2_F8,NCO,S12,LIAB,PC_GDP,MT,2007-01-01,2569.7
F2_F8,NCO,S12,LIAB,PC_GDP,MT,2008-01-01,2663.1
F2_F8,NCO,S12,LIAB,PC_GDP,MT,2009-01-01,2796.0
F2_F8,NCO,S12,LIAB,PC_GDP,MT,2010-01-01,2972.4
F2_F8,NCO,S12,LIAB,PC_GDP,MT,2011-01-01,3170.1
F2_F8,NCO,S12,LIAB,PC_GDP,MT,2012-01-01,3279.9
F2_F8,NCO,S12,LIAB,PC_GDP,MT,2013-01-01,3076.1
F2_F8,NCO,S12,LIAB,PC_GDP,MT,2014-01-01,2928.1
F2_F8,NCO,S12,LIAB,PC_GDP,MT,2015-01-01,2673.4
F2_F8,NCO,S12,LIAB,PC_GDP,MT,2016-01-01,2592.9
F2_F8,NCO,S12,LIAB,PC_GDP,MT,2017-01-01,2528.9
F2_F8,NCO,S12,LIAB,PC_GDP,MT,2018-01-01,2373.3
F2_F8,NCO,S12,LIAB,PC_GDP,MT,2019-01-01,
F2_F8,NCO,S12,LIAB,PC_GDP,NL,1995-01-01,627.8
F2_F8,NCO,S12,LIAB,PC_GDP,NL,1996-01-01,663.3
F2_F8,NCO,S12,LIAB,PC_GDP,NL,1997-01-01,702.3
F2_F8,NCO,S12,LIAB,PC_GDP,NL,1998-01-01,752.2
F2_F8,NCO,S12,LIAB,PC_GDP,NL,1999-01-01,790.9
F2_F8,NCO,S12,LIAB,PC_GDP,NL,2000-01-01,797.7
F2_F8,NCO,S12,LIAB,PC_GDP,NL,2001-01-01,793.1
F2_F8,NCO,S12,LIAB,PC_GDP,NL,2002-01-01,796.5
F2_F8,NCO,S12,LIAB,PC_GDP,NL,2003-01-01,821.4
F2_F8,NCO,S12,LIAB,PC_GDP,NL,2004-01-01,852.8
F2_F8,NCO,S12,LIAB,PC_GDP,NL,2005-01-01,946.0
F2_F8,NCO,S12,LIAB,PC_GDP,NL,2006-01-01,994.5
F2_F8,NCO,S12,LIAB,PC_GDP,NL,2007-01-01,1074.4
F2_F8,NCO,S12,LIAB,PC_GDP,NL,2008-01-01,1073.9
F2_F8,NCO,S12,LIAB,PC_GDP,NL,2009-01-01,1191.6
F2_F8,NCO,S12,LIAB,PC_GDP,NL,2010-01-01,1227.5
F2_F8,NCO,S12,LIAB,PC_GDP,NL,2011-01-01,1330.9
F2_F8,NCO,S12,LIAB,PC_GDP,NL,2012-01-01,1404.7
F2_F8,NCO,S12,LIAB,PC_GDP,NL,2013-01-01,1366.6
F2_F8,NCO,S12,LIAB,PC_GDP,NL,2014-01-01,1452.0
F2_F8,NCO,S12,LIAB,PC_GDP,NL,2015-01-01,1470.0
F2_F8,NCO,S12,LIAB,PC_GDP,NL,2016-01-01,1527.3
F2_F8,NCO,S12,LIAB,PC_GDP,NL,2017-01-01,1464.6
F2_F8,NCO,S12,LIAB,PC_GDP,NL,2018-01-01,1350.7
F2_F8,NCO,S12,LIAB,PC_GDP,NL,2019-01-01,
F2_F8,NCO,S12,LIAB,PC_GDP,PL,1995-01-01,54.3
F2_F8,NCO,S12,LIAB,PC_GDP,PL,1996-01-01,57.5
F2_F8,NCO,S12,LIAB,PC_GDP,PL,1997-01-01,62.7
F2_F8,NCO,S12,LIAB,PC_GDP,PL,1998-01-01,74.1
F2_F8,NCO,S12,LIAB,PC_GDP,PL,1999-01-01,81.1
F2_F8,NCO,S12,LIAB,PC_GDP,PL,2000-01-01,79.8
F2_F8,NCO,S12,LIAB,PC_GDP,PL,2001-01-01,86.6
F2_F8,NCO,S12,LIAB,PC_GDP,PL,2002-01-01,84.5
F2_F8,NCO,S12,LIAB,PC_GDP,PL,2003-01-01,93.8
F2_F8,NCO,S12,LIAB,PC_GDP,PL,2004-01-01,98.6
F2_F8,NCO,S12,LIAB,PC_GDP,PL,2005-01-01,111.3
F2_F8,NCO,S12,LIAB,PC_GDP,PL,2006-01-01,128.3
F2_F8,NCO,S12,LIAB,PC_GDP,PL,2007-01-01,136.8
F2_F8,NCO,S12,LIAB,PC_GDP,PL,2008-01-01,134.9
F2_F8,NCO,S12,LIAB,PC_GDP,PL,2009-01-01,137.4
F2_F8,NCO,S12,LIAB,PC_GDP,PL,2010-01-01,148.2
F2_F8,NCO,S12,LIAB,PC_GDP,PL,2011-01-01,143.3
F2_F8,NCO,S12,LIAB,PC_GDP,PL,2012-01-01,152.6
F2_F8,NCO,S12,LIAB,PC_GDP,PL,2013-01-01,161.2
F2_F8,NCO,S12,LIAB,PC_GDP,PL,2014-01-01,156.3
F2_F8,NCO,S12,LIAB,PC_GDP,PL,2015-01-01,153.0
F2_F8,NCO,S12,LIAB,PC_GDP,PL,2016-01-01,161.4
F2_F8,NCO,S12,LIAB,PC_GDP,PL,2017-01-01,160.8
F2_F8,NCO,S12,LIAB,PC_GDP,PL,2018-01-01,155.1
F2_F8,NCO,S12,LIAB,PC_GDP,PL,2019-01-01,150.6
F2_F8,NCO,S12,LIAB,PC_GDP,PT,1995-01-01,228.4
F2_F8,NCO,S12,LIAB,PC_GDP,PT,1996-01-01,248.6
F2_F8,NCO,S12,LIAB,PC_GDP,PT,1997-01-01,276.6
F2_F8,NCO,S12,LIAB,PC_GDP,PT,1998-01-01,294.0
F2_F8,NCO,S12,LIAB,PC_GDP,PT,1999-01-01,321.8
F2_F8,NCO,S12,LIAB,PC_GDP,PT,2000-01-01,333.2
F2_F8,NCO,S12,LIAB,PC_GDP,PT,2001-01-01,342.6
F2_F8,NCO,S12,LIAB,PC_GDP,PT,2002-01-01,335.5
F2_F8,NCO,S12,LIAB,PC_GDP,PT,2003-01-01,365.7
F2_F8,NCO,S12,LIAB,PC_GDP,PT,2004-01-01,372.9
F2_F8,NCO,S12,LIAB,PC_GDP,PT,2005-01-01,399.1
F2_F8,NCO,S12,LIAB,PC_GDP,PT,2006-01-01,433.3
F2_F8,NCO,S12,LIAB,PC_GDP,PT,2007-01-01,453.2
F2_F8,NCO,S12,LIAB,PC_GDP,PT,2008-01-01,463.6
F2_F8,NCO,S12,LIAB,PC_GDP,PT,2009-01-01,517.2
F2_F8,NCO,S12,LIAB,PC_GDP,PT,2010-01-01,560.1
F2_F8,NCO,S12,LIAB,PC_GDP,PT,2011-01-01,543.0
F2_F8,NCO,S12,LIAB,PC_GDP,PT,2012-01-01,548.1
F2_F8,NCO,S12,LIAB,PC_GDP,PT,2013-01-01,512.8
F2_F8,NCO,S12,LIAB,PC_GDP,PT,2014-01-01,468.5
F2_F8,NCO,S12,LIAB,PC_GDP,PT,2015-01-01,445.0
F2_F8,NCO,S12,LIAB,PC_GDP,PT,2016-01-01,427.1
F2_F8,NCO,S12,LIAB,PC_GDP,PT,2017-01-01,412.3
F2_F8,NCO,S12,LIAB,PC_GDP,PT,2018-01-01,397.5
F2_F8,NCO,S12,LIAB,PC_GDP,PT,2019-01-01,382.8
F2_F8,NCO,S12,LIAB,PC_GDP,RO,1995-01-01,112.1
F2_F8,NCO,S12,LIAB,PC_GDP,RO,1996-01-01,87.9
F2_F8,NCO,S12,LIAB,PC_GDP,RO,1997-01-01,56.4
F2_F8,NCO,S12,LIAB,PC_GDP,RO,1998-01-01,51.5
F2_F8,NCO,S12,LIAB,PC_GDP,RO,1999-01-01,48.1
F2_F8,NCO,S12,LIAB,PC_GDP,RO,2000-01-01,44.4
F2_F8,NCO,S12,LIAB,PC_GDP,RO,2001-01-01,46.7
F2_F8,NCO,S12,LIAB,PC_GDP,RO,2002-01-01,51.7
F2_F8,NCO,S12,LIAB,PC_GDP,RO,2003-01-01,52.7
F2_F8,NCO,S12,LIAB,PC_GDP,RO,2004-01-01,64.3
F2_F8,NCO,S12,LIAB,PC_GDP,RO,2005-01-01,79.9
F2_F8,NCO,S12,LIAB,PC_GDP,RO,2006-01-01,90.2
F2_F8,NCO,S12,LIAB,PC_GDP,RO,2007-01-01,98.0
F2_F8,NCO,S12,LIAB,PC_GDP,RO,2008-01-01,88.1
F2_F8,NCO,S12,LIAB,PC_GDP,RO,2009-01-01,103.1
F2_F8,NCO,S12,LIAB,PC_GDP,RO,2010-01-01,108.7
F2_F8,NCO,S12,LIAB,PC_GDP,RO,2011-01-01,107.3
F2_F8,NCO,S12,LIAB,PC_GDP,RO,2012-01-01,106.0
F2_F8,NCO,S12,LIAB,PC_GDP,RO,2013-01-01,99.8
F2_F8,NCO,S12,LIAB,PC_GDP,RO,2014-01-01,96.0
F2_F8,NCO,S12,LIAB,PC_GDP,RO,2015-01-01,93.7
F2_F8,NCO,S12,LIAB,PC_GDP,RO,2016-01-01,93.4
F2_F8,NCO,S12,LIAB,PC_GDP,RO,2017-01-01,90.2
F2_F8,NCO,S12,LIAB,PC_GDP,RO,2018-01-01,83.9
F2_F8,NCO,S12,LIAB,PC_GDP,RO,2019-01-01,82.8
F2_F8,NCO,S12,LIAB,PC_GDP,SE,1995-01-01,238.8
F2_F8,NCO,S12,LIAB,PC_GDP,SE,1996-01-01,249.9
F2_F8,NCO,S12,LIAB,PC_GDP,SE,1997-01-01,273.6
F2_F8,NCO,S12,LIAB,PC_GDP,SE,1998-01-01,295.7
F2_F8,NCO,S12,LIAB,PC_GDP,SE,1999-01-01,312.6
F2_F8,NCO,S12,LIAB,PC_GDP,SE,2000-01-01,337.0
F2_F8,NCO,S12,LIAB,PC_GDP,SE,2001-01-01,330.2
F2_F8,NCO,S12,LIAB,PC_GDP,SE,2002-01-01,322.7
F2_F8,NCO,S12,LIAB,PC_GDP,SE,2003-01-01,336.4
F2_F8,NCO,S12,LIAB,PC_GDP,SE,2004-01-01,359.2
F2_F8,NCO,S12,LIAB,PC_GDP,SE,2005-01-01,407.1
F2_F8,NCO,S12,LIAB,PC_GDP,SE,2006-01-01,418.6
F2_F8,NCO,S12,LIAB,PC_GDP,SE,2007-01-01,431.0
F2_F8,NCO,S12,LIAB,PC_GDP,SE,2008-01-01,470.0
F2_F8,NCO,S12,LIAB,PC_GDP,SE,2009-01-01,499.1
F2_F8,NCO,S12,LIAB,PC_GDP,SE,2010-01-01,479.8
F2_F8,NCO,S12,LIAB,PC_GDP,SE,2011-01-01,468.2
F2_F8,NCO,S12,LIAB,PC_GDP,SE,2012-01-01,492.3
F2_F8,NCO,S12,LIAB,PC_GDP,SE,2013-01-01,528.9
F2_F8,NCO,S12,LIAB,PC_GDP,SE,2014-01-01,570.1
F2_F8,NCO,S12,LIAB,PC_GDP,SE,2015-01-01,543.8
F2_F8,NCO,S12,LIAB,PC_GDP,SE,2016-01-01,572.4
F2_F8,NCO,S12,LIAB,PC_GDP,SE,2017-01-01,584.2
F2_F8,NCO,S12,LIAB,PC_GDP,SE,2018-01-01,544.8
F2_F8,NCO,S12,LIAB,PC_GDP,SE,2019-01-01,579.7
F2_F8,NCO,S12,LIAB,PC_GDP,SI,1995-01-01,79.3
F2_F8,NCO,S12,LIAB,PC_GDP,SI,1996-01-01,84.8
F2_F8,NCO,S12,LIAB,PC_GDP,SI,1997-01-01,92.8
F2_F8,NCO,S12,LIAB,PC_GDP,SI,1998-01-01,95.8
F2_F8,NCO,S12,LIAB,PC_GDP,SI,1999-01-01,99.1
F2_F8,NCO,S12,LIAB,PC_GDP,SI,2000-01-01,107.1
F2_F8,NCO,S12,LIAB,PC_GDP,SI,2001-01-01,121.4
F2_F8,NCO,S12,LIAB,PC_GDP,SI,2002-01-01,135.3
F2_F8,NCO,S12,LIAB,PC_GDP,SI,2003-01-01,139.9
F2_F8,NCO,S12,LIAB,PC_GDP,SI,2004-01-01,144.6
F2_F8,NCO,S12,LIAB,PC_GDP,SI,2005-01-01,161.3
F2_F8,NCO,S12,LIAB,PC_GDP,SI,2006-01-01,169.6
F2_F8,NCO,S12,LIAB,PC_GDP,SI,2007-01-01,195.5
F2_F8,NCO,S12,LIAB,PC_GDP,SI,2008-01-01,192.7
F2_F8,NCO,S12,LIAB,PC_GDP,SI,2009-01-01,216.6
F2_F8,NCO,S12,LIAB,PC_GDP,SI,2010-01-01,208.6
F2_F8,NCO,S12,LIAB,PC_GDP,SI,2011-01-01,202.2
F2_F8,NCO,S12,LIAB,PC_GDP,SI,2012-01-01,205.2
F2_F8,NCO,S12,LIAB,PC_GDP,SI,2013-01-01,183.4
F2_F8,NCO,S12,LIAB,PC_GDP,SI,2014-01-01,177.4
F2_F8,NCO,S12,LIAB,PC_GDP,SI,2015-01-01,165.4
F2_F8,NCO,S12,LIAB,PC_GDP,SI,2016-01-01,164.6
F2_F8,NCO,S12,LIAB,PC_GDP,SI,2017-01-01,162.8
F2_F8,NCO,S12,LIAB,PC_GDP,SI,2018-01-01,159.2
F2_F8,NCO,S12,LIAB,PC_GDP,SI,2019-01-01,166.6
F2_F8,NCO,S12,LIAB,PC_GDP,SK,1995-01-01,203.8
F2_F8,NCO,S12,LIAB,PC_GDP,SK,1996-01-01,197.7
F2_F8,NCO,S12,LIAB,PC_GDP,SK,1997-01-01,185.1
F2_F8,NCO,S12,LIAB,PC_GDP,SK,1998-01-01,174.0
F2_F8,NCO,S12,LIAB,PC_GDP,SK,1999-01-01,172.8
F2_F8,NCO,S12,LIAB,PC_GDP,SK,2000-01-01,164.3
F2_F8,NCO,S12,LIAB,PC_GDP,SK,2001-01-01,162.7
F2_F8,NCO,S12,LIAB,PC_GDP,SK,2002-01-01,150.1
F2_F8,NCO,S12,LIAB,PC_GDP,SK,2003-01-01,144.0
F2_F8,NCO,S12,LIAB,PC_GDP,SK,2004-01-01,138.7
F2_F8,NCO,S12,LIAB,PC_GDP,SK,2005-01-01,150.8
F2_F8,NCO,S12,LIAB,PC_GDP,SK,2006-01-01,125.4
F2_F8,NCO,S12,LIAB,PC_GDP,SK,2007-01-01,140.3
F2_F8,NCO,S12,LIAB,PC_GDP,SK,2008-01-01,142.4
F2_F8,NCO,S12,LIAB,PC_GDP,SK,2009-01-01,144.8
F2_F8,NCO,S12,LIAB,PC_GDP,SK,2010-01-01,139.3
F2_F8,NCO,S12,LIAB,PC_GDP,SK,2011-01-01,134.0
F2_F8,NCO,S12,LIAB,PC_GDP,SK,2012-01-01,131.3
F2_F8,NCO,S12,LIAB,PC_GDP,SK,2013-01-01,131.6
F2_F8,NCO,S12,LIAB,PC_GDP,SK,2014-01-01,140.4
F2_F8,NCO,S12,LIAB,PC_GDP,SK,2015-01-01,148.2
F2_F8,NCO,S12,LIAB,PC_GDP,SK,2016-01-01,158.3
F2_F8,NCO,S12,LIAB,PC_GDP,SK,2017-01-01,178.2
F2_F8,NCO,S12,LIAB,PC_GDP,SK,2018-01-01,183.0
F2_F8,NCO,S12,LIAB,PC_GDP,SK,2019-01-01,183.6
F2_F8,NCO,S12,LIAB,PC_GDP,UK,1995-01-01,453.9
F2_F8,NCO,S12,LIAB,PC_GDP,UK,1996-01-01,466.5
F2_F8,NCO,S12,LIAB,PC_GDP,UK,1997-01-01,526.2
F2_F8,NCO,S12,LIAB,PC_GDP,UK,1998-01-01,555.1
F2_F8,NCO,S12,LIAB,PC_GDP,UK,1999-01-01,562.6
F2_F8,NCO,S12,LIAB,PC_GDP,UK,2000-01-01,610.7
F2_F8,NCO,S12,LIAB,PC_GDP,UK,2001-01-01,620.7
F2_F8,NCO,S12,LIAB,PC_GDP,UK,2002-01-01,611.6
F2_F8,NCO,S12,LIAB,PC_GDP,UK,2003-01-01,653.9
F2_F8,NCO,S12,LIAB,PC_GDP,UK,2004-01-01,804.8
F2_F8,NCO,S12,LIAB,PC_GDP,UK,2005-01-01,887.9
F2_F8,NCO,S12,LIAB,PC_GDP,UK,2006-01-01,933.1
F2_F8,NCO,S12,LIAB,PC_GDP,UK,2007-01-01,1040.0
F2_F8,NCO,S12,LIAB,PC_GDP,UK,2008-01-01,1487.2
F2_F8,NCO,S12,LIAB,PC_GDP,UK,2009-01-01,1268.3
F2_F8,NCO,S12,LIAB,PC_GDP,UK,2010-01-01,1315.2
F2_F8,NCO,S12,LIAB,PC_GDP,UK,2011-01-01,1401.6
F2_F8,NCO,S12,LIAB,PC_GDP,UK,2012-01-01,1310.4
F2_F8,NCO,S12,LIAB,PC_GDP,UK,2013-01-01,1162.4
F2_F8,NCO,S12,LIAB,PC_GDP,UK,2014-01-01,1166.4
F2_F8,NCO,S12,LIAB,PC_GDP,UK,2015-01-01,1035.9
F2_F8,NCO,S12,LIAB,PC_GDP,UK,2016-01-01,1111.2
F2_F8,NCO,S12,LIAB,PC_GDP,UK,2017-01-01,1052.5
F2_F8,NCO,S12,LIAB,PC_GDP,UK,2018-01-01,1006.6
F2_F8,NCO,S12,LIAB,PC_GDP,UK,2019-01-01,
