"","1","2","3","4","MeanDecreaseAccuracy","MeanDecreaseGini"
"CA",0.0154263188341624,0.051799127131396,0.130991650658175,0.308922429003354,0.125954545454545,18.8833618183272
"REER",0.00633187151252702,0.00752618896263658,0.0311921213326441,0.0121805449352939,0.0143787878787879,4.26193067379003
"XMS",0.0158373435539221,0.0216747138169698,0.0455409069925154,0.0606521715989725,0.0356060606060608,6.55895967494598
"FSL",0.00808396552959662,0.00329258307275678,0.0377170118644865,0.0180989153477648,0.0168560606060607,4.86252533489254
"GGD",0.0814635117149698,0.0277189764143304,0.0874343392596367,0.135123752042379,0.082098484848485,11.5914032329111
"HPI",0.00693021766794393,0.0232798480474798,0.0874175782866729,0.0187314175968177,0.0343106060606063,7.97315216418868
"NIIP",0.0986354970669346,0.0450975975503783,0.107267662363365,0.172128367426586,0.104878787878788,13.8979299635748
"ULC",0.0253737895834921,0.0490259172917377,0.072010871215923,0.0346194698895855,0.0450075757575761,8.07298870105779
"AR",0.0437595287400187,0.0217809057438081,0.032546988013189,0.0528492465768358,0.0374545454545457,7.01175242937904
"LTU",0.0476247222906434,0.0439980997081027,0.0690829297263866,0.16917777767626,0.0819848484848485,13.1156753224608
"YUR",0.0251392724566784,0.0225677708077619,0.051854586260279,0.126766294093582,0.0563333333333337,9.65279359467762
"PSCF",0.0439444931808084,0.0368175806336009,0.0723871575039229,0.127020791622381,0.0696363636363638,10.3693508211226
"PSD",0.106511443471947,0.0469336497958825,0.101392987095445,0.0551964520814322,0.077507575757576,12.4683893858998
"UR",0.0785653327756673,0.0941173343187963,0.158656061368309,0.0806801546893979,0.102575757575757,16.8557767817619
