CA,REER,XMS,FSL,GGD,HPI,NIIP,ULC,AR,LTU,YUR,PSCF,PSD,UR,label
7.7,-1.2,-15.87,7.3,44.3,93.85,43.3,2.3,-1.2,-0.1,-2.2,-0.3,214.0,7.4,1
-4.8,-11.4,15.13,4.8,54.5,108.27,-62.4,4.2,1.9,1.2,8.5,6.6,73.9,9.2,1
-2.8,-0.7,24.04,3.3,34.7,109.99,-43.7,29.6,1.7,-1.2,-5.5,1.9,47.4,5.0,1
-0.1,6.4,3.49,8.2,33.8,114.86,-31.0,16.5,3.2,-1.9,-5.2,4.3,56.4,7.1,1
-2.8,-7.8,-25.92,10.4,80.1,89.47,-11.6,5.8,-0.3,1.3,6.3,1.6,176.6,7.8,2
0.7,-2.8,-23.52,28.7,48.3,103.81,13.9,9.0,-1.1,0.5,3.6,5.3,144.6,8.1,2
-4.8,1.4,1.39,10.7,54.1,101.13,-65.3,5.3,1.8,1.6,5.9,4.8,73.4,9.8,1
2.7,3.9,13.57,6.8,22.3,117.28,-36.8,18.3,2.2,-2.6,-8.9,3.9,95.0,6.3,2
4.9,3.3,8.69,-2.0,21.0,114.88,53.8,7.9,0.2,-0.5,-3.1,-0.5,306.5,5.8,1
5.4,5.1,-17.19,9.7,40.4,82.36,-15.9,8.7,2.0,-0.2,-1.3,4.6,193.6,8.0,2
2.2,4.8,3.92,1.7,74.0,113.27,3.7,4.7,1.3,-0.3,-1.2,3.9,121.0,5.5,1
-0.6,-2.9,-3.68,2.2,95.6,100.0,-12.9,2.3,0.9,0.4,0.3,4.6,142.8,10.3,3
4.1,0.3,-4.61,-3.8,82.6,100.0,-31.2,-0.1,1.4,0.4,-4.3,-5.0,87.4,9.6,2
5.6,10.3,-19.51,5.6,37.6,78.78,-15.5,4.1,1.4,0.4,-1.4,2.4,190.5,8.1,2
-2.4,0.5,-4.48,5.2,44.5,95.34,-45.9,3.8,1.5,1.0,2.9,2.9,70.7,7.0,1
1.8,0.1,-12.48,5.9,63.4,96.09,43.0,2.4,6.0,-1.0,-1.6,7.4,143.6,6.0,1
-1.9,-1.0,21.09,1.2,39.2,98.15,-57.1,6.7,1.6,-0.1,0.1,-2.3,62.1,6.9,2
0.1,-1.8,-7.32,-7.3,132.9,97.89,-123.8,-2.9,-0.4,2.2,4.5,-6.8,190.1,15.4,3
-2.1,-6.2,-25.74,7.2,126.5,118.47,-23.0,2.0,1.2,2.2,10.0,-0.9,124.2,9.2,2
-0.3,4.8,20.52,13.0,10.6,93.21,-46.7,14.7,0.5,-3.8,-7.4,5.6,115.4,8.7,1
2.2,-3.1,0.83,4.2,134.1,98.04,-7.7,1.2,1.5,-1.2,-8.0,1.3,108.8,11.6,3
2.6,4.1,4.61,-2.3,97.6,114.86,-80.2,0.7,-0.6,-5.0,-14.0,0.4,134.4,17.4,2
6.4,-9.0,-16.75,3.2,81.1,92.35,28.7,2.5,0.9,-1.1,-3.2,1.4,101.9,6.1,1
5.1,-1.5,33.28,5.2,20.1,105.68,54.6,1.2,0.1,0.4,3.4,-9.6,309.0,6.3,1
9.5,0.7,-11.35,8.0,67.8,96.7,48.0,3.7,0.9,1.3,2.7,4.3,267.2,6.8,2
-5.9,-4.0,-17.3,-3.5,129.0,96.67,-119.3,-6.2,0.0,3.5,17.6,-4.3,210.6,13.2,4
-1.5,-3.0,-0.36,-13.0,176.2,96.81,-140.7,-1.0,0.9,-3.9,-8.8,-1.0,118.0,23.3,4
2.3,0.9,-2.83,-2.8,82.9,107.03,4.1,5.4,0.7,0.6,1.5,3.4,123.5,5.8,1
0.1,6.9,-1.46,-2.6,99.8,103.87,38.1,3.7,1.0,-1.5,-6.3,3.7,185.1,7.0,1
1.3,1.2,1.88,9.4,53.5,94.8,-63.5,2.4,1.6,0.1,-3.7,5.0,79.0,13.8,1
0.5,-1.8,5.22,-0.4,131.5,106.07,-110.5,-0.5,0.7,-3.1,-10.1,-1.8,169.3,12.6,3
0.9,-0.4,-5.01,2.4,104.9,101.19,54.5,-0.9,0.1,0.1,-3.6,23.8,194.9,8.3,1
0.9,4.2,6.46,7.3,42.6,100.0,-43.6,11.8,2.3,-2.7,-10.4,2.6,55.3,10.5,1
2.8,0.1,23.24,3.9,77.8,105.0,-65.6,-3.9,0.3,-5.5,-18.1,1.5,97.9,13.5,3
-0.8,-1.2,-0.62,0.0,68.4,94.11,27.0,9.5,5.9,-0.6,-0.5,2.3,152.9,6.2,1
8.3,-2.0,5.78,4.0,65.3,111.65,56.3,4.9,0.5,-0.6,-0.9,4.5,100.0,4.2,2
-0.5,2.7,21.45,4.1,37.8,100.0,-54.7,0.6,1.3,0.0,-0.9,0.2,58.0,6.9,1
1.1,0.9,1.08,1.4,101.7,102.86,56.8,0.9,0.3,-0.8,-3.9,0.4,185.4,7.8,1
1.5,-4.7,9.44,9.3,29.3,106.56,-47.9,8.6,0.3,-2.9,-11.2,3.0,104.5,9.4,3
0.6,4.9,8.63,-3.0,37.2,120.83,-49.1,15.1,2.0,-1.4,-4.1,-0.2,70.5,8.6,1
0.5,-0.6,-13.33,2.5,107.0,99.19,44.8,4.3,1.0,0.8,4.5,-2.0,162.2,8.2,2
-3.5,-2.5,-8.31,3.4,69.9,128.08,-93.8,-1.4,1.2,6.9,21.7,-4.2,198.2,19.7,2
-1.0,-5.6,-13.98,6.3,175.9,100.0,-135.4,-9.7,0.3,3.7,-5.5,-3.0,128.0,26.3,4
-2.1,-5.3,-17.51,0.7,86.3,106.96,-88.9,-5.0,1.2,6.7,15.2,-11.2,188.5,22.0,3
-5.0,-2.0,12.3,4.8,37.0,104.27,-67.6,6.8,1.7,0.8,1.8,0.3,72.1,7.0,4
-3.4,-4.3,-0.26,7.4,56.0,96.32,-68.9,3.1,1.7,1.4,3.6,3.3,75.4,10.0,1
5.7,-2.5,23.98,6.5,50.3,109.26,64.0,1.5,4.4,-0.9,-1.1,5.5,132.1,4.7,1
8.1,-2.1,2.13,5.2,69.2,106.77,51.4,4.9,0.3,-0.6,-0.7,3.7,98.2,4.6,2
-1.2,-3.8,-10.57,1.9,119.9,78.19,-133.4,-0.7,0.2,1.1,-1.4,-1.4,267.5,14.9,2
1.2,1.7,19.36,16.7,40.6,95.53,-46.8,8.7,2.3,-3.2,-13.3,0.2,54.2,12.0,1
0.4,-3.6,6.93,10.9,9.8,76.91,-50.7,0.1,0.8,1.8,-6.5,7.6,117.2,13.0,1
-3.2,1.9,11.12,4.3,15.2,102.38,-82.8,17.9,-1.9,3.4,12.3,3.5,129.1,9.5,2
-2.8,6.0,-21.25,-3.6,83.2,88.06,-28.1,3.0,0.4,0.8,2.1,1.5,176.1,7.9,2
2.3,2.3,77.37,5.1,63.5,127.42,-165.0,-2.8,0.8,-3.2,-6.4,-7.8,223.2,7.0,2
1.2,5.3,8.56,23.0,34.7,116.3,-25.0,5.9,2.4,-1.7,-8.0,4.2,67.3,4.0,1
0.1,-4.2,-4.32,6.2,80.8,99.03,-104.2,3.8,1.2,1.6,6.5,-4.3,114.8,10.7,2
7.9,-2.1,1.07,4.7,35.8,108.5,55.4,1.6,1.3,-0.5,-1.8,1.4,202.7,6.0,1
-4.5,-10.8,-1.18,-1.7,86.2,108.74,-10.0,5.1,0.9,-1.1,-4.9,7.2,167.7,4.8,1
-5.6,-5.0,17.63,10.4,70.2,95.07,6.3,11.1,2.7,1.3,1.6,6.8,168.3,6.7,1
5.7,0.8,8.2,10.3,23.7,91.43,58.9,7.6,1.7,0.5,1.3,27.8,313.3,5.3,1
-0.5,-3.0,2.4,4.6,98.3,103.04,-16.6,1.6,0.5,-0.3,-2.1,6.8,145.3,9.9,2
-7.4,-5.0,-26.26,-2.1,159.6,120.06,-115.9,-2.3,0.1,10.6,29.6,-4.7,132.6,18.4,4
0.7,-3.1,0.87,-1.4,131.2,100.0,-118.9,0.2,0.0,-0.5,-5.9,-1.4,179.3,14.4,3
-2.9,-3.2,-10.3,1.1,51.8,93.79,-60.6,-0.3,1.0,2.9,6.7,1.9,71.1,14.0,1
1.0,3.1,8.95,0.5,122.0,124.17,-106.1,5.1,1.7,-4.1,-11.7,1.0,155.4,9.1,2
-4.3,3.4,-2.78,0.6,43.5,99.71,-63.9,5.4,-0.1,2.6,14.4,2.9,69.5,13.3,1
8.5,4.9,24.47,2.3,45.6,114.74,63.2,4.1,5.9,-0.9,-2.5,7.5,129.0,4.1,1
1.8,0.0,9.47,3.5,80.8,102.02,-72.4,-5.6,1.9,-4.4,-18.7,-0.2,104.2,15.5,3
1.7,0.7,-18.42,-3.2,81.3,95.34,1.3,6.4,1.1,0.1,0.2,1.0,127.1,5.0,1
-2.2,3.6,6.85,-4.9,181.2,98.21,-143.6,1.4,0.4,-4.6,-9.9,-0.8,115.5,21.5,4
-2.4,2.5,3.2,8.9,49.4,117.31,-68.1,11.3,1.5,-3.6,-11.6,2.0,91.0,8.1,1
1.9,-0.8,24.41,-0.2,6.1,74.59,-54.0,-2.2,0.5,5.4,10.4,-0.8,118.9,14.2,1
-2.6,-0.8,-12.04,-3.4,104.0,100.54,-162.5,-0.7,0.0,4.8,22.3,-12.0,341.2,11.9,4
1.9,-3.2,-3.29,-2.0,99.3,100.0,-88.9,-1.1,0.0,0.4,-4.6,-2.5,155.8,24.2,2
-10.3,1.8,-17.17,-4.0,172.1,136.51,-88.8,6.8,0.6,5.1,22.8,-6.5,130.2,13.4,4
-2.9,-7.6,12.18,8.6,67.8,95.49,19.6,8.7,4.5,0.9,-0.7,0.1,162.3,6.5,2
6.9,-2.5,-17.81,1.8,44.0,90.99,37.2,1.5,-1.4,0.4,-0.8,-3.0,216.1,7.7,1
2.6,-2.6,9.87,3.2,98.6,109.18,-85.5,-0.5,-0.3,-5.2,-14.6,0.6,139.6,19.6,2
3.1,0.0,10.82,-7.6,72.9,123.6,-55.1,9.1,4.2,-2.0,-9.7,0.7,70.8,5.4,1
2.1,7.7,0.75,6.9,8.4,108.14,-27.7,14.3,2.4,-1.1,-1.3,3.7,101.5,6.0,1
-2.9,0.4,11.98,11.4,41.6,102.42,-67.1,16.0,1.8,-4.2,-11.4,-4.4,82.2,12.6,1
2.7,-5.2,-2.11,19.5,75.5,113.12,-59.6,5.4,5.4,-2.5,-13.7,-3.1,77.5,6.5,1
1.9,-3.8,-22.85,-1.3,77.4,85.69,-82.2,7.5,2.8,-0.6,0.2,-0.8,95.8,10.7,2
0.4,-1.5,-7.75,5.4,103.5,100.17,51.4,5.1,-0.4,0.2,0.7,22.2,180.5,7.8,2
-0.7,-4.4,-15.44,6.9,87.8,108.38,-8.7,5.4,0.4,1.0,3.7,6.4,135.3,9.2,2
-3.3,-6.4,18.62,-1.7,93.9,103.15,-126.5,-4.1,-0.4,-3.2,-11.3,6.7,304.0,13.0,3
-0.8,-2.2,-14.22,0.5,93.4,103.54,-16.6,4.6,0.9,0.6,1.6,2.1,137.4,9.8,2
-0.1,-4.5,-20.85,-0.7,53.6,113.31,-44.0,0.1,-1.4,2.5,7.0,-2.8,112.2,8.1,3
7.0,-2.4,-8.35,10.3,61.7,114.09,20.1,5.3,0.3,0.4,1.4,8.2,247.2,4.8,1
-0.6,0.1,-20.41,-2.7,132.5,109.54,-23.3,2.9,1.4,2.9,12.1,-2.9,121.2,10.4,3
6.5,-7.8,-17.73,2.5,44.9,88.28,36.1,-0.2,-1.5,1.5,2.3,7.9,224.0,7.8,2
-3.1,-1.7,-20.1,11.6,109.2,99.45,-163.8,-6.5,0.8,6.1,13.6,-0.7,352.8,14.6,4
-4.9,0.2,1.09,11.7,86.8,105.5,0.3,3.7,0.9,-1.4,-7.7,8.8,166.4,5.4,1
0.7,-3.7,2.44,16.3,36.8,106.62,-26.9,2.7,2.1,-1.3,-8.5,4.3,68.7,5.1,1
2.4,4.2,22.94,4.5,74.7,109.84,-57.9,-2.1,-0.6,-6.8,-18.6,2.3,94.0,10.9,3
-2.0,-6.2,-4.75,9.8,107.5,100.0,-154.5,-10.8,0.4,3.2,5.1,4.4,347.8,15.7,3
5.5,-2.5,-13.78,1.6,46.1,92.87,27.8,3.6,-1.5,1.3,6.9,4.4,221.0,7.3,2
9.9,3.2,1.68,-3.3,52.4,118.9,70.7,3.0,0.7,-1.6,-4.1,4.5,241.6,4.9,2
-0.8,-1.3,-14.53,5.6,94.9,101.78,-15.6,4.4,1.1,0.6,1.5,3.2,141.5,10.1,3
2.0,-3.4,-4.02,3.3,134.8,100.19,-11.9,1.5,1.5,-0.2,-2.2,0.1,111.7,12.1,3
0.3,-0.9,-0.15,1.1,17.1,97.38,-73.5,15.3,1.7,2.7,6.5,2.6,130.6,12.2,2
1.3,-1.0,-11.49,0.0,100.7,96.46,-95.9,-3.6,0.3,4.0,7.0,-6.6,168.1,25.1,2
0.9,5.8,7.29,8.6,10.0,100.0,-39.9,15.3,1.9,-3.1,-7.8,2.7,112.8,7.4,1
1.5,-2.4,-9.7,1.4,135.3,100.0,-19.3,2.0,0.5,1.3,5.0,-1.4,115.1,12.3,3
-1.4,-3.1,-9.77,11.4,44.9,94.54,-41.4,4.2,2.7,0.0,0.7,4.4,73.7,6.9,1
0.0,-8.2,-2.16,8.1,40.0,100.0,-32.9,0.1,2.4,-0.6,-6.9,0.3,68.1,6.1,1
-0.6,-10.0,-6.24,5.2,42.2,96.29,-36.6,4.0,3.0,0.0,-2.2,1.7,71.5,6.7,1
-1.2,-1.6,7.31,8.6,52.0,107.04,-66.8,4.1,2.0,-4.2,-11.5,9.2,88.5,11.5,1
2.4,-1.8,-12.5,1.5,82.4,88.31,-1.9,5.8,0.7,0.2,0.4,3.0,129.4,4.9,1
0.8,-0.8,-23.17,-5.8,78.6,89.71,-92.2,7.7,2.5,0.8,1.8,-6.0,102.2,11.1,2
-0.9,-1.1,-5.63,-1.2,46.5,123.79,-39.8,7.7,-1.5,1.7,5.3,0.5,112.9,7.1,2
-1.2,-2.6,-4.91,-4.0,61.3,101.04,0.1,-3.6,1.3,0.2,-0.4,7.0,146.0,8.9,1
0.9,0.2,-15.53,0.5,135.4,104.16,-21.0,2.6,1.8,3.4,13.5,-0.3,118.9,11.9,3
-1.6,-5.6,38.33,8.2,35.1,108.6,-47.4,15.4,1.6,-0.8,-5.7,1.7,50.9,5.9,1
1.2,11.0,11.47,7.4,32.6,123.49,-24.8,13.7,2.6,-1.7,-5.9,5.3,70.7,3.0,1
2.3,-3.3,20.41,7.1,25.3,112.23,-43.3,13.5,2.3,-3.5,-10.9,4.1,99.0,7.7,2
8.3,-1.7,-2.87,5.2,37.2,105.09,52.6,1.3,0.9,-0.6,-2.6,3.1,209.0,6.4,1
6.1,-2.4,-5.55,15.1,22.0,88.54,58.4,5.9,0.7,0.4,1.6,25.9,303.7,4.8,1
-1.7,2.7,-27.3,9.4,59.8,100.46,-3.1,7.6,0.5,0.2,0.4,1.7,148.8,8.2,2
-2.1,-12.2,-18.34,-1.8,119.9,78.23,-137.8,-9.9,-1.9,5.7,6.3,-0.5,279.1,15.2,4
8.4,-1.8,1.52,-0.1,56.9,110.77,59.4,-0.1,0.7,-1.0,-3.8,3.7,249.1,5.9,2
-4.6,1.8,16.57,0.3,100.6,103.32,-121.3,-0.4,1.1,-4.1,-12.6,8.4,282.6,10.8,3
5.0,-1.0,21.39,0.4,22.3,109.59,51.8,4.0,-0.6,0.5,-7.2,27.4,322.9,6.2,1
2.1,-2.4,26.53,-6.2,43.9,92.26,-74.7,-20.6,-1.4,6.9,17.4,-2.4,115.2,17.7,1
-2.6,-0.5,7.39,4.3,39.8,98.89,-45.2,3.4,0.8,0.5,8.2,2.1,68.3,6.9,1
2.1,-6.8,-16.82,8.7,76.8,88.33,-80.4,6.2,4.6,-1.5,-5.6,-0.2,91.7,9.6,2
7.0,-0.4,-9.51,4.6,75.7,96.0,40.8,7.4,0.4,-0.6,-0.8,-0.3,98.4,5.2,2
2.0,-4.7,-21.72,0.4,81.9,92.57,-3.2,3.8,0.8,0.0,-1.3,1.2,128.2,4.8,1
-1.1,-4.0,-9.78,-10.2,178.5,98.32,-137.6,-3.3,0.7,-1.5,-11.0,-2.1,125.1,25.0,4
0.0,5.3,-1.35,15.8,39.7,104.41,-42.9,15.0,3.1,-2.1,-7.4,4.3,56.5,9.2,1
-0.7,2.1,-4.08,1.4,54.7,93.4,-62.2,2.6,1.2,0.8,0.1,5.0,75.2,13.9,1
-4.5,-4.4,-26.64,-17.4,177.4,109.02,-130.4,-10.0,-0.3,12.8,25.3,-4.0,132.3,23.3,4
7.5,2.6,-1.5,-4.1,33.9,112.3,64.4,1.6,1.3,-0.6,-1.7,3.5,198.3,5.6,1
-4.3,10.1,-9.19,4.8,86.2,94.4,-22.8,4.0,1.2,-0.5,-4.3,6.0,163.6,7.2,2
-0.3,-3.6,-14.64,19.5,104.4,90.24,-164.7,-3.7,0.6,-2.2,-6.2,2.6,278.4,13.7,2
2.3,-7.2,-9.31,0.4,76.2,100.0,-67.9,1.0,4.9,-1.9,-10.9,-2.5,84.2,8.2,1
3.2,1.2,-12.73,-0.1,80.3,98.6,-38.4,0.1,0.6,1.7,4.5,-4.7,97.9,9.6,2
7.9,5.3,3.49,2.0,61.9,117.37,62.5,5.6,1.0,-0.6,-1.0,6.5,102.1,3.8,2
-0.5,1.7,26.02,2.0,37.2,92.5,-53.6,-7.8,3.0,6.7,19.3,-1.8,68.8,15.7,1
0.9,-4.3,13.16,9.5,26.0,100.0,-61.8,14.5,2.2,-1.2,-6.5,-3.5,109.3,11.2,3
-0.5,0.1,25.75,2.8,48.8,109.28,-55.6,7.8,2.0,-2.0,-9.1,3.3,75.8,5.0,1
7.6,-2.3,-2.96,6.7,61.9,104.44,61.4,-0.3,0.3,0.0,-2.4,3.9,259.3,6.8,2
5.0,-2.0,17.79,5.3,74.1,110.33,-24.2,3.7,3.3,-2.2,-9.0,0.9,76.3,7.9,1
0.8,0.1,-5.77,2.0,84.3,100.0,-78.4,-6.1,3.0,0.0,0.2,-1.6,111.9,16.9,3
-2.7,-3.2,-19.21,5.1,119.7,124.71,-18.2,4.9,-0.8,1.3,8.0,3.1,121.8,8.2,2
-0.1,-4.3,-15.53,-5.1,104.8,100.38,40.8,4.9,0.0,-0.1,-2.1,14.7,191.0,7.7,2
5.7,2.0,19.55,4.1,70.4,118.37,-18.9,6.1,3.2,-2.5,-7.5,1.3,72.8,6.6,1
-1.4,2.1,-23.06,1.4,63.6,100.0,4.8,3.3,0.6,0.7,3.4,6.9,152.1,8.8,2
1.3,-0.6,-18.21,-10.1,70.0,105.12,-39.3,0.1,-1.0,2.0,6.9,-3.7,107.2,9.1,3
2.0,1.3,-9.15,-0.1,84.9,100.0,2.2,6.4,0.4,0.5,1.2,2.1,124.0,5.6,1
-1.7,-8.6,7.91,5.6,42.4,92.02,-67.5,-6.5,0.9,3.3,-4.8,-5.4,96.8,16.9,1
4.0,-9.2,-7.55,9.1,42.2,107.3,-1.9,3.1,1.0,-0.1,-4.6,8.4,192.5,7.5,2
2.3,-6.4,37.84,9.6,76.7,100.0,-198.4,-18.6,1.0,-3.9,-10.6,-2.3,305.1,11.9,2
-3.5,0.5,14.14,0.8,37.6,101.35,-63.2,-4.7,0.0,0.8,1.6,-1.4,66.8,7.0,4
-1.0,-5.1,17.73,9.1,54.3,102.29,-61.6,2.5,1.8,-2.2,-9.6,5.1,81.6,7.6,1
0.5,1.7,8.2,6.2,39.3,113.33,-56.2,15.2,2.4,-1.3,-2.6,2.4,76.9,9.4,1
5.4,0.5,16.34,37.8,22.7,94.98,59.3,7.1,2.9,0.2,5.8,28.7,324.9,5.6,1
2.3,-4.3,2.9,2.4,99.2,104.45,-85.5,-1.2,-0.1,-3.5,-11.1,-0.4,147.4,22.1,2
-1.9,-5.6,-19.39,-8.5,178.9,103.46,-131.9,-10.4,0.1,10.7,7.7,-3.0,130.8,26.2,4
-3.3,3.4,-11.62,-7.7,84.2,88.71,-17.8,3.9,1.0,0.2,0.8,6.6,170.2,7.8,2
-0.6,4.8,10.22,4.7,40.9,107.36,-59.0,16.7,2.3,-1.7,-5.9,2.3,80.5,10.1,1
-8.8,-3.0,-9.92,-4.9,114.4,105.91,-104.1,-0.5,-0.3,2.6,13.6,-0.8,204.6,11.2,4
5.9,-4.9,-9.35,3.1,79.8,90.5,23.3,5.6,1.4,-1.1,-2.1,2.0,102.4,6.9,1
0.4,-7.1,58.59,1.5,73.8,107.17,-171.7,-17.7,0.9,-3.8,-9.9,-15.7,284.4,10.1,2
-0.7,-2.6,24.74,7.0,37.3,105.17,-49.1,9.5,0.7,-0.2,-3.1,0.6,53.7,6.5,1
-0.7,-8.3,-32.36,-1.3,53.6,103.4,10.6,5.8,0.2,0.2,-2.5,7.1,147.7,8.0,2
0.3,-1.2,4.06,10.4,51.9,100.0,-63.9,2.7,1.5,-1.8,-7.5,5.1,80.6,13.0,1
8.2,-0.9,-6.74,4.0,64.6,100.0,48.9,-0.4,0.6,1.1,-0.4,0.0,262.8,7.2,2
-1.4,0.4,-15.78,3.9,63.2,100.19,5.2,0.4,0.7,0.6,0.2,1.3,148.0,9.0,1
0.9,-0.8,14.27,1.4,126.1,114.08,-110.4,2.8,1.5,-3.9,-10.9,2.3,162.4,10.9,2
0.2,-6.3,71.33,4.3,67.7,117.61,-167.2,-15.4,0.9,-3.6,-9.0,0.2,250.5,8.4,2
4.1,-2.9,22.52,3.9,55.5,104.82,35.4,-1.5,4.3,-1.1,-2.0,15.2,136.1,5.3,1
-2.0,2.5,13.52,13.2,37.3,100.0,-64.1,17.2,1.3,-3.3,-12.2,-0.5,80.4,10.9,1
-0.2,-0.3,-10.28,-10.3,95.8,96.28,-92.8,-5.1,0.8,5.7,14.0,-10.0,178.2,24.1,2
1.0,-1.7,-13.57,2.7,105.2,100.0,45.2,0.5,0.7,1.0,2.3,12.1,176.1,8.5,1
6.6,0.1,-3.82,10.9,19.0,86.69,28.9,8.8,1.1,-0.2,-1.1,21.4,284.3,4.8,1
0.38581743958407566,1.4348924899917321,17.35318540311473,3.9827342742762655,30.802105493701987,107.6560190476616,-47.01258825574854,12.464235282429406,1.8981501008153143,-1.3422920867304757,-4.372251512229713,0.7808843750915799,78.44856386137306,6.6018498991846855,2
4.031157752046589,0.28072417057304483,-4.624043818582496,-3.764202031064226,82.10295896977637,100.32755141576233,-31.318408666479865,0.007393906807321479,1.3600714961870215,0.4178989844678869,-4.167822883929451,-4.9242735272512475,87.7510954645624,9.565578876023293,2
1.3458718107719703,-2.7775012297084603,20.564477897303586,5.759677067513007,28.457709959588,109.03139883230223,-46.43499262174924,11.955221026964143,2.1409786351286617,-2.727610513482072,-8.401092837736115,2.646090378319194,90.6173023374966,7.518261297289899,2
-2.62958471438167,-3.5520764280916506,-19.97635302514616,5.346453499664155,120.49803990367441,123.97768102956937,-18.76332228494664,4.5596594528447385,-0.5652823812722332,1.405622928427495,8.234717618727768,2.6305647625444664,122.08166114247332,8.317358809363883,2
0.46351140160986276,-0.9283973855112351,-11.293936209830342,3.5581693533139798,105.7228990563452,99.54758826422335,47.208247493749056,4.591908787121097,0.4891596225380789,0.5810684096591766,3.1134332611747855,6.830240810413208,168.8774135053951,8.05404560643945,2
-0.5460983435192301,-1.5769057323497595,-10.26695984741851,1.3076529933261214,88.8542022957516,108.62117283793293,-95.09233197471033,-2.7538715925536863,0.6461434394098556,5.115351082542868,12.653676177027643,-5.676950828240384,179.67657502915182,23.023139363540867,2
-1.0793900133712375,-4.048758097421822,-5.356633327971743,1.8698475033428092,116.42492476025879,80.37454838281346,-136.287101554926,-1.9814811079306012,0.2527668691500836,0.730631915949415,-2.0407405539653007,-2.4779517554945647,268.7739429837663,14.538170040113712,2
-1.1714679669891401,-0.017884831210267293,14.546375015758343,5.332707216805528,18.925122460619942,106.01291645911945,-68.231451762922,16.27717437359131,-0.3509391747917072,0.8551143585863756,3.743283060754191,3.721294403601185,117.99839741934056,8.836116789196446,2
-4.045932387533583,9.224135335971033,-8.415093781977426,4.786628020396504,87.00900476601149,94.97766951887102,-22.385468632291634,3.839536244758052,1.1531980713877652,-0.4866280203965043,-4.152908224361548,6.053487918413983,162.37646386628015,7.380521724647192,2
1.8467915861945505,-1.7201982598766725,5.009162233479207,1.737618472130497,107.14857833443403,111.3248230155719,-92.6816102495325,0.9963176976725618,0.5275193421921607,-3.7091731140640536,-11.309173114064054,0.08807059948279172,150.1889748541874,17.567915861945508,2
-1.470070720185845,-5.69342762691446,-2.0001320248237064,16.5837718122957,60.05454973433999,98.7947254466816,17.335945306960923,8.819160773317845,2.275665564733537,0.7411189689095383,1.007971084222463,2.165453404176002,155.26951437424708,7.135524124361846,2
0.00563492852962727,-3.7084444002340873,-13.886320512079,-2.8816665008778273,104.52534918582296,100.33563333001756,43.0394604848281,4.942253971411851,-0.08450794282370178,-0.036619042882223674,-1.5084444002340873,16.284523927944406,188.78166650087783,7.721126985705926,2
-0.7316836122168872,-3.7029605312284835,-15.053459930953977,4.872248818119225,89.57428228414568,106.84651316870266,-11.203005365134082,5.146531102264903,0.5584180610844356,0.8732655511324515,3.0346441434453704,5.037604674673854,135.96535585655465,9.390101673301322,2
-2.788345284191242,4.787613427300651,-11.362463777290872,2.9428242062920975,89.30968970109231,98.34757831499773,-20.12221164628163,4.259140808424358,1.0704295957878207,-0.024908517888676207,-1.7517820504938082,4.3155847452416705,152.28418469880302,8.32294350317222,2
7.977516562254083,-1.8030210120275418,-8.178289988722128,3.803691084341839,62.02180957435614,98.46617300565757,47.22483058638369,-0.3738254779122452,0.32516751807857425,1.1523490441755098,-0.04664395181530967,1.0338936224663158,257.7221427149756,7.278523566263265,2
6.76490292929747,-2.1946786032730246,-7.106546614396105,0.858505179377345,50.810672978073335,100.67750428773266,41.58308019510347,1.9861583315859863,-0.5404184674295053,0.2968011250399376,2.2329443643162312,4.0946786032730245,233.25647321146857,6.689357206546049,2
-2.507516747280557,1.3460133978244455,8.890203926243393,3.666872454656509,15.575919480047698,101.3907382104008,-80.95997307134547,17.385583869408414,-1.1877315114885725,3.2615033494561114,11.152456324064923,3.3219328778721433,129.39677853687976,10.03420136638357,2
-0.38243943174756756,-0.3811658774271772,-2.86967696932036,-0.04986540388348337,43.020842846747534,122.8540779724102,-39.368699526456304,9.223928339854385,-0.968062749296111,1.0818026545873725,3.2585110918931828,0.9888072033495195,110.3265738411893,6.984986540388348,2
2.581704388447334,1.770678992052015,15.592854957550585,6.888721708664499,23.187217086644996,115.7865179041476,-38.722303687730815,16.88045266136801,2.2295739028881667,-2.866165125993498,-9.491478057763329,3.9591478057763325,96.18295611552666,6.71403464043433,2
7.915955700646445,-1.5273300931033162,1.2630482022185632,4.177251215086256,68.37235439482845,107.02669747316682,51.72101027693837,5.638546729526069,0.47045813081895727,-0.6,-0.8704581308189573,3.0819902793099483,99.52733009310332,4.4954186918104275,2
-0.4969128951066797,-3.6437584211348177,-13.74951612990646,15.64925894013604,107.79127763794838,87.60355512662723,-157.85180709240103,-3.0436236829777346,0.5124831577303646,-1.4779860512755079,-5.149797892764375,1.7248315773036458,276.0151660481524,13.962550526808906,2
-0.5919572773238171,-0.9271955458157997,-6.163439836829488,-1.1173543914771216,49.0394741527939,121.89741556482609,-39.69481468006179,7.128993977478294,-1.3422220200926867,1.7,5.2398941028924515,0.10931166880093812,111.77301442923348,7.287830928461087,2
-1.815718489191647,-3.7305689064850123,-17.543129352126254,5.895853359727518,105.59570990260677,117.48984146424979,-13.999662823660321,5.121070377702089,-0.26943109351498795,1.167357773378747,6.098794751762041,4.559064492833783,127.76890019795638,8.642140755404176,2
-2.646084685122923,-7.300742664609158,9.667145223127216,7.357628637922874,71.15530951801851,95.9334449606246,21.522501669783583,8.355400644095395,4.091921815376127,0.8093159589724725,-0.8269576574385384,1.423986999001901,164.90263197749005,6.608820849233033,2
0.9598092227798519,-0.9435421346716446,13.2197500479858,1.1966486425485034,124.49711282949997,113.23788614325969,-109.11410171023319,2.5667440311585774,1.4102861658302221,-3.6428203420466367,-10.523201896486933,2.0129157306567107,162.00525912965298,11.69546266297203,2
0.3174756615687815,-2.681553413912195,-6.310096896497173,1.850485462259512,112.94465893537173,100.0,-15.696116301923906,2.1689320483473167,0.7252427311297559,0.7932038549580491,2.3533979092253676,1.9786409669463385,130.6980591307356,11.173786344351221,3
-0.7224297994131516,-1.920561604694788,-10.321816618163469,4.281306590023576,95.17149570205397,101.08962521477704,-14.552802292077546,3.585512893838091,1.0224297994131515,0.5224297994131515,1.034578796478909,3.7429914041079395,142.00420630381453,10.177570200586848,3
-0.7836396150761147,-1.4308830793910832,-13.642449117879217,5.3218734562939485,94.9572613472336,101.63439257417743,-15.379134803527547,4.228215958299204,1.0836396150761147,0.5836396150761146,1.4018376904566876,3.3145226944671977,141.60634250200525,10.116360384923885,3
-0.7251473339925071,-1.8988213280599435,-10.469242869093508,4.32750467787262,95.16198433102623,101.11381127253331,-14.589489008898845,3.614047006921324,1.025147333992507,0.525147333992507,1.0508840039550422,3.7239686620524504,141.98654232904872,10.174852666007492,3
-1.4531946431799012,-4.270991477786207,-14.51411518818327,-1.6520194793458138,100.00051346718936,104.29339791529168,-99.16068497864612,-4.382594886671724,0.7295961041308373,5.376989042867979,12.054173946374974,-9.9063892863598,188.97040389586917,20.059583929539706,3
0.18990022959395636,-1.9947838307869055,-6.0928618660424965,-6.415981075659429,132.64528268281714,98.20614914073875,-123.06581479164936,-2.4355154804312256,-0.3400665136040291,1.7954489668271967,2.9417293537047566,-5.990897933654392,188.4817958673088,15.250166284010072,3
-1.4397648637554634,-4.411221931978508,-11.738021289677572,0.4206697500503883,97.77793390702041,106.73399643413167,-94.38503036264693,-3.857285341115225,1.0730317045683582,4.211421409539824,8.77540425115893,-8.812996045885136,183.62441745542498,19.612996045885136,3
0.6662013984867076,-2.8803090901635993,1.6051195829141105,-1.2310069924335378,131.25069790226993,101.02578755592842,-117.48045873644172,0.08170489470347642,0.11829510529652354,-0.9393818196728017,-6.609770631779142,-1.467597203026585,177.6100699243354,14.095812586380369,3
-1.1476869992725458,-4.018040191328427,-9.184586728255756,0.2970983458460771,102.85559524341573,106.63401593436636,-96.81152339065886,-3.351765960279406,1.0168628844754894,3.1105125357195953,5.933261954459768,-7.757022228139203,181.4675347638588,18.557022228139203,3
0.32467604755102897,-1.8,-0.27640590927524133,-3.4243381797447494,132.1136338335714,102.48462517241853,-116.32952141892828,-1.551943714693826,0.21785913076532964,-0.7769576300511338,-3.700675735612558,-3.9915494056121377,178.41684552734648,13.827267667142797,3
2.494854450650989,0.1,18.8138638066926,3.6101117281184396,78.79172303538428,104.23713612662748,-67.55293151583366,-4.2356601042839115,0.7119464916211644,-4.660849739290221,-15.307918223456554,1.0270243985090333,100.03601884544308,14.018747433893317,3
2.23159038475281,0.04315903847528099,15.412999598046191,3.672636153901124,79.50522884574157,103.30613934656337,-69.46518538368089,-4.866296345920223,1.209455384395504,-4.874749423228091,-18.441045769148314,0.5337036540797768,101.4809805760573,14.63681923049438,3
1.9754018498265544,0.0011960705070386268,16.57102774739832,6.76452346759171,53.281382202361755,108.292575630479,-53.182242775850604,2.9480002298398524,-0.17540184982655443,-4.960074682581736,-15.108859654129448,2.6302430056904575,98.95364508535687,10.192336416377591,3
2.3562858873782337,3.76771599740698,22.28428831067351,4.733141933982752,72.49486587441314,109.6806863451118,-57.414287637535935,-1.5802877721634463,-0.5562858873782337,-6.610572178639013,-18.24057285177659,2.3339998653724847,94.50999798058727,10.82714314563039,3
0.7314253143839742,-4.603928164297997,-5.110079517068387,4.49640821489984,40.97272803779339,109.80242445494261,-46.02659920381094,4.516946982664863,-0.5166106034670273,-0.3060604360459127,-2.457462951117707,0.2139167646419069,108.19876567452712,8.77553306793698,3
0.6959046985879194,-4.59948808732349,-5.782529174857451,4.2744043661744975,41.51219739019598,109.95227705283222,-45.940017702808056,4.328243711248321,-0.5543512577503356,-0.18617835773422753,-2.0534159464375836,0.08515453238120818,108.36970863804564,8.746672567602685,3
-0.7041166983965348,-3.4209263247645656,-5.306758674828167,0.10943398778314917,110.56689432018332,106.48217840829727,-100.49656896716725,-2.5840481318401562,0.9315609035377951,1.4385937093407843,1.6169817190124345,-6.1533449865105485,178.19193869585135,16.953344986510547,3
-0.2977554524588517,-2.4327927652754457,-9.162330936616227,-5.853616536513266,124.47481632518978,99.52983725172808,-117.49015214053912,-3.2796756591652674,-0.11072330730265345,3.0135906982112877,6.434537882413506,-7.5955109049177025,189.81072330730265,16.593266357376557,3
-1.9400762133511924,-5.174345596204508,-16.460214571926755,0.5800571600133942,88.8644921501898,106.56247515890153,-90.6134691426658,-4.702998681937928,1.131461234293368,6.288767405760209,13.994860036325056,-10.640266746729173,187.9745361295825,21.565921150524666,3
-0.35950346800617305,-2.957023899239079,-2.2940437799155067,-0.03636391738200384,116.55786278696961,106.36421464866365,-103.35950965041026,-1.98760215616453,0.8652891284627255,0.13966691786942143,-1.7363700997860825,-4.907435615099241,175.64710253296866,15.707435615099241,3
-0.10549676621337167,-2.615091800671846,-0.07343903693459097,-0.1438282912174198,120.97367160275215,106.27726620074226,-105.4697191729966,-1.5479751722923738,0.8164416858102637,-0.8177429581188305,-4.208050698000651,-3.989103693232959,173.77136073511414,14.789103693232958,3
-0.5421462036492715,-2.8215962330783864,-10.294304461448217,-4.9649228958208305,119.29817586815633,100.53739366686312,-113.61322613301837,-3.5129577398470317,0.06701542083583378,3.513480871100783,7.623165626839639,-8.084292407298543,189.63298457916417,17.326438610947815,3
-1.5312281144305502,-4.8531078041954325,-13.776418836869116,0.2734210858229127,95.42066345073866,105.54619559872737,-94.99398448824411,-3.9437093553710225,0.9562406204702358,5.237443722821416,10.91389757660165,-9.209298400506926,186.63117809027182,20.456190596311494,3
-0.8617303195968584,-4.327073822540388,-9.381644026496524,-0.2287022603023563,106.15653880360752,103.88201536585504,-102.16717514717652,-2.7003563078227373,0.6693129941129393,3.515877964677636,5.868753479819183,-6.866056118589004,184.43139962153253,18.638982296048617,3
-0.016155791226766247,-1.9571519528362131,-6.43379963987579,-7.108684579155915,131.56762474769297,98.06969984172142,-123.89224136362125,-2.940996161609447,-0.4,2.0155172727574895,3.9602172054756153,-6.338793181893723,193.99121900609666,15.318007676781107,3
-3.4913039698608963,-5.193313420877423,18.318328355219357,-1.4056862002140056,94.88595122928308,103.17501667298181,-125.73478412055641,-3.55551947039591,-0.17926465016050425,-3.3324412099036977,-11.491303969860898,6.950166729818095,300.85084234228987,12.676254820235407,3
-3.33854110069604,-6.156894595609592,18.5592236489024,-1.6407059989291688,94.0986349035873,103.15503999009103,-126.34583559721584,-3.990306098018962,-0.35552949919687665,-3.2266823004818743,-11.338541100696041,6.750399900910207,303.3655541885421,12.934776598822086,3
-1.2807621250757757,-3.66808993392605,3.2144028013134207,-5.025803558698722,117.0618462123661,100.0261202287937,-124.89648756991312,-3.387327808850274,-0.4,0.0070248601737676886,-1.9164828165286067,-1.3175621504344184,236.3555311900385,14.425344382299453,3
0.08250511798825996,-4.522813139748533,-17.394949985084754,0.44065698742662485,50.8282035205533,112.54005653348703,-44.44485622509638,1.0695584393126312,-1.2060883121374737,1.8840452267896226,4.924004282883542,-2.1384189472925574,111.3216941196815,8.248285408365462,3
0.75572886507571,-0.12627468961303823,-6.511787460731437,1.8671865952271303,82.78986239758255,100.65472089538034,-76.70785884289381,-5.795021070521558,2.783563340370138,0.12297537478969467,0.5344930194279689,-1.6590281798990534,111.91475704497476,16.46712668074027,3
0.19313667298281254,-3.001745893643403,-15.938332190465765,0.17941001894843767,63.59921762285816,108.97483431399863,-55.20433505623195,-1.9193859694371525,0.03311262347152799,1.6857314639366319,4.785189581907639,-2.409151102689583,112.1022877756724,10.966225246943054,3
0.20978990424604352,-4.538723738030756,-14.98528987524209,1.236186901537772,48.89506582926322,112.00307384146201,-44.75511289159973,1.7457588663071062,-1.0708482267385788,1.454459073169603,3.476139839201255,-1.6770115971080921,110.70913608581591,8.35170429719991,3
0.5903102871333116,-1.5023407711409962,-12.906467074571163,0.04686989338456504,133.55296679246408,105.25946108280905,-18.080947202569327,2.2590636915436013,1.4457811648897427,1.4807838884179745,5.553293420766786,-1.5265650533077173,116.85078933547445,11.178279803125626,3
0.7806038566396317,0.19204025710930878,-15.918435453065731,0.24528822749788093,135.16916745616996,104.58823416751919,-21.1830740864859,2.623879228672074,1.768161028437235,3.3602012855465437,13.388563599530324,-0.5069533151579715,119.08307408648591,11.780603856639631,3
1.8725585030911946,0.507909521638362,11.098938394397319,3.6209308384853243,80.06232188523953,102.96567915695523,-70.6465028419628,-5.176742065301365,1.5976729037866892,-4.690234012364778,-18.687906916151466,0.10232709621331049,102.96650544744969,14.943718142967509,3
2.501046302018612,3.164275404309226,23.01578472651396,4.348430546972081,75.48310884064425,108.6173397455748,-59.84514131385828,-2.5547083590837545,-0.3726458204581228,-6.47159951843951,-18.473692122476738,2.0979073959627756,94.98520144468146,11.55680096312098,3
-2.9048228614602998,-3.415929657045231,2.6695474639744603,6.493916467741212,105.0987393292015,101.15538919232623,-142.94610807673772,-7.180708554158801,0.6436061550085423,0.6595358120537731,-1.059755633787427,5.7920351714773854,325.10982670491865,13.994756914940204,3
-1.6165636636813516,-5.396609581046642,-5.2192530401613935,6.677732689976721,112.13775378213984,99.61473777636554,-148.89452594048453,-9.357549020515561,0.253929014735753,3.0174112684196914,4.990446761051815,2.3550062063005424,319.00575702978534,15.645223380525907,3
-4.344669733564579,1.0143684109679363,14.476291815229551,1.2329375119755763,101.27760724554015,102.99396289055169,-124.56037109448306,-1.421321065741683,1.0312572359596945,-3.383111175008242,-10.86179010926656,8.007184205483968,289.00289745061133,11.28119934828214,3
-0.5162908573392253,-3.091276082044091,-6.56577737935152,-2.281631590237737,125.44581534456366,98.5092255757075,-132.8095853906258,-5.2184275109428,-0.16522253053743796,2.4934718368282027,4.676083102096921,-3.5131154275241308,236.38050866780753,15.488041551048461,3
-0.6546683076875719,-0.282678153813003,-18.802751753985387,-0.43126523096576896,122.2223581547365,107.41886966172221,-21.195270154028485,3.310012307656789,1.3179975384686422,2.2713144615929237,9.202579692558691,-1.232616615529058,126.74883323028854,10.317997538468642,3
0.7301493225765032,0.05013175521456148,-15.430087836809706,1.0095520322704905,131.35355739079318,103.9222090516071,-20.46047431877242,2.7798418937425264,1.7300614857667953,3.1202459430671814,12.301054041716492,0.049692571166023214,121.15801488810061,11.720158106257474,3
-0.6441672398461351,-0.20917067892294594,-19.111483148523625,-0.8670595463853923,124.19655890892659,107.82631109396996,-21.599561265923796,3.2312542988460136,1.3337491402307973,2.3920767417694457,9.759136288154837,-1.552899184692877,125.68297484438273,10.333749140230797,3
-0.6801690438791416,-0.4611833071539906,-18.05303010995324,0.6270153209843725,117.4282197507214,106.42944109748932,-20.213491810653053,3.5012678290935613,1.2797464341812876,1.9780559953898722,7.851040674405499,-0.45484416168618313,129.33715795373286,10.279746434181288,3
1.074675146938725,-0.5569256367344746,-13.832739822245388,0.7620127204080873,135.37088747551022,102.94891898122484,-20.50508708367361,2.425324853061275,1.4215371816327629,2.788636985714463,11.025435418368064,-0.6202377693876623,117.79372406938808,12.01645009795915,3
0.6729071033888518,0.1848604735592568,-16.268808890308268,0.01553515389621718,134.96095373321845,104.97450652251199,-21.348209108137095,2.6454185793222296,1.739441894237027,3.324302367796284,13.288046629829594,-0.6936276874593235,119.2482091081371,11.672907103388852,3
-3.728545886211469,-0.8813972731954791,9.424076266934048,3.4841592619196313,102.9127051481311,102.20722013162387,-132.42779868376124,-3.885816455154123,0.8653777385953956,-1.653224988209125,-6.667408533055002,7.059301363402261,304.4533877765432,12.44235582983223,3
-1.5095066473582488,-0.5671863977681502,0.8610880436996933,-4.697393506399427,121.83892240219757,99.74949385003303,-122.94387944289454,-2.0438794428945486,0.11367233426327095,0.042576196094263,-1.3558646106012873,-1.5947870127988537,221.7764606129017,13.824738174925969,3
-4.504654693277596,1.198591142212531,16.72035221444687,0.15331491273476366,100.10860495766146,103.30753176758245,-121.68138122688961,-0.6713674114406871,0.9899861845510729,-4.0339917107306436,-12.504654693277596,8.27531767582455,284.16953043373803,10.96135359599176,3
-4.528491685971909,1.348947557668966,16.68276311058276,0.18998720918755269,100.2314571507783,103.31064891278093,-121.58603325611236,-0.6035236630030275,1.0174904068906647,-4.0504942441343985,-12.52849168597191,8.30648912780942,283.7771368616932,10.921014069893692,3
0.5768051860788236,-4.364638962784235,2.168144378540788,6.203412898004,34.92017686422447,104.30172297329086,-56.04713231220306,9.84599467953506,1.036498669883765,-0.004179188491647112,-2.1368700120641178,-3.2737636302551762,110.2372649603714,10.198096076844353,3
1.2542890826777917,-4.536192721785195,10.963407687397691,9.381903639107403,27.948589954727854,103.8735606372772,-53.59230291796449,11.016157353668381,1.0780845715203264,-2.2038190675870766,-9.275264480976034,0.3381317290094099,106.46568733857767,10.137132751966625,3
0.046101432874358306,-4.470779713425128,-15.88109026794308,0.7902346153184556,49.56760045266771,111.3653899284423,-46.60060550516358,2.203860633390759,-0.87403484165231,1.9594246983648744,5.027630656196163,-2.902271003012051,111.77630584466436,8.55291444191051,3
1.3305936375000136,-1.8599693874999232,15.96747051650009,8.064687874999954,39.97994009750044,102.8246942620001,-60.68045654249996,9.73476374499985,1.396225209999975,-2.8075495800000505,-9.97345534250011,-1.835037934999948,104.90794489749986,11.113881272499997,3
1.1461344536295843,0.1,-0.7493197501028801,2.328827730948105,83.17506302570385,100.86533613407396,-76.18473949677066,-5.719252101007457,2.5327184876000612,-0.9518697474813568,-2.9671302507106962,-1.0634915968741443,109.47705882459292,16.311571428829705,3
1.0680424119976857,0.1,-1.8820448139735695,2.254640291397801,83.42886216100752,100.67010602999422,-76.68452856321481,-5.805153346802546,2.638142743803124,-0.7371166329936355,-2.2525880697788234,-1.1845342614035874,110.02370311601621,16.444327899603934,3
1.2973269143221473,-0.5962576800510061,-18.143493628335023,-10.035311326595963,70.07645025038659,105.0926276026588,-39.50903530000808,0.06685373759462543,-0.9786153145771781,1.989307657288589,6.864180651916774,-3.6887730401530185,107.22512700537182,9.141700136574503,3
0.889748934734696,-0.025648508628574263,-8.002953496199234,-0.17192422057964096,81.7331804665877,100.91902909168329,-71.38163330374678,-4.98711320928977,2.2820085221224327,0.35899573893878367,1.4026357254449253,-1.976945525885723,111.05636001349386,15.499916618138743,3
0.8554344477619258,-1.8384326098060635,-19.048323612791798,-7.115059863544358,64.79223210235399,107.72070848059273,-40.79247006822782,0.1,-1.1270187292108784,2.158773411513598,6.93175468230272,-3.414207859275524,108.78773411513598,8.782453176972805,3
1.0158542976704465,-0.20219601673862497,-11.140454926040707,-3.2236740036248026,78.12656708662523,102.21034800814537,-61.52019392217109,-3.423406708886464,1.2731656186364289,0.8634171906817856,3.092447588783982,-2.506588050215875,109.87096960189781,13.532672956341035,3
1.2953257127498778,-0.5934559978498288,-18.09370373321696,-9.98688224854704,70.1336846153535,105.07213529855875,-39.66552926295956,0.04203883809848404,-0.962605701999022,1.981302850999511,6.8373645508483625,-3.6803679935494866,107.24393830015116,9.172918881101907,3
0.8496756894224541,0.030454034808564345,-7.005931152830657,0.7978483159766121,82.87927528251781,100.50867905968593,-74.51536108716411,-5.48402145116157,2.6025944846203677,0.19870275768981616,0.8656542382608841,-1.808637895574307,111.43304851942894,16.125059245009716,3
-6.398674374789616,-4.332449583193077,-20.278748265409973,-3.034570583529692,139.17295724570815,104.44599575088607,-118.16967141714353,-4.903446625547,0.0332449583193077,5.860392040670847,21.589394998316926,-4.432979833277231,184.66893251093998,14.928737832604,4
-7.765238230520064,-3.356814403268944,-12.553290296124807,-4.4004598354234785,119.60949028772659,102.61303491379496,-109.52357892968794,-2.533842098632981,-0.1929556790193168,2.9211329629420497,15.027257613075776,-2.048850411441304,206.74088641961364,11.913628806537886,4
-2.2822771451712813,-11.806665107788287,-18.29011362342681,-1.8815450386292574,120.33650579501544,79.11452383077854,-136.91259810903455,-9.72251962180691,-1.8088614274143593,5.594471126479785,6.8420346685356535,-0.6822771451712812,275.81421461993875,15.104064660436167,4
-5.085207470988143,-5.7582365099729556,-17.52299585004535,-3.135487552810485,127.04878631210319,92.71611204342668,-123.26675310176826,-6.993350620353651,-0.40739626450592875,3.971721990480549,15.177064321622636,-3.485207470988142,225.28770743087165,13.628838173164135,4
-7.257225993195981,-4.9048173287973205,-25.407163266023993,-2.2332557396837514,156.687410261198,117.83367732056932,-116.22362108208911,-2.6712124176904504,0.09048173287973205,9.924203034460973,28.457807945567843,-4.661926931518928,140.024248353809,17.905050109746064,4
-7.432922566661606,-3.471406011495998,-13.398976364840467,-4.240031583905603,121.28252776784157,101.55420845377698,-111.26537137473917,-3.1870142655271896,-0.15857819655120056,3.0242654103463984,15.485624045983993,-2.4499210402359934,207.42843606897597,12.142812022991995,4
-8.096891238075129,-3.242451297215473,-11.70929057345019,-4.560568183898338,117.9397889393459,103.66975001372903,-107.78525971767519,-1.881972394128196,-0.2272646108353581,2.818206167493926,14.569805188861892,-1.6485795402541554,206.05470778329283,11.684902594430945,4
-6.68353957228768,-4.522359714858453,-21.98034304513174,-2.768696399198166,144.98420727466865,108.88799373053922,-117.52397696948127,-4.162797112052034,0.052235971485845294,7.208753975495015,23.868316578301435,-4.508943885943381,169.85594224104068,15.916270517263953,4
-3.640878508950252,-8.87494637542314,-17.918285881760983,-2.4893403855830076,123.5899985345914,85.70731571185333,-130.29835462747906,-8.399670925495808,-1.129560745524874,4.807912442186696,10.882086092404698,-2.040878508950252,251.3236374044494,14.389011311078814,4
-5.889968924599898,-3.1124611557498723,-1.9988340552383583,2.2413393417752934,82.46257923164478,110.12525388309683,-85.51062460757294,3.4255344942253876,1.1066873836000681,4.434039775449582,12.108806709948817,-1.554101926249787,94.53463330762241,11.227352391849514,4
-4.876651285926576,-1.7944188098776261,12.451307755930069,4.471070095804201,37.04933948562937,104.02988116993707,-67.23817710538462,5.85432652543708,1.5602047907167857,0.8,1.7835535047902102,0.16020479071678573,71.66416787694057,7.0,4
-6.271807774347797,-3.5897597179347462,-8.133711574521275,1.1435526487500831,101.9681804729333,112.63743531539654,-93.19513145874942,1.9777288555979364,0.852128150434802,5.993215078586838,16.531773386195315,-2.349599529891244,104.16015431168404,13.041086928152035,4
-3.8612628771489126,-0.1021047952481875,13.696850870697334,1.7633676723971,37.455494849140436,102.05325840084988,-64.2597044396368,-1.9303179418583367,0.40943126076876757,0.8,1.648168383619855,-0.9905687392312323,68.07646216592616,7.0,4
-4.973332841183557,-1.9555547353059273,12.332711714814838,4.728887576489484,37.01066686352658,104.21808793083731,-67.52177633413842,6.595551782407266,1.6697772200080305,0.8,1.7964443788244742,0.26977722000803056,72.00577603884857,7.0,4
-5.084802130721192,-2.1060026634014894,10.93751243307952,4.556193874176573,41.33197551100754,104.82792735170317,-69.30664288076397,6.478458587682148,1.643465246185872,1.1462753671115329,2.782291347520471,0.12332889433085054,74.2377203785967,7.402810120925661,4
-10.002919689764934,1.5869990228503288,-15.51812136931558,-3.5067345792323428,164.52725473344196,134.7028548675512,-87.61167875905973,6.8,0.6616581775959571,4.85897257848853,21.62288933680445,-6.118840356679536,126.94332716515896,13.041261512168976,4
-7.14951669522806,-0.4588370864402591,0.34787603615643015,1.2309911475458626,91.79239726892658,117.34555061399107,-76.19806678091223,6.8,1.2538738934432327,2.5439475074491806,10.316952943356464,-2.4578704768963786,95.66356980995288,9.595642801784827,4
-6.074964548196613,-3.343705685245766,-4.971097074358912,1.7094769239347376,91.91277233704363,111.34237092334355,-89.23366153245684,2.7240927547545093,0.9833569678689248,5.189438571802835,14.251672683277434,-1.9395094754096103,99.19806465245628,12.10608160393391,4
-2.991317955094121,-1.5043723191694176,-18.348045436117232,8.339538652823627,108.06970673297886,99.68692685789482,-163.51742668324474,-5.239288279091803,0.6261087281505935,5.817426683244714,15.491067581362294,-3.1562142148728665,350.2785765581836,14.013116957508252,4
-2.3129036037583703,-7.345797834309156,-15.657414592644534,-2.481291532026785,113.12966540048383,87.72975879969849,-148.3174380256635,-5.982573690845987,-1.0909663057181929,5.316773513234933,13.11291532026785,-5.396782886442517,305.5426275867896,13.794836215194756,4
-3.038212940243936,-1.5887832924390852,-19.103992596732255,9.746388207318086,108.55741457853694,99.58469579026823,-163.63935364463424,-5.78327010682966,0.701140704390298,5.939353644634234,14.67509483975551,-2.096387550487041,351.36654021365933,14.266349877317255,4
-2.4198073458594465,-4.908392514404619,-14.310427442170974,-2.8233835067502286,109.73012640166961,92.49980377224851,-153.59848288545666,-4.015544836186185,-0.6847320857341034,5.124346777452996,16.533835067502288,-7.855568954767269,318.82007235574326,13.089271517327653,4
-2.386352964732811,-5.671152404091908,-14.731952644366581,-2.7163294871449954,110.79397572149661,91.00706928637803,-151.94583645780088,-4.631105448916277,-0.811858734015318,5.18456466348094,15.463294871449953,-7.086118188854654,314.66503821981513,13.310070432763448,4
-3.0169165793192647,-1.5504498427746765,-18.760695258626548,9.107497379577941,108.33593242492036,99.63112185708401,-163.5839831062301,-5.536232320103471,0.6670665269108236,5.8839831062300885,15.045651519844792,-2.577685307384616,350.87246464020694,14.15134952832403,4
-2.970060051313059,-1.158846110364178,-12.629853293911117,-3.4112139409488806,106.80348523722014,100.10602048527832,-157.6555775100836,-1.316766752188431,0.0,4.654218767664553,21.772944775402614,-11.136526546936196,326.554593120762,12.045781232335447,4
-2.165609877894549,-10.704094784004283,-17.513315538528683,-2.009951609262557,117.81360588295335,81.15751275165478,-141.04112796799072,-8.6927782467403,-1.650682464000714,5.5819022197898125,8.399516092625566,-2.0090271915746243,287.248746834503,14.766974805895977,4
-5.211441639672641,-3.3323070445310456,-16.202479704447907,-3.4791345951415953,123.7836487853988,97.47749116802026,-128.3138548988309,-5.052402732787734,0.0,3.7712502631592626,18.58067402834503,-5.906636174097172,237.8502187450767,12.928749736840736,4
-2.60832633949582,-6.862573435293895,-19.234654357512643,5.011572949243981,114.46090816739473,89.0166849241013,-151.01648482689131,-8.171690445714214,-0.5275188833612874,5.903330535798328,10.010782278319482,-0.6016652678991639,316.5636512208419,14.895004196302509,4
-2.902086527008836,-1.3437557486159046,-16.909634815382436,5.662595810265076,107.14169988089189,99.88145137112075,-163.28542497022298,-4.204203713302496,0.48333844321413744,5.585424970222973,17.043694430046255,-5.17284448960031,348.208407426605,13.531267245847713,4
-3.082201317523643,-1.667962371542557,-19.813085238481122,11.066039525709284,109.01489370224589,99.48880112779847,-163.75372342556147,-6.293535283274257,0.7715221080378285,6.053723425561471,13.909697075088614,-1.1022502239656724,352.3870705665485,14.503887114627672,4
-3.5807299074702192,-2.0948852811362513,-19.61927009252978,9.007492284714177,112.59944720282512,98.97270387758314,-156.15982825627688,-6.44849322419962,0.6626485978656518,5.653607943063368,14.28675701067174,-1.3180813096045672,328.3857882706196,14.35963504626489,4
-3.6293250839791287,-2.134802747554284,-19.570674916020874,8.7454254399697,112.94308452242385,98.92445580947786,-155.38751205818886,-6.443286598145093,0.648764261720249,5.608483850590809,14.356178691398755,-1.3805608222588792,325.9178475207743,14.335337458010436,4
-2.9971307651450965,-2.780126965976487,-19.91895014665537,10.221552252944292,110.30070081294747,97.26711483637895,-161.1253998937725,-6.849755398506672,0.5222530658917606,6.058852306058038,12.849054585559204,-0.6794261530290192,345.21853739119365,14.661721540912941,4
-2.645479396829666,-0.8818629142933986,-12.773127876894213,-2.035618095110026,104.47298572702853,100.44085491491134,-162.61824643175714,-1.2275610032241238,0.07276703492746539,4.918246431757131,21.508658495163814,-10.972165631649553,342.25512200644823,12.145588742880197,4
-2.5176713227301315,-7.814451111333618,-19.075101528005032,3.796795724583763,115.4309168467876,87.0929854683334,-148.65945439098343,-8.479917502717553,-0.7722874286286447,5.867068529092053,9.34900065592996,-0.5835342645460263,309.8823764852107,14.94939720636192,4
-2.65058437987453,-0.891051883774154,-12.855420203577422,-1.8824686037641012,104.5260775506951,100.42972605187353,-162.6315193876738,-1.2867788065445476,0.0809350077992479,4.931519387673777,21.41983179018318,-10.856793014835622,342.3735576130891,12.173155651322462,4
-3.7530083009485087,-8.632982087426903,-17.88759772816146,-2.539503713582228,123.85851987858722,86.25144028144487,-129.75245958748752,-8.290491917497505,-1.0734958495257456,4.7429951941877055,11.215524684399512,-2.1530083009485086,249.30235036448084,14.329995631079731,4
-2.3977975631999815,-11.557384205726356,-18.25849750901895,-1.933225225642097,120.61314679608417,79.6751018593178,-136.35019607389484,-9.610039214778967,-1.7511012184000094,5.527590884463169,7.185555911620996,-0.7977975631999812,273.7318070844214,15.043264440421062,4
-2.953888571221425,-10.357398346311662,-18.10630418050782,-2.1820027818622165,121.94483842055658,82.37360664561133,-133.64291090326412,-9.068582180652824,-1.4730557143892875,5.205643458766544,8.839194961790026,-1.3538885712214248,263.70753496614014,14.750584962515038,4
-2.797626042051814,-4.874926558455951,-19.567821834011195,7.548188963494309,112.4354013500456,93.0336246123395,-155.93827709334718,-7.528071457023833,-0.01640968646010177,5.9790504168207255,11.392670106978244,-0.6395252084103628,330.5150392992187,14.78142437476891,4
-2.349995079684332,-6.500112183197236,-15.19006199597742,-2.5999842549898617,111.95015646603825,89.38478045551489,-150.149756936406,-5.300090533808295,-0.9500186971995392,5.250008856568202,14.299842549898617,-6.24988683273963,310.149388896794,13.55003247408341,4
-4.016258800391951,-8.064915220206846,-17.815550223050625,-2.6572736738595566,124.48893554830704,87.52889796821778,-128.4708453138813,-8.03416906277626,-0.941870599804025,4.590587010299398,11.99834853800764,-2.41625880039195,244.5569137297767,14.191442736635816,4
-2.8462474511531277,-4.364401762892158,-19.653395514029505,8.19971584545191,111.91515227266154,94.06537091346938,-157.20243372998132,-7.362758666079365,0.11486811811344522,5.9984989804612505,11.747606393417833,-0.6492494902306255,334.09843714998556,14.752251529308122,4
-5.4332721492428995,-5.007149572686376,-17.4277360433651,-3.2912006983455075,127.88230962055536,94.40514169264186,-121.57222769447536,-6.654445538895072,-0.23336392537855044,3.7702108609646374,16.212098759590727,-3.833272149242899,219.01338362548984,13.44564623724058,4
-2.210537922571745,-9.679735365364213,-16.947222175596014,-2.153721352229584,116.3848940622185,83.16220210515127,-143.2605733750442,-7.866102224679892,-1.479955894227369,5.501031739370859,9.83721352229584,-3.042372219150135,292.82880998341074,14.470449711026482,4
-2.243689746989631,-8.92387376863642,-16.529509187930653,-2.259807190366818,115.33066604572974,84.64143651067732,-144.89827350128778,-7.256108655390796,-1.3539789614394033,5.441358455418665,10.898071903668182,-3.804864180761505,296.9462665761121,14.251647669868436,4
-2.596632210657378,-0.876785597011791,-12.082434145717041,-3.389223074103608,104.10709570109539,100.38972923953219,-162.33363120647445,-0.7619673239042513,-0.012797599501965129,4.80606202081672,22.192230741036084,-11.922540845119686,340.7817205636463,11.922227409661307,4
-5.374024024831771,-5.135000788520917,-17.443951319519726,-3.264694958477371,127.7404259542024,94.11763237313102,-121.86067251068744,-6.712134502137487,-0.2629879875841148,3.8045124066763436,16.035913547526054,-3.7740240248317702,220.08140902605888,13.476829460614857,4
-2.1544225994383073,-10.9591647328066,-17.654275247077333,-1.9741523182025822,118.16936133786184,80.65833638693726,-140.48847641225237,-8.898624170335152,-1.6931941221344335,5.6020393210110475,8.041523182025824,-1.7517197870810601,285.85928685023777,14.840810843707173,4
-4.048712578102323,-0.41452096350387313,13.46691257086115,2.263233541606197,37.38051496875907,102.41816048537252,-64.80955689576682,-0.4932035678821842,0.6218742551826337,0.8,1.67316167708031,-0.7781257448173662,68.7387844426282,7.0,4
-5.705398761689867,-2.610177740844685,-8.705669223659143,-0.8399118997181068,106.58939716055482,111.93025918749164,-93.0011576259118,-3.342831531267774,0.056548686197176096,6.341771247323256,17.433632135209304,-3.266106644506811,104.00903551774186,13.446550226478074,4
-6.258628002760923,1.0273847652337058,1.4381407696405155,-1.1472668254782983,92.16403917225648,115.61372949662854,-73.5854230692176,-0.03467323062491001,0.2434083531847873,2.5444265311576424,10.200428479195818,-3.468971002070692,92.52014931985919,9.596355767304399,4
-3.625854869682228,0.3225123632686528,12.836272632009742,0.7064156097234715,41.53699848749534,101.95378066968063,-64.90065426468037,-4.622550849426322,0.0032270479405699494,1.116250698175855,2.503573423359586,-1.5064925820388082,68.92339754489502,7.367883465224974,4
-4.160558383230409,-0.43155669429929444,7.297292645510637,0.30881556118764475,58.26362121900253,104.51898650006177,-72.12600687083142,-4.293502533396672,0.016937394441805354,2.4598646552969248,6.3424704437054995,-1.9589340165795766,77.94480554270793,8.93086296636581,4
-6.42870941672745,1.059900329668483,0.6550159062152243,-1.267324294160553,95.52814949262384,116.49315045472605,-74.22572956885628,0.2529644547596588,0.2584155367700691,2.651978013518829,10.730682299209109,-3.5965320625455877,94.10590838537064,9.756432392214071,4
-6.543694105393968,-3.7923891229914917,-17.38954919433751,-1.463259719395514,132.81299509181127,115.95192736203106,-104.32889214211849,-2.826957473603713,0.0780434385998453,8.448256982784839,23.452162807956686,-3.975433473794895,118.1525825986982,15.896952000382363,4
-5.165969762452878,-1.8494445367925199,-3.1177380520759677,-0.4387980284906017,89.71495154339772,109.34238314243419,-85.71195037981197,-3.674787838490537,0.04271717339622764,4.986282992830308,13.560808550943738,-2.8096667220755123,94.90790009471777,11.86975776716995,4
-4.684896377173742,-1.4748272952895707,12.686527110666876,3.959723672463313,37.126041449130504,103.65659828089821,-66.67569603970963,4.384205558332025,1.342882560796908,0.8,1.7579861836231658,-0.05711743920309198,70.98663386601389,7.0,4
-8.259423653662036,-3.7722519233399474,-16.229298213687372,-3.8188473073240736,131.85289346748283,111.37368235763013,-108.65628634770569,-1.1950267310059528,-0.14554961533201044,5.689007693359791,19.77801538671958,-2.3058912505128983,176.79893075976187,13.980106924023811,4
-2.240027525341314,-12.007723398038792,-18.1640251099442,-1.8647888550086678,119.78505203143624,78.80850177633546,-137.09568244716385,-9.703543471909201,-1.866560590963268,5.635211144991333,6.452567303730089,-0.5062698891943872,277.5429775167272,15.11640147740817,4
-8.492832447067986,-3.4388107899028784,-13.50508415350652,-4.28566489413597,124.31712385180506,109.01458633856286,-106.68898366042698,-0.8949297109125907,-0.21223784201942425,4.355243159611515,17.11048631922303,-1.6556810403106135,188.80281156349636,12.779718843650361,4
-8.177869708448954,-3.8542684600402435,-10.701841351471614,-4.612148671073396,114.91070397067624,103.33976619848761,-107.22922251123437,-1.372839513519379,-0.44856842783308576,2.8878513289266037,12.922156548011547,-0.7721434197812964,211.51771742097804,11.571421069582714,4
-2.264641292178136,-11.973925389844947,-18.133092585053745,-1.8761773142913767,119.76484670045079,78.91018969664043,-136.9718788736712,-9.669010724406794,-1.8606826764947733,5.623822685708623,6.479385288492597,-0.50737199815723,277.26928712428787,15.101706691236933,4
-6.868094663676179,-5.65276553644465,-12.347857154006952,-4.006133351850172,115.98589244026583,97.92863586426218,-113.81719549762877,-3.2104343524543166,-0.7613505280773305,3.4938666481498277,11.49508821564718,-0.7134967759855005,226.0816339636007,12.353376320193325,4
-6.317072611422472,-6.409392832076605,-13.040335613704894,-3.751182850061144,116.43822397569798,95.65217460957821,-116.58875417836757,-3.9835100675565323,-0.8929378838394098,3.7488171499388567,10.894720904982693,-0.6888241467801107,232.2086702162725,12.682344709598524,4
-2.1074870066796008,-12.189719334111592,-18.330590955784743,-1.8034641374189198,119.89385394974063,78.26093139475991,-137.76234147386532,-9.889495841374888,-1.898212058106364,5.69653586258108,6.308157484889714,-0.5003352391050567,279.0167489555776,15.19553014526591,4
-7.286424471358389,-3.5219225960833143,-13.77178875909486,-4.16930836548336,122.02006990281639,101.08743521219017,-112.03322346046637,-3.474958797674893,-0.14342322117500564,3.069730336474983,15.687690384333258,-2.6267290862916006,207.73153557649988,12.243845192166628,4
